Logging started at 2016-05-24 16:28:23
File name: C:\Users\riley\Desktop\os\server\.\data\logs\err\1464125303113 - riley - [Tue May 24][4.28PM].txt
System.getProperty("os.name"): "Windows 10"

[2016-05-24 16:30:42] java.lang.ClassCastException: com.mayhem.rs2.entity.mob.Mob cannot be cast to com.mayhem.rs2.entity.player.Player
[2016-05-24 16:30:42] 	at com.mayhem.rs2.entity.mob.drop.NpcDropSystem.drop(NpcDropSystem.java:216)
[2016-05-24 16:30:42] 	at com.mayhem.core.task.impl.MobDeathTask$2.execute(MobDeathTask.java:52)
[2016-05-24 16:30:42] 	at com.mayhem.core.task.Task.run(Task.java:183)
[2016-05-24 16:30:42] 	at com.mayhem.core.task.TaskQueue.process(TaskQueue.java:78)
[2016-05-24 16:30:42] 	at com.mayhem.core.GameThread.cycle(GameThread.java:116)
[2016-05-24 16:30:42] 	at com.mayhem.core.GameThread.run(GameThread.java:139)
[2016-05-24 16:35:55] java.lang.ClassCastException: com.mayhem.rs2.entity.mob.Mob cannot be cast to com.mayhem.rs2.entity.player.Player
[2016-05-24 16:35:55] 	at com.mayhem.rs2.entity.mob.drop.NpcDropSystem.drop(NpcDropSystem.java:216)
[2016-05-24 16:35:55] 	at com.mayhem.core.task.impl.MobDeathTask$2.execute(MobDeathTask.java:52)
[2016-05-24 16:35:55] 	at com.mayhem.core.task.Task.run(Task.java:183)
[2016-05-24 16:35:55] 	at com.mayhem.core.task.TaskQueue.process(TaskQueue.java:78)
[2016-05-24 16:35:55] 	at com.mayhem.core.GameThread.cycle(GameThread.java:116)
[2016-05-24 16:35:55] 	at com.mayhem.core.GameThread.run(GameThread.java:139)
