Logging started at 2016-06-15 18:02:59
File name: C:\Users\riley\Desktop\os\currentserver\.\data\logs\err\1466031779425 - riley - [Wed Jun 15][6.02PM].txt
System.getProperty("os.name"): "Windows 10"

