Logging started at 2017-01-26 00:28:20
File name: C:\Users\travi\Dropbox\Mayhem Source\.\data\logs\err\1485408500583 - travi - [Thu Jan 26][12.28AM].txt
System.getProperty("os.name"): "Windows 10"

