Logging started at 2017-02-01 03:37:57
File name: C:\Users\travi\Dropbox\Valius Source\.\data\logs\err\1485938277244 - travi - [Wed Feb 1][3.37AM].txt
System.getProperty("os.name"): "Windows 10"

