Logging started at 2017-01-30 01:51:03
File name: C:\Users\travi\Dropbox\Valius Source\.\data\logs\err\1485759063580 - travi - [Mon Jan 30][1.51AM].txt
System.getProperty("os.name"): "Windows 10"

