Logging started at 2017-01-26 00:16:37
File name: C:\Users\travi\Dropbox\Mayhem Source\.\data\logs\err\1485407797335 - travi - [Thu Jan 26][12.16AM].txt
System.getProperty("os.name"): "Windows 10"

