Logging started at 2017-01-28 02:49:26
File name: C:\Users\travi\Dropbox\Mayhem Source\.\data\logs\err\1485589765722 - travi - [Sat Jan 28][2.49AM].txt
System.getProperty("os.name"): "Windows 10"

