Logging started at 2017-01-28 23:15:11
File name: C:\Users\travi\Dropbox\Mayhem Source\.\data\logs\err\1485663311706 - travi - [Sat Jan 28][11.15PM].txt
System.getProperty("os.name"): "Windows 10"

