Logging started at 2017-02-12 00:13:16
File name: C:\Users\travi\Dropbox\Valius\Valius Source\.\data\logs\err\1486876395895 - travi - [Sun Feb 12][12.13AM].txt
System.getProperty("os.name"): "Windows 10"

