Logging started at 2017-02-06 01:06:32
File name: C:\Users\travi\Dropbox\Valius\Valius Source\.\data\logs\err\1486361192618 - travi - [Mon Feb 6][1.06AM].txt
System.getProperty("os.name"): "Windows 10"

