Logging started at 2017-02-07 03:11:45
File name: C:\Users\travi\Dropbox\Valius\Valius Source\.\data\logs\err\1486455105694 - travi - [Tue Feb 7][3.11AM].txt
System.getProperty("os.name"): "Windows 10"

