Logging started at 2017-02-06 02:06:58
File name: C:\Users\travi\Dropbox\Valius\Valius Source\.\data\logs\err\1486364817967 - travi - [Mon Feb 6][2.06AM].txt
System.getProperty("os.name"): "Windows 10"

