Logging started at 2017-02-09 02:48:57
File name: C:\Users\travi\Dropbox\Valius\Valius Source\.\data\logs\err\1486626537808 - travi - [Thu Feb 9][2.48AM].txt
System.getProperty("os.name"): "Windows 10"

