Logging started at 2017-02-11 00:25:25
File name: C:\Users\travi\Dropbox\Valius\Valius Source\.\data\logs\err\1486790725366 - travi - [Sat Feb 11][12.25AM].txt
System.getProperty("os.name"): "Windows 10"

