Logging started at 2017-02-05 23:34:58
File name: C:\Users\travi\Dropbox\Valius\Valius Source\.\data\logs\err\1486355698517 - travi - [Sun Feb 5][11.34PM].txt
System.getProperty("os.name"): "Windows 10"

