Logging started at 2017-02-18 00:14:57
File name: C:\Users\travi\Dropbox\Valius\Valius Source\.\data\logs\err\1487394897610 - travi - [Sat Feb 18][12.14AM].txt
System.getProperty("os.name"): "Windows 10"

