Logging started at 2017-02-26 08:54:54
File name: C:\Users\Administrator\Dropbox\Valius\Valius Source\.\data\logs\err\1488095694621 - Administrator - [Sun Feb 26][8.54AM].txt
System.getProperty("os.name"): "Windows Server 2012 R2"

[2017-02-26 09:37:03] java.lang.IndexOutOfBoundsException: Readable byte limit exceeded: 12
[2017-02-26 09:37:03] 	at org.jboss.netty.buffer.AbstractChannelBuffer.readByte(AbstractChannelBuffer.java:236)
[2017-02-26 09:37:03] 	at com.mayhem.core.network.StreamBuffer$InBuffer.readByte(StreamBuffer.java:120)
[2017-02-26 09:37:03] 	at com.mayhem.core.network.StreamBuffer$InBuffer.readByte(StreamBuffer.java:107)
[2017-02-26 09:37:03] 	at com.mayhem.core.network.StreamBuffer$InBuffer.readShort(StreamBuffer.java:467)
[2017-02-26 09:37:03] 	at com.mayhem.core.network.StreamBuffer$InBuffer.readShort(StreamBuffer.java:412)
[2017-02-26 09:37:03] 	at com.mayhem.rs2.entity.player.net.in.impl.ItemPackets.handle(ItemPackets.java:852)
[2017-02-26 09:37:03] 	at com.mayhem.rs2.entity.player.net.in.PacketHandler.handlePacket(PacketHandler.java:149)
[2017-02-26 09:37:03] 	at com.mayhem.rs2.entity.player.net.Client.processIncomingPackets(Client.java:211)
[2017-02-26 09:37:03] 	at com.mayhem.rs2.entity.World.process(World.java:320)
[2017-02-26 09:37:03] 	at com.mayhem.core.GameThread.cycle(GameThread.java:135)
[2017-02-26 09:37:03] 	at com.mayhem.core.GameThread.run(GameThread.java:150)
[2017-02-26 09:39:20] Didn't save hiscores for [EXTREME]Mod divine
[2017-02-26 10:01:11] java.lang.NullPointerException
[2017-02-26 10:01:11] 	at com.mayhem.rs2.content.DropTable.displayNpc(DropTable.java:177)
[2017-02-26 10:01:11] 	at com.mayhem.rs2.entity.player.net.in.impl.ClickButtonPacket.handle(ClickButtonPacket.java:134)
[2017-02-26 10:01:11] 	at com.mayhem.rs2.entity.player.net.in.PacketHandler.handlePacket(PacketHandler.java:149)
[2017-02-26 10:01:11] 	at com.mayhem.rs2.entity.player.net.Client.processIncomingPackets(Client.java:211)
[2017-02-26 10:01:11] 	at com.mayhem.rs2.entity.World.process(World.java:320)
[2017-02-26 10:01:11] 	at com.mayhem.core.GameThread.cycle(GameThread.java:135)
[2017-02-26 10:01:11] 	at com.mayhem.core.GameThread.run(GameThread.java:150)
[2017-02-26 10:01:13] java.lang.NullPointerException
[2017-02-26 10:01:13] 	at com.mayhem.rs2.content.DropTable.displayNpc(DropTable.java:177)
[2017-02-26 10:01:13] 	at com.mayhem.rs2.entity.player.net.in.impl.ClickButtonPacket.handle(ClickButtonPacket.java:134)
[2017-02-26 10:01:13] 	at com.mayhem.rs2.entity.player.net.in.PacketHandler.handlePacket(PacketHandler.java:149)
[2017-02-26 10:01:13] 	at com.mayhem.rs2.entity.player.net.Client.processIncomingPackets(Client.java:211)
[2017-02-26 10:01:13] 	at com.mayhem.rs2.entity.World.process(World.java:320)
[2017-02-26 10:01:13] 	at com.mayhem.core.GameThread.cycle(GameThread.java:135)
[2017-02-26 10:01:13] 	at com.mayhem.core.GameThread.run(GameThread.java:150)
[2017-02-26 10:01:15] java.lang.NullPointerException
[2017-02-26 10:01:15] 	at com.mayhem.rs2.content.DropTable.displayNpc(DropTable.java:177)
[2017-02-26 10:01:15] 	at com.mayhem.rs2.entity.player.net.in.impl.ClickButtonPacket.handle(ClickButtonPacket.java:134)
[2017-02-26 10:01:15] 	at com.mayhem.rs2.entity.player.net.in.PacketHandler.handlePacket(PacketHandler.java:149)
[2017-02-26 10:01:15] 	at com.mayhem.rs2.entity.player.net.Client.processIncomingPackets(Client.java:211)
[2017-02-26 10:01:15] 	at com.mayhem.rs2.entity.World.process(World.java:320)
[2017-02-26 10:01:15] 	at com.mayhem.core.GameThread.cycle(GameThread.java:135)
[2017-02-26 10:01:15] 	at com.mayhem.core.GameThread.run(GameThread.java:150)
[2017-02-26 10:01:18] java.lang.NullPointerException
[2017-02-26 10:01:18] 	at com.mayhem.rs2.content.DropTable.displayNpc(DropTable.java:177)
[2017-02-26 10:01:18] 	at com.mayhem.rs2.entity.player.net.in.impl.ClickButtonPacket.handle(ClickButtonPacket.java:134)
[2017-02-26 10:01:18] 	at com.mayhem.rs2.entity.player.net.in.PacketHandler.handlePacket(PacketHandler.java:149)
[2017-02-26 10:01:18] 	at com.mayhem.rs2.entity.player.net.Client.processIncomingPackets(Client.java:211)
[2017-02-26 10:01:18] 	at com.mayhem.rs2.entity.World.process(World.java:320)
[2017-02-26 10:01:18] 	at com.mayhem.core.GameThread.cycle(GameThread.java:135)
[2017-02-26 10:01:18] 	at com.mayhem.core.GameThread.run(GameThread.java:150)
[2017-02-26 10:01:19] java.lang.NullPointerException
[2017-02-26 10:01:19] 	at com.mayhem.rs2.content.DropTable.displayNpc(DropTable.java:177)
[2017-02-26 10:01:19] 	at com.mayhem.rs2.entity.player.net.in.impl.ClickButtonPacket.handle(ClickButtonPacket.java:134)
[2017-02-26 10:01:19] 	at com.mayhem.rs2.entity.player.net.in.PacketHandler.handlePacket(PacketHandler.java:149)
[2017-02-26 10:01:19] 	at com.mayhem.rs2.entity.player.net.Client.processIncomingPackets(Client.java:211)
[2017-02-26 10:01:19] 	at com.mayhem.rs2.entity.World.process(World.java:320)
[2017-02-26 10:01:19] 	at com.mayhem.core.GameThread.cycle(GameThread.java:135)
[2017-02-26 10:01:19] 	at com.mayhem.core.GameThread.run(GameThread.java:150)
[2017-02-26 10:12:26] java.lang.NullPointerException
[2017-02-26 10:12:26] 	at com.mayhem.rs2.content.DropTable.displayNpc(DropTable.java:177)
[2017-02-26 10:12:26] 	at com.mayhem.rs2.entity.player.net.in.impl.ClickButtonPacket.handle(ClickButtonPacket.java:134)
[2017-02-26 10:12:26] 	at com.mayhem.rs2.entity.player.net.in.PacketHandler.handlePacket(PacketHandler.java:149)
[2017-02-26 10:12:26] 	at com.mayhem.rs2.entity.player.net.Client.processIncomingPackets(Client.java:211)
[2017-02-26 10:12:26] 	at com.mayhem.rs2.entity.World.process(World.java:320)
[2017-02-26 10:12:26] 	at com.mayhem.core.GameThread.cycle(GameThread.java:135)
[2017-02-26 10:12:26] 	at com.mayhem.core.GameThread.run(GameThread.java:150)
[2017-02-26 10:12:29] java.lang.NullPointerException
[2017-02-26 10:12:29] 	at com.mayhem.rs2.content.DropTable.displayNpc(DropTable.java:177)
[2017-02-26 10:12:29] 	at com.mayhem.rs2.entity.player.net.in.impl.ClickButtonPacket.handle(ClickButtonPacket.java:134)
[2017-02-26 10:12:29] 	at com.mayhem.rs2.entity.player.net.in.PacketHandler.handlePacket(PacketHandler.java:149)
[2017-02-26 10:12:29] 	at com.mayhem.rs2.entity.player.net.Client.processIncomingPackets(Client.java:211)
[2017-02-26 10:12:29] 	at com.mayhem.rs2.entity.World.process(World.java:320)
[2017-02-26 10:12:29] 	at com.mayhem.core.GameThread.cycle(GameThread.java:135)
[2017-02-26 10:12:29] 	at com.mayhem.core.GameThread.run(GameThread.java:150)
[2017-02-26 10:12:30] java.lang.NullPointerException
[2017-02-26 10:12:30] 	at com.mayhem.rs2.content.DropTable.displayNpc(DropTable.java:177)
[2017-02-26 10:12:30] 	at com.mayhem.rs2.entity.player.net.in.impl.ClickButtonPacket.handle(ClickButtonPacket.java:134)
[2017-02-26 10:12:30] 	at com.mayhem.rs2.entity.player.net.in.PacketHandler.handlePacket(PacketHandler.java:149)
[2017-02-26 10:12:30] 	at com.mayhem.rs2.entity.player.net.Client.processIncomingPackets(Client.java:211)
[2017-02-26 10:12:30] 	at com.mayhem.rs2.entity.World.process(World.java:320)
[2017-02-26 10:12:30] 	at com.mayhem.core.GameThread.cycle(GameThread.java:135)
[2017-02-26 10:12:30] 	at com.mayhem.core.GameThread.run(GameThread.java:150)
[2017-02-26 10:12:33] java.lang.NullPointerException
[2017-02-26 10:12:33] 	at com.mayhem.rs2.content.DropTable.displayNpc(DropTable.java:177)
[2017-02-26 10:12:33] 	at com.mayhem.rs2.entity.player.net.in.impl.ClickButtonPacket.handle(ClickButtonPacket.java:134)
[2017-02-26 10:12:33] 	at com.mayhem.rs2.entity.player.net.in.PacketHandler.handlePacket(PacketHandler.java:149)
[2017-02-26 10:12:33] 	at com.mayhem.rs2.entity.player.net.Client.processIncomingPackets(Client.java:211)
[2017-02-26 10:12:33] 	at com.mayhem.rs2.entity.World.process(World.java:320)
[2017-02-26 10:12:33] 	at com.mayhem.core.GameThread.cycle(GameThread.java:135)
[2017-02-26 10:12:33] 	at com.mayhem.core.GameThread.run(GameThread.java:150)
[2017-02-26 10:36:06] Didn't save hiscores for [EXTREME]Mod divine
[2017-02-26 12:03:21] java.lang.NullPointerException
[2017-02-26 12:03:21] 	at com.mayhem.rs2.content.DropTable.displayNpc(DropTable.java:177)
[2017-02-26 12:03:21] 	at com.mayhem.rs2.entity.player.net.in.impl.ClickButtonPacket.handle(ClickButtonPacket.java:134)
[2017-02-26 12:03:21] 	at com.mayhem.rs2.entity.player.net.in.PacketHandler.handlePacket(PacketHandler.java:149)
[2017-02-26 12:03:21] 	at com.mayhem.rs2.entity.player.net.Client.processIncomingPackets(Client.java:211)
[2017-02-26 12:03:21] 	at com.mayhem.rs2.entity.World.process(World.java:320)
[2017-02-26 12:03:21] 	at com.mayhem.core.GameThread.cycle(GameThread.java:135)
[2017-02-26 12:03:21] 	at com.mayhem.core.GameThread.run(GameThread.java:150)
[2017-02-26 13:05:05] Didn't save hiscores for [EXTREME]Mod andy
[2017-02-26 13:30:36] Didn't save hiscores for [NORMAL] Mod tex
[2017-02-26 13:46:22] Didn't save hiscores for [NORMAL] Mod tex
[2017-02-26 13:52:36] Didn't save hiscores for [NORMAL] Mod tex
[2017-02-26 16:28:40] Didn't save hiscores for [NORMAL] Mod tex
[2017-02-26 17:08:39] java.lang.NumberFormatException: For input string: "600000l"
[2017-02-26 17:08:39] 	at java.lang.NumberFormatException.forInputString(Unknown Source)
[2017-02-26 17:08:39] 	at java.lang.Long.parseLong(Unknown Source)
[2017-02-26 17:08:39] 	at java.lang.Long.parseLong(Unknown Source)
[2017-02-26 17:08:39] 	at com.mayhem.rs2.entity.player.net.in.command.impl.PlayerCommand.handleCommand(PlayerCommand.java:240)
[2017-02-26 17:08:39] 	at com.mayhem.rs2.entity.player.net.in.impl.CommandPacket.handle(CommandPacket.java:57)
[2017-02-26 17:08:39] 	at com.mayhem.rs2.entity.player.net.in.PacketHandler.handlePacket(PacketHandler.java:149)
[2017-02-26 17:08:39] 	at com.mayhem.rs2.entity.player.net.Client.processIncomingPackets(Client.java:211)
[2017-02-26 17:08:39] 	at com.mayhem.rs2.entity.World.process(World.java:320)
[2017-02-26 17:08:39] 	at com.mayhem.core.GameThread.cycle(GameThread.java:135)
[2017-02-26 17:08:39] 	at com.mayhem.core.GameThread.run(GameThread.java:150)
[2017-02-26 17:25:40] java.lang.IllegalStateException: unprepared
[2017-02-26 17:25:40] 	at com.mayhem.core.network.mysql.MembershipRewards.collectReward(MembershipRewards.java:38)
[2017-02-26 17:25:40] 	at com.mayhem.rs2.content.dialogue.impl.MembershipDialogue.execute(MembershipDialogue.java:70)
[2017-02-26 17:25:40] 	at com.mayhem.rs2.entity.player.net.in.impl.ChatInterfacePacket.handleDialogue(ChatInterfacePacket.java:47)
[2017-02-26 17:25:40] 	at com.mayhem.rs2.entity.player.net.in.impl.ChatInterfacePacket.handle(ChatInterfacePacket.java:33)
[2017-02-26 17:25:40] 	at com.mayhem.rs2.entity.player.net.in.PacketHandler.handlePacket(PacketHandler.java:149)
[2017-02-26 17:25:40] 	at com.mayhem.rs2.entity.player.net.Client.processIncomingPackets(Client.java:211)
[2017-02-26 17:25:40] 	at com.mayhem.rs2.entity.World.process(World.java:320)
[2017-02-26 17:25:40] 	at com.mayhem.core.GameThread.cycle(GameThread.java:135)
[2017-02-26 17:25:40] 	at com.mayhem.core.GameThread.run(GameThread.java:150)
[2017-02-26 18:07:37] java.lang.IndexOutOfBoundsException: Readable byte limit exceeded: 12
[2017-02-26 18:07:37] 	at org.jboss.netty.buffer.AbstractChannelBuffer.readByte(AbstractChannelBuffer.java:236)
[2017-02-26 18:07:37] 	at com.mayhem.core.network.StreamBuffer$InBuffer.readByte(StreamBuffer.java:120)
[2017-02-26 18:07:37] 	at com.mayhem.core.network.StreamBuffer$InBuffer.readByte(StreamBuffer.java:107)
[2017-02-26 18:07:37] 	at com.mayhem.core.network.StreamBuffer$InBuffer.readShort(StreamBuffer.java:467)
[2017-02-26 18:07:37] 	at com.mayhem.core.network.StreamBuffer$InBuffer.readShort(StreamBuffer.java:412)
[2017-02-26 18:07:37] 	at com.mayhem.rs2.entity.player.net.in.impl.ItemPackets.handle(ItemPackets.java:852)
[2017-02-26 18:07:37] 	at com.mayhem.rs2.entity.player.net.in.PacketHandler.handlePacket(PacketHandler.java:149)
[2017-02-26 18:07:37] 	at com.mayhem.rs2.entity.player.net.Client.processIncomingPackets(Client.java:211)
[2017-02-26 18:07:37] 	at com.mayhem.rs2.entity.World.process(World.java:320)
[2017-02-26 18:07:37] 	at com.mayhem.core.GameThread.cycle(GameThread.java:135)
[2017-02-26 18:07:37] 	at com.mayhem.core.GameThread.run(GameThread.java:150)
[2017-02-26 18:36:03] Didn't save hiscores for [EXTREME]Mod divine
[2017-02-26 19:23:11] java.lang.NullPointerException
[2017-02-26 19:23:11] 	at com.mayhem.rs2.content.DropTable.displayNpc(DropTable.java:177)
[2017-02-26 19:23:11] 	at com.mayhem.rs2.entity.player.net.in.impl.ClickButtonPacket.handle(ClickButtonPacket.java:134)
[2017-02-26 19:23:11] 	at com.mayhem.rs2.entity.player.net.in.PacketHandler.handlePacket(PacketHandler.java:149)
[2017-02-26 19:23:11] 	at com.mayhem.rs2.entity.player.net.Client.processIncomingPackets(Client.java:211)
[2017-02-26 19:23:11] 	at com.mayhem.rs2.entity.World.process(World.java:320)
[2017-02-26 19:23:11] 	at com.mayhem.core.GameThread.cycle(GameThread.java:135)
[2017-02-26 19:23:11] 	at com.mayhem.core.GameThread.run(GameThread.java:150)
[2017-02-26 19:23:14] java.lang.NullPointerException
[2017-02-26 19:23:14] 	at com.mayhem.rs2.content.DropTable.displayNpc(DropTable.java:177)
[2017-02-26 19:23:14] 	at com.mayhem.rs2.entity.player.net.in.impl.ClickButtonPacket.handle(ClickButtonPacket.java:134)
[2017-02-26 19:23:14] 	at com.mayhem.rs2.entity.player.net.in.PacketHandler.handlePacket(PacketHandler.java:149)
[2017-02-26 19:23:14] 	at com.mayhem.rs2.entity.player.net.Client.processIncomingPackets(Client.java:211)
[2017-02-26 19:23:14] 	at com.mayhem.rs2.entity.World.process(World.java:320)
[2017-02-26 19:23:14] 	at com.mayhem.core.GameThread.cycle(GameThread.java:135)
[2017-02-26 19:23:14] 	at com.mayhem.core.GameThread.run(GameThread.java:150)
[2017-02-26 19:23:15] java.lang.NullPointerException
[2017-02-26 19:23:15] 	at com.mayhem.rs2.content.DropTable.displayNpc(DropTable.java:177)
[2017-02-26 19:23:15] 	at com.mayhem.rs2.entity.player.net.in.impl.ClickButtonPacket.handle(ClickButtonPacket.java:134)
[2017-02-26 19:23:15] 	at com.mayhem.rs2.entity.player.net.in.PacketHandler.handlePacket(PacketHandler.java:149)
[2017-02-26 19:23:15] 	at com.mayhem.rs2.entity.player.net.Client.processIncomingPackets(Client.java:211)
[2017-02-26 19:23:15] 	at com.mayhem.rs2.entity.World.process(World.java:320)
[2017-02-26 19:23:15] 	at com.mayhem.core.GameThread.cycle(GameThread.java:135)
[2017-02-26 19:23:15] 	at com.mayhem.core.GameThread.run(GameThread.java:150)
[2017-02-26 19:23:17] java.lang.NullPointerException
[2017-02-26 19:23:17] 	at com.mayhem.rs2.content.DropTable.displayNpc(DropTable.java:177)
[2017-02-26 19:23:17] 	at com.mayhem.rs2.entity.player.net.in.impl.ClickButtonPacket.handle(ClickButtonPacket.java:134)
[2017-02-26 19:23:17] 	at com.mayhem.rs2.entity.player.net.in.PacketHandler.handlePacket(PacketHandler.java:149)
[2017-02-26 19:23:17] 	at com.mayhem.rs2.entity.player.net.Client.processIncomingPackets(Client.java:211)
[2017-02-26 19:23:17] 	at com.mayhem.rs2.entity.World.process(World.java:320)
[2017-02-26 19:23:17] 	at com.mayhem.core.GameThread.cycle(GameThread.java:135)
[2017-02-26 19:23:17] 	at com.mayhem.core.GameThread.run(GameThread.java:150)
[2017-02-26 19:23:17] java.lang.NullPointerException
[2017-02-26 19:23:17] 	at com.mayhem.rs2.content.DropTable.displayNpc(DropTable.java:177)
[2017-02-26 19:23:17] 	at com.mayhem.rs2.entity.player.net.in.impl.ClickButtonPacket.handle(ClickButtonPacket.java:134)
[2017-02-26 19:23:17] 	at com.mayhem.rs2.entity.player.net.in.PacketHandler.handlePacket(PacketHandler.java:149)
[2017-02-26 19:23:17] 	at com.mayhem.rs2.entity.player.net.Client.processIncomingPackets(Client.java:211)
[2017-02-26 19:23:17] 	at com.mayhem.rs2.entity.World.process(World.java:320)
[2017-02-26 19:23:17] 	at com.mayhem.core.GameThread.cycle(GameThread.java:135)
[2017-02-26 19:23:17] 	at com.mayhem.core.GameThread.run(GameThread.java:150)
[2017-02-26 19:23:40] java.lang.NullPointerException
[2017-02-26 19:23:40] 	at com.mayhem.rs2.content.DropTable.displayNpc(DropTable.java:177)
[2017-02-26 19:23:40] 	at com.mayhem.rs2.entity.player.net.in.impl.ClickButtonPacket.handle(ClickButtonPacket.java:134)
[2017-02-26 19:23:40] 	at com.mayhem.rs2.entity.player.net.in.PacketHandler.handlePacket(PacketHandler.java:149)
[2017-02-26 19:23:40] 	at com.mayhem.rs2.entity.player.net.Client.processIncomingPackets(Client.java:211)
[2017-02-26 19:23:40] 	at com.mayhem.rs2.entity.World.process(World.java:320)
[2017-02-26 19:23:40] 	at com.mayhem.core.GameThread.cycle(GameThread.java:135)
[2017-02-26 19:23:40] 	at com.mayhem.core.GameThread.run(GameThread.java:150)
[2017-02-26 19:23:41] java.lang.NullPointerException
[2017-02-26 19:23:41] 	at com.mayhem.rs2.content.DropTable.displayNpc(DropTable.java:177)
[2017-02-26 19:23:41] 	at com.mayhem.rs2.entity.player.net.in.impl.ClickButtonPacket.handle(ClickButtonPacket.java:134)
[2017-02-26 19:23:41] 	at com.mayhem.rs2.entity.player.net.in.PacketHandler.handlePacket(PacketHandler.java:149)
[2017-02-26 19:23:41] 	at com.mayhem.rs2.entity.player.net.Client.processIncomingPackets(Client.java:211)
[2017-02-26 19:23:41] 	at com.mayhem.rs2.entity.World.process(World.java:320)
[2017-02-26 19:23:41] 	at com.mayhem.core.GameThread.cycle(GameThread.java:135)
[2017-02-26 19:23:41] 	at com.mayhem.core.GameThread.run(GameThread.java:150)
[2017-02-26 19:23:42] java.lang.NullPointerException
[2017-02-26 19:23:42] 	at com.mayhem.rs2.content.DropTable.displayNpc(DropTable.java:177)
[2017-02-26 19:23:42] 	at com.mayhem.rs2.entity.player.net.in.impl.ClickButtonPacket.handle(ClickButtonPacket.java:134)
[2017-02-26 19:23:42] 	at com.mayhem.rs2.entity.player.net.in.PacketHandler.handlePacket(PacketHandler.java:149)
[2017-02-26 19:23:42] 	at com.mayhem.rs2.entity.player.net.Client.processIncomingPackets(Client.java:211)
[2017-02-26 19:23:42] 	at com.mayhem.rs2.entity.World.process(World.java:320)
[2017-02-26 19:23:42] 	at com.mayhem.core.GameThread.cycle(GameThread.java:135)
[2017-02-26 19:23:42] 	at com.mayhem.core.GameThread.run(GameThread.java:150)
[2017-02-26 19:23:42] java.lang.NullPointerException
[2017-02-26 19:23:42] 	at com.mayhem.rs2.content.DropTable.displayNpc(DropTable.java:177)
[2017-02-26 19:23:42] 	at com.mayhem.rs2.entity.player.net.in.impl.ClickButtonPacket.handle(ClickButtonPacket.java:134)
[2017-02-26 19:23:42] 	at com.mayhem.rs2.entity.player.net.in.PacketHandler.handlePacket(PacketHandler.java:149)
[2017-02-26 19:23:42] 	at com.mayhem.rs2.entity.player.net.Client.processIncomingPackets(Client.java:211)
[2017-02-26 19:23:42] 	at com.mayhem.rs2.entity.World.process(World.java:320)
[2017-02-26 19:23:42] 	at com.mayhem.core.GameThread.cycle(GameThread.java:135)
[2017-02-26 19:23:42] 	at com.mayhem.core.GameThread.run(GameThread.java:150)
[2017-02-26 19:54:19] java.lang.IndexOutOfBoundsException: Readable byte limit exceeded: 12
[2017-02-26 19:54:19] 	at org.jboss.netty.buffer.AbstractChannelBuffer.readByte(AbstractChannelBuffer.java:236)
[2017-02-26 19:54:19] 	at com.mayhem.core.network.StreamBuffer$InBuffer.readByte(StreamBuffer.java:120)
[2017-02-26 19:54:19] 	at com.mayhem.core.network.StreamBuffer$InBuffer.readByte(StreamBuffer.java:107)
[2017-02-26 19:54:19] 	at com.mayhem.core.network.StreamBuffer$InBuffer.readShort(StreamBuffer.java:467)
[2017-02-26 19:54:19] 	at com.mayhem.core.network.StreamBuffer$InBuffer.readShort(StreamBuffer.java:412)
[2017-02-26 19:54:19] 	at com.mayhem.rs2.entity.player.net.in.impl.ItemPackets.handle(ItemPackets.java:852)
[2017-02-26 19:54:19] 	at com.mayhem.rs2.entity.player.net.in.PacketHandler.handlePacket(PacketHandler.java:149)
[2017-02-26 19:54:19] 	at com.mayhem.rs2.entity.player.net.Client.processIncomingPackets(Client.java:211)
[2017-02-26 19:54:19] 	at com.mayhem.rs2.entity.World.process(World.java:320)
[2017-02-26 19:54:19] 	at com.mayhem.core.GameThread.cycle(GameThread.java:135)
[2017-02-26 19:54:19] 	at com.mayhem.core.GameThread.run(GameThread.java:150)
[2017-02-26 19:54:23] java.lang.IndexOutOfBoundsException: Readable byte limit exceeded: 12
[2017-02-26 19:54:23] 	at org.jboss.netty.buffer.AbstractChannelBuffer.readByte(AbstractChannelBuffer.java:236)
[2017-02-26 19:54:23] 	at com.mayhem.core.network.StreamBuffer$InBuffer.readByte(StreamBuffer.java:120)
[2017-02-26 19:54:23] 	at com.mayhem.core.network.StreamBuffer$InBuffer.readByte(StreamBuffer.java:107)
[2017-02-26 19:54:23] 	at com.mayhem.core.network.StreamBuffer$InBuffer.readShort(StreamBuffer.java:467)
[2017-02-26 19:54:23] 	at com.mayhem.core.network.StreamBuffer$InBuffer.readShort(StreamBuffer.java:412)
[2017-02-26 19:54:23] 	at com.mayhem.rs2.entity.player.net.in.impl.ItemPackets.handle(ItemPackets.java:852)
[2017-02-26 19:54:23] 	at com.mayhem.rs2.entity.player.net.in.PacketHandler.handlePacket(PacketHandler.java:149)
[2017-02-26 19:54:23] 	at com.mayhem.rs2.entity.player.net.Client.processIncomingPackets(Client.java:211)
[2017-02-26 19:54:23] 	at com.mayhem.rs2.entity.World.process(World.java:320)
[2017-02-26 19:54:23] 	at com.mayhem.core.GameThread.cycle(GameThread.java:135)
[2017-02-26 19:54:23] 	at com.mayhem.core.GameThread.run(GameThread.java:150)
[2017-02-26 20:02:22] Didn't save hiscores for [EXTREME]Mod divine
[2017-02-26 20:31:17] java.lang.NullPointerException
[2017-02-26 20:31:17] 	at com.mayhem.rs2.entity.player.net.in.impl.InterfaceAction.handle(InterfaceAction.java:119)
[2017-02-26 20:31:17] 	at com.mayhem.rs2.entity.player.net.in.PacketHandler.handlePacket(PacketHandler.java:149)
[2017-02-26 20:31:17] 	at com.mayhem.rs2.entity.player.net.Client.processIncomingPackets(Client.java:211)
[2017-02-26 20:31:17] 	at com.mayhem.rs2.entity.World.process(World.java:320)
[2017-02-26 20:31:17] 	at com.mayhem.core.GameThread.cycle(GameThread.java:135)
[2017-02-26 20:31:17] 	at com.mayhem.core.GameThread.run(GameThread.java:150)
[2017-02-26 20:31:17] java.lang.NullPointerException
[2017-02-26 20:31:17] 	at com.mayhem.rs2.entity.player.net.in.impl.InterfaceAction.handle(InterfaceAction.java:119)
[2017-02-26 20:31:17] 	at com.mayhem.rs2.entity.player.net.in.PacketHandler.handlePacket(PacketHandler.java:149)
[2017-02-26 20:31:17] 	at com.mayhem.rs2.entity.player.net.Client.processIncomingPackets(Client.java:211)
[2017-02-26 20:31:17] 	at com.mayhem.rs2.entity.World.process(World.java:320)
[2017-02-26 20:31:17] 	at com.mayhem.core.GameThread.cycle(GameThread.java:135)
[2017-02-26 20:31:17] 	at com.mayhem.core.GameThread.run(GameThread.java:150)
[2017-02-26 21:36:19] java.lang.NullPointerException
[2017-02-26 21:36:19] 	at com.mayhem.rs2.content.combat.formula.MeleeFormulas.calculateBaseDamage(MeleeFormulas.java:208)
[2017-02-26 21:36:19] 	at com.mayhem.rs2.entity.player.net.in.impl.ClickButtonPacket.handle(ClickButtonPacket.java:378)
[2017-02-26 21:36:19] 	at com.mayhem.rs2.entity.player.net.in.PacketHandler.handlePacket(PacketHandler.java:149)
[2017-02-26 21:36:19] 	at com.mayhem.rs2.entity.player.net.Client.processIncomingPackets(Client.java:211)
[2017-02-26 21:36:19] 	at com.mayhem.rs2.entity.World.process(World.java:320)
[2017-02-26 21:36:19] 	at com.mayhem.core.GameThread.cycle(GameThread.java:135)
[2017-02-26 21:36:19] 	at com.mayhem.core.GameThread.run(GameThread.java:150)
[2017-02-26 21:36:21] java.lang.NullPointerException
[2017-02-26 21:36:21] 	at com.mayhem.rs2.content.combat.formula.MeleeFormulas.calculateBaseDamage(MeleeFormulas.java:208)
[2017-02-26 21:36:21] 	at com.mayhem.rs2.entity.player.net.in.impl.ClickButtonPacket.handle(ClickButtonPacket.java:378)
[2017-02-26 21:36:21] 	at com.mayhem.rs2.entity.player.net.in.PacketHandler.handlePacket(PacketHandler.java:149)
[2017-02-26 21:36:21] 	at com.mayhem.rs2.entity.player.net.Client.processIncomingPackets(Client.java:211)
[2017-02-26 21:36:21] 	at com.mayhem.rs2.entity.World.process(World.java:320)
[2017-02-26 21:36:21] 	at com.mayhem.core.GameThread.cycle(GameThread.java:135)
[2017-02-26 21:36:21] 	at com.mayhem.core.GameThread.run(GameThread.java:150)
[2017-02-26 21:43:39] java.lang.IndexOutOfBoundsException: Readable byte limit exceeded: 12
[2017-02-26 21:43:39] 	at org.jboss.netty.buffer.AbstractChannelBuffer.readByte(AbstractChannelBuffer.java:236)
[2017-02-26 21:43:39] 	at com.mayhem.core.network.StreamBuffer$InBuffer.readByte(StreamBuffer.java:120)
[2017-02-26 21:43:39] 	at com.mayhem.core.network.StreamBuffer$InBuffer.readByte(StreamBuffer.java:107)
[2017-02-26 21:43:39] 	at com.mayhem.core.network.StreamBuffer$InBuffer.readShort(StreamBuffer.java:467)
[2017-02-26 21:43:39] 	at com.mayhem.core.network.StreamBuffer$InBuffer.readShort(StreamBuffer.java:412)
[2017-02-26 21:43:39] 	at com.mayhem.rs2.entity.player.net.in.impl.ItemPackets.handle(ItemPackets.java:852)
[2017-02-26 21:43:39] 	at com.mayhem.rs2.entity.player.net.in.PacketHandler.handlePacket(PacketHandler.java:149)
[2017-02-26 21:43:39] 	at com.mayhem.rs2.entity.player.net.Client.processIncomingPackets(Client.java:211)
[2017-02-26 21:43:39] 	at com.mayhem.rs2.entity.World.process(World.java:320)
[2017-02-26 21:43:39] 	at com.mayhem.core.GameThread.cycle(GameThread.java:135)
[2017-02-26 21:43:39] 	at com.mayhem.core.GameThread.run(GameThread.java:150)
[2017-02-26 21:53:44] java.lang.NullPointerException
[2017-02-26 21:53:44] 	at com.mayhem.rs2.content.combat.formula.RangeFormulas.calculateRangeAttack(RangeFormulas.java:78)
[2017-02-26 21:53:44] 	at com.mayhem.rs2.content.combat.impl.Ranged.execute(Ranged.java:41)
[2017-02-26 21:53:44] 	at com.mayhem.rs2.content.combat.Combat.attack(Combat.java:92)
[2017-02-26 21:53:44] 	at com.mayhem.rs2.content.combat.Combat.process(Combat.java:215)
[2017-02-26 21:53:44] 	at com.mayhem.rs2.entity.player.Player.process(Player.java:1648)
[2017-02-26 21:53:44] 	at com.mayhem.rs2.entity.World.process(World.java:322)
[2017-02-26 21:53:44] 	at com.mayhem.core.GameThread.cycle(GameThread.java:135)
[2017-02-26 21:53:44] 	at com.mayhem.core.GameThread.run(GameThread.java:150)
[2017-02-26 21:53:44] java.lang.NullPointerException
[2017-02-26 21:53:44] 	at com.mayhem.rs2.entity.player.net.Client.send(Client.java:329)
[2017-02-26 21:53:44] 	at com.mayhem.rs2.entity.player.net.out.impl.SendLogout.execute(SendLogout.java:13)
[2017-02-26 21:53:44] 	at com.mayhem.rs2.entity.player.Player.logout(Player.java:1572)
[2017-02-26 21:53:44] 	at com.mayhem.rs2.entity.World.process(World.java:335)
[2017-02-26 21:53:44] 	at com.mayhem.core.GameThread.cycle(GameThread.java:135)
[2017-02-26 21:53:44] 	at com.mayhem.core.GameThread.run(GameThread.java:150)
[2017-02-26 23:12:14] Didn't save hiscores for [EXTREME]Mod divine
[2017-02-26 23:14:16] Didn't save hiscores for [EXTREME]Mod divine
[2017-02-26 23:47:31] Didn't save hiscores for [EXTREME]Mod divine
