Logging started at 2017-03-22 05:24:36
File name: C:\Users\Administrator\Dropbox\Valius\Valius Source\.\data\logs\err\1490156676547 - Administrator - [Wed Mar 22][5.24AM].txt
System.getProperty("os.name"): "Windows Server 2012 R2"

[2017-03-22 08:09:02] java.lang.NullPointerException
[2017-03-22 08:09:02] 	at com.mayhem.rs2.content.combat.formula.RangeFormulas.calculateRangeAttack(RangeFormulas.java:78)
[2017-03-22 08:09:02] 	at com.mayhem.rs2.content.combat.impl.Ranged.execute(Ranged.java:41)
[2017-03-22 08:09:02] 	at com.mayhem.rs2.content.combat.Combat.attack(Combat.java:92)
[2017-03-22 08:09:02] 	at com.mayhem.rs2.content.combat.Combat.process(Combat.java:215)
[2017-03-22 08:09:02] 	at com.mayhem.rs2.entity.player.Player.process(Player.java:1667)
[2017-03-22 08:09:02] 	at com.mayhem.rs2.entity.World.process(World.java:322)
[2017-03-22 08:09:02] 	at com.mayhem.core.GameThread.cycle(GameThread.java:135)
[2017-03-22 08:09:02] 	at com.mayhem.core.GameThread.run(GameThread.java:150)
[2017-03-22 08:09:02] java.lang.NullPointerException
[2017-03-22 08:09:02] 	at com.mayhem.rs2.entity.player.net.Client.send(Client.java:329)
[2017-03-22 08:09:02] 	at com.mayhem.rs2.entity.player.net.out.impl.SendLogout.execute(SendLogout.java:13)
[2017-03-22 08:09:02] 	at com.mayhem.rs2.entity.player.Player.logout(Player.java:1591)
[2017-03-22 08:09:02] 	at com.mayhem.rs2.entity.World.process(World.java:335)
[2017-03-22 08:09:02] 	at com.mayhem.core.GameThread.cycle(GameThread.java:135)
[2017-03-22 08:09:02] 	at com.mayhem.core.GameThread.run(GameThread.java:150)
[2017-03-22 09:39:40] java.lang.NullPointerException
[2017-03-22 09:39:40] 	at com.mayhem.rs2.content.combat.formula.RangeFormulas.calculateRangeAttack(RangeFormulas.java:78)
[2017-03-22 09:39:40] 	at com.mayhem.rs2.content.combat.impl.Ranged.execute(Ranged.java:41)
[2017-03-22 09:39:40] 	at com.mayhem.rs2.content.combat.Combat.attack(Combat.java:92)
[2017-03-22 09:39:40] 	at com.mayhem.rs2.content.combat.Combat.process(Combat.java:215)
[2017-03-22 09:39:40] 	at com.mayhem.rs2.entity.player.Player.process(Player.java:1667)
[2017-03-22 09:39:40] 	at com.mayhem.rs2.entity.World.process(World.java:322)
[2017-03-22 09:39:40] 	at com.mayhem.core.GameThread.cycle(GameThread.java:135)
[2017-03-22 09:39:40] 	at com.mayhem.core.GameThread.run(GameThread.java:150)
[2017-03-22 09:39:40] java.lang.NullPointerException
[2017-03-22 09:39:40] 	at com.mayhem.rs2.entity.player.net.Client.send(Client.java:329)
[2017-03-22 09:39:40] 	at com.mayhem.rs2.entity.player.net.out.impl.SendLogout.execute(SendLogout.java:13)
[2017-03-22 09:39:40] 	at com.mayhem.rs2.entity.player.Player.logout(Player.java:1591)
[2017-03-22 09:39:40] 	at com.mayhem.rs2.entity.World.process(World.java:335)
[2017-03-22 09:39:40] 	at com.mayhem.core.GameThread.cycle(GameThread.java:135)
[2017-03-22 09:39:40] 	at com.mayhem.core.GameThread.run(GameThread.java:150)
[2017-03-22 09:40:12] java.lang.NullPointerException
[2017-03-22 09:40:12] 	at com.mayhem.rs2.content.combat.formula.RangeFormulas.calculateRangeAttack(RangeFormulas.java:78)
[2017-03-22 09:40:12] 	at com.mayhem.rs2.content.combat.impl.Ranged.execute(Ranged.java:41)
[2017-03-22 09:40:12] 	at com.mayhem.rs2.content.combat.Combat.attack(Combat.java:92)
[2017-03-22 09:40:12] 	at com.mayhem.rs2.content.combat.Combat.process(Combat.java:215)
[2017-03-22 09:40:12] 	at com.mayhem.rs2.entity.player.Player.process(Player.java:1667)
[2017-03-22 09:40:12] 	at com.mayhem.rs2.entity.World.process(World.java:322)
[2017-03-22 09:40:12] 	at com.mayhem.core.GameThread.cycle(GameThread.java:135)
[2017-03-22 09:40:12] 	at com.mayhem.core.GameThread.run(GameThread.java:150)
[2017-03-22 09:40:12] java.lang.NullPointerException
[2017-03-22 09:40:12] 	at com.mayhem.rs2.entity.player.net.Client.send(Client.java:329)
[2017-03-22 09:40:12] 	at com.mayhem.rs2.entity.player.net.out.impl.SendLogout.execute(SendLogout.java:13)
[2017-03-22 09:40:12] 	at com.mayhem.rs2.entity.player.Player.logout(Player.java:1591)
[2017-03-22 09:40:12] 	at com.mayhem.rs2.entity.World.process(World.java:335)
[2017-03-22 09:40:12] 	at com.mayhem.core.GameThread.cycle(GameThread.java:135)
[2017-03-22 09:40:12] 	at com.mayhem.core.GameThread.run(GameThread.java:150)
[2017-03-22 13:55:25] java.lang.ArrayIndexOutOfBoundsException: 153
[2017-03-22 13:55:25] 	at com.mayhem.rs2.content.bank.Bank.withdraw(Bank.java:348)
[2017-03-22 13:55:25] 	at com.mayhem.rs2.entity.player.net.in.impl.ItemPackets.withdrawBankItem(ItemPackets.java:1417)
[2017-03-22 13:55:25] 	at com.mayhem.rs2.entity.player.net.in.impl.ItemPackets.handle(ItemPackets.java:197)
[2017-03-22 13:55:25] 	at com.mayhem.rs2.entity.player.net.in.PacketHandler.handlePacket(PacketHandler.java:149)
[2017-03-22 13:55:25] 	at com.mayhem.rs2.entity.player.net.Client.processIncomingPackets(Client.java:211)
[2017-03-22 13:55:25] 	at com.mayhem.rs2.entity.World.process(World.java:320)
[2017-03-22 13:55:25] 	at com.mayhem.core.GameThread.cycle(GameThread.java:135)
[2017-03-22 13:55:25] 	at com.mayhem.core.GameThread.run(GameThread.java:150)
[2017-03-22 17:04:03] java.lang.ArrayIndexOutOfBoundsException: 179
[2017-03-22 17:04:03] 	at com.mayhem.rs2.content.bank.Bank.withdraw(Bank.java:348)
[2017-03-22 17:04:03] 	at com.mayhem.rs2.entity.player.net.in.impl.ItemPackets.withdrawBankItem(ItemPackets.java:1417)
[2017-03-22 17:04:03] 	at com.mayhem.rs2.entity.player.net.in.impl.ItemPackets.handle(ItemPackets.java:466)
[2017-03-22 17:04:03] 	at com.mayhem.rs2.entity.player.net.in.PacketHandler.handlePacket(PacketHandler.java:149)
[2017-03-22 17:04:03] 	at com.mayhem.rs2.entity.player.net.Client.processIncomingPackets(Client.java:211)
[2017-03-22 17:04:03] 	at com.mayhem.rs2.entity.World.process(World.java:320)
[2017-03-22 17:04:03] 	at com.mayhem.core.GameThread.cycle(GameThread.java:135)
[2017-03-22 17:04:03] 	at com.mayhem.core.GameThread.run(GameThread.java:150)
[2017-03-22 17:06:49] java.lang.ArrayIndexOutOfBoundsException: 179
[2017-03-22 17:06:49] 	at com.mayhem.rs2.content.bank.Bank.withdraw(Bank.java:348)
[2017-03-22 17:06:49] 	at com.mayhem.rs2.entity.player.net.in.impl.ItemPackets.withdrawBankItem(ItemPackets.java:1417)
[2017-03-22 17:06:49] 	at com.mayhem.rs2.entity.player.net.in.impl.ItemPackets.handle(ItemPackets.java:197)
[2017-03-22 17:06:49] 	at com.mayhem.rs2.entity.player.net.in.PacketHandler.handlePacket(PacketHandler.java:149)
[2017-03-22 17:06:49] 	at com.mayhem.rs2.entity.player.net.Client.processIncomingPackets(Client.java:211)
[2017-03-22 17:06:49] 	at com.mayhem.rs2.entity.World.process(World.java:320)
[2017-03-22 17:06:49] 	at com.mayhem.core.GameThread.cycle(GameThread.java:135)
[2017-03-22 17:06:49] 	at com.mayhem.core.GameThread.run(GameThread.java:150)
[2017-03-22 17:58:14] java.lang.ArrayIndexOutOfBoundsException: 173
[2017-03-22 17:58:14] 	at com.mayhem.rs2.content.bank.Bank.withdraw(Bank.java:348)
[2017-03-22 17:58:14] 	at com.mayhem.rs2.entity.player.net.in.impl.ItemPackets.withdrawBankItem(ItemPackets.java:1417)
[2017-03-22 17:58:14] 	at com.mayhem.rs2.entity.player.net.in.impl.ItemPackets.handle(ItemPackets.java:197)
[2017-03-22 17:58:14] 	at com.mayhem.rs2.entity.player.net.in.PacketHandler.handlePacket(PacketHandler.java:149)
[2017-03-22 17:58:14] 	at com.mayhem.rs2.entity.player.net.Client.processIncomingPackets(Client.java:211)
[2017-03-22 17:58:14] 	at com.mayhem.rs2.entity.World.process(World.java:320)
[2017-03-22 17:58:14] 	at com.mayhem.core.GameThread.cycle(GameThread.java:135)
[2017-03-22 17:58:14] 	at com.mayhem.core.GameThread.run(GameThread.java:150)
[2017-03-22 19:44:37] java.lang.NullPointerException
[2017-03-22 19:44:37] 	at com.mayhem.rs2.content.DropTable.displayNpc(DropTable.java:177)
[2017-03-22 19:44:37] 	at com.mayhem.rs2.entity.player.net.in.impl.ClickButtonPacket.handle(ClickButtonPacket.java:134)
[2017-03-22 19:44:37] 	at com.mayhem.rs2.entity.player.net.in.PacketHandler.handlePacket(PacketHandler.java:149)
[2017-03-22 19:44:37] 	at com.mayhem.rs2.entity.player.net.Client.processIncomingPackets(Client.java:211)
[2017-03-22 19:44:37] 	at com.mayhem.rs2.entity.World.process(World.java:320)
[2017-03-22 19:44:37] 	at com.mayhem.core.GameThread.cycle(GameThread.java:135)
[2017-03-22 19:44:37] 	at com.mayhem.core.GameThread.run(GameThread.java:150)
[2017-03-22 20:24:23] java.lang.NullPointerException
[2017-03-22 20:24:23] 	at com.mayhem.rs2.content.combat.formula.RangeFormulas.calculateRangeAttack(RangeFormulas.java:78)
[2017-03-22 20:24:23] 	at com.mayhem.rs2.content.combat.impl.Ranged.execute(Ranged.java:41)
[2017-03-22 20:24:23] 	at com.mayhem.rs2.content.combat.Combat.attack(Combat.java:92)
[2017-03-22 20:24:23] 	at com.mayhem.rs2.content.combat.Combat.process(Combat.java:215)
[2017-03-22 20:24:23] 	at com.mayhem.rs2.entity.player.Player.process(Player.java:1667)
[2017-03-22 20:24:23] 	at com.mayhem.rs2.entity.World.process(World.java:322)
[2017-03-22 20:24:23] 	at com.mayhem.core.GameThread.cycle(GameThread.java:135)
[2017-03-22 20:24:23] 	at com.mayhem.core.GameThread.run(GameThread.java:150)
[2017-03-22 20:24:23] java.lang.NullPointerException
[2017-03-22 20:25:31] java.lang.NullPointerException
[2017-03-22 20:25:31] 	at com.mayhem.rs2.content.DropTable.displayNpc(DropTable.java:177)
[2017-03-22 20:25:31] 	at com.mayhem.rs2.entity.player.net.in.impl.ClickButtonPacket.handle(ClickButtonPacket.java:134)
[2017-03-22 20:25:31] 	at com.mayhem.rs2.entity.player.net.in.PacketHandler.handlePacket(PacketHandler.java:149)
[2017-03-22 20:25:31] 	at com.mayhem.rs2.entity.player.net.Client.processIncomingPackets(Client.java:211)
[2017-03-22 20:25:31] 	at com.mayhem.rs2.entity.World.process(World.java:320)
[2017-03-22 20:25:31] 	at com.mayhem.core.GameThread.cycle(GameThread.java:135)
[2017-03-22 20:25:31] 	at com.mayhem.core.GameThread.run(GameThread.java:150)
[2017-03-22 20:25:34] java.lang.NullPointerException
[2017-03-22 20:25:34] 	at com.mayhem.rs2.content.DropTable.displayNpc(DropTable.java:177)
[2017-03-22 20:25:34] 	at com.mayhem.rs2.entity.player.net.in.impl.ClickButtonPacket.handle(ClickButtonPacket.java:134)
[2017-03-22 20:25:34] 	at com.mayhem.rs2.entity.player.net.in.PacketHandler.handlePacket(PacketHandler.java:149)
[2017-03-22 20:25:34] 	at com.mayhem.rs2.entity.player.net.Client.processIncomingPackets(Client.java:211)
[2017-03-22 20:25:34] 	at com.mayhem.rs2.entity.World.process(World.java:320)
[2017-03-22 20:25:34] 	at com.mayhem.core.GameThread.cycle(GameThread.java:135)
[2017-03-22 20:25:34] 	at com.mayhem.core.GameThread.run(GameThread.java:150)
[2017-03-22 20:25:35] java.lang.NullPointerException
[2017-03-22 20:25:35] 	at com.mayhem.rs2.content.DropTable.displayNpc(DropTable.java:177)
[2017-03-22 20:25:35] 	at com.mayhem.rs2.entity.player.net.in.impl.ClickButtonPacket.handle(ClickButtonPacket.java:134)
[2017-03-22 20:25:35] 	at com.mayhem.rs2.entity.player.net.in.PacketHandler.handlePacket(PacketHandler.java:149)
[2017-03-22 20:25:35] 	at com.mayhem.rs2.entity.player.net.Client.processIncomingPackets(Client.java:211)
[2017-03-22 20:25:35] 	at com.mayhem.rs2.entity.World.process(World.java:320)
[2017-03-22 20:25:35] 	at com.mayhem.core.GameThread.cycle(GameThread.java:135)
[2017-03-22 20:25:35] 	at com.mayhem.core.GameThread.run(GameThread.java:150)
[2017-03-22 20:33:13] java.lang.NullPointerException
[2017-03-22 20:33:13] 	at com.mayhem.rs2.content.skill.agility.obstacle.interaction.ObstacleInteraction.courseRewards(ObstacleInteraction.java:191)
[2017-03-22 20:33:13] 	at com.mayhem.rs2.content.skill.agility.obstacle.interaction.ObstacleInteraction$1.onStop(ObstacleInteraction.java:158)
[2017-03-22 20:33:13] 	at com.mayhem.core.task.TaskQueue.process(TaskQueue.java:62)
[2017-03-22 20:33:13] 	at com.mayhem.core.GameThread.cycle(GameThread.java:127)
[2017-03-22 20:33:13] 	at com.mayhem.core.GameThread.run(GameThread.java:150)
[2017-03-22 21:05:23] java.lang.NullPointerException
[2017-03-22 21:05:23] 	at com.mayhem.rs2.content.skill.mining.Mining$Pickaxe.get(Mining.java:123)
[2017-03-22 21:05:23] 	at com.mayhem.rs2.content.skill.mining.Mining.clickRock(Mining.java:235)
[2017-03-22 21:05:23] 	at com.mayhem.rs2.entity.WalkToActions.finishObjectClick(WalkToActions.java:1163)
[2017-03-22 21:05:23] 	at com.mayhem.rs2.entity.WalkToActions$7.onDestination(WalkToActions.java:325)
[2017-03-22 21:05:23] 	at com.mayhem.core.task.impl.WalkToTask.execute(WalkToTask.java:39)
[2017-03-22 21:05:23] 	at com.mayhem.core.task.TaskQueue.queue(TaskQueue.java:117)
[2017-03-22 21:05:23] 	at com.mayhem.rs2.entity.WalkToActions.clickObject(WalkToActions.java:320)
[2017-03-22 21:05:23] 	at com.mayhem.rs2.entity.player.net.in.impl.ObjectPacket.handle(ObjectPacket.java:85)
[2017-03-22 21:05:23] 	at com.mayhem.rs2.entity.player.net.in.PacketHandler.handlePacket(PacketHandler.java:149)
[2017-03-22 21:05:23] 	at com.mayhem.rs2.entity.player.net.Client.processIncomingPackets(Client.java:211)
[2017-03-22 21:05:23] 	at com.mayhem.rs2.entity.World.process(World.java:320)
[2017-03-22 21:05:23] 	at com.mayhem.core.GameThread.cycle(GameThread.java:135)
[2017-03-22 21:05:23] 	at com.mayhem.core.GameThread.run(GameThread.java:150)
[2017-03-22 21:05:23] java.lang.NullPointerException
[2017-03-22 21:05:23] 	at com.mayhem.rs2.content.skill.mining.Mining$Pickaxe.get(Mining.java:123)
[2017-03-22 21:05:23] 	at com.mayhem.rs2.content.skill.mining.Mining.clickRock(Mining.java:235)
[2017-03-22 21:05:23] 	at com.mayhem.rs2.entity.WalkToActions.finishObjectClick(WalkToActions.java:1163)
[2017-03-22 21:05:23] 	at com.mayhem.rs2.entity.WalkToActions$7.onDestination(WalkToActions.java:325)
[2017-03-22 21:05:23] 	at com.mayhem.core.task.impl.WalkToTask.execute(WalkToTask.java:39)
[2017-03-22 21:05:23] 	at com.mayhem.core.task.TaskQueue.queue(TaskQueue.java:117)
[2017-03-22 21:05:23] 	at com.mayhem.rs2.entity.WalkToActions.clickObject(WalkToActions.java:320)
[2017-03-22 21:05:23] 	at com.mayhem.rs2.entity.player.net.in.impl.ObjectPacket.handle(ObjectPacket.java:85)
[2017-03-22 21:05:23] 	at com.mayhem.rs2.entity.player.net.in.PacketHandler.handlePacket(PacketHandler.java:149)
[2017-03-22 21:05:23] 	at com.mayhem.rs2.entity.player.net.Client.processIncomingPackets(Client.java:211)
[2017-03-22 21:05:23] 	at com.mayhem.rs2.entity.World.process(World.java:320)
[2017-03-22 21:05:23] 	at com.mayhem.core.GameThread.cycle(GameThread.java:135)
[2017-03-22 21:05:23] 	at com.mayhem.core.GameThread.run(GameThread.java:150)
[2017-03-22 21:05:27] java.lang.NullPointerException
[2017-03-22 21:05:27] 	at com.mayhem.rs2.content.skill.mining.Mining$Pickaxe.get(Mining.java:123)
[2017-03-22 21:05:27] 	at com.mayhem.rs2.content.skill.mining.Mining.clickRock(Mining.java:235)
[2017-03-22 21:05:27] 	at com.mayhem.rs2.entity.WalkToActions.finishObjectClick(WalkToActions.java:1163)
[2017-03-22 21:05:27] 	at com.mayhem.rs2.entity.WalkToActions$7.onDestination(WalkToActions.java:325)
[2017-03-22 21:05:27] 	at com.mayhem.core.task.impl.WalkToTask.execute(WalkToTask.java:39)
[2017-03-22 21:05:27] 	at com.mayhem.core.task.TaskQueue.queue(TaskQueue.java:117)
[2017-03-22 21:05:27] 	at com.mayhem.rs2.entity.WalkToActions.clickObject(WalkToActions.java:320)
[2017-03-22 21:05:27] 	at com.mayhem.rs2.entity.player.net.in.impl.ObjectPacket.handle(ObjectPacket.java:85)
[2017-03-22 21:05:27] 	at com.mayhem.rs2.entity.player.net.in.PacketHandler.handlePacket(PacketHandler.java:149)
[2017-03-22 21:05:27] 	at com.mayhem.rs2.entity.player.net.Client.processIncomingPackets(Client.java:211)
[2017-03-22 21:05:27] 	at com.mayhem.rs2.entity.World.process(World.java:320)
[2017-03-22 21:05:27] 	at com.mayhem.core.GameThread.cycle(GameThread.java:135)
[2017-03-22 21:05:27] 	at com.mayhem.core.GameThread.run(GameThread.java:150)
[2017-03-22 21:05:28] java.lang.NullPointerException
[2017-03-22 21:05:28] 	at com.mayhem.rs2.content.skill.mining.Mining$Pickaxe.get(Mining.java:123)
[2017-03-22 21:05:28] 	at com.mayhem.rs2.content.skill.mining.Mining.clickRock(Mining.java:235)
[2017-03-22 21:05:28] 	at com.mayhem.rs2.entity.WalkToActions.finishObjectClick(WalkToActions.java:1163)
[2017-03-22 21:05:28] 	at com.mayhem.rs2.entity.WalkToActions$7.onDestination(WalkToActions.java:325)
[2017-03-22 21:05:28] 	at com.mayhem.core.task.impl.WalkToTask.execute(WalkToTask.java:39)
[2017-03-22 21:05:28] 	at com.mayhem.core.task.TaskQueue.queue(TaskQueue.java:117)
[2017-03-22 21:05:28] 	at com.mayhem.rs2.entity.WalkToActions.clickObject(WalkToActions.java:320)
[2017-03-22 21:05:28] 	at com.mayhem.rs2.entity.player.net.in.impl.ObjectPacket.handle(ObjectPacket.java:85)
[2017-03-22 21:05:28] 	at com.mayhem.rs2.entity.player.net.in.PacketHandler.handlePacket(PacketHandler.java:149)
[2017-03-22 21:05:28] 	at com.mayhem.rs2.entity.player.net.Client.processIncomingPackets(Client.java:211)
[2017-03-22 21:05:28] 	at com.mayhem.rs2.entity.World.process(World.java:320)
[2017-03-22 21:05:28] 	at com.mayhem.core.GameThread.cycle(GameThread.java:135)
[2017-03-22 21:05:28] 	at com.mayhem.core.GameThread.run(GameThread.java:150)
[2017-03-22 21:05:30] java.lang.NullPointerException
[2017-03-22 21:05:30] 	at com.mayhem.rs2.content.skill.mining.Mining$Pickaxe.get(Mining.java:123)
[2017-03-22 21:05:30] 	at com.mayhem.rs2.content.skill.mining.Mining.clickRock(Mining.java:235)
[2017-03-22 21:05:30] 	at com.mayhem.rs2.entity.WalkToActions.finishObjectClick(WalkToActions.java:1163)
[2017-03-22 21:05:30] 	at com.mayhem.rs2.entity.WalkToActions$7.onDestination(WalkToActions.java:325)
[2017-03-22 21:05:30] 	at com.mayhem.core.task.impl.WalkToTask.execute(WalkToTask.java:39)
[2017-03-22 21:05:30] 	at com.mayhem.core.task.Task.run(Task.java:183)
[2017-03-22 21:05:30] 	at com.mayhem.core.task.TaskQueue.process(TaskQueue.java:78)
[2017-03-22 21:05:30] 	at com.mayhem.core.GameThread.cycle(GameThread.java:127)
[2017-03-22 21:05:30] 	at com.mayhem.core.GameThread.run(GameThread.java:150)
[2017-03-22 22:16:43] java.lang.NullPointerException
[2017-03-22 22:16:43] 	at com.mayhem.rs2.content.combat.formula.RangeFormulas.calculateRangeAttack(RangeFormulas.java:78)
[2017-03-22 22:16:43] 	at com.mayhem.rs2.content.combat.impl.Ranged.execute(Ranged.java:41)
[2017-03-22 22:16:43] 	at com.mayhem.rs2.content.combat.Combat.attack(Combat.java:92)
[2017-03-22 22:16:43] 	at com.mayhem.rs2.content.combat.Combat.process(Combat.java:215)
[2017-03-22 22:16:43] 	at com.mayhem.rs2.entity.player.Player.process(Player.java:1667)
[2017-03-22 22:16:43] 	at com.mayhem.rs2.entity.World.process(World.java:322)
[2017-03-22 22:16:43] 	at com.mayhem.core.GameThread.cycle(GameThread.java:135)
[2017-03-22 22:16:43] 	at com.mayhem.core.GameThread.run(GameThread.java:150)
[2017-03-22 22:16:43] java.lang.NullPointerException
[2017-03-22 22:48:02] java.lang.IndexOutOfBoundsException: Readable byte limit exceeded: 12
[2017-03-22 22:48:02] 	at org.jboss.netty.buffer.AbstractChannelBuffer.readByte(AbstractChannelBuffer.java:236)
[2017-03-22 22:48:02] 	at com.mayhem.core.network.StreamBuffer$InBuffer.readByte(StreamBuffer.java:120)
[2017-03-22 22:48:02] 	at com.mayhem.core.network.StreamBuffer$InBuffer.readByte(StreamBuffer.java:107)
[2017-03-22 22:48:02] 	at com.mayhem.core.network.StreamBuffer$InBuffer.readShort(StreamBuffer.java:467)
[2017-03-22 22:48:02] 	at com.mayhem.core.network.StreamBuffer$InBuffer.readShort(StreamBuffer.java:412)
[2017-03-22 22:48:02] 	at com.mayhem.rs2.entity.player.net.in.impl.ItemPackets.handle(ItemPackets.java:853)
[2017-03-22 22:48:02] 	at com.mayhem.rs2.entity.player.net.in.PacketHandler.handlePacket(PacketHandler.java:149)
[2017-03-22 22:48:02] 	at com.mayhem.rs2.entity.player.net.Client.processIncomingPackets(Client.java:211)
[2017-03-22 22:48:02] 	at com.mayhem.rs2.entity.World.process(World.java:320)
[2017-03-22 22:48:02] 	at com.mayhem.core.GameThread.cycle(GameThread.java:135)
[2017-03-22 22:48:02] 	at com.mayhem.core.GameThread.run(GameThread.java:150)
[2017-03-22 23:36:16] java.lang.IndexOutOfBoundsException: Readable byte limit exceeded: 12
[2017-03-22 23:36:16] 	at org.jboss.netty.buffer.AbstractChannelBuffer.readByte(AbstractChannelBuffer.java:236)
[2017-03-22 23:36:16] 	at com.mayhem.core.network.StreamBuffer$InBuffer.readByte(StreamBuffer.java:120)
[2017-03-22 23:36:16] 	at com.mayhem.core.network.StreamBuffer$InBuffer.readByte(StreamBuffer.java:107)
[2017-03-22 23:36:16] 	at com.mayhem.core.network.StreamBuffer$InBuffer.readShort(StreamBuffer.java:467)
[2017-03-22 23:36:16] 	at com.mayhem.core.network.StreamBuffer$InBuffer.readShort(StreamBuffer.java:412)
[2017-03-22 23:36:16] 	at com.mayhem.rs2.entity.player.net.in.impl.ItemPackets.handle(ItemPackets.java:853)
[2017-03-22 23:36:16] 	at com.mayhem.rs2.entity.player.net.in.PacketHandler.handlePacket(PacketHandler.java:149)
[2017-03-22 23:36:16] 	at com.mayhem.rs2.entity.player.net.Client.processIncomingPackets(Client.java:211)
[2017-03-22 23:36:16] 	at com.mayhem.rs2.entity.World.process(World.java:320)
[2017-03-22 23:36:16] 	at com.mayhem.core.GameThread.cycle(GameThread.java:135)
[2017-03-22 23:36:16] 	at com.mayhem.core.GameThread.run(GameThread.java:150)
[2017-03-23 00:32:14] java.lang.IndexOutOfBoundsException: Readable byte limit exceeded: 12
[2017-03-23 00:32:14] 	at org.jboss.netty.buffer.AbstractChannelBuffer.readByte(AbstractChannelBuffer.java:236)
[2017-03-23 00:32:14] 	at com.mayhem.core.network.StreamBuffer$InBuffer.readByte(StreamBuffer.java:120)
[2017-03-23 00:32:14] 	at com.mayhem.core.network.StreamBuffer$InBuffer.readByte(StreamBuffer.java:107)
[2017-03-23 00:32:14] 	at com.mayhem.core.network.StreamBuffer$InBuffer.readShort(StreamBuffer.java:467)
[2017-03-23 00:32:14] 	at com.mayhem.core.network.StreamBuffer$InBuffer.readShort(StreamBuffer.java:412)
[2017-03-23 00:32:14] 	at com.mayhem.rs2.entity.player.net.in.impl.ItemPackets.handle(ItemPackets.java:853)
[2017-03-23 00:32:14] 	at com.mayhem.rs2.entity.player.net.in.PacketHandler.handlePacket(PacketHandler.java:149)
[2017-03-23 00:32:14] 	at com.mayhem.rs2.entity.player.net.Client.processIncomingPackets(Client.java:211)
[2017-03-23 00:32:14] 	at com.mayhem.rs2.entity.World.process(World.java:320)
[2017-03-23 00:32:14] 	at com.mayhem.core.GameThread.cycle(GameThread.java:135)
[2017-03-23 00:32:14] 	at com.mayhem.core.GameThread.run(GameThread.java:150)
[2017-03-23 00:45:01] java.lang.NullPointerException
[2017-03-23 00:45:01] 	at com.mayhem.rs2.content.combat.formula.RangeFormulas.calculateRangeAttack(RangeFormulas.java:78)
[2017-03-23 00:45:01] 	at com.mayhem.rs2.content.combat.impl.Ranged.execute(Ranged.java:41)
[2017-03-23 00:45:01] 	at com.mayhem.rs2.content.combat.Combat.attack(Combat.java:92)
[2017-03-23 00:45:01] 	at com.mayhem.rs2.content.combat.Combat.process(Combat.java:215)
[2017-03-23 00:45:01] 	at com.mayhem.rs2.entity.player.Player.process(Player.java:1667)
[2017-03-23 00:45:01] 	at com.mayhem.rs2.entity.World.process(World.java:322)
[2017-03-23 00:45:01] 	at com.mayhem.core.GameThread.cycle(GameThread.java:135)
[2017-03-23 00:45:01] 	at com.mayhem.core.GameThread.run(GameThread.java:150)
[2017-03-23 00:45:01] java.lang.NullPointerException
[2017-03-23 01:52:10] Didn't save hiscores for [EXTREME]Mod divine
[2017-03-23 03:40:58] java.lang.NullPointerException
[2017-03-23 03:40:58] 	at com.mayhem.rs2.entity.player.net.in.command.impl.DeveloperCommand.handleCommand(DeveloperCommand.java:884)
[2017-03-23 03:40:58] 	at com.mayhem.rs2.entity.player.net.in.impl.CommandPacket.handle(CommandPacket.java:57)
[2017-03-23 03:40:58] 	at com.mayhem.rs2.entity.player.net.in.PacketHandler.handlePacket(PacketHandler.java:149)
[2017-03-23 03:40:58] 	at com.mayhem.rs2.entity.player.net.Client.processIncomingPackets(Client.java:211)
[2017-03-23 03:40:58] 	at com.mayhem.rs2.entity.World.process(World.java:320)
[2017-03-23 03:40:58] 	at com.mayhem.core.GameThread.cycle(GameThread.java:135)
[2017-03-23 03:40:58] 	at com.mayhem.core.GameThread.run(GameThread.java:150)
[2017-03-23 04:06:29] Didn't save hiscores for [EXTREME]Mod divine
[2017-03-23 05:19:13] Didn't save hiscores for [EXTREME]Mod divine
