Logging started at 2017-03-24 01:22:12
File name: E:\Dropbox\Valius Source\.\data\logs\err\1490336532238 - Andrew - [Fri Mar 24][1.22AM].txt
System.getProperty("os.name"): "Windows 10"

[2017-03-24 01:24:27] java.lang.IndexOutOfBoundsException: Index: 1, Size: 0
[2017-03-24 01:24:27] 	at java.util.ArrayList.rangeCheck(Unknown Source)
[2017-03-24 01:24:27] 	at java.util.ArrayList.get(Unknown Source)
[2017-03-24 01:24:27] 	at com.mayhem.rs2.entity.mob.impl.ReanimatedDemonSpawn.spawn(ReanimatedDemonSpawn.java:41)
[2017-03-24 01:24:27] 	at com.mayhem.rs2.entity.mob.impl.Skotizo.hit(Skotizo.java:70)
[2017-03-24 01:24:27] 	at com.mayhem.core.task.impl.HitTask.execute(HitTask.java:64)
[2017-03-24 01:24:27] 	at com.mayhem.core.task.Task.run(Task.java:183)
[2017-03-24 01:24:27] 	at com.mayhem.core.task.TaskQueue.process(TaskQueue.java:78)
[2017-03-24 01:24:27] 	at com.mayhem.core.GameThread.cycle(GameThread.java:127)
[2017-03-24 01:24:27] 	at com.mayhem.core.GameThread.run(GameThread.java:150)
[2017-03-24 01:24:29] java.lang.IndexOutOfBoundsException: Index: 1, Size: 0
[2017-03-24 01:24:29] 	at java.util.ArrayList.rangeCheck(Unknown Source)
[2017-03-24 01:24:29] 	at java.util.ArrayList.get(Unknown Source)
[2017-03-24 01:24:29] 	at com.mayhem.rs2.entity.mob.impl.ReanimatedDemonSpawn.spawn(ReanimatedDemonSpawn.java:41)
[2017-03-24 01:24:29] 	at com.mayhem.rs2.entity.mob.impl.Skotizo.hit(Skotizo.java:70)
[2017-03-24 01:24:29] 	at com.mayhem.core.task.impl.HitTask.execute(HitTask.java:64)
[2017-03-24 01:24:29] 	at com.mayhem.core.task.Task.run(Task.java:183)
[2017-03-24 01:24:29] 	at com.mayhem.core.task.TaskQueue.process(TaskQueue.java:78)
[2017-03-24 01:24:29] 	at com.mayhem.core.GameThread.cycle(GameThread.java:127)
[2017-03-24 01:24:29] 	at com.mayhem.core.GameThread.run(GameThread.java:150)
[2017-03-24 01:24:31] java.lang.IndexOutOfBoundsException: Index: 1, Size: 0
[2017-03-24 01:24:31] 	at java.util.ArrayList.rangeCheck(Unknown Source)
[2017-03-24 01:24:31] 	at java.util.ArrayList.get(Unknown Source)
[2017-03-24 01:24:31] 	at com.mayhem.rs2.entity.mob.impl.ReanimatedDemonSpawn.spawn(ReanimatedDemonSpawn.java:41)
[2017-03-24 01:24:31] 	at com.mayhem.rs2.entity.mob.impl.Skotizo.hit(Skotizo.java:70)
[2017-03-24 01:24:31] 	at com.mayhem.core.task.impl.HitTask.execute(HitTask.java:64)
[2017-03-24 01:24:31] 	at com.mayhem.core.task.Task.run(Task.java:183)
[2017-03-24 01:24:31] 	at com.mayhem.core.task.TaskQueue.process(TaskQueue.java:78)
[2017-03-24 01:24:31] 	at com.mayhem.core.GameThread.cycle(GameThread.java:127)
[2017-03-24 01:24:31] 	at com.mayhem.core.GameThread.run(GameThread.java:150)
[2017-03-24 01:24:34] java.lang.IndexOutOfBoundsException: Index: 1, Size: 0
[2017-03-24 01:24:34] 	at java.util.ArrayList.rangeCheck(Unknown Source)
[2017-03-24 01:24:34] 	at java.util.ArrayList.get(Unknown Source)
[2017-03-24 01:24:34] 	at com.mayhem.rs2.entity.mob.impl.ReanimatedDemonSpawn.spawn(ReanimatedDemonSpawn.java:41)
[2017-03-24 01:24:34] 	at com.mayhem.rs2.entity.mob.impl.Skotizo.hit(Skotizo.java:70)
[2017-03-24 01:24:34] 	at com.mayhem.core.task.impl.HitTask.execute(HitTask.java:64)
[2017-03-24 01:24:34] 	at com.mayhem.core.task.Task.run(Task.java:183)
[2017-03-24 01:24:34] 	at com.mayhem.core.task.TaskQueue.process(TaskQueue.java:78)
[2017-03-24 01:24:34] 	at com.mayhem.core.GameThread.cycle(GameThread.java:127)
[2017-03-24 01:24:34] 	at com.mayhem.core.GameThread.run(GameThread.java:150)
[2017-03-24 01:24:36] java.lang.IndexOutOfBoundsException: Index: 1, Size: 0
[2017-03-24 01:24:36] 	at java.util.ArrayList.rangeCheck(Unknown Source)
[2017-03-24 01:24:36] 	at java.util.ArrayList.get(Unknown Source)
[2017-03-24 01:24:36] 	at com.mayhem.rs2.entity.mob.impl.ReanimatedDemonSpawn.spawn(ReanimatedDemonSpawn.java:41)
[2017-03-24 01:24:36] 	at com.mayhem.rs2.entity.mob.impl.Skotizo.hit(Skotizo.java:70)
[2017-03-24 01:24:36] 	at com.mayhem.core.task.impl.HitTask.execute(HitTask.java:64)
[2017-03-24 01:24:36] 	at com.mayhem.core.task.Task.run(Task.java:183)
[2017-03-24 01:24:36] 	at com.mayhem.core.task.TaskQueue.process(TaskQueue.java:78)
[2017-03-24 01:24:36] 	at com.mayhem.core.GameThread.cycle(GameThread.java:127)
[2017-03-24 01:24:36] 	at com.mayhem.core.GameThread.run(GameThread.java:150)
[2017-03-24 01:24:38] java.lang.IndexOutOfBoundsException: Index: 1, Size: 0
[2017-03-24 01:24:38] 	at java.util.ArrayList.rangeCheck(Unknown Source)
[2017-03-24 01:24:38] 	at java.util.ArrayList.get(Unknown Source)
[2017-03-24 01:24:38] 	at com.mayhem.rs2.entity.mob.impl.ReanimatedDemonSpawn.spawn(ReanimatedDemonSpawn.java:41)
[2017-03-24 01:24:38] 	at com.mayhem.rs2.entity.mob.impl.Skotizo.hit(Skotizo.java:70)
[2017-03-24 01:24:38] 	at com.mayhem.core.task.impl.HitTask.execute(HitTask.java:64)
[2017-03-24 01:24:38] 	at com.mayhem.core.task.Task.run(Task.java:183)
[2017-03-24 01:24:38] 	at com.mayhem.core.task.TaskQueue.process(TaskQueue.java:78)
[2017-03-24 01:24:38] 	at com.mayhem.core.GameThread.cycle(GameThread.java:127)
[2017-03-24 01:24:38] 	at com.mayhem.core.GameThread.run(GameThread.java:150)
[2017-03-24 01:24:41] java.lang.IndexOutOfBoundsException: Index: 1, Size: 0
[2017-03-24 01:24:41] 	at java.util.ArrayList.rangeCheck(Unknown Source)
[2017-03-24 01:24:41] 	at java.util.ArrayList.get(Unknown Source)
[2017-03-24 01:24:41] 	at com.mayhem.rs2.entity.mob.impl.ReanimatedDemonSpawn.spawn(ReanimatedDemonSpawn.java:41)
[2017-03-24 01:24:41] 	at com.mayhem.rs2.entity.mob.impl.Skotizo.hit(Skotizo.java:70)
[2017-03-24 01:24:41] 	at com.mayhem.core.task.impl.HitTask.execute(HitTask.java:64)
[2017-03-24 01:24:41] 	at com.mayhem.core.task.Task.run(Task.java:183)
[2017-03-24 01:24:41] 	at com.mayhem.core.task.TaskQueue.process(TaskQueue.java:78)
[2017-03-24 01:24:41] 	at com.mayhem.core.GameThread.cycle(GameThread.java:127)
[2017-03-24 01:24:41] 	at com.mayhem.core.GameThread.run(GameThread.java:150)
[2017-03-24 01:24:43] java.lang.IndexOutOfBoundsException: Index: 1, Size: 0
[2017-03-24 01:24:43] 	at java.util.ArrayList.rangeCheck(Unknown Source)
[2017-03-24 01:24:43] 	at java.util.ArrayList.get(Unknown Source)
[2017-03-24 01:24:43] 	at com.mayhem.rs2.entity.mob.impl.ReanimatedDemonSpawn.spawn(ReanimatedDemonSpawn.java:41)
[2017-03-24 01:24:43] 	at com.mayhem.rs2.entity.mob.impl.Skotizo.hit(Skotizo.java:70)
[2017-03-24 01:24:43] 	at com.mayhem.core.task.impl.HitTask.execute(HitTask.java:64)
[2017-03-24 01:24:43] 	at com.mayhem.core.task.Task.run(Task.java:183)
[2017-03-24 01:24:43] 	at com.mayhem.core.task.TaskQueue.process(TaskQueue.java:78)
[2017-03-24 01:24:43] 	at com.mayhem.core.GameThread.cycle(GameThread.java:127)
[2017-03-24 01:24:43] 	at com.mayhem.core.GameThread.run(GameThread.java:150)
[2017-03-24 01:24:45] java.lang.IndexOutOfBoundsException: Index: 1, Size: 0
[2017-03-24 01:24:45] 	at java.util.ArrayList.rangeCheck(Unknown Source)
[2017-03-24 01:24:45] 	at java.util.ArrayList.get(Unknown Source)
[2017-03-24 01:24:45] 	at com.mayhem.rs2.entity.mob.impl.ReanimatedDemonSpawn.spawn(ReanimatedDemonSpawn.java:41)
[2017-03-24 01:24:45] 	at com.mayhem.rs2.entity.mob.impl.Skotizo.hit(Skotizo.java:70)
[2017-03-24 01:24:45] 	at com.mayhem.core.task.impl.HitTask.execute(HitTask.java:64)
[2017-03-24 01:24:45] 	at com.mayhem.core.task.Task.run(Task.java:183)
[2017-03-24 01:24:45] 	at com.mayhem.core.task.TaskQueue.process(TaskQueue.java:78)
[2017-03-24 01:24:45] 	at com.mayhem.core.GameThread.cycle(GameThread.java:127)
[2017-03-24 01:24:45] 	at com.mayhem.core.GameThread.run(GameThread.java:150)
[2017-03-24 01:24:48] java.lang.IndexOutOfBoundsException: Index: 1, Size: 0
[2017-03-24 01:24:48] 	at java.util.ArrayList.rangeCheck(Unknown Source)
[2017-03-24 01:24:48] 	at java.util.ArrayList.get(Unknown Source)
[2017-03-24 01:24:48] 	at com.mayhem.rs2.entity.mob.impl.ReanimatedDemonSpawn.spawn(ReanimatedDemonSpawn.java:41)
[2017-03-24 01:24:48] 	at com.mayhem.rs2.entity.mob.impl.Skotizo.hit(Skotizo.java:70)
[2017-03-24 01:24:48] 	at com.mayhem.core.task.impl.HitTask.execute(HitTask.java:64)
[2017-03-24 01:24:48] 	at com.mayhem.core.task.Task.run(Task.java:183)
[2017-03-24 01:24:48] 	at com.mayhem.core.task.TaskQueue.process(TaskQueue.java:78)
[2017-03-24 01:24:48] 	at com.mayhem.core.GameThread.cycle(GameThread.java:127)
[2017-03-24 01:24:48] 	at com.mayhem.core.GameThread.run(GameThread.java:150)
[2017-03-24 01:24:50] java.lang.IndexOutOfBoundsException: Index: 1, Size: 0
[2017-03-24 01:24:50] 	at java.util.ArrayList.rangeCheck(Unknown Source)
[2017-03-24 01:24:50] 	at java.util.ArrayList.get(Unknown Source)
[2017-03-24 01:24:50] 	at com.mayhem.rs2.entity.mob.impl.ReanimatedDemonSpawn.spawn(ReanimatedDemonSpawn.java:41)
[2017-03-24 01:24:50] 	at com.mayhem.rs2.entity.mob.impl.Skotizo.hit(Skotizo.java:70)
[2017-03-24 01:24:50] 	at com.mayhem.core.task.impl.HitTask.execute(HitTask.java:64)
[2017-03-24 01:24:50] 	at com.mayhem.core.task.Task.run(Task.java:183)
[2017-03-24 01:24:50] 	at com.mayhem.core.task.TaskQueue.process(TaskQueue.java:78)
[2017-03-24 01:24:50] 	at com.mayhem.core.GameThread.cycle(GameThread.java:127)
[2017-03-24 01:24:50] 	at com.mayhem.core.GameThread.run(GameThread.java:150)
[2017-03-24 01:24:52] java.lang.IndexOutOfBoundsException: Index: 1, Size: 0
[2017-03-24 01:24:52] 	at java.util.ArrayList.rangeCheck(Unknown Source)
[2017-03-24 01:24:52] 	at java.util.ArrayList.get(Unknown Source)
[2017-03-24 01:24:52] 	at com.mayhem.rs2.entity.mob.impl.ReanimatedDemonSpawn.spawn(ReanimatedDemonSpawn.java:41)
[2017-03-24 01:24:52] 	at com.mayhem.rs2.entity.mob.impl.Skotizo.hit(Skotizo.java:70)
[2017-03-24 01:24:52] 	at com.mayhem.core.task.impl.HitTask.execute(HitTask.java:64)
[2017-03-24 01:24:52] 	at com.mayhem.core.task.Task.run(Task.java:183)
[2017-03-24 01:24:52] 	at com.mayhem.core.task.TaskQueue.process(TaskQueue.java:78)
[2017-03-24 01:24:52] 	at com.mayhem.core.GameThread.cycle(GameThread.java:127)
[2017-03-24 01:24:52] 	at com.mayhem.core.GameThread.run(GameThread.java:150)
[2017-03-24 01:24:55] java.lang.IndexOutOfBoundsException: Index: 1, Size: 0
[2017-03-24 01:24:55] 	at java.util.ArrayList.rangeCheck(Unknown Source)
[2017-03-24 01:24:55] 	at java.util.ArrayList.get(Unknown Source)
[2017-03-24 01:24:55] 	at com.mayhem.rs2.entity.mob.impl.ReanimatedDemonSpawn.spawn(ReanimatedDemonSpawn.java:41)
[2017-03-24 01:24:55] 	at com.mayhem.rs2.entity.mob.impl.Skotizo.hit(Skotizo.java:70)
[2017-03-24 01:24:55] 	at com.mayhem.core.task.impl.HitTask.execute(HitTask.java:64)
[2017-03-24 01:24:55] 	at com.mayhem.core.task.Task.run(Task.java:183)
[2017-03-24 01:24:55] 	at com.mayhem.core.task.TaskQueue.process(TaskQueue.java:78)
[2017-03-24 01:24:55] 	at com.mayhem.core.GameThread.cycle(GameThread.java:127)
[2017-03-24 01:24:55] 	at com.mayhem.core.GameThread.run(GameThread.java:150)
[2017-03-24 01:24:57] java.lang.IndexOutOfBoundsException: Index: 1, Size: 0
[2017-03-24 01:24:57] 	at java.util.ArrayList.rangeCheck(Unknown Source)
[2017-03-24 01:24:57] 	at java.util.ArrayList.get(Unknown Source)
[2017-03-24 01:24:57] 	at com.mayhem.rs2.entity.mob.impl.ReanimatedDemonSpawn.spawn(ReanimatedDemonSpawn.java:41)
[2017-03-24 01:24:57] 	at com.mayhem.rs2.entity.mob.impl.Skotizo.hit(Skotizo.java:70)
[2017-03-24 01:24:57] 	at com.mayhem.core.task.impl.HitTask.execute(HitTask.java:64)
[2017-03-24 01:24:57] 	at com.mayhem.core.task.Task.run(Task.java:183)
[2017-03-24 01:24:57] 	at com.mayhem.core.task.TaskQueue.process(TaskQueue.java:78)
[2017-03-24 01:24:57] 	at com.mayhem.core.GameThread.cycle(GameThread.java:127)
[2017-03-24 01:24:57] 	at com.mayhem.core.GameThread.run(GameThread.java:150)
[2017-03-24 01:24:59] java.lang.IndexOutOfBoundsException: Index: 1, Size: 0
[2017-03-24 01:24:59] 	at java.util.ArrayList.rangeCheck(Unknown Source)
[2017-03-24 01:24:59] 	at java.util.ArrayList.get(Unknown Source)
[2017-03-24 01:24:59] 	at com.mayhem.rs2.entity.mob.impl.ReanimatedDemonSpawn.spawn(ReanimatedDemonSpawn.java:41)
[2017-03-24 01:24:59] 	at com.mayhem.rs2.entity.mob.impl.Skotizo.hit(Skotizo.java:70)
[2017-03-24 01:24:59] 	at com.mayhem.core.task.impl.HitTask.execute(HitTask.java:64)
[2017-03-24 01:24:59] 	at com.mayhem.core.task.Task.run(Task.java:183)
[2017-03-24 01:24:59] 	at com.mayhem.core.task.TaskQueue.process(TaskQueue.java:78)
[2017-03-24 01:24:59] 	at com.mayhem.core.GameThread.cycle(GameThread.java:127)
[2017-03-24 01:24:59] 	at com.mayhem.core.GameThread.run(GameThread.java:150)
[2017-03-24 01:25:02] java.lang.IndexOutOfBoundsException: Index: 1, Size: 0
[2017-03-24 01:25:02] 	at java.util.ArrayList.rangeCheck(Unknown Source)
[2017-03-24 01:25:02] 	at java.util.ArrayList.get(Unknown Source)
[2017-03-24 01:25:02] 	at com.mayhem.rs2.entity.mob.impl.ReanimatedDemonSpawn.spawn(ReanimatedDemonSpawn.java:41)
[2017-03-24 01:25:02] 	at com.mayhem.rs2.entity.mob.impl.Skotizo.hit(Skotizo.java:70)
[2017-03-24 01:25:02] 	at com.mayhem.core.task.impl.HitTask.execute(HitTask.java:64)
[2017-03-24 01:25:02] 	at com.mayhem.core.task.Task.run(Task.java:183)
[2017-03-24 01:25:02] 	at com.mayhem.core.task.TaskQueue.process(TaskQueue.java:78)
[2017-03-24 01:25:02] 	at com.mayhem.core.GameThread.cycle(GameThread.java:127)
[2017-03-24 01:25:02] 	at com.mayhem.core.GameThread.run(GameThread.java:150)
[2017-03-24 01:25:04] java.lang.IndexOutOfBoundsException: Index: 1, Size: 0
[2017-03-24 01:25:04] 	at java.util.ArrayList.rangeCheck(Unknown Source)
[2017-03-24 01:25:04] 	at java.util.ArrayList.get(Unknown Source)
[2017-03-24 01:25:04] 	at com.mayhem.rs2.entity.mob.impl.ReanimatedDemonSpawn.spawn(ReanimatedDemonSpawn.java:41)
[2017-03-24 01:25:04] 	at com.mayhem.rs2.entity.mob.impl.Skotizo.hit(Skotizo.java:70)
[2017-03-24 01:25:04] 	at com.mayhem.core.task.impl.HitTask.execute(HitTask.java:64)
[2017-03-24 01:25:04] 	at com.mayhem.core.task.Task.run(Task.java:183)
[2017-03-24 01:25:04] 	at com.mayhem.core.task.TaskQueue.process(TaskQueue.java:78)
[2017-03-24 01:25:04] 	at com.mayhem.core.GameThread.cycle(GameThread.java:127)
[2017-03-24 01:25:04] 	at com.mayhem.core.GameThread.run(GameThread.java:150)
