Logging started at 2017-03-24 01:42:31
File name: E:\Dropbox\Valius Source\.\data\logs\err\1490337751165 - Andrew - [Fri Mar 24][1.42AM].txt
System.getProperty("os.name"): "Windows 10"

[2017-03-24 01:45:07] java.lang.IndexOutOfBoundsException: Index: 0, Size: 0
[2017-03-24 01:45:07] 	at java.util.ArrayList.rangeCheck(Unknown Source)
[2017-03-24 01:45:07] 	at java.util.ArrayList.get(Unknown Source)
[2017-03-24 01:45:07] 	at com.mayhem.rs2.entity.mob.impl.ReanimatedDemonSpawn.spawn(ReanimatedDemonSpawn.java:43)
[2017-03-24 01:45:07] 	at com.mayhem.rs2.entity.mob.impl.Skotizo.spawnMinions(Skotizo.java:60)
[2017-03-24 01:45:07] 	at com.mayhem.rs2.entity.mob.impl.Skotizo.hit(Skotizo.java:53)
[2017-03-24 01:45:07] 	at com.mayhem.core.task.impl.HitTask.execute(HitTask.java:64)
[2017-03-24 01:45:07] 	at com.mayhem.core.task.Task.run(Task.java:183)
[2017-03-24 01:45:07] 	at com.mayhem.core.task.TaskQueue.process(TaskQueue.java:78)
[2017-03-24 01:45:07] 	at com.mayhem.core.GameThread.cycle(GameThread.java:127)
[2017-03-24 01:45:07] 	at com.mayhem.core.GameThread.run(GameThread.java:150)
[2017-03-24 01:45:09] java.lang.IndexOutOfBoundsException: Index: 0, Size: 0
[2017-03-24 01:45:09] 	at java.util.ArrayList.rangeCheck(Unknown Source)
[2017-03-24 01:45:09] 	at java.util.ArrayList.get(Unknown Source)
[2017-03-24 01:45:09] 	at com.mayhem.rs2.entity.mob.impl.ReanimatedDemonSpawn.spawn(ReanimatedDemonSpawn.java:43)
[2017-03-24 01:45:09] 	at com.mayhem.rs2.entity.mob.impl.Skotizo.spawnMinions(Skotizo.java:60)
[2017-03-24 01:45:09] 	at com.mayhem.rs2.entity.mob.impl.Skotizo.hit(Skotizo.java:53)
[2017-03-24 01:45:09] 	at com.mayhem.core.task.impl.HitTask.execute(HitTask.java:64)
[2017-03-24 01:45:09] 	at com.mayhem.core.task.Task.run(Task.java:183)
[2017-03-24 01:45:09] 	at com.mayhem.core.task.TaskQueue.process(TaskQueue.java:78)
[2017-03-24 01:45:09] 	at com.mayhem.core.GameThread.cycle(GameThread.java:127)
[2017-03-24 01:45:09] 	at com.mayhem.core.GameThread.run(GameThread.java:150)
[2017-03-24 01:45:12] java.lang.IndexOutOfBoundsException: Index: 0, Size: 0
[2017-03-24 01:45:12] 	at java.util.ArrayList.rangeCheck(Unknown Source)
[2017-03-24 01:45:12] 	at java.util.ArrayList.get(Unknown Source)
[2017-03-24 01:45:12] 	at com.mayhem.rs2.entity.mob.impl.ReanimatedDemonSpawn.spawn(ReanimatedDemonSpawn.java:43)
[2017-03-24 01:45:12] 	at com.mayhem.rs2.entity.mob.impl.Skotizo.spawnMinions(Skotizo.java:60)
[2017-03-24 01:45:12] 	at com.mayhem.rs2.entity.mob.impl.Skotizo.hit(Skotizo.java:53)
[2017-03-24 01:45:12] 	at com.mayhem.core.task.impl.HitTask.execute(HitTask.java:64)
[2017-03-24 01:45:12] 	at com.mayhem.core.task.Task.run(Task.java:183)
[2017-03-24 01:45:12] 	at com.mayhem.core.task.TaskQueue.process(TaskQueue.java:78)
[2017-03-24 01:45:12] 	at com.mayhem.core.GameThread.cycle(GameThread.java:127)
[2017-03-24 01:45:12] 	at com.mayhem.core.GameThread.run(GameThread.java:150)
[2017-03-24 01:45:14] java.lang.IndexOutOfBoundsException: Index: 0, Size: 0
[2017-03-24 01:45:14] 	at java.util.ArrayList.rangeCheck(Unknown Source)
[2017-03-24 01:45:14] 	at java.util.ArrayList.get(Unknown Source)
[2017-03-24 01:45:14] 	at com.mayhem.rs2.entity.mob.impl.DarkAnkou.spawn(DarkAnkou.java:39)
[2017-03-24 01:45:14] 	at com.mayhem.rs2.entity.mob.impl.Skotizo.spawnMinions(Skotizo.java:60)
[2017-03-24 01:45:14] 	at com.mayhem.rs2.entity.mob.impl.Skotizo.hit(Skotizo.java:53)
[2017-03-24 01:45:14] 	at com.mayhem.core.task.impl.HitTask.execute(HitTask.java:64)
[2017-03-24 01:45:14] 	at com.mayhem.core.task.Task.run(Task.java:183)
[2017-03-24 01:45:14] 	at com.mayhem.core.task.TaskQueue.process(TaskQueue.java:78)
[2017-03-24 01:45:14] 	at com.mayhem.core.GameThread.cycle(GameThread.java:127)
[2017-03-24 01:45:14] 	at com.mayhem.core.GameThread.run(GameThread.java:150)
[2017-03-24 01:45:16] java.lang.IndexOutOfBoundsException: Index: 0, Size: 0
[2017-03-24 01:45:16] 	at java.util.ArrayList.rangeCheck(Unknown Source)
[2017-03-24 01:45:16] 	at java.util.ArrayList.get(Unknown Source)
[2017-03-24 01:45:16] 	at com.mayhem.rs2.entity.mob.impl.DarkAnkou.spawn(DarkAnkou.java:39)
[2017-03-24 01:45:16] 	at com.mayhem.rs2.entity.mob.impl.Skotizo.spawnMinions(Skotizo.java:60)
[2017-03-24 01:45:16] 	at com.mayhem.rs2.entity.mob.impl.Skotizo.hit(Skotizo.java:53)
[2017-03-24 01:45:16] 	at com.mayhem.core.task.impl.HitTask.execute(HitTask.java:64)
[2017-03-24 01:45:16] 	at com.mayhem.core.task.Task.run(Task.java:183)
[2017-03-24 01:45:16] 	at com.mayhem.core.task.TaskQueue.process(TaskQueue.java:78)
[2017-03-24 01:45:16] 	at com.mayhem.core.GameThread.cycle(GameThread.java:127)
[2017-03-24 01:45:17] 	at com.mayhem.core.GameThread.run(GameThread.java:150)
[2017-03-24 01:45:19] java.lang.IndexOutOfBoundsException: Index: 0, Size: 0
[2017-03-24 01:45:19] 	at java.util.ArrayList.rangeCheck(Unknown Source)
[2017-03-24 01:45:19] 	at java.util.ArrayList.get(Unknown Source)
[2017-03-24 01:45:19] 	at com.mayhem.rs2.entity.mob.impl.DarkAnkou.spawn(DarkAnkou.java:39)
[2017-03-24 01:45:19] 	at com.mayhem.rs2.entity.mob.impl.Skotizo.spawnMinions(Skotizo.java:60)
[2017-03-24 01:45:19] 	at com.mayhem.rs2.entity.mob.impl.Skotizo.hit(Skotizo.java:53)
[2017-03-24 01:45:19] 	at com.mayhem.core.task.impl.HitTask.execute(HitTask.java:64)
[2017-03-24 01:45:19] 	at com.mayhem.core.task.Task.run(Task.java:183)
[2017-03-24 01:45:19] 	at com.mayhem.core.task.TaskQueue.process(TaskQueue.java:78)
[2017-03-24 01:45:19] 	at com.mayhem.core.GameThread.cycle(GameThread.java:127)
[2017-03-24 01:45:19] 	at com.mayhem.core.GameThread.run(GameThread.java:150)
[2017-03-24 01:45:21] java.lang.IndexOutOfBoundsException: Index: 0, Size: 0
[2017-03-24 01:45:21] 	at java.util.ArrayList.rangeCheck(Unknown Source)
[2017-03-24 01:45:21] 	at java.util.ArrayList.get(Unknown Source)
[2017-03-24 01:45:21] 	at com.mayhem.rs2.entity.mob.impl.ReanimatedDemonSpawn.spawn(ReanimatedDemonSpawn.java:43)
[2017-03-24 01:45:21] 	at com.mayhem.rs2.entity.mob.impl.Skotizo.spawnMinions(Skotizo.java:60)
[2017-03-24 01:45:21] 	at com.mayhem.rs2.entity.mob.impl.Skotizo.hit(Skotizo.java:53)
[2017-03-24 01:45:21] 	at com.mayhem.core.task.impl.HitTask.execute(HitTask.java:64)
[2017-03-24 01:45:21] 	at com.mayhem.core.task.Task.run(Task.java:183)
[2017-03-24 01:45:21] 	at com.mayhem.core.task.TaskQueue.process(TaskQueue.java:78)
[2017-03-24 01:45:21] 	at com.mayhem.core.GameThread.cycle(GameThread.java:127)
[2017-03-24 01:45:21] 	at com.mayhem.core.GameThread.run(GameThread.java:150)
[2017-03-24 01:45:23] java.lang.IndexOutOfBoundsException: Index: 0, Size: 0
[2017-03-24 01:45:23] 	at java.util.ArrayList.rangeCheck(Unknown Source)
[2017-03-24 01:45:23] 	at java.util.ArrayList.get(Unknown Source)
[2017-03-24 01:45:23] 	at com.mayhem.rs2.entity.mob.impl.ReanimatedDemonSpawn.spawn(ReanimatedDemonSpawn.java:43)
[2017-03-24 01:45:23] 	at com.mayhem.rs2.entity.mob.impl.Skotizo.spawnMinions(Skotizo.java:60)
[2017-03-24 01:45:24] 	at com.mayhem.rs2.entity.mob.impl.Skotizo.hit(Skotizo.java:53)
[2017-03-24 01:45:24] 	at com.mayhem.core.task.impl.HitTask.execute(HitTask.java:64)
[2017-03-24 01:45:24] 	at com.mayhem.core.task.Task.run(Task.java:183)
[2017-03-24 01:45:24] 	at com.mayhem.core.task.TaskQueue.process(TaskQueue.java:78)
[2017-03-24 01:45:24] 	at com.mayhem.core.GameThread.cycle(GameThread.java:127)
[2017-03-24 01:45:24] 	at com.mayhem.core.GameThread.run(GameThread.java:150)
[2017-03-24 01:45:29] java.lang.IndexOutOfBoundsException: Index: 0, Size: 0
[2017-03-24 01:45:29] 	at java.util.ArrayList.rangeCheck(Unknown Source)
[2017-03-24 01:45:29] 	at java.util.ArrayList.get(Unknown Source)
[2017-03-24 01:45:29] 	at com.mayhem.rs2.entity.mob.impl.DarkAnkou.spawn(DarkAnkou.java:39)
[2017-03-24 01:45:29] 	at com.mayhem.rs2.entity.mob.impl.Skotizo.spawnMinions(Skotizo.java:60)
[2017-03-24 01:45:29] 	at com.mayhem.rs2.entity.mob.impl.Skotizo.hit(Skotizo.java:53)
[2017-03-24 01:45:29] 	at com.mayhem.core.task.impl.HitTask.execute(HitTask.java:64)
[2017-03-24 01:45:29] 	at com.mayhem.core.task.Task.run(Task.java:183)
[2017-03-24 01:45:29] 	at com.mayhem.core.task.TaskQueue.process(TaskQueue.java:78)
[2017-03-24 01:45:29] 	at com.mayhem.core.GameThread.cycle(GameThread.java:127)
[2017-03-24 01:45:29] 	at com.mayhem.core.GameThread.run(GameThread.java:150)
[2017-03-24 01:45:31] java.lang.IndexOutOfBoundsException: Index: 0, Size: 0
[2017-03-24 01:45:31] 	at java.util.ArrayList.rangeCheck(Unknown Source)
[2017-03-24 01:45:31] 	at java.util.ArrayList.get(Unknown Source)
[2017-03-24 01:45:31] 	at com.mayhem.rs2.entity.mob.impl.ReanimatedDemonSpawn.spawn(ReanimatedDemonSpawn.java:43)
[2017-03-24 01:45:31] 	at com.mayhem.rs2.entity.mob.impl.Skotizo.spawnMinions(Skotizo.java:60)
[2017-03-24 01:45:31] 	at com.mayhem.rs2.entity.mob.impl.Skotizo.hit(Skotizo.java:53)
[2017-03-24 01:45:31] 	at com.mayhem.core.task.impl.HitTask.execute(HitTask.java:64)
[2017-03-24 01:45:31] 	at com.mayhem.core.task.Task.run(Task.java:183)
[2017-03-24 01:45:31] 	at com.mayhem.core.task.TaskQueue.process(TaskQueue.java:78)
[2017-03-24 01:45:31] 	at com.mayhem.core.GameThread.cycle(GameThread.java:127)
[2017-03-24 01:45:31] 	at com.mayhem.core.GameThread.run(GameThread.java:150)
[2017-03-24 01:45:34] java.lang.IndexOutOfBoundsException: Index: 0, Size: 0
[2017-03-24 01:45:34] 	at java.util.ArrayList.rangeCheck(Unknown Source)
[2017-03-24 01:45:34] 	at java.util.ArrayList.get(Unknown Source)
[2017-03-24 01:45:34] 	at com.mayhem.rs2.entity.mob.impl.ReanimatedDemonSpawn.spawn(ReanimatedDemonSpawn.java:43)
[2017-03-24 01:45:34] 	at com.mayhem.rs2.entity.mob.impl.Skotizo.spawnMinions(Skotizo.java:60)
[2017-03-24 01:45:34] 	at com.mayhem.rs2.entity.mob.impl.Skotizo.hit(Skotizo.java:53)
[2017-03-24 01:45:34] 	at com.mayhem.core.task.impl.HitTask.execute(HitTask.java:64)
[2017-03-24 01:45:34] 	at com.mayhem.core.task.Task.run(Task.java:183)
[2017-03-24 01:45:34] 	at com.mayhem.core.task.TaskQueue.process(TaskQueue.java:78)
[2017-03-24 01:45:34] 	at com.mayhem.core.GameThread.cycle(GameThread.java:127)
[2017-03-24 01:45:34] 	at com.mayhem.core.GameThread.run(GameThread.java:150)
[2017-03-24 01:45:36] java.lang.IndexOutOfBoundsException: Index: 0, Size: 0
[2017-03-24 01:45:36] 	at java.util.ArrayList.rangeCheck(Unknown Source)
[2017-03-24 01:45:36] 	at java.util.ArrayList.get(Unknown Source)
[2017-03-24 01:45:36] 	at com.mayhem.rs2.entity.mob.impl.ReanimatedDemonSpawn.spawn(ReanimatedDemonSpawn.java:43)
[2017-03-24 01:45:36] 	at com.mayhem.rs2.entity.mob.impl.Skotizo.spawnMinions(Skotizo.java:60)
[2017-03-24 01:45:36] 	at com.mayhem.rs2.entity.mob.impl.Skotizo.hit(Skotizo.java:53)
[2017-03-24 01:45:36] 	at com.mayhem.core.task.impl.HitTask.execute(HitTask.java:64)
[2017-03-24 01:45:36] 	at com.mayhem.core.task.Task.run(Task.java:183)
[2017-03-24 01:45:36] 	at com.mayhem.core.task.TaskQueue.process(TaskQueue.java:78)
[2017-03-24 01:45:36] 	at com.mayhem.core.GameThread.cycle(GameThread.java:127)
[2017-03-24 01:45:36] 	at com.mayhem.core.GameThread.run(GameThread.java:150)
[2017-03-24 01:45:38] java.lang.IndexOutOfBoundsException: Index: 0, Size: 0
[2017-03-24 01:45:38] 	at java.util.ArrayList.rangeCheck(Unknown Source)
[2017-03-24 01:45:38] 	at java.util.ArrayList.get(Unknown Source)
[2017-03-24 01:45:38] 	at com.mayhem.rs2.entity.mob.impl.ReanimatedDemonSpawn.spawn(ReanimatedDemonSpawn.java:43)
[2017-03-24 01:45:38] 	at com.mayhem.rs2.entity.mob.impl.Skotizo.spawnMinions(Skotizo.java:60)
[2017-03-24 01:45:38] 	at com.mayhem.rs2.entity.mob.impl.Skotizo.hit(Skotizo.java:53)
[2017-03-24 01:45:38] 	at com.mayhem.core.task.impl.HitTask.execute(HitTask.java:64)
[2017-03-24 01:45:38] 	at com.mayhem.core.task.Task.run(Task.java:183)
[2017-03-24 01:45:38] 	at com.mayhem.core.task.TaskQueue.process(TaskQueue.java:78)
[2017-03-24 01:45:38] 	at com.mayhem.core.GameThread.cycle(GameThread.java:127)
[2017-03-24 01:45:38] 	at com.mayhem.core.GameThread.run(GameThread.java:150)
[2017-03-24 01:45:41] java.lang.IndexOutOfBoundsException: Index: 0, Size: 0
[2017-03-24 01:45:41] 	at java.util.ArrayList.rangeCheck(Unknown Source)
[2017-03-24 01:45:41] 	at java.util.ArrayList.get(Unknown Source)
[2017-03-24 01:45:41] 	at com.mayhem.rs2.entity.mob.impl.DarkAnkou.spawn(DarkAnkou.java:39)
[2017-03-24 01:45:41] 	at com.mayhem.rs2.entity.mob.impl.Skotizo.spawnMinions(Skotizo.java:60)
[2017-03-24 01:45:41] 	at com.mayhem.rs2.entity.mob.impl.Skotizo.hit(Skotizo.java:53)
[2017-03-24 01:45:41] 	at com.mayhem.core.task.impl.HitTask.execute(HitTask.java:64)
[2017-03-24 01:45:41] 	at com.mayhem.core.task.Task.run(Task.java:183)
[2017-03-24 01:45:41] 	at com.mayhem.core.task.TaskQueue.process(TaskQueue.java:78)
[2017-03-24 01:45:41] 	at com.mayhem.core.GameThread.cycle(GameThread.java:127)
[2017-03-24 01:45:41] 	at com.mayhem.core.GameThread.run(GameThread.java:150)
[2017-03-24 01:45:43] java.lang.IndexOutOfBoundsException: Index: 0, Size: 0
[2017-03-24 01:45:43] 	at java.util.ArrayList.rangeCheck(Unknown Source)
[2017-03-24 01:45:43] 	at java.util.ArrayList.get(Unknown Source)
[2017-03-24 01:45:43] 	at com.mayhem.rs2.entity.mob.impl.DarkAnkou.spawn(DarkAnkou.java:39)
[2017-03-24 01:45:43] 	at com.mayhem.rs2.entity.mob.impl.Skotizo.spawnMinions(Skotizo.java:60)
[2017-03-24 01:45:43] 	at com.mayhem.rs2.entity.mob.impl.Skotizo.hit(Skotizo.java:53)
[2017-03-24 01:45:43] 	at com.mayhem.core.task.impl.HitTask.execute(HitTask.java:64)
[2017-03-24 01:45:43] 	at com.mayhem.core.task.Task.run(Task.java:183)
[2017-03-24 01:45:43] 	at com.mayhem.core.task.TaskQueue.process(TaskQueue.java:78)
[2017-03-24 01:45:43] 	at com.mayhem.core.GameThread.cycle(GameThread.java:127)
[2017-03-24 01:45:43] 	at com.mayhem.core.GameThread.run(GameThread.java:150)
[2017-03-24 01:45:45] java.lang.IndexOutOfBoundsException: Index: 0, Size: 0
[2017-03-24 01:45:45] 	at java.util.ArrayList.rangeCheck(Unknown Source)
[2017-03-24 01:45:45] 	at java.util.ArrayList.get(Unknown Source)
[2017-03-24 01:45:45] 	at com.mayhem.rs2.entity.mob.impl.DarkAnkou.spawn(DarkAnkou.java:39)
[2017-03-24 01:45:45] 	at com.mayhem.rs2.entity.mob.impl.Skotizo.spawnMinions(Skotizo.java:60)
[2017-03-24 01:45:45] 	at com.mayhem.rs2.entity.mob.impl.Skotizo.hit(Skotizo.java:53)
[2017-03-24 01:45:45] 	at com.mayhem.core.task.impl.HitTask.execute(HitTask.java:64)
[2017-03-24 01:45:45] 	at com.mayhem.core.task.Task.run(Task.java:183)
[2017-03-24 01:45:45] 	at com.mayhem.core.task.TaskQueue.process(TaskQueue.java:78)
[2017-03-24 01:45:45] 	at com.mayhem.core.GameThread.cycle(GameThread.java:127)
[2017-03-24 01:45:45] 	at com.mayhem.core.GameThread.run(GameThread.java:150)
[2017-03-24 01:45:48] java.lang.IndexOutOfBoundsException: Index: 0, Size: 0
[2017-03-24 01:45:48] 	at java.util.ArrayList.rangeCheck(Unknown Source)
[2017-03-24 01:45:48] 	at java.util.ArrayList.get(Unknown Source)
[2017-03-24 01:45:48] 	at com.mayhem.rs2.entity.mob.impl.ReanimatedDemonSpawn.spawn(ReanimatedDemonSpawn.java:43)
[2017-03-24 01:45:48] 	at com.mayhem.rs2.entity.mob.impl.Skotizo.spawnMinions(Skotizo.java:60)
[2017-03-24 01:45:48] 	at com.mayhem.rs2.entity.mob.impl.Skotizo.hit(Skotizo.java:53)
[2017-03-24 01:45:48] 	at com.mayhem.core.task.impl.HitTask.execute(HitTask.java:64)
[2017-03-24 01:45:48] 	at com.mayhem.core.task.Task.run(Task.java:183)
[2017-03-24 01:45:48] 	at com.mayhem.core.task.TaskQueue.process(TaskQueue.java:78)
[2017-03-24 01:45:48] 	at com.mayhem.core.GameThread.cycle(GameThread.java:127)
[2017-03-24 01:45:48] 	at com.mayhem.core.GameThread.run(GameThread.java:150)
[2017-03-24 01:45:50] java.lang.IndexOutOfBoundsException: Index: 0, Size: 0
[2017-03-24 01:45:50] 	at java.util.ArrayList.rangeCheck(Unknown Source)
[2017-03-24 01:45:50] 	at java.util.ArrayList.get(Unknown Source)
[2017-03-24 01:45:50] 	at com.mayhem.rs2.entity.mob.impl.ReanimatedDemonSpawn.spawn(ReanimatedDemonSpawn.java:43)
[2017-03-24 01:45:50] 	at com.mayhem.rs2.entity.mob.impl.Skotizo.spawnMinions(Skotizo.java:60)
[2017-03-24 01:45:50] 	at com.mayhem.rs2.entity.mob.impl.Skotizo.hit(Skotizo.java:53)
[2017-03-24 01:45:50] 	at com.mayhem.core.task.impl.HitTask.execute(HitTask.java:64)
[2017-03-24 01:45:50] 	at com.mayhem.core.task.Task.run(Task.java:183)
[2017-03-24 01:45:50] 	at com.mayhem.core.task.TaskQueue.process(TaskQueue.java:78)
[2017-03-24 01:45:50] 	at com.mayhem.core.GameThread.cycle(GameThread.java:127)
[2017-03-24 01:45:50] 	at com.mayhem.core.GameThread.run(GameThread.java:150)
[2017-03-24 01:45:52] java.lang.IndexOutOfBoundsException: Index: 0, Size: 0
[2017-03-24 01:45:52] 	at java.util.ArrayList.rangeCheck(Unknown Source)
[2017-03-24 01:45:52] 	at java.util.ArrayList.get(Unknown Source)
[2017-03-24 01:45:52] 	at com.mayhem.rs2.entity.mob.impl.ReanimatedDemonSpawn.spawn(ReanimatedDemonSpawn.java:43)
[2017-03-24 01:45:52] 	at com.mayhem.rs2.entity.mob.impl.Skotizo.spawnMinions(Skotizo.java:60)
[2017-03-24 01:45:52] 	at com.mayhem.rs2.entity.mob.impl.Skotizo.hit(Skotizo.java:53)
[2017-03-24 01:45:52] 	at com.mayhem.core.task.impl.HitTask.execute(HitTask.java:64)
[2017-03-24 01:45:52] 	at com.mayhem.core.task.Task.run(Task.java:183)
[2017-03-24 01:45:52] 	at com.mayhem.core.task.TaskQueue.process(TaskQueue.java:78)
[2017-03-24 01:45:52] 	at com.mayhem.core.GameThread.cycle(GameThread.java:127)
[2017-03-24 01:45:52] 	at com.mayhem.core.GameThread.run(GameThread.java:150)
[2017-03-24 01:45:55] java.lang.IndexOutOfBoundsException: Index: 0, Size: 0
[2017-03-24 01:45:55] 	at java.util.ArrayList.rangeCheck(Unknown Source)
[2017-03-24 01:45:55] 	at java.util.ArrayList.get(Unknown Source)
[2017-03-24 01:45:55] 	at com.mayhem.rs2.entity.mob.impl.ReanimatedDemonSpawn.spawn(ReanimatedDemonSpawn.java:43)
[2017-03-24 01:45:55] 	at com.mayhem.rs2.entity.mob.impl.Skotizo.spawnMinions(Skotizo.java:60)
[2017-03-24 01:45:55] 	at com.mayhem.rs2.entity.mob.impl.Skotizo.hit(Skotizo.java:53)
[2017-03-24 01:45:55] 	at com.mayhem.core.task.impl.HitTask.execute(HitTask.java:64)
[2017-03-24 01:45:55] 	at com.mayhem.core.task.Task.run(Task.java:183)
[2017-03-24 01:45:55] 	at com.mayhem.core.task.TaskQueue.process(TaskQueue.java:78)
[2017-03-24 01:45:55] 	at com.mayhem.core.GameThread.cycle(GameThread.java:127)
[2017-03-24 01:45:55] 	at com.mayhem.core.GameThread.run(GameThread.java:150)
[2017-03-24 01:45:57] java.lang.IndexOutOfBoundsException: Index: 0, Size: 0
[2017-03-24 01:45:57] 	at java.util.ArrayList.rangeCheck(Unknown Source)
[2017-03-24 01:45:57] 	at java.util.ArrayList.get(Unknown Source)
[2017-03-24 01:45:57] 	at com.mayhem.rs2.entity.mob.impl.ReanimatedDemonSpawn.spawn(ReanimatedDemonSpawn.java:43)
[2017-03-24 01:45:57] 	at com.mayhem.rs2.entity.mob.impl.Skotizo.spawnMinions(Skotizo.java:60)
[2017-03-24 01:45:57] 	at com.mayhem.rs2.entity.mob.impl.Skotizo.hit(Skotizo.java:53)
[2017-03-24 01:45:57] 	at com.mayhem.core.task.impl.HitTask.execute(HitTask.java:64)
[2017-03-24 01:45:57] 	at com.mayhem.core.task.Task.run(Task.java:183)
[2017-03-24 01:45:57] 	at com.mayhem.core.task.TaskQueue.process(TaskQueue.java:78)
[2017-03-24 01:45:57] 	at com.mayhem.core.GameThread.cycle(GameThread.java:127)
[2017-03-24 01:45:57] 	at com.mayhem.core.GameThread.run(GameThread.java:150)
[2017-03-24 01:45:59] java.lang.IndexOutOfBoundsException: Index: 0, Size: 0
[2017-03-24 01:45:59] 	at java.util.ArrayList.rangeCheck(Unknown Source)
[2017-03-24 01:45:59] 	at java.util.ArrayList.get(Unknown Source)
[2017-03-24 01:45:59] 	at com.mayhem.rs2.entity.mob.impl.ReanimatedDemonSpawn.spawn(ReanimatedDemonSpawn.java:43)
[2017-03-24 01:45:59] 	at com.mayhem.rs2.entity.mob.impl.Skotizo.spawnMinions(Skotizo.java:60)
[2017-03-24 01:45:59] 	at com.mayhem.rs2.entity.mob.impl.Skotizo.hit(Skotizo.java:53)
[2017-03-24 01:45:59] 	at com.mayhem.core.task.impl.HitTask.execute(HitTask.java:64)
[2017-03-24 01:45:59] 	at com.mayhem.core.task.Task.run(Task.java:183)
[2017-03-24 01:45:59] 	at com.mayhem.core.task.TaskQueue.process(TaskQueue.java:78)
[2017-03-24 01:45:59] 	at com.mayhem.core.GameThread.cycle(GameThread.java:127)
[2017-03-24 01:45:59] 	at com.mayhem.core.GameThread.run(GameThread.java:150)
[2017-03-24 01:46:02] java.lang.IndexOutOfBoundsException: Index: 0, Size: 0
[2017-03-24 01:46:02] 	at java.util.ArrayList.rangeCheck(Unknown Source)
[2017-03-24 01:46:02] 	at java.util.ArrayList.get(Unknown Source)
[2017-03-24 01:46:02] 	at com.mayhem.rs2.entity.mob.impl.DarkAnkou.spawn(DarkAnkou.java:39)
[2017-03-24 01:46:02] 	at com.mayhem.rs2.entity.mob.impl.Skotizo.spawnMinions(Skotizo.java:60)
[2017-03-24 01:46:02] 	at com.mayhem.rs2.entity.mob.impl.Skotizo.hit(Skotizo.java:53)
[2017-03-24 01:46:02] 	at com.mayhem.core.task.impl.HitTask.execute(HitTask.java:64)
[2017-03-24 01:46:02] 	at com.mayhem.core.task.Task.run(Task.java:183)
[2017-03-24 01:46:02] 	at com.mayhem.core.task.TaskQueue.process(TaskQueue.java:78)
[2017-03-24 01:46:02] 	at com.mayhem.core.GameThread.cycle(GameThread.java:127)
[2017-03-24 01:46:02] 	at com.mayhem.core.GameThread.run(GameThread.java:150)
[2017-03-24 01:46:04] java.lang.IndexOutOfBoundsException: Index: 0, Size: 0
[2017-03-24 01:46:04] 	at java.util.ArrayList.rangeCheck(Unknown Source)
[2017-03-24 01:46:04] 	at java.util.ArrayList.get(Unknown Source)
[2017-03-24 01:46:04] 	at com.mayhem.rs2.entity.mob.impl.ReanimatedDemonSpawn.spawn(ReanimatedDemonSpawn.java:43)
[2017-03-24 01:46:04] 	at com.mayhem.rs2.entity.mob.impl.Skotizo.spawnMinions(Skotizo.java:60)
[2017-03-24 01:46:04] 	at com.mayhem.rs2.entity.mob.impl.Skotizo.hit(Skotizo.java:53)
[2017-03-24 01:46:04] 	at com.mayhem.core.task.impl.HitTask.execute(HitTask.java:64)
[2017-03-24 01:46:04] 	at com.mayhem.core.task.Task.run(Task.java:183)
[2017-03-24 01:46:04] 	at com.mayhem.core.task.TaskQueue.process(TaskQueue.java:78)
[2017-03-24 01:46:04] 	at com.mayhem.core.GameThread.cycle(GameThread.java:127)
[2017-03-24 01:46:04] 	at com.mayhem.core.GameThread.run(GameThread.java:150)
[2017-03-24 01:46:06] java.lang.IndexOutOfBoundsException: Index: 0, Size: 0
[2017-03-24 01:46:06] 	at java.util.ArrayList.rangeCheck(Unknown Source)
[2017-03-24 01:46:06] 	at java.util.ArrayList.get(Unknown Source)
[2017-03-24 01:46:06] 	at com.mayhem.rs2.entity.mob.impl.ReanimatedDemonSpawn.spawn(ReanimatedDemonSpawn.java:43)
[2017-03-24 01:46:06] 	at com.mayhem.rs2.entity.mob.impl.Skotizo.spawnMinions(Skotizo.java:60)
[2017-03-24 01:46:06] 	at com.mayhem.rs2.entity.mob.impl.Skotizo.hit(Skotizo.java:53)
[2017-03-24 01:46:06] 	at com.mayhem.core.task.impl.HitTask.execute(HitTask.java:64)
[2017-03-24 01:46:06] 	at com.mayhem.core.task.Task.run(Task.java:183)
[2017-03-24 01:46:06] 	at com.mayhem.core.task.TaskQueue.process(TaskQueue.java:78)
[2017-03-24 01:46:06] 	at com.mayhem.core.GameThread.cycle(GameThread.java:127)
[2017-03-24 01:46:06] 	at com.mayhem.core.GameThread.run(GameThread.java:150)
[2017-03-24 01:46:09] java.lang.IndexOutOfBoundsException: Index: 0, Size: 0
[2017-03-24 01:46:09] 	at java.util.ArrayList.rangeCheck(Unknown Source)
[2017-03-24 01:46:09] 	at java.util.ArrayList.get(Unknown Source)
[2017-03-24 01:46:09] 	at com.mayhem.rs2.entity.mob.impl.DarkAnkou.spawn(DarkAnkou.java:39)
[2017-03-24 01:46:09] 	at com.mayhem.rs2.entity.mob.impl.Skotizo.spawnMinions(Skotizo.java:60)
[2017-03-24 01:46:09] 	at com.mayhem.rs2.entity.mob.impl.Skotizo.hit(Skotizo.java:53)
[2017-03-24 01:46:09] 	at com.mayhem.core.task.impl.HitTask.execute(HitTask.java:64)
[2017-03-24 01:46:09] 	at com.mayhem.core.task.Task.run(Task.java:183)
[2017-03-24 01:46:09] 	at com.mayhem.core.task.TaskQueue.process(TaskQueue.java:78)
[2017-03-24 01:46:09] 	at com.mayhem.core.GameThread.cycle(GameThread.java:127)
[2017-03-24 01:46:09] 	at com.mayhem.core.GameThread.run(GameThread.java:150)
[2017-03-24 01:46:11] java.lang.IndexOutOfBoundsException: Index: 0, Size: 0
[2017-03-24 01:46:11] 	at java.util.ArrayList.rangeCheck(Unknown Source)
[2017-03-24 01:46:11] 	at java.util.ArrayList.get(Unknown Source)
[2017-03-24 01:46:11] 	at com.mayhem.rs2.entity.mob.impl.DarkAnkou.spawn(DarkAnkou.java:39)
[2017-03-24 01:46:11] 	at com.mayhem.rs2.entity.mob.impl.Skotizo.spawnMinions(Skotizo.java:60)
[2017-03-24 01:46:11] 	at com.mayhem.rs2.entity.mob.impl.Skotizo.hit(Skotizo.java:53)
[2017-03-24 01:46:11] 	at com.mayhem.core.task.impl.HitTask.execute(HitTask.java:64)
[2017-03-24 01:46:11] 	at com.mayhem.core.task.Task.run(Task.java:183)
[2017-03-24 01:46:11] 	at com.mayhem.core.task.TaskQueue.process(TaskQueue.java:78)
[2017-03-24 01:46:11] 	at com.mayhem.core.GameThread.cycle(GameThread.java:127)
[2017-03-24 01:46:11] 	at com.mayhem.core.GameThread.run(GameThread.java:150)
[2017-03-24 01:46:13] java.lang.IndexOutOfBoundsException: Index: 0, Size: 0
[2017-03-24 01:46:13] 	at java.util.ArrayList.rangeCheck(Unknown Source)
[2017-03-24 01:46:13] 	at java.util.ArrayList.get(Unknown Source)
[2017-03-24 01:46:13] 	at com.mayhem.rs2.entity.mob.impl.ReanimatedDemonSpawn.spawn(ReanimatedDemonSpawn.java:43)
[2017-03-24 01:46:13] 	at com.mayhem.rs2.entity.mob.impl.Skotizo.spawnMinions(Skotizo.java:60)
[2017-03-24 01:46:13] 	at com.mayhem.rs2.entity.mob.impl.Skotizo.hit(Skotizo.java:53)
[2017-03-24 01:46:13] 	at com.mayhem.core.task.impl.HitTask.execute(HitTask.java:64)
[2017-03-24 01:46:13] 	at com.mayhem.core.task.Task.run(Task.java:183)
[2017-03-24 01:46:13] 	at com.mayhem.core.task.TaskQueue.process(TaskQueue.java:78)
[2017-03-24 01:46:13] 	at com.mayhem.core.GameThread.cycle(GameThread.java:127)
[2017-03-24 01:46:13] 	at com.mayhem.core.GameThread.run(GameThread.java:150)
