Logging started at 2017-04-09 21:02:54
File name: E:\Dropbox\Valius Source\.\data\logs\err\1491789774793 - Andrew - [Sun Apr 9][9.02PM].txt
System.getProperty("os.name"): "Windows 10"

[2017-04-09 21:03:03] java.lang.NullPointerException
[2017-04-09 21:03:03] 	at com.mayhem.rs2.entity.item.impl.GroundItemHandler.add(GroundItemHandler.java:28)
[2017-04-09 21:03:03] 	at com.mayhem.rs2.entity.item.impl.GlobalItemHandler.spawnGroundItems(GlobalItemHandler.java:69)
[2017-04-09 21:03:03] 	at com.mayhem.GameDataLoader$1.run(GameDataLoader.java:101)
