Logging started at 2017-04-02 07:13:52
File name: C:\Users\Administrator\Dropbox\Valius\Valius Source\.\data\logs\err\1491110032156 - Administrator - [Sun Apr 2][7.13AM].txt
System.getProperty("os.name"): "Windows Server 2012 R2"

[2017-04-02 07:24:52] java.lang.NullPointerException
[2017-04-02 07:24:52] 	at com.mayhem.rs2.content.event.objects.BossChest$1.execute(BossChest.java:133)
[2017-04-02 07:24:52] 	at com.mayhem.core.task.Task.run(Task.java:183)
[2017-04-02 07:24:52] 	at com.mayhem.core.task.TaskQueue.process(TaskQueue.java:78)
[2017-04-02 07:24:52] 	at com.mayhem.core.GameThread.cycle(GameThread.java:127)
[2017-04-02 07:24:52] 	at com.mayhem.core.GameThread.run(GameThread.java:150)
[2017-04-02 07:34:34] Didn't save hiscores for [EXTREME]Mod divine
[2017-04-02 08:46:15] Didn't save hiscores for [EXTREME]Mod divine
[2017-04-02 08:46:27] java.lang.NullPointerException
[2017-04-02 08:46:27] 	at com.mayhem.rs2.entity.player.net.in.command.impl.AdministratorCommand.handleCommand(AdministratorCommand.java:254)
[2017-04-02 08:46:27] 	at com.mayhem.rs2.entity.player.net.in.impl.CommandPacket.handle(CommandPacket.java:57)
[2017-04-02 08:46:27] 	at com.mayhem.rs2.entity.player.net.in.PacketHandler.handlePacket(PacketHandler.java:149)
[2017-04-02 08:46:27] 	at com.mayhem.rs2.entity.player.net.Client.processIncomingPackets(Client.java:211)
[2017-04-02 08:46:27] 	at com.mayhem.rs2.entity.World.process(World.java:322)
[2017-04-02 08:46:27] 	at com.mayhem.core.GameThread.cycle(GameThread.java:135)
[2017-04-02 08:46:27] 	at com.mayhem.core.GameThread.run(GameThread.java:150)
[2017-04-02 09:00:50] java.lang.NullPointerException
[2017-04-02 09:00:50] 	at com.mayhem.rs2.content.DropTable.displayNpc(DropTable.java:177)
[2017-04-02 09:00:50] 	at com.mayhem.rs2.entity.player.net.in.impl.ClickButtonPacket.handle(ClickButtonPacket.java:134)
[2017-04-02 09:00:50] 	at com.mayhem.rs2.entity.player.net.in.PacketHandler.handlePacket(PacketHandler.java:149)
[2017-04-02 09:00:50] 	at com.mayhem.rs2.entity.player.net.Client.processIncomingPackets(Client.java:211)
[2017-04-02 09:00:50] 	at com.mayhem.rs2.entity.World.process(World.java:322)
[2017-04-02 09:00:50] 	at com.mayhem.core.GameThread.cycle(GameThread.java:135)
[2017-04-02 09:00:50] 	at com.mayhem.core.GameThread.run(GameThread.java:150)
[2017-04-02 09:00:52] java.lang.NullPointerException
[2017-04-02 09:00:52] 	at com.mayhem.rs2.content.DropTable.displayNpc(DropTable.java:177)
[2017-04-02 09:00:52] 	at com.mayhem.rs2.entity.player.net.in.impl.ClickButtonPacket.handle(ClickButtonPacket.java:134)
[2017-04-02 09:00:52] 	at com.mayhem.rs2.entity.player.net.in.PacketHandler.handlePacket(PacketHandler.java:149)
[2017-04-02 09:00:52] 	at com.mayhem.rs2.entity.player.net.Client.processIncomingPackets(Client.java:211)
[2017-04-02 09:00:52] 	at com.mayhem.rs2.entity.World.process(World.java:322)
[2017-04-02 09:00:52] 	at com.mayhem.core.GameThread.cycle(GameThread.java:135)
[2017-04-02 09:00:52] 	at com.mayhem.core.GameThread.run(GameThread.java:150)
[2017-04-02 09:22:46] Didn't save hiscores for [NORMAL] Mod dottel
[2017-04-02 12:57:45] Didn't save hiscores for [NORMAL] Mod dottel
[2017-04-02 17:57:01] Didn't save hiscores for [NORMAL] Mod dottel
[2017-04-02 18:19:37] Didn't save hiscores for [NORMAL] Mod dottel
[2017-04-02 19:23:58] Didn't save hiscores for [NORMAL] Mod dottel
[2017-04-02 19:49:35] Didn't save hiscores for [NORMAL] Mod dottel
[2017-04-02 19:59:38] Didn't save hiscores for [NORMAL] Mod dottel
[2017-04-02 20:12:37] Didn't save hiscores for [EXTREME]Mod divine
[2017-04-02 20:35:37] Didn't save hiscores for [NORMAL] Mod dottel
[2017-04-02 21:11:49] java.lang.NumberFormatException: For input string: "bond"
[2017-04-02 21:11:49] 	at java.lang.NumberFormatException.forInputString(Unknown Source)
[2017-04-02 21:11:49] 	at java.lang.Integer.parseInt(Unknown Source)
[2017-04-02 21:11:49] 	at java.lang.Integer.parseInt(Unknown Source)
[2017-04-02 21:11:49] 	at com.mayhem.rs2.entity.player.net.in.command.CommandParser.nextInt(CommandParser.java:46)
[2017-04-02 21:11:49] 	at com.mayhem.rs2.entity.player.net.in.command.impl.AdministratorCommand.handleCommand(AdministratorCommand.java:233)
[2017-04-02 21:11:49] 	at com.mayhem.rs2.entity.player.net.in.impl.CommandPacket.handle(CommandPacket.java:57)
[2017-04-02 21:11:49] 	at com.mayhem.rs2.entity.player.net.in.PacketHandler.handlePacket(PacketHandler.java:149)
[2017-04-02 21:11:49] 	at com.mayhem.rs2.entity.player.net.Client.processIncomingPackets(Client.java:211)
[2017-04-02 21:11:49] 	at com.mayhem.rs2.entity.World.process(World.java:322)
[2017-04-02 21:11:49] 	at com.mayhem.core.GameThread.cycle(GameThread.java:135)
[2017-04-02 21:11:49] 	at com.mayhem.core.GameThread.run(GameThread.java:150)
[2017-04-02 21:14:59] Didn't save hiscores for [NORMAL] Mod dottel
[2017-04-03 00:51:12] java.lang.IndexOutOfBoundsException: Readable byte limit exceeded: 12
[2017-04-03 00:51:12] 	at org.jboss.netty.buffer.AbstractChannelBuffer.readByte(AbstractChannelBuffer.java:236)
[2017-04-03 00:51:12] 	at com.mayhem.core.network.StreamBuffer$InBuffer.readByte(StreamBuffer.java:120)
[2017-04-03 00:51:12] 	at com.mayhem.core.network.StreamBuffer$InBuffer.readByte(StreamBuffer.java:107)
[2017-04-03 00:51:12] 	at com.mayhem.core.network.StreamBuffer$InBuffer.readShort(StreamBuffer.java:467)
[2017-04-03 00:51:12] 	at com.mayhem.core.network.StreamBuffer$InBuffer.readShort(StreamBuffer.java:412)
[2017-04-03 00:51:12] 	at com.mayhem.rs2.entity.player.net.in.impl.ItemPackets.handle(ItemPackets.java:853)
[2017-04-03 00:51:12] 	at com.mayhem.rs2.entity.player.net.in.PacketHandler.handlePacket(PacketHandler.java:149)
[2017-04-03 00:51:12] 	at com.mayhem.rs2.entity.player.net.Client.processIncomingPackets(Client.java:211)
[2017-04-03 00:51:12] 	at com.mayhem.rs2.entity.World.process(World.java:322)
[2017-04-03 00:51:12] 	at com.mayhem.core.GameThread.cycle(GameThread.java:135)
[2017-04-03 00:51:12] 	at com.mayhem.core.GameThread.run(GameThread.java:150)
[2017-04-03 00:52:09] java.lang.IndexOutOfBoundsException: Readable byte limit exceeded: 12
[2017-04-03 00:52:09] 	at org.jboss.netty.buffer.AbstractChannelBuffer.readByte(AbstractChannelBuffer.java:236)
[2017-04-03 00:52:09] 	at com.mayhem.core.network.StreamBuffer$InBuffer.readByte(StreamBuffer.java:120)
[2017-04-03 00:52:09] 	at com.mayhem.core.network.StreamBuffer$InBuffer.readByte(StreamBuffer.java:107)
[2017-04-03 00:52:09] 	at com.mayhem.core.network.StreamBuffer$InBuffer.readShort(StreamBuffer.java:467)
[2017-04-03 00:52:09] 	at com.mayhem.core.network.StreamBuffer$InBuffer.readShort(StreamBuffer.java:412)
[2017-04-03 00:52:09] 	at com.mayhem.rs2.entity.player.net.in.impl.ItemPackets.handle(ItemPackets.java:853)
[2017-04-03 00:52:09] 	at com.mayhem.rs2.entity.player.net.in.PacketHandler.handlePacket(PacketHandler.java:149)
[2017-04-03 00:52:09] 	at com.mayhem.rs2.entity.player.net.Client.processIncomingPackets(Client.java:211)
[2017-04-03 00:52:09] 	at com.mayhem.rs2.entity.World.process(World.java:322)
[2017-04-03 00:52:09] 	at com.mayhem.core.GameThread.cycle(GameThread.java:135)
[2017-04-03 00:52:09] 	at com.mayhem.core.GameThread.run(GameThread.java:150)
[2017-04-03 00:52:26] java.lang.IndexOutOfBoundsException: Readable byte limit exceeded: 12
[2017-04-03 00:52:26] 	at org.jboss.netty.buffer.AbstractChannelBuffer.readByte(AbstractChannelBuffer.java:236)
[2017-04-03 00:52:26] 	at com.mayhem.core.network.StreamBuffer$InBuffer.readByte(StreamBuffer.java:120)
[2017-04-03 00:52:26] 	at com.mayhem.core.network.StreamBuffer$InBuffer.readByte(StreamBuffer.java:107)
[2017-04-03 00:52:26] 	at com.mayhem.core.network.StreamBuffer$InBuffer.readShort(StreamBuffer.java:467)
[2017-04-03 00:52:26] 	at com.mayhem.core.network.StreamBuffer$InBuffer.readShort(StreamBuffer.java:412)
[2017-04-03 00:52:26] 	at com.mayhem.rs2.entity.player.net.in.impl.ItemPackets.handle(ItemPackets.java:853)
[2017-04-03 00:52:26] 	at com.mayhem.rs2.entity.player.net.in.PacketHandler.handlePacket(PacketHandler.java:149)
[2017-04-03 00:52:26] 	at com.mayhem.rs2.entity.player.net.Client.processIncomingPackets(Client.java:211)
[2017-04-03 00:52:26] 	at com.mayhem.rs2.entity.World.process(World.java:322)
[2017-04-03 00:52:26] 	at com.mayhem.core.GameThread.cycle(GameThread.java:135)
[2017-04-03 00:52:26] 	at com.mayhem.core.GameThread.run(GameThread.java:150)
[2017-04-03 00:53:15] java.lang.IndexOutOfBoundsException: Readable byte limit exceeded: 12
[2017-04-03 00:53:15] 	at org.jboss.netty.buffer.AbstractChannelBuffer.readByte(AbstractChannelBuffer.java:236)
[2017-04-03 00:53:15] 	at com.mayhem.core.network.StreamBuffer$InBuffer.readByte(StreamBuffer.java:120)
[2017-04-03 00:53:15] 	at com.mayhem.core.network.StreamBuffer$InBuffer.readByte(StreamBuffer.java:107)
[2017-04-03 00:53:15] 	at com.mayhem.core.network.StreamBuffer$InBuffer.readShort(StreamBuffer.java:467)
[2017-04-03 00:53:15] 	at com.mayhem.core.network.StreamBuffer$InBuffer.readShort(StreamBuffer.java:412)
[2017-04-03 00:53:15] 	at com.mayhem.rs2.entity.player.net.in.impl.ItemPackets.handle(ItemPackets.java:853)
[2017-04-03 00:53:15] 	at com.mayhem.rs2.entity.player.net.in.PacketHandler.handlePacket(PacketHandler.java:149)
[2017-04-03 00:53:15] 	at com.mayhem.rs2.entity.player.net.Client.processIncomingPackets(Client.java:211)
[2017-04-03 00:53:15] 	at com.mayhem.rs2.entity.World.process(World.java:322)
[2017-04-03 00:53:15] 	at com.mayhem.core.GameThread.cycle(GameThread.java:135)
[2017-04-03 00:53:15] 	at com.mayhem.core.GameThread.run(GameThread.java:150)
[2017-04-03 00:56:17] Didn't save hiscores for [NORMAL] Mod dottel
[2017-04-03 00:57:12] java.lang.IndexOutOfBoundsException: Readable byte limit exceeded: 12
[2017-04-03 00:57:12] 	at org.jboss.netty.buffer.AbstractChannelBuffer.readByte(AbstractChannelBuffer.java:236)
[2017-04-03 00:57:12] 	at com.mayhem.core.network.StreamBuffer$InBuffer.readByte(StreamBuffer.java:120)
[2017-04-03 00:57:12] 	at com.mayhem.core.network.StreamBuffer$InBuffer.readByte(StreamBuffer.java:107)
[2017-04-03 00:57:12] 	at com.mayhem.core.network.StreamBuffer$InBuffer.readShort(StreamBuffer.java:467)
[2017-04-03 00:57:12] 	at com.mayhem.core.network.StreamBuffer$InBuffer.readShort(StreamBuffer.java:412)
[2017-04-03 00:57:12] 	at com.mayhem.rs2.entity.player.net.in.impl.ItemPackets.handle(ItemPackets.java:853)
[2017-04-03 00:57:12] 	at com.mayhem.rs2.entity.player.net.in.PacketHandler.handlePacket(PacketHandler.java:149)
[2017-04-03 00:57:12] 	at com.mayhem.rs2.entity.player.net.Client.processIncomingPackets(Client.java:211)
[2017-04-03 00:57:12] 	at com.mayhem.rs2.entity.World.process(World.java:322)
[2017-04-03 00:57:12] 	at com.mayhem.core.GameThread.cycle(GameThread.java:135)
[2017-04-03 00:57:12] 	at com.mayhem.core.GameThread.run(GameThread.java:150)
[2017-04-03 00:57:46] java.lang.IndexOutOfBoundsException: Readable byte limit exceeded: 12
[2017-04-03 00:57:46] 	at org.jboss.netty.buffer.AbstractChannelBuffer.readByte(AbstractChannelBuffer.java:236)
[2017-04-03 00:57:46] 	at com.mayhem.core.network.StreamBuffer$InBuffer.readByte(StreamBuffer.java:120)
[2017-04-03 00:57:46] 	at com.mayhem.core.network.StreamBuffer$InBuffer.readByte(StreamBuffer.java:107)
[2017-04-03 00:57:46] 	at com.mayhem.core.network.StreamBuffer$InBuffer.readShort(StreamBuffer.java:467)
[2017-04-03 00:57:46] 	at com.mayhem.core.network.StreamBuffer$InBuffer.readShort(StreamBuffer.java:412)
[2017-04-03 00:57:46] 	at com.mayhem.rs2.entity.player.net.in.impl.ItemPackets.handle(ItemPackets.java:853)
[2017-04-03 00:57:46] 	at com.mayhem.rs2.entity.player.net.in.PacketHandler.handlePacket(PacketHandler.java:149)
[2017-04-03 00:57:46] 	at com.mayhem.rs2.entity.player.net.Client.processIncomingPackets(Client.java:211)
[2017-04-03 00:57:46] 	at com.mayhem.rs2.entity.World.process(World.java:322)
[2017-04-03 00:57:46] 	at com.mayhem.core.GameThread.cycle(GameThread.java:135)
[2017-04-03 00:57:46] 	at com.mayhem.core.GameThread.run(GameThread.java:150)
[2017-04-03 00:58:46] java.lang.IndexOutOfBoundsException: Readable byte limit exceeded: 12
[2017-04-03 00:58:46] 	at org.jboss.netty.buffer.AbstractChannelBuffer.readByte(AbstractChannelBuffer.java:236)
[2017-04-03 00:58:46] 	at com.mayhem.core.network.StreamBuffer$InBuffer.readByte(StreamBuffer.java:120)
[2017-04-03 00:58:46] 	at com.mayhem.core.network.StreamBuffer$InBuffer.readByte(StreamBuffer.java:107)
[2017-04-03 00:58:46] 	at com.mayhem.core.network.StreamBuffer$InBuffer.readShort(StreamBuffer.java:467)
[2017-04-03 00:58:46] 	at com.mayhem.core.network.StreamBuffer$InBuffer.readShort(StreamBuffer.java:412)
[2017-04-03 00:58:46] 	at com.mayhem.rs2.entity.player.net.in.impl.ItemPackets.handle(ItemPackets.java:853)
[2017-04-03 00:58:46] 	at com.mayhem.rs2.entity.player.net.in.PacketHandler.handlePacket(PacketHandler.java:149)
[2017-04-03 00:58:46] 	at com.mayhem.rs2.entity.player.net.Client.processIncomingPackets(Client.java:211)
[2017-04-03 00:58:46] 	at com.mayhem.rs2.entity.World.process(World.java:322)
[2017-04-03 00:58:46] 	at com.mayhem.core.GameThread.cycle(GameThread.java:135)
[2017-04-03 00:58:46] 	at com.mayhem.core.GameThread.run(GameThread.java:150)
[2017-04-03 00:59:18] java.lang.IndexOutOfBoundsException: Readable byte limit exceeded: 12
[2017-04-03 00:59:18] 	at org.jboss.netty.buffer.AbstractChannelBuffer.readByte(AbstractChannelBuffer.java:236)
[2017-04-03 00:59:18] 	at com.mayhem.core.network.StreamBuffer$InBuffer.readByte(StreamBuffer.java:120)
[2017-04-03 00:59:18] 	at com.mayhem.core.network.StreamBuffer$InBuffer.readByte(StreamBuffer.java:107)
[2017-04-03 00:59:18] 	at com.mayhem.core.network.StreamBuffer$InBuffer.readShort(StreamBuffer.java:467)
[2017-04-03 00:59:18] 	at com.mayhem.core.network.StreamBuffer$InBuffer.readShort(StreamBuffer.java:412)
[2017-04-03 00:59:18] 	at com.mayhem.rs2.entity.player.net.in.impl.ItemPackets.handle(ItemPackets.java:853)
[2017-04-03 00:59:18] 	at com.mayhem.rs2.entity.player.net.in.PacketHandler.handlePacket(PacketHandler.java:149)
[2017-04-03 00:59:18] 	at com.mayhem.rs2.entity.player.net.Client.processIncomingPackets(Client.java:211)
[2017-04-03 00:59:18] 	at com.mayhem.rs2.entity.World.process(World.java:322)
[2017-04-03 00:59:18] 	at com.mayhem.core.GameThread.cycle(GameThread.java:135)
[2017-04-03 00:59:18] 	at com.mayhem.core.GameThread.run(GameThread.java:150)
[2017-04-03 01:00:00] java.lang.IndexOutOfBoundsException: Readable byte limit exceeded: 12
[2017-04-03 01:00:00] 	at org.jboss.netty.buffer.AbstractChannelBuffer.readByte(AbstractChannelBuffer.java:236)
[2017-04-03 01:00:00] 	at com.mayhem.core.network.StreamBuffer$InBuffer.readByte(StreamBuffer.java:120)
[2017-04-03 01:00:00] 	at com.mayhem.core.network.StreamBuffer$InBuffer.readByte(StreamBuffer.java:107)
[2017-04-03 01:00:00] 	at com.mayhem.core.network.StreamBuffer$InBuffer.readShort(StreamBuffer.java:467)
[2017-04-03 01:00:00] 	at com.mayhem.core.network.StreamBuffer$InBuffer.readShort(StreamBuffer.java:412)
[2017-04-03 01:00:00] 	at com.mayhem.rs2.entity.player.net.in.impl.ItemPackets.handle(ItemPackets.java:853)
[2017-04-03 01:00:00] 	at com.mayhem.rs2.entity.player.net.in.PacketHandler.handlePacket(PacketHandler.java:149)
[2017-04-03 01:00:00] 	at com.mayhem.rs2.entity.player.net.Client.processIncomingPackets(Client.java:211)
[2017-04-03 01:00:00] 	at com.mayhem.rs2.entity.World.process(World.java:322)
[2017-04-03 01:00:00] 	at com.mayhem.core.GameThread.cycle(GameThread.java:135)
[2017-04-03 01:00:00] 	at com.mayhem.core.GameThread.run(GameThread.java:150)
[2017-04-03 01:00:33] java.lang.IndexOutOfBoundsException: Readable byte limit exceeded: 12
[2017-04-03 01:00:33] 	at org.jboss.netty.buffer.AbstractChannelBuffer.readByte(AbstractChannelBuffer.java:236)
[2017-04-03 01:00:33] 	at com.mayhem.core.network.StreamBuffer$InBuffer.readByte(StreamBuffer.java:120)
[2017-04-03 01:00:33] 	at com.mayhem.core.network.StreamBuffer$InBuffer.readByte(StreamBuffer.java:107)
[2017-04-03 01:00:33] 	at com.mayhem.core.network.StreamBuffer$InBuffer.readShort(StreamBuffer.java:467)
[2017-04-03 01:00:33] 	at com.mayhem.core.network.StreamBuffer$InBuffer.readShort(StreamBuffer.java:412)
[2017-04-03 01:00:33] 	at com.mayhem.rs2.entity.player.net.in.impl.ItemPackets.handle(ItemPackets.java:853)
[2017-04-03 01:00:33] 	at com.mayhem.rs2.entity.player.net.in.PacketHandler.handlePacket(PacketHandler.java:149)
[2017-04-03 01:00:33] 	at com.mayhem.rs2.entity.player.net.Client.processIncomingPackets(Client.java:211)
[2017-04-03 01:00:33] 	at com.mayhem.rs2.entity.World.process(World.java:322)
[2017-04-03 01:00:33] 	at com.mayhem.core.GameThread.cycle(GameThread.java:135)
[2017-04-03 01:00:33] 	at com.mayhem.core.GameThread.run(GameThread.java:150)
[2017-04-03 01:00:58] java.lang.IndexOutOfBoundsException: Readable byte limit exceeded: 12
[2017-04-03 01:00:58] 	at org.jboss.netty.buffer.AbstractChannelBuffer.readByte(AbstractChannelBuffer.java:236)
[2017-04-03 01:00:58] 	at com.mayhem.core.network.StreamBuffer$InBuffer.readByte(StreamBuffer.java:120)
[2017-04-03 01:00:58] 	at com.mayhem.core.network.StreamBuffer$InBuffer.readByte(StreamBuffer.java:107)
[2017-04-03 01:00:58] 	at com.mayhem.core.network.StreamBuffer$InBuffer.readShort(StreamBuffer.java:467)
[2017-04-03 01:00:58] 	at com.mayhem.core.network.StreamBuffer$InBuffer.readShort(StreamBuffer.java:412)
[2017-04-03 01:00:58] 	at com.mayhem.rs2.entity.player.net.in.impl.ItemPackets.handle(ItemPackets.java:853)
[2017-04-03 01:00:58] 	at com.mayhem.rs2.entity.player.net.in.PacketHandler.handlePacket(PacketHandler.java:149)
[2017-04-03 01:00:58] 	at com.mayhem.rs2.entity.player.net.Client.processIncomingPackets(Client.java:211)
[2017-04-03 01:00:58] 	at com.mayhem.rs2.entity.World.process(World.java:322)
[2017-04-03 01:00:58] 	at com.mayhem.core.GameThread.cycle(GameThread.java:135)
[2017-04-03 01:00:58] 	at com.mayhem.core.GameThread.run(GameThread.java:150)
[2017-04-03 01:01:26] java.lang.IndexOutOfBoundsException: Readable byte limit exceeded: 12
[2017-04-03 01:01:26] 	at org.jboss.netty.buffer.AbstractChannelBuffer.readByte(AbstractChannelBuffer.java:236)
[2017-04-03 01:01:26] 	at com.mayhem.core.network.StreamBuffer$InBuffer.readByte(StreamBuffer.java:120)
[2017-04-03 01:01:26] 	at com.mayhem.core.network.StreamBuffer$InBuffer.readByte(StreamBuffer.java:107)
[2017-04-03 01:01:26] 	at com.mayhem.core.network.StreamBuffer$InBuffer.readShort(StreamBuffer.java:467)
[2017-04-03 01:01:26] 	at com.mayhem.core.network.StreamBuffer$InBuffer.readShort(StreamBuffer.java:412)
[2017-04-03 01:01:26] 	at com.mayhem.rs2.entity.player.net.in.impl.ItemPackets.handle(ItemPackets.java:853)
[2017-04-03 01:01:26] 	at com.mayhem.rs2.entity.player.net.in.PacketHandler.handlePacket(PacketHandler.java:149)
[2017-04-03 01:01:26] 	at com.mayhem.rs2.entity.player.net.Client.processIncomingPackets(Client.java:211)
[2017-04-03 01:01:26] 	at com.mayhem.rs2.entity.World.process(World.java:322)
[2017-04-03 01:01:26] 	at com.mayhem.core.GameThread.cycle(GameThread.java:135)
[2017-04-03 01:01:26] 	at com.mayhem.core.GameThread.run(GameThread.java:150)
[2017-04-03 01:01:53] java.lang.IndexOutOfBoundsException: Readable byte limit exceeded: 12
[2017-04-03 01:01:53] 	at org.jboss.netty.buffer.AbstractChannelBuffer.readByte(AbstractChannelBuffer.java:236)
[2017-04-03 01:01:53] 	at com.mayhem.core.network.StreamBuffer$InBuffer.readByte(StreamBuffer.java:120)
[2017-04-03 01:01:53] 	at com.mayhem.core.network.StreamBuffer$InBuffer.readByte(StreamBuffer.java:107)
[2017-04-03 01:01:53] 	at com.mayhem.core.network.StreamBuffer$InBuffer.readShort(StreamBuffer.java:467)
[2017-04-03 01:01:53] 	at com.mayhem.core.network.StreamBuffer$InBuffer.readShort(StreamBuffer.java:412)
[2017-04-03 01:01:53] 	at com.mayhem.rs2.entity.player.net.in.impl.ItemPackets.handle(ItemPackets.java:853)
[2017-04-03 01:01:53] 	at com.mayhem.rs2.entity.player.net.in.PacketHandler.handlePacket(PacketHandler.java:149)
[2017-04-03 01:01:53] 	at com.mayhem.rs2.entity.player.net.Client.processIncomingPackets(Client.java:211)
[2017-04-03 01:01:53] 	at com.mayhem.rs2.entity.World.process(World.java:322)
[2017-04-03 01:01:53] 	at com.mayhem.core.GameThread.cycle(GameThread.java:135)
[2017-04-03 01:01:53] 	at com.mayhem.core.GameThread.run(GameThread.java:150)
[2017-04-03 01:02:55] java.lang.IndexOutOfBoundsException: Readable byte limit exceeded: 12
[2017-04-03 01:02:55] 	at org.jboss.netty.buffer.AbstractChannelBuffer.readByte(AbstractChannelBuffer.java:236)
[2017-04-03 01:02:55] 	at com.mayhem.core.network.StreamBuffer$InBuffer.readByte(StreamBuffer.java:120)
[2017-04-03 01:02:55] 	at com.mayhem.core.network.StreamBuffer$InBuffer.readByte(StreamBuffer.java:107)
[2017-04-03 01:02:55] 	at com.mayhem.core.network.StreamBuffer$InBuffer.readShort(StreamBuffer.java:467)
[2017-04-03 01:02:55] 	at com.mayhem.core.network.StreamBuffer$InBuffer.readShort(StreamBuffer.java:412)
[2017-04-03 01:02:55] 	at com.mayhem.rs2.entity.player.net.in.impl.ItemPackets.handle(ItemPackets.java:853)
[2017-04-03 01:02:55] 	at com.mayhem.rs2.entity.player.net.in.PacketHandler.handlePacket(PacketHandler.java:149)
[2017-04-03 01:02:55] 	at com.mayhem.rs2.entity.player.net.Client.processIncomingPackets(Client.java:211)
[2017-04-03 01:02:55] 	at com.mayhem.rs2.entity.World.process(World.java:322)
[2017-04-03 01:02:55] 	at com.mayhem.core.GameThread.cycle(GameThread.java:135)
[2017-04-03 01:02:55] 	at com.mayhem.core.GameThread.run(GameThread.java:150)
[2017-04-03 01:03:02] java.lang.IndexOutOfBoundsException: Readable byte limit exceeded: 12
[2017-04-03 01:03:02] 	at org.jboss.netty.buffer.AbstractChannelBuffer.readByte(AbstractChannelBuffer.java:236)
[2017-04-03 01:03:02] 	at com.mayhem.core.network.StreamBuffer$InBuffer.readByte(StreamBuffer.java:120)
[2017-04-03 01:03:02] 	at com.mayhem.core.network.StreamBuffer$InBuffer.readByte(StreamBuffer.java:107)
[2017-04-03 01:03:02] 	at com.mayhem.core.network.StreamBuffer$InBuffer.readShort(StreamBuffer.java:467)
[2017-04-03 01:03:02] 	at com.mayhem.core.network.StreamBuffer$InBuffer.readShort(StreamBuffer.java:412)
[2017-04-03 01:03:02] 	at com.mayhem.rs2.entity.player.net.in.impl.ItemPackets.handle(ItemPackets.java:853)
[2017-04-03 01:03:02] 	at com.mayhem.rs2.entity.player.net.in.PacketHandler.handlePacket(PacketHandler.java:149)
[2017-04-03 01:03:02] 	at com.mayhem.rs2.entity.player.net.Client.processIncomingPackets(Client.java:211)
[2017-04-03 01:03:02] 	at com.mayhem.rs2.entity.World.process(World.java:322)
[2017-04-03 01:03:02] 	at com.mayhem.core.GameThread.cycle(GameThread.java:135)
[2017-04-03 01:03:02] 	at com.mayhem.core.GameThread.run(GameThread.java:150)
[2017-04-03 01:03:59] java.lang.IndexOutOfBoundsException: Readable byte limit exceeded: 12
[2017-04-03 01:03:59] 	at org.jboss.netty.buffer.AbstractChannelBuffer.readByte(AbstractChannelBuffer.java:236)
[2017-04-03 01:03:59] 	at com.mayhem.core.network.StreamBuffer$InBuffer.readByte(StreamBuffer.java:120)
[2017-04-03 01:03:59] 	at com.mayhem.core.network.StreamBuffer$InBuffer.readByte(StreamBuffer.java:107)
[2017-04-03 01:03:59] 	at com.mayhem.core.network.StreamBuffer$InBuffer.readShort(StreamBuffer.java:467)
[2017-04-03 01:03:59] 	at com.mayhem.core.network.StreamBuffer$InBuffer.readShort(StreamBuffer.java:412)
[2017-04-03 01:03:59] 	at com.mayhem.rs2.entity.player.net.in.impl.ItemPackets.handle(ItemPackets.java:853)
[2017-04-03 01:03:59] 	at com.mayhem.rs2.entity.player.net.in.PacketHandler.handlePacket(PacketHandler.java:149)
[2017-04-03 01:03:59] 	at com.mayhem.rs2.entity.player.net.Client.processIncomingPackets(Client.java:211)
[2017-04-03 01:03:59] 	at com.mayhem.rs2.entity.World.process(World.java:322)
[2017-04-03 01:03:59] 	at com.mayhem.core.GameThread.cycle(GameThread.java:135)
[2017-04-03 01:03:59] 	at com.mayhem.core.GameThread.run(GameThread.java:150)
[2017-04-03 01:05:02] java.lang.IndexOutOfBoundsException: Readable byte limit exceeded: 12
[2017-04-03 01:05:02] 	at org.jboss.netty.buffer.AbstractChannelBuffer.readByte(AbstractChannelBuffer.java:236)
[2017-04-03 01:05:02] 	at com.mayhem.core.network.StreamBuffer$InBuffer.readByte(StreamBuffer.java:120)
[2017-04-03 01:05:02] 	at com.mayhem.core.network.StreamBuffer$InBuffer.readByte(StreamBuffer.java:107)
[2017-04-03 01:05:02] 	at com.mayhem.core.network.StreamBuffer$InBuffer.readShort(StreamBuffer.java:467)
[2017-04-03 01:05:02] 	at com.mayhem.core.network.StreamBuffer$InBuffer.readShort(StreamBuffer.java:412)
[2017-04-03 01:05:02] 	at com.mayhem.rs2.entity.player.net.in.impl.ItemPackets.handle(ItemPackets.java:853)
[2017-04-03 01:05:02] 	at com.mayhem.rs2.entity.player.net.in.PacketHandler.handlePacket(PacketHandler.java:149)
[2017-04-03 01:05:02] 	at com.mayhem.rs2.entity.player.net.Client.processIncomingPackets(Client.java:211)
[2017-04-03 01:05:02] 	at com.mayhem.rs2.entity.World.process(World.java:322)
[2017-04-03 01:05:02] 	at com.mayhem.core.GameThread.cycle(GameThread.java:135)
[2017-04-03 01:05:02] 	at com.mayhem.core.GameThread.run(GameThread.java:150)
[2017-04-03 01:05:36] java.lang.IndexOutOfBoundsException: Readable byte limit exceeded: 12
[2017-04-03 01:05:36] 	at org.jboss.netty.buffer.AbstractChannelBuffer.readByte(AbstractChannelBuffer.java:236)
[2017-04-03 01:05:36] 	at com.mayhem.core.network.StreamBuffer$InBuffer.readByte(StreamBuffer.java:120)
[2017-04-03 01:05:36] 	at com.mayhem.core.network.StreamBuffer$InBuffer.readByte(StreamBuffer.java:107)
[2017-04-03 01:05:36] 	at com.mayhem.core.network.StreamBuffer$InBuffer.readShort(StreamBuffer.java:467)
[2017-04-03 01:05:36] 	at com.mayhem.core.network.StreamBuffer$InBuffer.readShort(StreamBuffer.java:412)
[2017-04-03 01:05:36] 	at com.mayhem.rs2.entity.player.net.in.impl.ItemPackets.handle(ItemPackets.java:853)
[2017-04-03 01:05:36] 	at com.mayhem.rs2.entity.player.net.in.PacketHandler.handlePacket(PacketHandler.java:149)
[2017-04-03 01:05:36] 	at com.mayhem.rs2.entity.player.net.Client.processIncomingPackets(Client.java:211)
[2017-04-03 01:05:36] 	at com.mayhem.rs2.entity.World.process(World.java:322)
[2017-04-03 01:05:36] 	at com.mayhem.core.GameThread.cycle(GameThread.java:135)
[2017-04-03 01:05:36] 	at com.mayhem.core.GameThread.run(GameThread.java:150)
[2017-04-03 01:05:51] java.lang.IndexOutOfBoundsException: Readable byte limit exceeded: 12
[2017-04-03 01:05:51] 	at org.jboss.netty.buffer.AbstractChannelBuffer.readByte(AbstractChannelBuffer.java:236)
[2017-04-03 01:05:51] 	at com.mayhem.core.network.StreamBuffer$InBuffer.readByte(StreamBuffer.java:120)
[2017-04-03 01:05:51] 	at com.mayhem.core.network.StreamBuffer$InBuffer.readByte(StreamBuffer.java:107)
[2017-04-03 01:05:51] 	at com.mayhem.core.network.StreamBuffer$InBuffer.readShort(StreamBuffer.java:467)
[2017-04-03 01:05:51] 	at com.mayhem.core.network.StreamBuffer$InBuffer.readShort(StreamBuffer.java:412)
[2017-04-03 01:05:51] 	at com.mayhem.rs2.entity.player.net.in.impl.ItemPackets.handle(ItemPackets.java:853)
[2017-04-03 01:05:51] 	at com.mayhem.rs2.entity.player.net.in.PacketHandler.handlePacket(PacketHandler.java:149)
[2017-04-03 01:05:51] 	at com.mayhem.rs2.entity.player.net.Client.processIncomingPackets(Client.java:211)
[2017-04-03 01:05:51] 	at com.mayhem.rs2.entity.World.process(World.java:322)
[2017-04-03 01:05:51] 	at com.mayhem.core.GameThread.cycle(GameThread.java:135)
[2017-04-03 01:05:51] 	at com.mayhem.core.GameThread.run(GameThread.java:150)
[2017-04-03 01:06:53] java.lang.IndexOutOfBoundsException: Readable byte limit exceeded: 12
[2017-04-03 01:06:53] 	at org.jboss.netty.buffer.AbstractChannelBuffer.readByte(AbstractChannelBuffer.java:236)
[2017-04-03 01:06:53] 	at com.mayhem.core.network.StreamBuffer$InBuffer.readByte(StreamBuffer.java:120)
[2017-04-03 01:06:53] 	at com.mayhem.core.network.StreamBuffer$InBuffer.readByte(StreamBuffer.java:107)
[2017-04-03 01:06:53] 	at com.mayhem.core.network.StreamBuffer$InBuffer.readShort(StreamBuffer.java:467)
[2017-04-03 01:06:53] 	at com.mayhem.core.network.StreamBuffer$InBuffer.readShort(StreamBuffer.java:412)
[2017-04-03 01:06:53] 	at com.mayhem.rs2.entity.player.net.in.impl.ItemPackets.handle(ItemPackets.java:853)
[2017-04-03 01:06:53] 	at com.mayhem.rs2.entity.player.net.in.PacketHandler.handlePacket(PacketHandler.java:149)
[2017-04-03 01:06:53] 	at com.mayhem.rs2.entity.player.net.Client.processIncomingPackets(Client.java:211)
[2017-04-03 01:06:53] 	at com.mayhem.rs2.entity.World.process(World.java:322)
[2017-04-03 01:06:53] 	at com.mayhem.core.GameThread.cycle(GameThread.java:135)
[2017-04-03 01:06:53] 	at com.mayhem.core.GameThread.run(GameThread.java:150)
[2017-04-03 01:07:04] java.lang.IndexOutOfBoundsException: Readable byte limit exceeded: 12
[2017-04-03 01:07:04] 	at org.jboss.netty.buffer.AbstractChannelBuffer.readByte(AbstractChannelBuffer.java:236)
[2017-04-03 01:07:04] 	at com.mayhem.core.network.StreamBuffer$InBuffer.readByte(StreamBuffer.java:120)
[2017-04-03 01:07:04] 	at com.mayhem.core.network.StreamBuffer$InBuffer.readByte(StreamBuffer.java:107)
[2017-04-03 01:07:04] 	at com.mayhem.core.network.StreamBuffer$InBuffer.readShort(StreamBuffer.java:467)
[2017-04-03 01:07:04] 	at com.mayhem.core.network.StreamBuffer$InBuffer.readShort(StreamBuffer.java:412)
[2017-04-03 01:07:04] 	at com.mayhem.rs2.entity.player.net.in.impl.ItemPackets.handle(ItemPackets.java:853)
[2017-04-03 01:07:04] 	at com.mayhem.rs2.entity.player.net.in.PacketHandler.handlePacket(PacketHandler.java:149)
[2017-04-03 01:07:04] 	at com.mayhem.rs2.entity.player.net.Client.processIncomingPackets(Client.java:211)
[2017-04-03 01:07:04] 	at com.mayhem.rs2.entity.World.process(World.java:322)
[2017-04-03 01:07:04] 	at com.mayhem.core.GameThread.cycle(GameThread.java:135)
[2017-04-03 01:07:04] 	at com.mayhem.core.GameThread.run(GameThread.java:150)
[2017-04-03 01:17:57] Didn't save hiscores for [NORMAL] Mod dottel
[2017-04-03 04:18:36] Didn't save hiscores for [EXTREME]Mod divine
[2017-04-03 04:20:48] Didn't save hiscores for [EXTREME]Mod divine
[2017-04-03 04:22:34] Didn't save hiscores for [EXTREME]Mod divine
[2017-04-03 05:50:58] java.lang.NullPointerException
[2017-04-03 05:50:58] 	at com.mayhem.rs2.entity.mob.Walking.canMoveTo(Walking.java:61)
[2017-04-03 05:50:58] 	at com.mayhem.rs2.entity.movement.MobMovementHandler.canMoveTo(MobMovementHandler.java:16)
[2017-04-03 05:50:58] 	at com.mayhem.rs2.entity.pathfinding.SimplePathWalker.walkable(SimplePathWalker.java:11)
[2017-04-03 05:50:58] 	at com.mayhem.rs2.entity.pathfinding.SimplePathWalker.walkToNextTile(SimplePathWalker.java:59)
[2017-04-03 05:50:58] 	at com.mayhem.rs2.entity.following.MobFollowing.findPath(MobFollowing.java:49)
[2017-04-03 05:50:58] 	at com.mayhem.rs2.entity.following.Following.follow(Following.java:60)
[2017-04-03 05:50:58] 	at com.mayhem.rs2.entity.following.MobFollowing.process(MobFollowing.java:133)
[2017-04-03 05:50:58] 	at com.mayhem.rs2.entity.mob.Mob.process(Mob.java:875)
[2017-04-03 05:50:58] 	at com.mayhem.rs2.entity.World.process(World.java:347)
[2017-04-03 05:50:58] 	at com.mayhem.core.GameThread.cycle(GameThread.java:135)
[2017-04-03 05:50:58] 	at com.mayhem.core.GameThread.run(GameThread.java:150)
[2017-04-03 07:49:30] Didn't save hiscores for [EXTREME]Mod divine
