Logging started at 2017-04-19 05:07:23
File name: C:\Users\Administrator\Dropbox\Valius\Valius Source\.\data\logs\err\1492571243134 - Administrator - [Wed Apr 19][5.07AM].txt
System.getProperty("os.name"): "Windows Server 2012 R2"

[2017-04-19 05:27:59] java.lang.IndexOutOfBoundsException: Readable byte limit exceeded: 12
[2017-04-19 05:27:59] 	at org.jboss.netty.buffer.AbstractChannelBuffer.readByte(AbstractChannelBuffer.java:236)
[2017-04-19 05:27:59] 	at com.mayhem.core.network.StreamBuffer$InBuffer.readByte(StreamBuffer.java:120)
[2017-04-19 05:27:59] 	at com.mayhem.core.network.StreamBuffer$InBuffer.readByte(StreamBuffer.java:107)
[2017-04-19 05:27:59] 	at com.mayhem.core.network.StreamBuffer$InBuffer.readShort(StreamBuffer.java:467)
[2017-04-19 05:27:59] 	at com.mayhem.core.network.StreamBuffer$InBuffer.readShort(StreamBuffer.java:412)
[2017-04-19 05:27:59] 	at com.mayhem.rs2.entity.player.net.in.impl.ItemPackets.handle(ItemPackets.java:859)
[2017-04-19 05:27:59] 	at com.mayhem.rs2.entity.player.net.in.PacketHandler.handlePacket(PacketHandler.java:149)
[2017-04-19 05:27:59] 	at com.mayhem.rs2.entity.player.net.Client.processIncomingPackets(Client.java:211)
[2017-04-19 05:27:59] 	at com.mayhem.rs2.entity.World.process(World.java:322)
[2017-04-19 05:27:59] 	at com.mayhem.core.GameThread.cycle(GameThread.java:137)
[2017-04-19 05:27:59] 	at com.mayhem.core.GameThread.run(GameThread.java:152)
[2017-04-19 07:06:16] java.lang.NullPointerException
[2017-04-19 07:06:16] 	at com.mayhem.rs2.entity.mob.Mob.hit(Mob.java:553)
[2017-04-19 07:06:16] 	at com.mayhem.core.task.impl.HitTask.execute(HitTask.java:64)
[2017-04-19 07:06:16] 	at com.mayhem.core.task.Task.run(Task.java:183)
[2017-04-19 07:06:16] 	at com.mayhem.core.task.TaskQueue.process(TaskQueue.java:78)
[2017-04-19 07:06:16] 	at com.mayhem.core.GameThread.cycle(GameThread.java:129)
[2017-04-19 07:06:16] 	at com.mayhem.core.GameThread.run(GameThread.java:152)
[2017-04-19 08:42:15] java.lang.NullPointerException
[2017-04-19 08:42:15] 	at com.mayhem.rs2.content.combat.formula.RangeFormulas.calculateRangeAttack(RangeFormulas.java:78)
[2017-04-19 08:42:15] 	at com.mayhem.rs2.content.combat.impl.Ranged.execute(Ranged.java:41)
[2017-04-19 08:42:15] 	at com.mayhem.rs2.content.combat.Combat.attack(Combat.java:92)
[2017-04-19 08:42:15] 	at com.mayhem.rs2.content.combat.Combat.process(Combat.java:215)
[2017-04-19 08:42:15] 	at com.mayhem.rs2.entity.player.Player.process(Player.java:1667)
[2017-04-19 08:42:15] 	at com.mayhem.rs2.entity.World.process(World.java:324)
[2017-04-19 08:42:15] 	at com.mayhem.core.GameThread.cycle(GameThread.java:137)
[2017-04-19 08:42:15] 	at com.mayhem.core.GameThread.run(GameThread.java:152)
[2017-04-19 08:42:15] java.lang.NullPointerException
[2017-04-19 08:42:15] 	at com.mayhem.rs2.entity.player.net.Client.send(Client.java:329)
[2017-04-19 08:42:15] 	at com.mayhem.rs2.entity.player.net.out.impl.SendLogout.execute(SendLogout.java:13)
[2017-04-19 08:42:15] 	at com.mayhem.rs2.entity.player.Player.logout(Player.java:1591)
[2017-04-19 08:42:15] 	at com.mayhem.rs2.entity.World.process(World.java:337)
[2017-04-19 08:42:15] 	at com.mayhem.core.GameThread.cycle(GameThread.java:137)
[2017-04-19 08:42:15] 	at com.mayhem.core.GameThread.run(GameThread.java:152)
[2017-04-19 10:03:48] java.lang.NullPointerException
[2017-04-19 10:03:48] 	at com.mayhem.rs2.content.combat.formula.RangeFormulas.calculateRangeAttack(RangeFormulas.java:78)
[2017-04-19 10:03:48] 	at com.mayhem.rs2.content.combat.impl.Ranged.execute(Ranged.java:41)
[2017-04-19 10:03:48] 	at com.mayhem.rs2.content.combat.Combat.attack(Combat.java:92)
[2017-04-19 10:03:48] 	at com.mayhem.rs2.content.combat.Combat.process(Combat.java:215)
[2017-04-19 10:03:48] 	at com.mayhem.rs2.entity.player.Player.process(Player.java:1667)
[2017-04-19 10:03:48] 	at com.mayhem.rs2.entity.World.process(World.java:324)
[2017-04-19 10:03:48] 	at com.mayhem.core.GameThread.cycle(GameThread.java:137)
[2017-04-19 10:03:48] 	at com.mayhem.core.GameThread.run(GameThread.java:152)
[2017-04-19 10:03:48] java.lang.NullPointerException
[2017-04-19 10:03:48] 	at com.mayhem.rs2.entity.player.net.Client.send(Client.java:329)
[2017-04-19 10:03:48] 	at com.mayhem.rs2.entity.player.net.out.impl.SendLogout.execute(SendLogout.java:13)
[2017-04-19 10:03:48] 	at com.mayhem.rs2.entity.player.Player.logout(Player.java:1591)
[2017-04-19 10:03:48] 	at com.mayhem.rs2.entity.World.process(World.java:337)
[2017-04-19 10:03:48] 	at com.mayhem.core.GameThread.cycle(GameThread.java:137)
[2017-04-19 10:03:48] 	at com.mayhem.core.GameThread.run(GameThread.java:152)
[2017-04-19 10:06:11] java.lang.NullPointerException
[2017-04-19 10:06:11] 	at com.mayhem.rs2.entity.mob.Mob.hit(Mob.java:553)
[2017-04-19 10:06:11] 	at com.mayhem.core.task.impl.HitTask.execute(HitTask.java:64)
[2017-04-19 10:06:11] 	at com.mayhem.core.task.Task.run(Task.java:183)
[2017-04-19 10:06:11] 	at com.mayhem.core.task.TaskQueue.process(TaskQueue.java:78)
[2017-04-19 10:06:11] 	at com.mayhem.core.GameThread.cycle(GameThread.java:129)
[2017-04-19 10:06:11] 	at com.mayhem.core.GameThread.run(GameThread.java:152)
[2017-04-19 10:13:05] java.lang.NullPointerException
[2017-04-19 10:13:05] 	at com.mayhem.rs2.entity.mob.Mob.hit(Mob.java:553)
[2017-04-19 10:13:05] 	at com.mayhem.core.task.impl.HitTask.execute(HitTask.java:64)
[2017-04-19 10:13:05] 	at com.mayhem.core.task.Task.run(Task.java:183)
[2017-04-19 10:13:05] 	at com.mayhem.core.task.TaskQueue.process(TaskQueue.java:78)
[2017-04-19 10:13:05] 	at com.mayhem.core.GameThread.cycle(GameThread.java:129)
[2017-04-19 10:13:05] 	at com.mayhem.core.GameThread.run(GameThread.java:152)
[2017-04-19 10:32:25] java.lang.NullPointerException
[2017-04-19 10:32:25] 	at com.mayhem.rs2.entity.mob.Mob.hit(Mob.java:553)
[2017-04-19 10:32:25] 	at com.mayhem.core.task.impl.HitTask.execute(HitTask.java:64)
[2017-04-19 10:32:25] 	at com.mayhem.core.task.Task.run(Task.java:183)
[2017-04-19 10:32:25] 	at com.mayhem.core.task.TaskQueue.process(TaskQueue.java:78)
[2017-04-19 10:32:25] 	at com.mayhem.core.GameThread.cycle(GameThread.java:129)
[2017-04-19 10:32:25] 	at com.mayhem.core.GameThread.run(GameThread.java:152)
[2017-04-19 10:33:53] java.lang.NullPointerException
[2017-04-19 10:33:53] 	at com.mayhem.rs2.entity.mob.Mob.hit(Mob.java:553)
[2017-04-19 10:33:53] 	at com.mayhem.core.task.impl.HitTask.execute(HitTask.java:64)
[2017-04-19 10:33:53] 	at com.mayhem.core.task.Task.run(Task.java:183)
[2017-04-19 10:33:53] 	at com.mayhem.core.task.TaskQueue.process(TaskQueue.java:78)
[2017-04-19 10:33:53] 	at com.mayhem.core.GameThread.cycle(GameThread.java:129)
[2017-04-19 10:33:53] 	at com.mayhem.core.GameThread.run(GameThread.java:152)
[2017-04-19 10:43:02] java.lang.NullPointerException
[2017-04-19 10:43:02] java.lang.NullPointerException
[2017-04-19 10:43:02] 	at com.mayhem.rs2.entity.player.net.Client.send(Client.java:329)
[2017-04-19 10:43:02] 	at com.mayhem.rs2.entity.player.net.out.impl.SendLogout.execute(SendLogout.java:13)
[2017-04-19 10:43:02] 	at com.mayhem.rs2.entity.player.Player.logout(Player.java:1591)
[2017-04-19 10:43:02] 	at com.mayhem.rs2.entity.World.process(World.java:337)
[2017-04-19 10:43:02] 	at com.mayhem.core.GameThread.cycle(GameThread.java:137)
[2017-04-19 10:43:02] 	at com.mayhem.core.GameThread.run(GameThread.java:152)
[2017-04-19 10:54:34] java.lang.NullPointerException
[2017-04-19 10:54:34] java.lang.NullPointerException
[2017-04-19 18:56:53] Didn't save hiscores for [NORMAL] Mod dottel
[2017-04-19 19:03:55] java.lang.NullPointerException
[2017-04-19 19:03:55] 	at com.mayhem.rs2.content.event.objects.BossChest$1.execute(BossChest.java:179)
[2017-04-19 19:03:55] 	at com.mayhem.core.task.TaskQueue.queue(TaskQueue.java:117)
[2017-04-19 19:03:55] 	at com.mayhem.rs2.content.event.objects.BossChest.dispatchLoot(BossChest.java:174)
[2017-04-19 19:03:55] 	at com.mayhem.rs2.entity.WalkToActions.finishObjectClick(WalkToActions.java:2090)
[2017-04-19 19:03:55] 	at com.mayhem.rs2.entity.WalkToActions$7.onDestination(WalkToActions.java:329)
[2017-04-19 19:03:55] 	at com.mayhem.core.task.impl.WalkToTask.execute(WalkToTask.java:39)
[2017-04-19 19:03:55] 	at com.mayhem.core.task.Task.run(Task.java:183)
[2017-04-19 19:03:55] 	at com.mayhem.core.task.TaskQueue.process(TaskQueue.java:78)
[2017-04-19 19:03:55] 	at com.mayhem.core.GameThread.cycle(GameThread.java:129)
[2017-04-19 19:03:55] 	at com.mayhem.core.GameThread.run(GameThread.java:152)
[2017-04-19 21:55:31] Didn't save hiscores for [NORMAL] Mod dottel
[2017-04-19 23:10:43] Didn't save hiscores for [NORMAL] Mod dottel
[2017-04-20 00:07:21] java.lang.IndexOutOfBoundsException: Readable byte limit exceeded: 12
[2017-04-20 00:07:21] 	at org.jboss.netty.buffer.AbstractChannelBuffer.readByte(AbstractChannelBuffer.java:236)
[2017-04-20 00:07:21] 	at com.mayhem.core.network.StreamBuffer$InBuffer.readByte(StreamBuffer.java:120)
[2017-04-20 00:07:21] 	at com.mayhem.core.network.StreamBuffer$InBuffer.readByte(StreamBuffer.java:107)
[2017-04-20 00:07:21] 	at com.mayhem.core.network.StreamBuffer$InBuffer.readShort(StreamBuffer.java:467)
[2017-04-20 00:07:21] 	at com.mayhem.core.network.StreamBuffer$InBuffer.readShort(StreamBuffer.java:412)
[2017-04-20 00:07:21] 	at com.mayhem.rs2.entity.player.net.in.impl.ItemPackets.handle(ItemPackets.java:859)
[2017-04-20 00:07:21] 	at com.mayhem.rs2.entity.player.net.in.PacketHandler.handlePacket(PacketHandler.java:149)
[2017-04-20 00:07:21] 	at com.mayhem.rs2.entity.player.net.Client.processIncomingPackets(Client.java:211)
[2017-04-20 00:07:21] 	at com.mayhem.rs2.entity.World.process(World.java:322)
[2017-04-20 00:07:21] 	at com.mayhem.core.GameThread.cycle(GameThread.java:137)
[2017-04-20 00:07:21] 	at com.mayhem.core.GameThread.run(GameThread.java:152)
[2017-04-20 00:11:51] java.lang.IllegalStateException: unprepared
[2017-04-20 00:11:51] 	at com.mayhem.core.network.mysql.MembershipRewards.collectReward(MembershipRewards.java:38)
[2017-04-20 00:11:51] 	at com.mayhem.rs2.content.dialogue.impl.MembershipDialogue.execute(MembershipDialogue.java:70)
[2017-04-20 00:11:51] 	at com.mayhem.rs2.entity.player.net.in.impl.ChatInterfacePacket.handleDialogue(ChatInterfacePacket.java:47)
[2017-04-20 00:11:51] 	at com.mayhem.rs2.entity.player.net.in.impl.ChatInterfacePacket.handle(ChatInterfacePacket.java:33)
[2017-04-20 00:11:51] 	at com.mayhem.rs2.entity.player.net.in.PacketHandler.handlePacket(PacketHandler.java:149)
[2017-04-20 00:11:51] 	at com.mayhem.rs2.entity.player.net.Client.processIncomingPackets(Client.java:211)
[2017-04-20 00:11:51] 	at com.mayhem.rs2.entity.World.process(World.java:322)
[2017-04-20 00:11:51] 	at com.mayhem.core.GameThread.cycle(GameThread.java:137)
[2017-04-20 00:11:51] 	at com.mayhem.core.GameThread.run(GameThread.java:152)
[2017-04-20 00:12:19] java.lang.NullPointerException
[2017-04-20 00:12:19] 	at com.mayhem.rs2.content.dialogue.impl.StaffTitleDialogue.title(StaffTitleDialogue.java:22)
[2017-04-20 00:12:19] 	at com.mayhem.rs2.content.dialogue.impl.StaffTitleDialogue.lambda$3(StaffTitleDialogue.java:40)
[2017-04-20 00:12:19] 	at com.mayhem.rs2.content.dialogue.OptionDialogue.execute(OptionDialogue.java:54)
[2017-04-20 00:12:19] 	at com.mayhem.rs2.content.dialogue.OptionDialogue.clickButton(OptionDialogue.java:88)
[2017-04-20 00:12:19] 	at com.mayhem.rs2.entity.player.net.in.impl.ClickButtonPacket.handle(ClickButtonPacket.java:982)
[2017-04-20 00:12:19] 	at com.mayhem.rs2.entity.player.net.in.PacketHandler.handlePacket(PacketHandler.java:149)
[2017-04-20 00:12:19] 	at com.mayhem.rs2.entity.player.net.Client.processIncomingPackets(Client.java:211)
[2017-04-20 00:12:19] 	at com.mayhem.rs2.entity.World.process(World.java:322)
[2017-04-20 00:12:19] 	at com.mayhem.core.GameThread.cycle(GameThread.java:137)
[2017-04-20 00:12:19] 	at com.mayhem.core.GameThread.run(GameThread.java:152)
[2017-04-20 00:12:22] java.lang.NullPointerException
[2017-04-20 00:12:22] 	at com.mayhem.rs2.content.dialogue.impl.StaffTitleDialogue.title(StaffTitleDialogue.java:22)
[2017-04-20 00:12:22] 	at com.mayhem.rs2.content.dialogue.impl.StaffTitleDialogue.lambda$3(StaffTitleDialogue.java:40)
[2017-04-20 00:12:22] 	at com.mayhem.rs2.content.dialogue.OptionDialogue.execute(OptionDialogue.java:54)
[2017-04-20 00:12:22] 	at com.mayhem.rs2.content.dialogue.OptionDialogue.clickButton(OptionDialogue.java:88)
[2017-04-20 00:12:22] 	at com.mayhem.rs2.entity.player.net.in.impl.ClickButtonPacket.handle(ClickButtonPacket.java:982)
[2017-04-20 00:12:22] 	at com.mayhem.rs2.entity.player.net.in.PacketHandler.handlePacket(PacketHandler.java:149)
[2017-04-20 00:12:22] 	at com.mayhem.rs2.entity.player.net.Client.processIncomingPackets(Client.java:211)
[2017-04-20 00:12:22] 	at com.mayhem.rs2.entity.World.process(World.java:322)
[2017-04-20 00:12:22] 	at com.mayhem.core.GameThread.cycle(GameThread.java:137)
[2017-04-20 00:12:22] 	at com.mayhem.core.GameThread.run(GameThread.java:152)
[2017-04-20 00:12:23] java.lang.NullPointerException
[2017-04-20 00:12:23] 	at com.mayhem.rs2.content.dialogue.impl.StaffTitleDialogue.title(StaffTitleDialogue.java:22)
[2017-04-20 00:12:23] 	at com.mayhem.rs2.content.dialogue.impl.StaffTitleDialogue.lambda$3(StaffTitleDialogue.java:40)
[2017-04-20 00:12:23] 	at com.mayhem.rs2.content.dialogue.OptionDialogue.execute(OptionDialogue.java:54)
[2017-04-20 00:12:23] 	at com.mayhem.rs2.content.dialogue.OptionDialogue.clickButton(OptionDialogue.java:88)
[2017-04-20 00:12:23] 	at com.mayhem.rs2.entity.player.net.in.impl.ClickButtonPacket.handle(ClickButtonPacket.java:982)
[2017-04-20 00:12:23] 	at com.mayhem.rs2.entity.player.net.in.PacketHandler.handlePacket(PacketHandler.java:149)
[2017-04-20 00:12:23] 	at com.mayhem.rs2.entity.player.net.Client.processIncomingPackets(Client.java:211)
[2017-04-20 00:12:23] 	at com.mayhem.rs2.entity.World.process(World.java:322)
[2017-04-20 00:12:23] 	at com.mayhem.core.GameThread.cycle(GameThread.java:137)
[2017-04-20 00:12:23] 	at com.mayhem.core.GameThread.run(GameThread.java:152)
[2017-04-20 00:12:37] java.lang.NullPointerException
[2017-04-20 00:12:37] 	at com.mayhem.rs2.entity.player.net.in.impl.StringInputPacket.handle(StringInputPacket.java:78)
[2017-04-20 00:12:37] 	at com.mayhem.rs2.entity.player.net.in.PacketHandler.handlePacket(PacketHandler.java:149)
[2017-04-20 00:12:37] 	at com.mayhem.rs2.entity.player.net.Client.processIncomingPackets(Client.java:211)
[2017-04-20 00:12:37] 	at com.mayhem.rs2.entity.World.process(World.java:322)
[2017-04-20 00:12:37] 	at com.mayhem.core.GameThread.cycle(GameThread.java:137)
[2017-04-20 00:12:37] 	at com.mayhem.core.GameThread.run(GameThread.java:152)
[2017-04-20 00:12:41] java.lang.NullPointerException
[2017-04-20 00:12:41] 	at com.mayhem.rs2.content.dialogue.impl.StaffTitleDialogue.title(StaffTitleDialogue.java:22)
[2017-04-20 00:12:41] 	at com.mayhem.rs2.content.dialogue.impl.StaffTitleDialogue.lambda$3(StaffTitleDialogue.java:40)
[2017-04-20 00:12:41] 	at com.mayhem.rs2.content.dialogue.OptionDialogue.execute(OptionDialogue.java:54)
[2017-04-20 00:12:41] 	at com.mayhem.rs2.content.dialogue.OptionDialogue.clickButton(OptionDialogue.java:88)
[2017-04-20 00:12:41] 	at com.mayhem.rs2.entity.player.net.in.impl.ClickButtonPacket.handle(ClickButtonPacket.java:982)
[2017-04-20 00:12:41] 	at com.mayhem.rs2.entity.player.net.in.PacketHandler.handlePacket(PacketHandler.java:149)
[2017-04-20 00:12:41] 	at com.mayhem.rs2.entity.player.net.Client.processIncomingPackets(Client.java:211)
[2017-04-20 00:12:41] 	at com.mayhem.rs2.entity.World.process(World.java:322)
[2017-04-20 00:12:41] 	at com.mayhem.core.GameThread.cycle(GameThread.java:137)
[2017-04-20 00:12:41] 	at com.mayhem.core.GameThread.run(GameThread.java:152)
[2017-04-20 00:13:11] Didn't save hiscores for [NORMAL] Mod dottel
[2017-04-20 00:13:32] java.lang.NullPointerException
[2017-04-20 00:13:32] 	at com.mayhem.rs2.content.dialogue.impl.StaffTitleDialogue.title(StaffTitleDialogue.java:22)
[2017-04-20 00:13:32] 	at com.mayhem.rs2.content.dialogue.impl.StaffTitleDialogue.lambda$3(StaffTitleDialogue.java:40)
[2017-04-20 00:13:32] 	at com.mayhem.rs2.content.dialogue.OptionDialogue.execute(OptionDialogue.java:54)
[2017-04-20 00:13:32] 	at com.mayhem.rs2.content.dialogue.OptionDialogue.clickButton(OptionDialogue.java:88)
[2017-04-20 00:13:32] 	at com.mayhem.rs2.entity.player.net.in.impl.ClickButtonPacket.handle(ClickButtonPacket.java:982)
[2017-04-20 00:13:32] 	at com.mayhem.rs2.entity.player.net.in.PacketHandler.handlePacket(PacketHandler.java:149)
[2017-04-20 00:13:32] 	at com.mayhem.rs2.entity.player.net.Client.processIncomingPackets(Client.java:211)
[2017-04-20 00:13:32] 	at com.mayhem.rs2.entity.World.process(World.java:322)
[2017-04-20 00:13:32] 	at com.mayhem.core.GameThread.cycle(GameThread.java:137)
[2017-04-20 00:13:32] 	at com.mayhem.core.GameThread.run(GameThread.java:152)
[2017-04-20 00:13:33] java.lang.NullPointerException
[2017-04-20 00:13:33] 	at com.mayhem.rs2.content.dialogue.impl.StaffTitleDialogue.title(StaffTitleDialogue.java:22)
[2017-04-20 00:13:33] 	at com.mayhem.rs2.content.dialogue.impl.StaffTitleDialogue.lambda$3(StaffTitleDialogue.java:40)
[2017-04-20 00:13:33] 	at com.mayhem.rs2.content.dialogue.OptionDialogue.execute(OptionDialogue.java:54)
[2017-04-20 00:13:33] 	at com.mayhem.rs2.content.dialogue.OptionDialogue.clickButton(OptionDialogue.java:88)
[2017-04-20 00:13:33] 	at com.mayhem.rs2.entity.player.net.in.impl.ClickButtonPacket.handle(ClickButtonPacket.java:982)
[2017-04-20 00:13:33] 	at com.mayhem.rs2.entity.player.net.in.PacketHandler.handlePacket(PacketHandler.java:149)
[2017-04-20 00:13:33] 	at com.mayhem.rs2.entity.player.net.Client.processIncomingPackets(Client.java:211)
[2017-04-20 00:13:33] 	at com.mayhem.rs2.entity.World.process(World.java:322)
[2017-04-20 00:13:33] 	at com.mayhem.core.GameThread.cycle(GameThread.java:137)
[2017-04-20 00:13:33] 	at com.mayhem.core.GameThread.run(GameThread.java:152)
[2017-04-20 00:13:33] java.lang.NullPointerException
[2017-04-20 00:13:33] 	at com.mayhem.rs2.content.dialogue.impl.StaffTitleDialogue.title(StaffTitleDialogue.java:22)
[2017-04-20 00:13:33] 	at com.mayhem.rs2.content.dialogue.impl.StaffTitleDialogue.lambda$3(StaffTitleDialogue.java:40)
[2017-04-20 00:13:33] 	at com.mayhem.rs2.content.dialogue.OptionDialogue.execute(OptionDialogue.java:54)
[2017-04-20 00:13:33] 	at com.mayhem.rs2.content.dialogue.OptionDialogue.clickButton(OptionDialogue.java:88)
[2017-04-20 00:13:33] 	at com.mayhem.rs2.entity.player.net.in.impl.ClickButtonPacket.handle(ClickButtonPacket.java:982)
[2017-04-20 00:13:33] 	at com.mayhem.rs2.entity.player.net.in.PacketHandler.handlePacket(PacketHandler.java:149)
[2017-04-20 00:13:33] 	at com.mayhem.rs2.entity.player.net.Client.processIncomingPackets(Client.java:211)
[2017-04-20 00:13:33] 	at com.mayhem.rs2.entity.World.process(World.java:322)
[2017-04-20 00:13:33] 	at com.mayhem.core.GameThread.cycle(GameThread.java:137)
[2017-04-20 00:13:33] 	at com.mayhem.core.GameThread.run(GameThread.java:152)
[2017-04-20 00:13:33] java.lang.NullPointerException
[2017-04-20 00:13:33] 	at com.mayhem.rs2.content.dialogue.impl.StaffTitleDialogue.title(StaffTitleDialogue.java:22)
[2017-04-20 00:13:33] 	at com.mayhem.rs2.content.dialogue.impl.StaffTitleDialogue.lambda$3(StaffTitleDialogue.java:40)
[2017-04-20 00:13:33] 	at com.mayhem.rs2.content.dialogue.OptionDialogue.execute(OptionDialogue.java:54)
[2017-04-20 00:13:33] 	at com.mayhem.rs2.content.dialogue.OptionDialogue.clickButton(OptionDialogue.java:88)
[2017-04-20 00:13:33] 	at com.mayhem.rs2.entity.player.net.in.impl.ClickButtonPacket.handle(ClickButtonPacket.java:982)
[2017-04-20 00:13:33] 	at com.mayhem.rs2.entity.player.net.in.PacketHandler.handlePacket(PacketHandler.java:149)
[2017-04-20 00:13:33] 	at com.mayhem.rs2.entity.player.net.Client.processIncomingPackets(Client.java:211)
[2017-04-20 00:13:33] 	at com.mayhem.rs2.entity.World.process(World.java:322)
[2017-04-20 00:13:33] 	at com.mayhem.core.GameThread.cycle(GameThread.java:137)
[2017-04-20 00:13:33] 	at com.mayhem.core.GameThread.run(GameThread.java:152)
[2017-04-20 00:13:34] java.lang.NullPointerException
[2017-04-20 00:13:34] 	at com.mayhem.rs2.content.dialogue.impl.StaffTitleDialogue.title(StaffTitleDialogue.java:22)
[2017-04-20 00:13:34] 	at com.mayhem.rs2.content.dialogue.impl.StaffTitleDialogue.lambda$3(StaffTitleDialogue.java:40)
[2017-04-20 00:13:34] 	at com.mayhem.rs2.content.dialogue.OptionDialogue.execute(OptionDialogue.java:54)
[2017-04-20 00:13:34] 	at com.mayhem.rs2.content.dialogue.OptionDialogue.clickButton(OptionDialogue.java:88)
[2017-04-20 00:13:34] 	at com.mayhem.rs2.entity.player.net.in.impl.ClickButtonPacket.handle(ClickButtonPacket.java:982)
[2017-04-20 00:13:34] 	at com.mayhem.rs2.entity.player.net.in.PacketHandler.handlePacket(PacketHandler.java:149)
[2017-04-20 00:13:34] 	at com.mayhem.rs2.entity.player.net.Client.processIncomingPackets(Client.java:211)
[2017-04-20 00:13:34] 	at com.mayhem.rs2.entity.World.process(World.java:322)
[2017-04-20 00:13:34] 	at com.mayhem.core.GameThread.cycle(GameThread.java:137)
[2017-04-20 00:13:34] 	at com.mayhem.core.GameThread.run(GameThread.java:152)
[2017-04-20 00:13:46] java.lang.NullPointerException
[2017-04-20 00:13:46] 	at com.mayhem.rs2.entity.player.net.in.impl.StringInputPacket.handle(StringInputPacket.java:78)
[2017-04-20 00:13:46] 	at com.mayhem.rs2.entity.player.net.in.PacketHandler.handlePacket(PacketHandler.java:149)
[2017-04-20 00:13:46] 	at com.mayhem.rs2.entity.player.net.Client.processIncomingPackets(Client.java:211)
[2017-04-20 00:13:46] 	at com.mayhem.rs2.entity.World.process(World.java:322)
[2017-04-20 00:13:46] 	at com.mayhem.core.GameThread.cycle(GameThread.java:137)
[2017-04-20 00:13:46] 	at com.mayhem.core.GameThread.run(GameThread.java:152)
[2017-04-20 00:13:49] java.lang.NullPointerException
[2017-04-20 00:13:49] 	at com.mayhem.rs2.content.dialogue.impl.StaffTitleDialogue.title(StaffTitleDialogue.java:22)
[2017-04-20 00:13:49] 	at com.mayhem.rs2.content.dialogue.impl.StaffTitleDialogue.lambda$3(StaffTitleDialogue.java:40)
[2017-04-20 00:13:49] 	at com.mayhem.rs2.content.dialogue.OptionDialogue.execute(OptionDialogue.java:54)
[2017-04-20 00:13:49] 	at com.mayhem.rs2.content.dialogue.OptionDialogue.clickButton(OptionDialogue.java:88)
[2017-04-20 00:13:49] 	at com.mayhem.rs2.entity.player.net.in.impl.ClickButtonPacket.handle(ClickButtonPacket.java:982)
[2017-04-20 00:13:49] 	at com.mayhem.rs2.entity.player.net.in.PacketHandler.handlePacket(PacketHandler.java:149)
[2017-04-20 00:13:49] 	at com.mayhem.rs2.entity.player.net.Client.processIncomingPackets(Client.java:211)
[2017-04-20 00:13:49] 	at com.mayhem.rs2.entity.World.process(World.java:322)
[2017-04-20 00:13:49] 	at com.mayhem.core.GameThread.cycle(GameThread.java:137)
[2017-04-20 00:13:49] 	at com.mayhem.core.GameThread.run(GameThread.java:152)
[2017-04-20 00:13:50] java.lang.NullPointerException
[2017-04-20 00:13:50] 	at com.mayhem.rs2.content.dialogue.impl.StaffTitleDialogue.title(StaffTitleDialogue.java:22)
[2017-04-20 00:13:50] 	at com.mayhem.rs2.content.dialogue.impl.StaffTitleDialogue.lambda$4(StaffTitleDialogue.java:42)
[2017-04-20 00:13:50] 	at com.mayhem.rs2.content.dialogue.OptionDialogue.execute(OptionDialogue.java:54)
[2017-04-20 00:13:50] 	at com.mayhem.rs2.content.dialogue.OptionDialogue.clickButton(OptionDialogue.java:92)
[2017-04-20 00:13:50] 	at com.mayhem.rs2.entity.player.net.in.impl.ClickButtonPacket.handle(ClickButtonPacket.java:982)
[2017-04-20 00:13:50] 	at com.mayhem.rs2.entity.player.net.in.PacketHandler.handlePacket(PacketHandler.java:149)
[2017-04-20 00:13:50] 	at com.mayhem.rs2.entity.player.net.Client.processIncomingPackets(Client.java:211)
[2017-04-20 00:13:50] 	at com.mayhem.rs2.entity.World.process(World.java:322)
[2017-04-20 00:13:50] 	at com.mayhem.core.GameThread.cycle(GameThread.java:137)
[2017-04-20 00:13:50] 	at com.mayhem.core.GameThread.run(GameThread.java:152)
[2017-04-20 00:13:50] java.lang.NullPointerException
[2017-04-20 00:13:50] 	at com.mayhem.rs2.content.dialogue.impl.StaffTitleDialogue.title(StaffTitleDialogue.java:22)
[2017-04-20 00:13:50] 	at com.mayhem.rs2.content.dialogue.impl.StaffTitleDialogue.lambda$1(StaffTitleDialogue.java:36)
[2017-04-20 00:13:50] 	at com.mayhem.rs2.content.dialogue.OptionDialogue.execute(OptionDialogue.java:54)
[2017-04-20 00:13:50] 	at com.mayhem.rs2.content.dialogue.OptionDialogue.clickButton(OptionDialogue.java:77)
[2017-04-20 00:13:50] 	at com.mayhem.rs2.entity.player.net.in.impl.ClickButtonPacket.handle(ClickButtonPacket.java:982)
[2017-04-20 00:13:50] 	at com.mayhem.rs2.entity.player.net.in.PacketHandler.handlePacket(PacketHandler.java:149)
[2017-04-20 00:13:50] 	at com.mayhem.rs2.entity.player.net.Client.processIncomingPackets(Client.java:211)
[2017-04-20 00:13:50] 	at com.mayhem.rs2.entity.World.process(World.java:322)
[2017-04-20 00:13:50] 	at com.mayhem.core.GameThread.cycle(GameThread.java:137)
[2017-04-20 00:13:50] 	at com.mayhem.core.GameThread.run(GameThread.java:152)
[2017-04-20 00:13:51] java.lang.NullPointerException
[2017-04-20 00:13:51] 	at com.mayhem.rs2.content.dialogue.impl.StaffTitleDialogue.title(StaffTitleDialogue.java:22)
[2017-04-20 00:13:51] 	at com.mayhem.rs2.content.dialogue.impl.StaffTitleDialogue.lambda$3(StaffTitleDialogue.java:40)
[2017-04-20 00:13:51] 	at com.mayhem.rs2.content.dialogue.OptionDialogue.execute(OptionDialogue.java:54)
[2017-04-20 00:13:51] 	at com.mayhem.rs2.content.dialogue.OptionDialogue.clickButton(OptionDialogue.java:88)
[2017-04-20 00:13:51] 	at com.mayhem.rs2.entity.player.net.in.impl.ClickButtonPacket.handle(ClickButtonPacket.java:982)
[2017-04-20 00:13:51] 	at com.mayhem.rs2.entity.player.net.in.PacketHandler.handlePacket(PacketHandler.java:149)
[2017-04-20 00:13:51] 	at com.mayhem.rs2.entity.player.net.Client.processIncomingPackets(Client.java:211)
[2017-04-20 00:13:51] 	at com.mayhem.rs2.entity.World.process(World.java:322)
[2017-04-20 00:13:51] 	at com.mayhem.core.GameThread.cycle(GameThread.java:137)
[2017-04-20 00:13:51] 	at com.mayhem.core.GameThread.run(GameThread.java:152)
[2017-04-20 00:13:52] java.lang.NullPointerException
[2017-04-20 00:13:52] 	at com.mayhem.rs2.content.dialogue.impl.StaffTitleDialogue.title(StaffTitleDialogue.java:22)
[2017-04-20 00:13:52] 	at com.mayhem.rs2.content.dialogue.impl.StaffTitleDialogue.lambda$3(StaffTitleDialogue.java:40)
[2017-04-20 00:13:52] 	at com.mayhem.rs2.content.dialogue.OptionDialogue.execute(OptionDialogue.java:54)
[2017-04-20 00:13:52] 	at com.mayhem.rs2.content.dialogue.OptionDialogue.clickButton(OptionDialogue.java:88)
[2017-04-20 00:13:52] 	at com.mayhem.rs2.entity.player.net.in.impl.ClickButtonPacket.handle(ClickButtonPacket.java:982)
[2017-04-20 00:13:52] 	at com.mayhem.rs2.entity.player.net.in.PacketHandler.handlePacket(PacketHandler.java:149)
[2017-04-20 00:13:52] 	at com.mayhem.rs2.entity.player.net.Client.processIncomingPackets(Client.java:211)
[2017-04-20 00:13:52] 	at com.mayhem.rs2.entity.World.process(World.java:322)
[2017-04-20 00:13:52] 	at com.mayhem.core.GameThread.cycle(GameThread.java:137)
[2017-04-20 00:13:52] 	at com.mayhem.core.GameThread.run(GameThread.java:152)
[2017-04-20 00:13:53] java.lang.NullPointerException
[2017-04-20 00:13:53] 	at com.mayhem.rs2.content.dialogue.impl.StaffTitleDialogue.title(StaffTitleDialogue.java:22)
[2017-04-20 00:13:53] 	at com.mayhem.rs2.content.dialogue.impl.StaffTitleDialogue.lambda$3(StaffTitleDialogue.java:40)
[2017-04-20 00:13:53] 	at com.mayhem.rs2.content.dialogue.OptionDialogue.execute(OptionDialogue.java:54)
[2017-04-20 00:13:53] 	at com.mayhem.rs2.content.dialogue.OptionDialogue.clickButton(OptionDialogue.java:88)
[2017-04-20 00:13:53] 	at com.mayhem.rs2.entity.player.net.in.impl.ClickButtonPacket.handle(ClickButtonPacket.java:982)
[2017-04-20 00:13:53] 	at com.mayhem.rs2.entity.player.net.in.PacketHandler.handlePacket(PacketHandler.java:149)
[2017-04-20 00:13:53] 	at com.mayhem.rs2.entity.player.net.Client.processIncomingPackets(Client.java:211)
[2017-04-20 00:13:53] 	at com.mayhem.rs2.entity.World.process(World.java:322)
[2017-04-20 00:13:53] 	at com.mayhem.core.GameThread.cycle(GameThread.java:137)
[2017-04-20 00:13:53] 	at com.mayhem.core.GameThread.run(GameThread.java:152)
[2017-04-20 00:13:53] java.lang.NullPointerException
[2017-04-20 00:13:53] 	at com.mayhem.rs2.content.dialogue.impl.StaffTitleDialogue.title(StaffTitleDialogue.java:22)
[2017-04-20 00:13:53] 	at com.mayhem.rs2.content.dialogue.impl.StaffTitleDialogue.lambda$3(StaffTitleDialogue.java:40)
[2017-04-20 00:13:53] 	at com.mayhem.rs2.content.dialogue.OptionDialogue.execute(OptionDialogue.java:54)
[2017-04-20 00:13:53] 	at com.mayhem.rs2.content.dialogue.OptionDialogue.clickButton(OptionDialogue.java:88)
[2017-04-20 00:13:53] 	at com.mayhem.rs2.entity.player.net.in.impl.ClickButtonPacket.handle(ClickButtonPacket.java:982)
[2017-04-20 00:13:53] 	at com.mayhem.rs2.entity.player.net.in.PacketHandler.handlePacket(PacketHandler.java:149)
[2017-04-20 00:13:53] 	at com.mayhem.rs2.entity.player.net.Client.processIncomingPackets(Client.java:211)
[2017-04-20 00:13:53] 	at com.mayhem.rs2.entity.World.process(World.java:322)
[2017-04-20 00:13:53] 	at com.mayhem.core.GameThread.cycle(GameThread.java:137)
[2017-04-20 00:13:53] 	at com.mayhem.core.GameThread.run(GameThread.java:152)
[2017-04-20 00:13:53] java.lang.NullPointerException
[2017-04-20 00:13:53] 	at com.mayhem.rs2.content.dialogue.impl.StaffTitleDialogue.title(StaffTitleDialogue.java:22)
[2017-04-20 00:13:53] 	at com.mayhem.rs2.content.dialogue.impl.StaffTitleDialogue.lambda$3(StaffTitleDialogue.java:40)
[2017-04-20 00:13:53] 	at com.mayhem.rs2.content.dialogue.OptionDialogue.execute(OptionDialogue.java:54)
[2017-04-20 00:13:53] 	at com.mayhem.rs2.content.dialogue.OptionDialogue.clickButton(OptionDialogue.java:88)
[2017-04-20 00:13:53] 	at com.mayhem.rs2.entity.player.net.in.impl.ClickButtonPacket.handle(ClickButtonPacket.java:982)
[2017-04-20 00:13:53] 	at com.mayhem.rs2.entity.player.net.in.PacketHandler.handlePacket(PacketHandler.java:149)
[2017-04-20 00:13:53] 	at com.mayhem.rs2.entity.player.net.Client.processIncomingPackets(Client.java:211)
[2017-04-20 00:13:53] 	at com.mayhem.rs2.entity.World.process(World.java:322)
[2017-04-20 00:13:53] 	at com.mayhem.core.GameThread.cycle(GameThread.java:137)
[2017-04-20 00:13:53] 	at com.mayhem.core.GameThread.run(GameThread.java:152)
[2017-04-20 00:14:05] java.lang.NullPointerException
[2017-04-20 00:14:05] 	at com.mayhem.rs2.content.dialogue.impl.StaffTitleDialogue.title(StaffTitleDialogue.java:22)
[2017-04-20 00:14:05] 	at com.mayhem.rs2.content.dialogue.impl.StaffTitleDialogue.lambda$3(StaffTitleDialogue.java:40)
[2017-04-20 00:14:05] 	at com.mayhem.rs2.content.dialogue.OptionDialogue.execute(OptionDialogue.java:54)
[2017-04-20 00:14:05] 	at com.mayhem.rs2.content.dialogue.OptionDialogue.clickButton(OptionDialogue.java:88)
[2017-04-20 00:14:05] 	at com.mayhem.rs2.entity.player.net.in.impl.ClickButtonPacket.handle(ClickButtonPacket.java:982)
[2017-04-20 00:14:05] 	at com.mayhem.rs2.entity.player.net.in.PacketHandler.handlePacket(PacketHandler.java:149)
[2017-04-20 00:14:05] 	at com.mayhem.rs2.entity.player.net.Client.processIncomingPackets(Client.java:211)
[2017-04-20 00:14:05] 	at com.mayhem.rs2.entity.World.process(World.java:322)
[2017-04-20 00:14:05] 	at com.mayhem.core.GameThread.cycle(GameThread.java:137)
[2017-04-20 00:14:05] 	at com.mayhem.core.GameThread.run(GameThread.java:152)
[2017-04-20 00:14:05] java.lang.NullPointerException
[2017-04-20 00:14:05] 	at com.mayhem.rs2.content.dialogue.impl.StaffTitleDialogue.title(StaffTitleDialogue.java:22)
[2017-04-20 00:14:05] 	at com.mayhem.rs2.content.dialogue.impl.StaffTitleDialogue.lambda$4(StaffTitleDialogue.java:42)
[2017-04-20 00:14:05] 	at com.mayhem.rs2.content.dialogue.OptionDialogue.execute(OptionDialogue.java:54)
[2017-04-20 00:14:05] 	at com.mayhem.rs2.content.dialogue.OptionDialogue.clickButton(OptionDialogue.java:92)
[2017-04-20 00:14:05] 	at com.mayhem.rs2.entity.player.net.in.impl.ClickButtonPacket.handle(ClickButtonPacket.java:982)
[2017-04-20 00:14:05] 	at com.mayhem.rs2.entity.player.net.in.PacketHandler.handlePacket(PacketHandler.java:149)
[2017-04-20 00:14:05] 	at com.mayhem.rs2.entity.player.net.Client.processIncomingPackets(Client.java:211)
[2017-04-20 00:14:05] 	at com.mayhem.rs2.entity.World.process(World.java:322)
[2017-04-20 00:14:05] 	at com.mayhem.core.GameThread.cycle(GameThread.java:137)
[2017-04-20 00:14:05] 	at com.mayhem.core.GameThread.run(GameThread.java:152)
[2017-04-20 00:14:06] java.lang.NullPointerException
[2017-04-20 00:14:06] 	at com.mayhem.rs2.content.dialogue.impl.StaffTitleDialogue.title(StaffTitleDialogue.java:22)
[2017-04-20 00:14:06] 	at com.mayhem.rs2.content.dialogue.impl.StaffTitleDialogue.lambda$3(StaffTitleDialogue.java:40)
[2017-04-20 00:14:06] 	at com.mayhem.rs2.content.dialogue.OptionDialogue.execute(OptionDialogue.java:54)
[2017-04-20 00:14:06] 	at com.mayhem.rs2.content.dialogue.OptionDialogue.clickButton(OptionDialogue.java:88)
[2017-04-20 00:14:06] 	at com.mayhem.rs2.entity.player.net.in.impl.ClickButtonPacket.handle(ClickButtonPacket.java:982)
[2017-04-20 00:14:06] 	at com.mayhem.rs2.entity.player.net.in.PacketHandler.handlePacket(PacketHandler.java:149)
[2017-04-20 00:14:06] 	at com.mayhem.rs2.entity.player.net.Client.processIncomingPackets(Client.java:211)
[2017-04-20 00:14:06] 	at com.mayhem.rs2.entity.World.process(World.java:322)
[2017-04-20 00:14:06] 	at com.mayhem.core.GameThread.cycle(GameThread.java:137)
[2017-04-20 00:14:06] 	at com.mayhem.core.GameThread.run(GameThread.java:152)
[2017-04-20 00:14:06] java.lang.NullPointerException
[2017-04-20 00:14:06] 	at com.mayhem.rs2.content.dialogue.impl.StaffTitleDialogue.title(StaffTitleDialogue.java:22)
[2017-04-20 00:14:06] 	at com.mayhem.rs2.content.dialogue.impl.StaffTitleDialogue.lambda$4(StaffTitleDialogue.java:42)
[2017-04-20 00:14:06] 	at com.mayhem.rs2.content.dialogue.OptionDialogue.execute(OptionDialogue.java:54)
[2017-04-20 00:14:06] 	at com.mayhem.rs2.content.dialogue.OptionDialogue.clickButton(OptionDialogue.java:92)
[2017-04-20 00:14:06] 	at com.mayhem.rs2.entity.player.net.in.impl.ClickButtonPacket.handle(ClickButtonPacket.java:982)
[2017-04-20 00:14:06] 	at com.mayhem.rs2.entity.player.net.in.PacketHandler.handlePacket(PacketHandler.java:149)
[2017-04-20 00:14:06] 	at com.mayhem.rs2.entity.player.net.Client.processIncomingPackets(Client.java:211)
[2017-04-20 00:14:06] 	at com.mayhem.rs2.entity.World.process(World.java:322)
[2017-04-20 00:14:06] 	at com.mayhem.core.GameThread.cycle(GameThread.java:137)
[2017-04-20 00:14:06] 	at com.mayhem.core.GameThread.run(GameThread.java:152)
[2017-04-20 00:14:06] java.lang.NullPointerException
[2017-04-20 00:14:06] 	at com.mayhem.rs2.content.dialogue.impl.StaffTitleDialogue.title(StaffTitleDialogue.java:22)
[2017-04-20 00:14:06] 	at com.mayhem.rs2.content.dialogue.impl.StaffTitleDialogue.lambda$4(StaffTitleDialogue.java:42)
[2017-04-20 00:14:06] 	at com.mayhem.rs2.content.dialogue.OptionDialogue.execute(OptionDialogue.java:54)
[2017-04-20 00:14:06] 	at com.mayhem.rs2.content.dialogue.OptionDialogue.clickButton(OptionDialogue.java:92)
[2017-04-20 00:14:06] 	at com.mayhem.rs2.entity.player.net.in.impl.ClickButtonPacket.handle(ClickButtonPacket.java:982)
[2017-04-20 00:14:06] 	at com.mayhem.rs2.entity.player.net.in.PacketHandler.handlePacket(PacketHandler.java:149)
[2017-04-20 00:14:06] 	at com.mayhem.rs2.entity.player.net.Client.processIncomingPackets(Client.java:211)
[2017-04-20 00:14:06] 	at com.mayhem.rs2.entity.World.process(World.java:322)
[2017-04-20 00:14:06] 	at com.mayhem.core.GameThread.cycle(GameThread.java:137)
[2017-04-20 00:14:06] 	at com.mayhem.core.GameThread.run(GameThread.java:152)
[2017-04-20 00:14:06] java.lang.NullPointerException
[2017-04-20 00:14:06] 	at com.mayhem.rs2.content.dialogue.impl.StaffTitleDialogue.title(StaffTitleDialogue.java:22)
[2017-04-20 00:14:06] 	at com.mayhem.rs2.content.dialogue.impl.StaffTitleDialogue.lambda$3(StaffTitleDialogue.java:40)
[2017-04-20 00:14:06] 	at com.mayhem.rs2.content.dialogue.OptionDialogue.execute(OptionDialogue.java:54)
[2017-04-20 00:14:06] 	at com.mayhem.rs2.content.dialogue.OptionDialogue.clickButton(OptionDialogue.java:88)
[2017-04-20 00:14:06] 	at com.mayhem.rs2.entity.player.net.in.impl.ClickButtonPacket.handle(ClickButtonPacket.java:982)
[2017-04-20 00:14:06] 	at com.mayhem.rs2.entity.player.net.in.PacketHandler.handlePacket(PacketHandler.java:149)
[2017-04-20 00:14:06] 	at com.mayhem.rs2.entity.player.net.Client.processIncomingPackets(Client.java:211)
[2017-04-20 00:14:06] 	at com.mayhem.rs2.entity.World.process(World.java:322)
[2017-04-20 00:14:06] 	at com.mayhem.core.GameThread.cycle(GameThread.java:137)
[2017-04-20 00:14:06] 	at com.mayhem.core.GameThread.run(GameThread.java:152)
[2017-04-20 00:14:06] java.lang.NullPointerException
[2017-04-20 00:14:06] 	at com.mayhem.rs2.content.dialogue.impl.StaffTitleDialogue.title(StaffTitleDialogue.java:22)
[2017-04-20 00:14:06] 	at com.mayhem.rs2.content.dialogue.impl.StaffTitleDialogue.lambda$3(StaffTitleDialogue.java:40)
[2017-04-20 00:14:06] 	at com.mayhem.rs2.content.dialogue.OptionDialogue.execute(OptionDialogue.java:54)
[2017-04-20 00:14:06] 	at com.mayhem.rs2.content.dialogue.OptionDialogue.clickButton(OptionDialogue.java:88)
[2017-04-20 00:14:06] 	at com.mayhem.rs2.entity.player.net.in.impl.ClickButtonPacket.handle(ClickButtonPacket.java:982)
[2017-04-20 00:14:06] 	at com.mayhem.rs2.entity.player.net.in.PacketHandler.handlePacket(PacketHandler.java:149)
[2017-04-20 00:14:06] 	at com.mayhem.rs2.entity.player.net.Client.processIncomingPackets(Client.java:211)
[2017-04-20 00:14:06] 	at com.mayhem.rs2.entity.World.process(World.java:322)
[2017-04-20 00:14:06] 	at com.mayhem.core.GameThread.cycle(GameThread.java:137)
[2017-04-20 00:14:06] 	at com.mayhem.core.GameThread.run(GameThread.java:152)
[2017-04-20 00:14:18] java.lang.NullPointerException
[2017-04-20 00:14:18] 	at com.mayhem.rs2.entity.player.net.in.impl.StringInputPacket.handle(StringInputPacket.java:78)
[2017-04-20 00:14:18] 	at com.mayhem.rs2.entity.player.net.in.PacketHandler.handlePacket(PacketHandler.java:149)
[2017-04-20 00:14:18] 	at com.mayhem.rs2.entity.player.net.Client.processIncomingPackets(Client.java:211)
[2017-04-20 00:14:18] 	at com.mayhem.rs2.entity.World.process(World.java:322)
[2017-04-20 00:14:18] 	at com.mayhem.core.GameThread.cycle(GameThread.java:137)
[2017-04-20 00:14:18] 	at com.mayhem.core.GameThread.run(GameThread.java:152)
[2017-04-20 00:14:21] java.lang.NullPointerException
[2017-04-20 00:14:21] 	at com.mayhem.rs2.content.dialogue.impl.StaffTitleDialogue.title(StaffTitleDialogue.java:22)
[2017-04-20 00:14:21] 	at com.mayhem.rs2.content.dialogue.impl.StaffTitleDialogue.lambda$3(StaffTitleDialogue.java:40)
[2017-04-20 00:14:21] 	at com.mayhem.rs2.content.dialogue.OptionDialogue.execute(OptionDialogue.java:54)
[2017-04-20 00:14:21] 	at com.mayhem.rs2.content.dialogue.OptionDialogue.clickButton(OptionDialogue.java:88)
[2017-04-20 00:14:21] 	at com.mayhem.rs2.entity.player.net.in.impl.ClickButtonPacket.handle(ClickButtonPacket.java:982)
[2017-04-20 00:14:21] 	at com.mayhem.rs2.entity.player.net.in.PacketHandler.handlePacket(PacketHandler.java:149)
[2017-04-20 00:14:21] 	at com.mayhem.rs2.entity.player.net.Client.processIncomingPackets(Client.java:211)
[2017-04-20 00:14:21] 	at com.mayhem.rs2.entity.World.process(World.java:322)
[2017-04-20 00:14:21] 	at com.mayhem.core.GameThread.cycle(GameThread.java:137)
[2017-04-20 00:14:21] 	at com.mayhem.core.GameThread.run(GameThread.java:152)
[2017-04-20 00:14:58] java.lang.NullPointerException
[2017-04-20 00:14:58] 	at com.mayhem.rs2.entity.player.net.in.impl.StringInputPacket.handle(StringInputPacket.java:78)
[2017-04-20 00:14:58] 	at com.mayhem.rs2.entity.player.net.in.PacketHandler.handlePacket(PacketHandler.java:149)
[2017-04-20 00:14:58] 	at com.mayhem.rs2.entity.player.net.Client.processIncomingPackets(Client.java:211)
[2017-04-20 00:14:58] 	at com.mayhem.rs2.entity.World.process(World.java:322)
[2017-04-20 00:14:58] 	at com.mayhem.core.GameThread.cycle(GameThread.java:137)
[2017-04-20 00:14:58] 	at com.mayhem.core.GameThread.run(GameThread.java:152)
[2017-04-20 00:15:01] java.lang.NullPointerException
[2017-04-20 00:15:01] 	at com.mayhem.rs2.content.dialogue.impl.StaffTitleDialogue.title(StaffTitleDialogue.java:22)
[2017-04-20 00:15:01] 	at com.mayhem.rs2.content.dialogue.impl.StaffTitleDialogue.lambda$4(StaffTitleDialogue.java:42)
[2017-04-20 00:15:01] 	at com.mayhem.rs2.content.dialogue.OptionDialogue.execute(OptionDialogue.java:54)
[2017-04-20 00:15:01] 	at com.mayhem.rs2.content.dialogue.OptionDialogue.clickButton(OptionDialogue.java:92)
[2017-04-20 00:15:01] 	at com.mayhem.rs2.entity.player.net.in.impl.ClickButtonPacket.handle(ClickButtonPacket.java:982)
[2017-04-20 00:15:01] 	at com.mayhem.rs2.entity.player.net.in.PacketHandler.handlePacket(PacketHandler.java:149)
[2017-04-20 00:15:01] 	at com.mayhem.rs2.entity.player.net.Client.processIncomingPackets(Client.java:211)
[2017-04-20 00:15:01] 	at com.mayhem.rs2.entity.World.process(World.java:322)
[2017-04-20 00:15:01] 	at com.mayhem.core.GameThread.cycle(GameThread.java:137)
[2017-04-20 00:15:01] 	at com.mayhem.core.GameThread.run(GameThread.java:152)
[2017-04-20 00:15:02] java.lang.NullPointerException
[2017-04-20 00:15:02] 	at com.mayhem.rs2.content.dialogue.impl.StaffTitleDialogue.title(StaffTitleDialogue.java:22)
[2017-04-20 00:15:02] 	at com.mayhem.rs2.content.dialogue.impl.StaffTitleDialogue.lambda$3(StaffTitleDialogue.java:40)
[2017-04-20 00:15:02] 	at com.mayhem.rs2.content.dialogue.OptionDialogue.execute(OptionDialogue.java:54)
[2017-04-20 00:15:02] 	at com.mayhem.rs2.content.dialogue.OptionDialogue.clickButton(OptionDialogue.java:88)
[2017-04-20 00:15:02] 	at com.mayhem.rs2.entity.player.net.in.impl.ClickButtonPacket.handle(ClickButtonPacket.java:982)
[2017-04-20 00:15:02] 	at com.mayhem.rs2.entity.player.net.in.PacketHandler.handlePacket(PacketHandler.java:149)
[2017-04-20 00:15:02] 	at com.mayhem.rs2.entity.player.net.Client.processIncomingPackets(Client.java:211)
[2017-04-20 00:15:02] 	at com.mayhem.rs2.entity.World.process(World.java:322)
[2017-04-20 00:15:02] 	at com.mayhem.core.GameThread.cycle(GameThread.java:137)
[2017-04-20 00:15:02] 	at com.mayhem.core.GameThread.run(GameThread.java:152)
[2017-04-20 00:15:14] Didn't save hiscores for [NORMAL] Mod dottel
[2017-04-20 00:45:01] Didn't save hiscores for [NORMAL] Mod dottel
[2017-04-20 07:02:47] Didn't save hiscores for [EXTREME]Mod divine
[2017-04-21 00:08:29] java.lang.NullPointerException
[2017-04-21 00:08:29] 	at com.mayhem.rs2.entity.InterfaceManager.getParents(InterfaceManager.java:17)
[2017-04-21 00:08:29] 	at com.mayhem.rs2.entity.InterfaceManager.verify(InterfaceManager.java:89)
[2017-04-21 00:08:29] 	at com.mayhem.rs2.entity.player.net.in.impl.ItemPackets.handle(ItemPackets.java:125)
[2017-04-21 00:08:29] 	at com.mayhem.rs2.entity.player.net.in.PacketHandler.handlePacket(PacketHandler.java:149)
[2017-04-21 00:08:29] 	at com.mayhem.rs2.entity.player.net.Client.processIncomingPackets(Client.java:211)
[2017-04-21 00:08:29] 	at com.mayhem.rs2.entity.World.process(World.java:322)
[2017-04-21 00:08:29] 	at com.mayhem.core.GameThread.cycle(GameThread.java:137)
[2017-04-21 00:08:29] 	at com.mayhem.core.GameThread.run(GameThread.java:152)
[2017-04-21 00:08:38] java.lang.NullPointerException
[2017-04-21 00:08:38] 	at com.mayhem.rs2.entity.InterfaceManager.getParents(InterfaceManager.java:17)
[2017-04-21 00:08:38] 	at com.mayhem.rs2.entity.InterfaceManager.verify(InterfaceManager.java:89)
[2017-04-21 00:08:38] 	at com.mayhem.rs2.entity.player.net.in.impl.ItemPackets.handle(ItemPackets.java:244)
[2017-04-21 00:08:38] 	at com.mayhem.rs2.entity.player.net.in.PacketHandler.handlePacket(PacketHandler.java:149)
[2017-04-21 00:08:38] 	at com.mayhem.rs2.entity.player.net.Client.processIncomingPackets(Client.java:211)
[2017-04-21 00:08:38] 	at com.mayhem.rs2.entity.World.process(World.java:322)
[2017-04-21 00:08:38] 	at com.mayhem.core.GameThread.cycle(GameThread.java:137)
[2017-04-21 00:08:38] 	at com.mayhem.core.GameThread.run(GameThread.java:152)
[2017-04-21 00:08:42] java.lang.NullPointerException
[2017-04-21 00:08:42] 	at com.mayhem.rs2.entity.InterfaceManager.getParents(InterfaceManager.java:17)
[2017-04-21 00:08:42] 	at com.mayhem.rs2.entity.InterfaceManager.verify(InterfaceManager.java:89)
[2017-04-21 00:08:42] 	at com.mayhem.rs2.entity.player.net.in.impl.ItemPackets.handle(ItemPackets.java:125)
[2017-04-21 00:08:42] 	at com.mayhem.rs2.entity.player.net.in.PacketHandler.handlePacket(PacketHandler.java:149)
[2017-04-21 00:08:42] 	at com.mayhem.rs2.entity.player.net.Client.processIncomingPackets(Client.java:211)
[2017-04-21 00:08:42] 	at com.mayhem.rs2.entity.World.process(World.java:322)
[2017-04-21 00:08:42] 	at com.mayhem.core.GameThread.cycle(GameThread.java:137)
[2017-04-21 00:08:42] 	at com.mayhem.core.GameThread.run(GameThread.java:152)
[2017-04-21 00:08:42] java.lang.NullPointerException
[2017-04-21 00:08:42] 	at com.mayhem.rs2.entity.InterfaceManager.getParents(InterfaceManager.java:17)
[2017-04-21 00:08:42] 	at com.mayhem.rs2.entity.InterfaceManager.verify(InterfaceManager.java:89)
[2017-04-21 00:08:42] 	at com.mayhem.rs2.entity.player.net.in.impl.ItemPackets.handle(ItemPackets.java:125)
[2017-04-21 00:08:42] 	at com.mayhem.rs2.entity.player.net.in.PacketHandler.handlePacket(PacketHandler.java:149)
[2017-04-21 00:08:42] 	at com.mayhem.rs2.entity.player.net.Client.processIncomingPackets(Client.java:211)
[2017-04-21 00:08:42] 	at com.mayhem.rs2.entity.World.process(World.java:322)
[2017-04-21 00:08:42] 	at com.mayhem.core.GameThread.cycle(GameThread.java:137)
[2017-04-21 00:08:42] 	at com.mayhem.core.GameThread.run(GameThread.java:152)
[2017-04-21 00:08:42] java.lang.NullPointerException
[2017-04-21 00:08:42] 	at com.mayhem.rs2.entity.InterfaceManager.getParents(InterfaceManager.java:17)
[2017-04-21 00:08:42] 	at com.mayhem.rs2.entity.InterfaceManager.verify(InterfaceManager.java:89)
[2017-04-21 00:08:42] 	at com.mayhem.rs2.entity.player.net.in.impl.ItemPackets.handle(ItemPackets.java:125)
[2017-04-21 00:08:42] 	at com.mayhem.rs2.entity.player.net.in.PacketHandler.handlePacket(PacketHandler.java:149)
[2017-04-21 00:08:42] 	at com.mayhem.rs2.entity.player.net.Client.processIncomingPackets(Client.java:211)
[2017-04-21 00:08:42] 	at com.mayhem.rs2.entity.World.process(World.java:322)
[2017-04-21 00:08:42] 	at com.mayhem.core.GameThread.cycle(GameThread.java:137)
[2017-04-21 00:08:42] 	at com.mayhem.core.GameThread.run(GameThread.java:152)
[2017-04-21 00:08:43] java.lang.NullPointerException
[2017-04-21 00:08:43] 	at com.mayhem.rs2.entity.InterfaceManager.getParents(InterfaceManager.java:17)
[2017-04-21 00:08:43] 	at com.mayhem.rs2.entity.InterfaceManager.verify(InterfaceManager.java:89)
[2017-04-21 00:08:43] 	at com.mayhem.rs2.entity.player.net.in.impl.ItemPackets.handle(ItemPackets.java:125)
[2017-04-21 00:08:43] 	at com.mayhem.rs2.entity.player.net.in.PacketHandler.handlePacket(PacketHandler.java:149)
[2017-04-21 00:08:43] 	at com.mayhem.rs2.entity.player.net.Client.processIncomingPackets(Client.java:211)
[2017-04-21 00:08:43] 	at com.mayhem.rs2.entity.World.process(World.java:322)
[2017-04-21 00:08:43] 	at com.mayhem.core.GameThread.cycle(GameThread.java:137)
[2017-04-21 00:08:43] 	at com.mayhem.core.GameThread.run(GameThread.java:152)
[2017-04-21 00:08:43] java.lang.NullPointerException
[2017-04-21 00:08:43] 	at com.mayhem.rs2.entity.InterfaceManager.getParents(InterfaceManager.java:17)
[2017-04-21 00:08:43] 	at com.mayhem.rs2.entity.InterfaceManager.verify(InterfaceManager.java:89)
[2017-04-21 00:08:43] 	at com.mayhem.rs2.entity.player.net.in.impl.ItemPackets.handle(ItemPackets.java:125)
[2017-04-21 00:08:43] 	at com.mayhem.rs2.entity.player.net.in.PacketHandler.handlePacket(PacketHandler.java:149)
[2017-04-21 00:08:43] 	at com.mayhem.rs2.entity.player.net.Client.processIncomingPackets(Client.java:211)
[2017-04-21 00:08:43] 	at com.mayhem.rs2.entity.World.process(World.java:322)
[2017-04-21 00:08:43] 	at com.mayhem.core.GameThread.cycle(GameThread.java:137)
[2017-04-21 00:08:43] 	at com.mayhem.core.GameThread.run(GameThread.java:152)
[2017-04-21 00:08:43] java.lang.NullPointerException
[2017-04-21 00:08:43] 	at com.mayhem.rs2.entity.InterfaceManager.getParents(InterfaceManager.java:17)
[2017-04-21 00:08:43] 	at com.mayhem.rs2.entity.InterfaceManager.verify(InterfaceManager.java:89)
[2017-04-21 00:08:43] 	at com.mayhem.rs2.entity.player.net.in.impl.ItemPackets.handle(ItemPackets.java:125)
[2017-04-21 00:08:43] 	at com.mayhem.rs2.entity.player.net.in.PacketHandler.handlePacket(PacketHandler.java:149)
[2017-04-21 00:08:43] 	at com.mayhem.rs2.entity.player.net.Client.processIncomingPackets(Client.java:211)
[2017-04-21 00:08:43] 	at com.mayhem.rs2.entity.World.process(World.java:322)
[2017-04-21 00:08:43] 	at com.mayhem.core.GameThread.cycle(GameThread.java:137)
[2017-04-21 00:08:43] 	at com.mayhem.core.GameThread.run(GameThread.java:152)
[2017-04-21 00:08:44] java.lang.NullPointerException
[2017-04-21 00:08:44] 	at com.mayhem.rs2.entity.InterfaceManager.getParents(InterfaceManager.java:17)
[2017-04-21 00:08:44] 	at com.mayhem.rs2.entity.InterfaceManager.verify(InterfaceManager.java:89)
[2017-04-21 00:08:44] 	at com.mayhem.rs2.entity.player.net.in.impl.ItemPackets.handle(ItemPackets.java:125)
[2017-04-21 00:08:44] 	at com.mayhem.rs2.entity.player.net.in.PacketHandler.handlePacket(PacketHandler.java:149)
[2017-04-21 00:08:44] 	at com.mayhem.rs2.entity.player.net.Client.processIncomingPackets(Client.java:211)
[2017-04-21 00:08:44] 	at com.mayhem.rs2.entity.World.process(World.java:322)
[2017-04-21 00:08:44] 	at com.mayhem.core.GameThread.cycle(GameThread.java:137)
[2017-04-21 00:08:44] 	at com.mayhem.core.GameThread.run(GameThread.java:152)
[2017-04-21 00:08:44] java.lang.NullPointerException
[2017-04-21 00:08:44] 	at com.mayhem.rs2.entity.InterfaceManager.getParents(InterfaceManager.java:17)
[2017-04-21 00:08:44] 	at com.mayhem.rs2.entity.InterfaceManager.verify(InterfaceManager.java:89)
[2017-04-21 00:08:44] 	at com.mayhem.rs2.entity.player.net.in.impl.ItemPackets.handle(ItemPackets.java:125)
[2017-04-21 00:08:44] 	at com.mayhem.rs2.entity.player.net.in.PacketHandler.handlePacket(PacketHandler.java:149)
[2017-04-21 00:08:44] 	at com.mayhem.rs2.entity.player.net.Client.processIncomingPackets(Client.java:211)
[2017-04-21 00:08:44] 	at com.mayhem.rs2.entity.World.process(World.java:322)
[2017-04-21 00:08:44] 	at com.mayhem.core.GameThread.cycle(GameThread.java:137)
[2017-04-21 00:08:44] 	at com.mayhem.core.GameThread.run(GameThread.java:152)
[2017-04-21 03:03:02] Didn't save hiscores for [EXTREME]Mod divine
[2017-04-21 06:16:42] java.lang.NumberFormatException: For input string: "+"
[2017-04-21 06:16:42] 	at java.lang.NumberFormatException.forInputString(Unknown Source)
[2017-04-21 06:16:42] 	at java.lang.Long.parseLong(Unknown Source)
[2017-04-21 06:16:42] 	at java.lang.Long.parseLong(Unknown Source)
[2017-04-21 06:16:42] 	at com.mayhem.rs2.entity.player.net.in.command.impl.PlayerCommand.handleCommand(PlayerCommand.java:239)
[2017-04-21 06:16:42] 	at com.mayhem.rs2.entity.player.net.in.impl.CommandPacket.handle(CommandPacket.java:57)
[2017-04-21 06:16:42] 	at com.mayhem.rs2.entity.player.net.in.PacketHandler.handlePacket(PacketHandler.java:149)
[2017-04-21 06:16:42] 	at com.mayhem.rs2.entity.player.net.Client.processIncomingPackets(Client.java:211)
[2017-04-21 06:16:42] 	at com.mayhem.rs2.entity.World.process(World.java:322)
[2017-04-21 06:16:42] 	at com.mayhem.core.GameThread.cycle(GameThread.java:137)
[2017-04-21 06:16:42] 	at com.mayhem.core.GameThread.run(GameThread.java:152)
[2017-04-21 07:07:22] java.lang.NullPointerException
[2017-04-21 07:07:22] java.lang.NullPointerException
[2017-04-21 07:10:43] java.lang.NullPointerException
[2017-04-21 07:10:43] 	at com.mayhem.rs2.entity.player.net.in.command.impl.DeveloperCommand.handleCommand(DeveloperCommand.java:884)
[2017-04-21 07:10:43] 	at com.mayhem.rs2.entity.player.net.in.impl.CommandPacket.handle(CommandPacket.java:57)
[2017-04-21 07:10:43] 	at com.mayhem.rs2.entity.player.net.in.PacketHandler.handlePacket(PacketHandler.java:149)
[2017-04-21 07:10:43] 	at com.mayhem.rs2.entity.player.net.Client.processIncomingPackets(Client.java:211)
[2017-04-21 07:10:43] 	at com.mayhem.rs2.entity.World.process(World.java:322)
[2017-04-21 07:10:43] 	at com.mayhem.core.GameThread.cycle(GameThread.java:137)
[2017-04-21 07:10:43] 	at com.mayhem.core.GameThread.run(GameThread.java:152)
[2017-04-21 07:18:00] Didn't save hiscores for [EXTREME]Mod divine
