Logging started at 2017-05-13 22:17:30
File name: C:\Users\Administrator\Dropbox\Valius\Valius Source\.\data\logs\err\1494706650041 - Administrator - [Sat May 13][10.17PM].txt
System.getProperty("os.name"): "Windows Server 2012 R2"

[2017-05-13 22:36:02] Didn't save hiscores for [EXTREME]Mod divine
[2017-05-14 08:39:53] java.lang.IllegalStateException: unprepared
[2017-05-14 08:39:53] 	at com.mayhem.core.network.mysql.MembershipRewards.collectReward(MembershipRewards.java:38)
[2017-05-14 08:39:53] 	at com.mayhem.rs2.content.dialogue.impl.MembershipDialogue.execute(MembershipDialogue.java:70)
[2017-05-14 08:39:53] 	at com.mayhem.rs2.entity.player.net.in.impl.ChatInterfacePacket.handleDialogue(ChatInterfacePacket.java:47)
[2017-05-14 08:39:53] 	at com.mayhem.rs2.entity.player.net.in.impl.ChatInterfacePacket.handle(ChatInterfacePacket.java:33)
[2017-05-14 08:39:53] 	at com.mayhem.rs2.entity.player.net.in.PacketHandler.handlePacket(PacketHandler.java:149)
[2017-05-14 08:39:53] 	at com.mayhem.rs2.entity.player.net.Client.processIncomingPackets(Client.java:211)
[2017-05-14 08:39:53] 	at com.mayhem.rs2.entity.World.process(World.java:322)
[2017-05-14 08:39:53] 	at com.mayhem.core.GameThread.cycle(GameThread.java:137)
[2017-05-14 08:39:53] 	at com.mayhem.core.GameThread.run(GameThread.java:152)
[2017-05-14 08:44:23] java.lang.IndexOutOfBoundsException: Index: 7, Size: 2
[2017-05-14 08:44:23] 	at java.util.LinkedList.checkElementIndex(Unknown Source)
[2017-05-14 08:44:23] 	at java.util.LinkedList.get(Unknown Source)
[2017-05-14 08:44:23] 	at com.mayhem.rs2.entity.player.net.in.impl.InterfaceAction.handle(InterfaceAction.java:88)
[2017-05-14 08:44:23] 	at com.mayhem.rs2.entity.player.net.in.PacketHandler.handlePacket(PacketHandler.java:149)
[2017-05-14 08:44:23] 	at com.mayhem.rs2.entity.player.net.Client.processIncomingPackets(Client.java:211)
[2017-05-14 08:44:23] 	at com.mayhem.rs2.entity.World.process(World.java:322)
[2017-05-14 08:44:23] 	at com.mayhem.core.GameThread.cycle(GameThread.java:137)
[2017-05-14 08:44:23] 	at com.mayhem.core.GameThread.run(GameThread.java:152)
[2017-05-14 08:44:23] java.lang.IndexOutOfBoundsException: Index: 7, Size: 2
[2017-05-14 08:44:23] 	at java.util.LinkedList.checkElementIndex(Unknown Source)
[2017-05-14 08:44:23] 	at java.util.LinkedList.get(Unknown Source)
[2017-05-14 08:44:23] 	at com.mayhem.rs2.entity.player.net.in.impl.InterfaceAction.handle(InterfaceAction.java:88)
[2017-05-14 08:44:23] 	at com.mayhem.rs2.entity.player.net.in.PacketHandler.handlePacket(PacketHandler.java:149)
[2017-05-14 08:44:23] 	at com.mayhem.rs2.entity.player.net.Client.processIncomingPackets(Client.java:211)
[2017-05-14 08:44:23] 	at com.mayhem.rs2.entity.World.process(World.java:322)
[2017-05-14 08:44:23] 	at com.mayhem.core.GameThread.cycle(GameThread.java:137)
[2017-05-14 08:44:23] 	at com.mayhem.core.GameThread.run(GameThread.java:152)
[2017-05-14 11:43:14] java.lang.NullPointerException
[2017-05-14 11:43:14] 	at com.mayhem.rs2.content.skill.mining.Mining$Pickaxe.get(Mining.java:123)
[2017-05-14 11:43:14] 	at com.mayhem.rs2.content.skill.mining.Mining.clickRock(Mining.java:235)
[2017-05-14 11:43:14] 	at com.mayhem.rs2.entity.WalkToActions.finishObjectClick(WalkToActions.java:1172)
[2017-05-14 11:43:14] 	at com.mayhem.rs2.entity.WalkToActions$7.onDestination(WalkToActions.java:330)
[2017-05-14 11:43:14] 	at com.mayhem.core.task.impl.WalkToTask.execute(WalkToTask.java:39)
[2017-05-14 11:43:14] 	at com.mayhem.core.task.Task.run(Task.java:183)
[2017-05-14 11:43:14] 	at com.mayhem.core.task.TaskQueue.process(TaskQueue.java:78)
[2017-05-14 11:43:14] 	at com.mayhem.core.GameThread.cycle(GameThread.java:129)
[2017-05-14 11:43:14] 	at com.mayhem.core.GameThread.run(GameThread.java:152)
[2017-05-14 11:43:22] java.lang.NullPointerException
[2017-05-14 11:43:22] 	at com.mayhem.rs2.content.skill.mining.Mining$Pickaxe.get(Mining.java:123)
[2017-05-14 11:43:22] 	at com.mayhem.rs2.content.skill.mining.Mining.clickRock(Mining.java:235)
[2017-05-14 11:43:22] 	at com.mayhem.rs2.entity.WalkToActions.finishObjectClick(WalkToActions.java:1172)
[2017-05-14 11:43:22] 	at com.mayhem.rs2.entity.WalkToActions$7.onDestination(WalkToActions.java:330)
[2017-05-14 11:43:22] 	at com.mayhem.core.task.impl.WalkToTask.execute(WalkToTask.java:39)
[2017-05-14 11:43:22] 	at com.mayhem.core.task.TaskQueue.queue(TaskQueue.java:117)
[2017-05-14 11:43:22] 	at com.mayhem.rs2.entity.WalkToActions.clickObject(WalkToActions.java:325)
[2017-05-14 11:43:22] 	at com.mayhem.rs2.entity.player.net.in.impl.ObjectPacket.handle(ObjectPacket.java:85)
[2017-05-14 11:43:22] 	at com.mayhem.rs2.entity.player.net.in.PacketHandler.handlePacket(PacketHandler.java:149)
[2017-05-14 11:43:22] 	at com.mayhem.rs2.entity.player.net.Client.processIncomingPackets(Client.java:211)
[2017-05-14 11:43:22] 	at com.mayhem.rs2.entity.World.process(World.java:322)
[2017-05-14 11:43:22] 	at com.mayhem.core.GameThread.cycle(GameThread.java:137)
[2017-05-14 11:43:22] 	at com.mayhem.core.GameThread.run(GameThread.java:152)
[2017-05-14 11:43:26] java.lang.NullPointerException
[2017-05-14 11:43:26] 	at com.mayhem.rs2.content.skill.mining.Mining$Pickaxe.get(Mining.java:123)
[2017-05-14 11:43:26] 	at com.mayhem.rs2.content.skill.mining.Mining.clickRock(Mining.java:235)
[2017-05-14 11:43:26] 	at com.mayhem.rs2.entity.WalkToActions.finishObjectClick(WalkToActions.java:1172)
[2017-05-14 11:43:26] 	at com.mayhem.rs2.entity.WalkToActions$7.onDestination(WalkToActions.java:330)
[2017-05-14 11:43:26] 	at com.mayhem.core.task.impl.WalkToTask.execute(WalkToTask.java:39)
[2017-05-14 11:43:26] 	at com.mayhem.core.task.TaskQueue.queue(TaskQueue.java:117)
[2017-05-14 11:43:26] 	at com.mayhem.rs2.entity.WalkToActions.clickObject(WalkToActions.java:325)
[2017-05-14 11:43:26] 	at com.mayhem.rs2.entity.player.net.in.impl.ObjectPacket.handle(ObjectPacket.java:85)
[2017-05-14 11:43:26] 	at com.mayhem.rs2.entity.player.net.in.PacketHandler.handlePacket(PacketHandler.java:149)
[2017-05-14 11:43:26] 	at com.mayhem.rs2.entity.player.net.Client.processIncomingPackets(Client.java:211)
[2017-05-14 11:43:26] 	at com.mayhem.rs2.entity.World.process(World.java:322)
[2017-05-14 11:43:26] 	at com.mayhem.core.GameThread.cycle(GameThread.java:137)
[2017-05-14 11:43:26] 	at com.mayhem.core.GameThread.run(GameThread.java:152)
[2017-05-14 12:31:11] Didn't save hiscores for [EXTREME]Mod divine
[2017-05-14 19:33:19] Didn't save hiscores for [EXTREME]Mod divine
[2017-05-14 19:46:04] java.lang.NullPointerException
[2017-05-14 19:46:04] 	at com.mayhem.rs2.content.DropTable.displayNpc(DropTable.java:177)
[2017-05-14 19:46:04] 	at com.mayhem.rs2.entity.player.net.in.impl.ClickButtonPacket.handle(ClickButtonPacket.java:134)
[2017-05-14 19:46:04] 	at com.mayhem.rs2.entity.player.net.in.PacketHandler.handlePacket(PacketHandler.java:149)
[2017-05-14 19:46:04] 	at com.mayhem.rs2.entity.player.net.Client.processIncomingPackets(Client.java:211)
[2017-05-14 19:46:04] 	at com.mayhem.rs2.entity.World.process(World.java:322)
[2017-05-14 19:46:04] 	at com.mayhem.core.GameThread.cycle(GameThread.java:137)
[2017-05-14 19:46:04] 	at com.mayhem.core.GameThread.run(GameThread.java:152)
[2017-05-14 19:46:18] java.lang.NullPointerException
[2017-05-14 19:46:18] 	at com.mayhem.rs2.content.DropTable.displayNpc(DropTable.java:177)
[2017-05-14 19:46:18] 	at com.mayhem.rs2.entity.player.net.in.impl.ClickButtonPacket.handle(ClickButtonPacket.java:134)
[2017-05-14 19:46:18] 	at com.mayhem.rs2.entity.player.net.in.PacketHandler.handlePacket(PacketHandler.java:149)
[2017-05-14 19:46:18] 	at com.mayhem.rs2.entity.player.net.Client.processIncomingPackets(Client.java:211)
[2017-05-14 19:46:18] 	at com.mayhem.rs2.entity.World.process(World.java:322)
[2017-05-14 19:46:18] 	at com.mayhem.core.GameThread.cycle(GameThread.java:137)
[2017-05-14 19:46:18] 	at com.mayhem.core.GameThread.run(GameThread.java:152)
[2017-05-14 19:46:59] java.lang.NullPointerException
[2017-05-14 19:46:59] 	at com.mayhem.rs2.content.DropTable.displayNpc(DropTable.java:177)
[2017-05-14 19:46:59] 	at com.mayhem.rs2.entity.player.net.in.impl.ClickButtonPacket.handle(ClickButtonPacket.java:134)
[2017-05-14 19:46:59] 	at com.mayhem.rs2.entity.player.net.in.PacketHandler.handlePacket(PacketHandler.java:149)
[2017-05-14 19:46:59] 	at com.mayhem.rs2.entity.player.net.Client.processIncomingPackets(Client.java:211)
[2017-05-14 19:46:59] 	at com.mayhem.rs2.entity.World.process(World.java:322)
[2017-05-14 19:46:59] 	at com.mayhem.core.GameThread.cycle(GameThread.java:137)
[2017-05-14 19:46:59] 	at com.mayhem.core.GameThread.run(GameThread.java:152)
[2017-05-14 19:53:54] java.lang.NullPointerException
[2017-05-14 19:53:54] 	at com.mayhem.rs2.content.event.objects.BossChest$1.execute(BossChest.java:179)
[2017-05-14 19:53:54] 	at com.mayhem.core.task.TaskQueue.queue(TaskQueue.java:117)
[2017-05-14 19:53:54] 	at com.mayhem.rs2.content.event.objects.BossChest.dispatchLoot(BossChest.java:174)
[2017-05-14 19:53:54] 	at com.mayhem.rs2.entity.WalkToActions.finishObjectClick(WalkToActions.java:2095)
[2017-05-14 19:53:54] 	at com.mayhem.rs2.entity.WalkToActions$7.onDestination(WalkToActions.java:330)
[2017-05-14 19:53:54] 	at com.mayhem.core.task.impl.WalkToTask.execute(WalkToTask.java:39)
[2017-05-14 19:53:54] 	at com.mayhem.core.task.Task.run(Task.java:183)
[2017-05-14 19:53:54] 	at com.mayhem.core.task.TaskQueue.process(TaskQueue.java:78)
[2017-05-14 19:53:54] 	at com.mayhem.core.GameThread.cycle(GameThread.java:129)
[2017-05-14 19:53:54] 	at com.mayhem.core.GameThread.run(GameThread.java:152)
[2017-05-15 19:49:17] Didn't save hiscores for [EXTREME]Mod divine
[2017-05-15 20:38:29] Didn't save hiscores for [EXTREME]Mod divine
[2017-05-15 21:00:50] java.lang.NullPointerException
[2017-05-15 21:00:50] 	at com.mayhem.rs2.entity.mob.Mob.hit(Mob.java:532)
[2017-05-15 21:00:50] 	at com.mayhem.core.task.impl.HitTask.execute(HitTask.java:64)
[2017-05-15 21:00:50] 	at com.mayhem.core.task.Task.run(Task.java:183)
[2017-05-15 21:00:50] 	at com.mayhem.core.task.TaskQueue.process(TaskQueue.java:78)
[2017-05-15 21:00:50] 	at com.mayhem.core.GameThread.cycle(GameThread.java:129)
[2017-05-15 21:00:50] 	at com.mayhem.core.GameThread.run(GameThread.java:152)
[2017-05-15 21:33:41] Didn't save hiscores for [EXTREME]Mod divine
[2017-05-16 15:34:02] Didn't save hiscores for [EXTREME]Mod divine
[2017-05-16 15:51:48] Didn't save hiscores for [EXTREME]Mod divine
[2017-05-17 05:34:39] java.lang.NullPointerException
[2017-05-17 05:34:39] 	at com.mayhem.rs2.entity.mob.Walking.canMoveTo(Walking.java:61)
[2017-05-17 05:34:39] 	at com.mayhem.rs2.entity.movement.MobMovementHandler.canMoveTo(MobMovementHandler.java:16)
[2017-05-17 05:34:39] 	at com.mayhem.rs2.entity.pathfinding.SimplePathWalker.walkable(SimplePathWalker.java:11)
[2017-05-17 05:34:39] 	at com.mayhem.rs2.entity.pathfinding.SimplePathWalker.walkToNextTile(SimplePathWalker.java:59)
[2017-05-17 05:34:39] 	at com.mayhem.rs2.entity.following.MobFollowing.findPath(MobFollowing.java:49)
[2017-05-17 05:34:39] 	at com.mayhem.rs2.entity.following.Following.follow(Following.java:60)
[2017-05-17 05:34:39] 	at com.mayhem.rs2.entity.following.MobFollowing.process(MobFollowing.java:133)
[2017-05-17 05:34:39] 	at com.mayhem.rs2.entity.mob.Mob.process(Mob.java:875)
[2017-05-17 05:34:39] 	at com.mayhem.rs2.entity.World.process(World.java:347)
[2017-05-17 05:34:39] 	at com.mayhem.core.GameThread.cycle(GameThread.java:137)
[2017-05-17 05:34:39] 	at com.mayhem.core.GameThread.run(GameThread.java:152)
[2017-05-17 13:18:05] java.lang.NullPointerException
[2017-05-17 13:18:05] 	at com.mayhem.rs2.content.DropTable.displayNpc(DropTable.java:177)
[2017-05-17 13:18:05] 	at com.mayhem.rs2.entity.player.net.in.impl.ClickButtonPacket.handle(ClickButtonPacket.java:134)
[2017-05-17 13:18:05] 	at com.mayhem.rs2.entity.player.net.in.PacketHandler.handlePacket(PacketHandler.java:149)
[2017-05-17 13:18:05] 	at com.mayhem.rs2.entity.player.net.Client.processIncomingPackets(Client.java:211)
[2017-05-17 13:18:05] 	at com.mayhem.rs2.entity.World.process(World.java:322)
[2017-05-17 13:18:05] 	at com.mayhem.core.GameThread.cycle(GameThread.java:137)
[2017-05-17 13:18:05] 	at com.mayhem.core.GameThread.run(GameThread.java:152)
[2017-05-17 17:52:42] Didn't save hiscores for [EXTREME]Mod divine
[2017-05-17 18:06:00] Didn't save hiscores for [EXTREME]Mod divine
[2017-05-17 18:30:37] Didn't save hiscores for [EXTREME]Mod divine
[2017-05-17 18:43:54] Didn't save hiscores for [EXTREME]Mod divine
[2017-05-17 19:08:39] Didn't save hiscores for [EXTREME]Mod divine
[2017-05-17 21:33:03] Didn't save hiscores for [EXTREME]Mod divine
[2017-05-17 22:20:04] java.lang.NullPointerException
[2017-05-17 22:20:04] 	at com.mayhem.rs2.content.DropTable.displayNpc(DropTable.java:177)
[2017-05-17 22:20:04] 	at com.mayhem.rs2.entity.player.net.in.impl.ClickButtonPacket.handle(ClickButtonPacket.java:134)
[2017-05-17 22:20:04] 	at com.mayhem.rs2.entity.player.net.in.PacketHandler.handlePacket(PacketHandler.java:149)
[2017-05-17 22:20:04] 	at com.mayhem.rs2.entity.player.net.Client.processIncomingPackets(Client.java:211)
[2017-05-17 22:20:04] 	at com.mayhem.rs2.entity.World.process(World.java:322)
[2017-05-17 22:20:04] 	at com.mayhem.core.GameThread.cycle(GameThread.java:137)
[2017-05-17 22:20:04] 	at com.mayhem.core.GameThread.run(GameThread.java:152)
[2017-05-17 22:37:19] Didn't save hiscores for [EXTREME]Mod divine
[2017-05-17 23:35:00] java.lang.NullPointerException
[2017-05-17 23:35:00] 	at com.mayhem.rs2.content.DropTable.displayNpc(DropTable.java:177)
[2017-05-17 23:35:00] 	at com.mayhem.rs2.entity.player.net.in.impl.ClickButtonPacket.handle(ClickButtonPacket.java:134)
[2017-05-17 23:35:00] 	at com.mayhem.rs2.entity.player.net.in.PacketHandler.handlePacket(PacketHandler.java:149)
[2017-05-17 23:35:00] 	at com.mayhem.rs2.entity.player.net.Client.processIncomingPackets(Client.java:211)
[2017-05-17 23:35:00] 	at com.mayhem.rs2.entity.World.process(World.java:322)
[2017-05-17 23:35:00] 	at com.mayhem.core.GameThread.cycle(GameThread.java:137)
[2017-05-17 23:35:00] 	at com.mayhem.core.GameThread.run(GameThread.java:152)
[2017-05-17 23:35:02] java.lang.NullPointerException
[2017-05-17 23:35:02] 	at com.mayhem.rs2.content.DropTable.displayNpc(DropTable.java:177)
[2017-05-17 23:35:02] 	at com.mayhem.rs2.entity.player.net.in.impl.ClickButtonPacket.handle(ClickButtonPacket.java:134)
[2017-05-17 23:35:02] 	at com.mayhem.rs2.entity.player.net.in.PacketHandler.handlePacket(PacketHandler.java:149)
[2017-05-17 23:35:02] 	at com.mayhem.rs2.entity.player.net.Client.processIncomingPackets(Client.java:211)
[2017-05-17 23:35:02] 	at com.mayhem.rs2.entity.World.process(World.java:322)
[2017-05-17 23:35:02] 	at com.mayhem.core.GameThread.cycle(GameThread.java:137)
[2017-05-17 23:35:02] 	at com.mayhem.core.GameThread.run(GameThread.java:152)
[2017-05-17 23:35:03] java.lang.NullPointerException
[2017-05-17 23:35:03] 	at com.mayhem.rs2.content.DropTable.displayNpc(DropTable.java:177)
[2017-05-17 23:35:03] 	at com.mayhem.rs2.entity.player.net.in.impl.ClickButtonPacket.handle(ClickButtonPacket.java:134)
[2017-05-17 23:35:03] 	at com.mayhem.rs2.entity.player.net.in.PacketHandler.handlePacket(PacketHandler.java:149)
[2017-05-17 23:35:03] 	at com.mayhem.rs2.entity.player.net.Client.processIncomingPackets(Client.java:211)
[2017-05-17 23:35:03] 	at com.mayhem.rs2.entity.World.process(World.java:322)
[2017-05-17 23:35:03] 	at com.mayhem.core.GameThread.cycle(GameThread.java:137)
[2017-05-17 23:35:03] 	at com.mayhem.core.GameThread.run(GameThread.java:152)
[2017-05-18 23:17:24] Didn't save hiscores for [EXTREME]Mod divine
[2017-05-18 23:23:29] java.lang.NullPointerException
[2017-05-18 23:23:29] 	at com.mayhem.rs2.content.combat.formula.MeleeFormulas.calculateBaseDamage(MeleeFormulas.java:208)
[2017-05-18 23:23:29] 	at com.mayhem.rs2.entity.player.net.in.impl.ClickButtonPacket.handle(ClickButtonPacket.java:378)
[2017-05-18 23:23:29] 	at com.mayhem.rs2.entity.player.net.in.PacketHandler.handlePacket(PacketHandler.java:149)
[2017-05-18 23:23:29] 	at com.mayhem.rs2.entity.player.net.Client.processIncomingPackets(Client.java:211)
[2017-05-18 23:23:29] 	at com.mayhem.rs2.entity.World.process(World.java:322)
[2017-05-18 23:23:29] 	at com.mayhem.core.GameThread.cycle(GameThread.java:137)
[2017-05-18 23:23:29] 	at com.mayhem.core.GameThread.run(GameThread.java:152)
[2017-05-18 23:23:31] java.lang.NullPointerException
[2017-05-18 23:23:31] 	at com.mayhem.rs2.content.combat.formula.MeleeFormulas.calculateBaseDamage(MeleeFormulas.java:208)
[2017-05-18 23:23:31] 	at com.mayhem.rs2.entity.player.net.in.impl.ClickButtonPacket.handle(ClickButtonPacket.java:378)
[2017-05-18 23:23:31] 	at com.mayhem.rs2.entity.player.net.in.PacketHandler.handlePacket(PacketHandler.java:149)
[2017-05-18 23:23:31] 	at com.mayhem.rs2.entity.player.net.Client.processIncomingPackets(Client.java:211)
[2017-05-18 23:23:31] 	at com.mayhem.rs2.entity.World.process(World.java:322)
[2017-05-18 23:23:31] 	at com.mayhem.core.GameThread.cycle(GameThread.java:137)
[2017-05-18 23:23:31] 	at com.mayhem.core.GameThread.run(GameThread.java:152)
[2017-05-18 23:23:33] java.lang.NullPointerException
[2017-05-18 23:23:33] 	at com.mayhem.rs2.content.combat.formula.MeleeFormulas.calculateBaseDamage(MeleeFormulas.java:208)
[2017-05-18 23:23:33] 	at com.mayhem.rs2.entity.player.net.in.impl.ClickButtonPacket.handle(ClickButtonPacket.java:378)
[2017-05-18 23:23:33] 	at com.mayhem.rs2.entity.player.net.in.PacketHandler.handlePacket(PacketHandler.java:149)
[2017-05-18 23:23:33] 	at com.mayhem.rs2.entity.player.net.Client.processIncomingPackets(Client.java:211)
[2017-05-18 23:23:33] 	at com.mayhem.rs2.entity.World.process(World.java:322)
[2017-05-18 23:23:33] 	at com.mayhem.core.GameThread.cycle(GameThread.java:137)
[2017-05-18 23:23:33] 	at com.mayhem.core.GameThread.run(GameThread.java:152)
[2017-05-18 23:23:35] java.lang.NullPointerException
[2017-05-18 23:23:35] 	at com.mayhem.rs2.content.combat.formula.MeleeFormulas.calculateBaseDamage(MeleeFormulas.java:208)
[2017-05-18 23:23:35] 	at com.mayhem.rs2.entity.player.net.in.impl.ClickButtonPacket.handle(ClickButtonPacket.java:378)
[2017-05-18 23:23:35] 	at com.mayhem.rs2.entity.player.net.in.PacketHandler.handlePacket(PacketHandler.java:149)
[2017-05-18 23:23:35] 	at com.mayhem.rs2.entity.player.net.Client.processIncomingPackets(Client.java:211)
[2017-05-18 23:23:35] 	at com.mayhem.rs2.entity.World.process(World.java:322)
[2017-05-18 23:23:35] 	at com.mayhem.core.GameThread.cycle(GameThread.java:137)
[2017-05-18 23:23:35] 	at com.mayhem.core.GameThread.run(GameThread.java:152)
[2017-05-18 23:23:36] java.lang.NullPointerException
[2017-05-18 23:23:36] 	at com.mayhem.rs2.content.combat.formula.MeleeFormulas.calculateBaseDamage(MeleeFormulas.java:208)
[2017-05-18 23:23:36] 	at com.mayhem.rs2.entity.player.net.in.impl.ClickButtonPacket.handle(ClickButtonPacket.java:378)
[2017-05-18 23:23:36] 	at com.mayhem.rs2.entity.player.net.in.PacketHandler.handlePacket(PacketHandler.java:149)
[2017-05-18 23:23:36] 	at com.mayhem.rs2.entity.player.net.Client.processIncomingPackets(Client.java:211)
[2017-05-18 23:23:36] 	at com.mayhem.rs2.entity.World.process(World.java:322)
[2017-05-18 23:23:36] 	at com.mayhem.core.GameThread.cycle(GameThread.java:137)
[2017-05-18 23:23:36] 	at com.mayhem.core.GameThread.run(GameThread.java:152)
[2017-05-18 23:23:37] java.lang.NullPointerException
[2017-05-18 23:23:37] 	at com.mayhem.rs2.content.combat.formula.MeleeFormulas.calculateBaseDamage(MeleeFormulas.java:208)
[2017-05-18 23:23:37] 	at com.mayhem.rs2.entity.player.net.in.impl.ClickButtonPacket.handle(ClickButtonPacket.java:378)
[2017-05-18 23:23:37] 	at com.mayhem.rs2.entity.player.net.in.PacketHandler.handlePacket(PacketHandler.java:149)
[2017-05-18 23:23:37] 	at com.mayhem.rs2.entity.player.net.Client.processIncomingPackets(Client.java:211)
[2017-05-18 23:23:37] 	at com.mayhem.rs2.entity.World.process(World.java:322)
[2017-05-18 23:23:37] 	at com.mayhem.core.GameThread.cycle(GameThread.java:137)
[2017-05-18 23:23:37] 	at com.mayhem.core.GameThread.run(GameThread.java:152)
[2017-05-18 23:30:44] java.lang.NullPointerException
[2017-05-18 23:30:44] 	at com.mayhem.rs2.content.combat.formula.MeleeFormulas.calculateBaseDamage(MeleeFormulas.java:208)
[2017-05-18 23:30:44] 	at com.mayhem.rs2.entity.player.net.in.impl.ClickButtonPacket.handle(ClickButtonPacket.java:378)
[2017-05-18 23:30:44] 	at com.mayhem.rs2.entity.player.net.in.PacketHandler.handlePacket(PacketHandler.java:149)
[2017-05-18 23:30:44] 	at com.mayhem.rs2.entity.player.net.Client.processIncomingPackets(Client.java:211)
[2017-05-18 23:30:44] 	at com.mayhem.rs2.entity.World.process(World.java:322)
[2017-05-18 23:30:44] 	at com.mayhem.core.GameThread.cycle(GameThread.java:137)
[2017-05-18 23:30:44] 	at com.mayhem.core.GameThread.run(GameThread.java:152)
[2017-05-18 23:30:45] java.lang.NullPointerException
[2017-05-18 23:30:45] 	at com.mayhem.rs2.content.combat.formula.MeleeFormulas.calculateBaseDamage(MeleeFormulas.java:208)
[2017-05-18 23:30:45] 	at com.mayhem.rs2.entity.player.net.in.impl.ClickButtonPacket.handle(ClickButtonPacket.java:378)
[2017-05-18 23:30:45] 	at com.mayhem.rs2.entity.player.net.in.PacketHandler.handlePacket(PacketHandler.java:149)
[2017-05-18 23:30:45] 	at com.mayhem.rs2.entity.player.net.Client.processIncomingPackets(Client.java:211)
[2017-05-18 23:30:45] 	at com.mayhem.rs2.entity.World.process(World.java:322)
[2017-05-18 23:30:45] 	at com.mayhem.core.GameThread.cycle(GameThread.java:137)
[2017-05-18 23:30:45] 	at com.mayhem.core.GameThread.run(GameThread.java:152)
[2017-05-18 23:30:46] java.lang.NullPointerException
[2017-05-18 23:30:46] 	at com.mayhem.rs2.content.combat.formula.MeleeFormulas.calculateBaseDamage(MeleeFormulas.java:208)
[2017-05-18 23:30:46] 	at com.mayhem.rs2.entity.player.net.in.impl.ClickButtonPacket.handle(ClickButtonPacket.java:378)
[2017-05-18 23:30:46] 	at com.mayhem.rs2.entity.player.net.in.PacketHandler.handlePacket(PacketHandler.java:149)
[2017-05-18 23:30:46] 	at com.mayhem.rs2.entity.player.net.Client.processIncomingPackets(Client.java:211)
[2017-05-18 23:30:46] 	at com.mayhem.rs2.entity.World.process(World.java:322)
[2017-05-18 23:30:46] 	at com.mayhem.core.GameThread.cycle(GameThread.java:137)
[2017-05-18 23:30:46] 	at com.mayhem.core.GameThread.run(GameThread.java:152)
[2017-05-18 23:30:46] java.lang.NullPointerException
[2017-05-18 23:30:46] 	at com.mayhem.rs2.content.combat.formula.MeleeFormulas.calculateBaseDamage(MeleeFormulas.java:208)
[2017-05-18 23:30:46] 	at com.mayhem.rs2.entity.player.net.in.impl.ClickButtonPacket.handle(ClickButtonPacket.java:378)
[2017-05-18 23:30:46] 	at com.mayhem.rs2.entity.player.net.in.PacketHandler.handlePacket(PacketHandler.java:149)
[2017-05-18 23:30:46] 	at com.mayhem.rs2.entity.player.net.Client.processIncomingPackets(Client.java:211)
[2017-05-18 23:30:46] 	at com.mayhem.rs2.entity.World.process(World.java:322)
[2017-05-18 23:30:46] 	at com.mayhem.core.GameThread.cycle(GameThread.java:137)
[2017-05-18 23:30:46] 	at com.mayhem.core.GameThread.run(GameThread.java:152)
[2017-05-18 23:30:47] java.lang.NullPointerException
[2017-05-18 23:30:47] 	at com.mayhem.rs2.content.combat.formula.MeleeFormulas.calculateBaseDamage(MeleeFormulas.java:208)
[2017-05-18 23:30:47] 	at com.mayhem.rs2.entity.player.net.in.impl.ClickButtonPacket.handle(ClickButtonPacket.java:378)
[2017-05-18 23:30:47] 	at com.mayhem.rs2.entity.player.net.in.PacketHandler.handlePacket(PacketHandler.java:149)
[2017-05-18 23:30:47] 	at com.mayhem.rs2.entity.player.net.Client.processIncomingPackets(Client.java:211)
[2017-05-18 23:30:47] 	at com.mayhem.rs2.entity.World.process(World.java:322)
[2017-05-18 23:30:47] 	at com.mayhem.core.GameThread.cycle(GameThread.java:137)
[2017-05-18 23:30:47] 	at com.mayhem.core.GameThread.run(GameThread.java:152)
[2017-05-18 23:30:47] java.lang.NullPointerException
[2017-05-18 23:30:47] 	at com.mayhem.rs2.content.combat.formula.MeleeFormulas.calculateBaseDamage(MeleeFormulas.java:208)
[2017-05-18 23:30:47] 	at com.mayhem.rs2.entity.player.net.in.impl.ClickButtonPacket.handle(ClickButtonPacket.java:378)
[2017-05-18 23:30:47] 	at com.mayhem.rs2.entity.player.net.in.PacketHandler.handlePacket(PacketHandler.java:149)
[2017-05-18 23:30:47] 	at com.mayhem.rs2.entity.player.net.Client.processIncomingPackets(Client.java:211)
[2017-05-18 23:30:47] 	at com.mayhem.rs2.entity.World.process(World.java:322)
[2017-05-18 23:30:47] 	at com.mayhem.core.GameThread.cycle(GameThread.java:137)
[2017-05-18 23:30:47] 	at com.mayhem.core.GameThread.run(GameThread.java:152)
[2017-05-18 23:33:20] Didn't save hiscores for [EXTREME]Mod divine
[2017-05-19 17:24:01] java.lang.IllegalStateException: unprepared
[2017-05-19 17:24:01] 	at com.mayhem.core.network.mysql.MembershipRewards.collectReward(MembershipRewards.java:38)
[2017-05-19 17:24:01] 	at com.mayhem.rs2.content.dialogue.impl.MembershipDialogue.execute(MembershipDialogue.java:70)
[2017-05-19 17:24:01] 	at com.mayhem.rs2.entity.player.net.in.impl.ChatInterfacePacket.handleDialogue(ChatInterfacePacket.java:47)
[2017-05-19 17:24:01] 	at com.mayhem.rs2.entity.player.net.in.impl.ChatInterfacePacket.handle(ChatInterfacePacket.java:33)
[2017-05-19 17:24:01] 	at com.mayhem.rs2.entity.player.net.in.PacketHandler.handlePacket(PacketHandler.java:149)
[2017-05-19 17:24:01] 	at com.mayhem.rs2.entity.player.net.Client.processIncomingPackets(Client.java:211)
[2017-05-19 17:24:01] 	at com.mayhem.rs2.entity.World.process(World.java:322)
[2017-05-19 17:24:01] 	at com.mayhem.core.GameThread.cycle(GameThread.java:137)
[2017-05-19 17:24:01] 	at com.mayhem.core.GameThread.run(GameThread.java:152)
[2017-05-21 00:47:33] java.lang.NullPointerException
[2017-05-21 00:47:33] 	at com.mayhem.rs2.content.combat.formula.MeleeFormulas.calculateBaseDamage(MeleeFormulas.java:208)
[2017-05-21 00:47:33] 	at com.mayhem.rs2.entity.player.net.in.impl.ClickButtonPacket.handle(ClickButtonPacket.java:378)
[2017-05-21 00:47:33] 	at com.mayhem.rs2.entity.player.net.in.PacketHandler.handlePacket(PacketHandler.java:149)
[2017-05-21 00:47:33] 	at com.mayhem.rs2.entity.player.net.Client.processIncomingPackets(Client.java:211)
[2017-05-21 00:47:33] 	at com.mayhem.rs2.entity.World.process(World.java:322)
[2017-05-21 00:47:33] 	at com.mayhem.core.GameThread.cycle(GameThread.java:137)
[2017-05-21 00:47:33] 	at com.mayhem.core.GameThread.run(GameThread.java:152)
[2017-05-21 00:52:02] java.lang.NullPointerException
[2017-05-21 00:52:02] 	at com.mayhem.rs2.content.combat.formula.MeleeFormulas.calculateBaseDamage(MeleeFormulas.java:208)
[2017-05-21 00:52:02] 	at com.mayhem.rs2.entity.player.net.in.impl.ClickButtonPacket.handle(ClickButtonPacket.java:378)
[2017-05-21 00:52:02] 	at com.mayhem.rs2.entity.player.net.in.PacketHandler.handlePacket(PacketHandler.java:149)
[2017-05-21 00:52:02] 	at com.mayhem.rs2.entity.player.net.Client.processIncomingPackets(Client.java:211)
[2017-05-21 00:52:02] 	at com.mayhem.rs2.entity.World.process(World.java:322)
[2017-05-21 00:52:02] 	at com.mayhem.core.GameThread.cycle(GameThread.java:137)
[2017-05-21 00:52:02] 	at com.mayhem.core.GameThread.run(GameThread.java:152)
[2017-05-21 00:52:03] java.lang.NullPointerException
[2017-05-21 00:52:03] 	at com.mayhem.rs2.content.combat.formula.MeleeFormulas.calculateBaseDamage(MeleeFormulas.java:208)
[2017-05-21 00:52:03] 	at com.mayhem.rs2.entity.player.net.in.impl.ClickButtonPacket.handle(ClickButtonPacket.java:378)
[2017-05-21 00:52:03] 	at com.mayhem.rs2.entity.player.net.in.PacketHandler.handlePacket(PacketHandler.java:149)
[2017-05-21 00:52:03] 	at com.mayhem.rs2.entity.player.net.Client.processIncomingPackets(Client.java:211)
[2017-05-21 00:52:03] 	at com.mayhem.rs2.entity.World.process(World.java:322)
[2017-05-21 00:52:03] 	at com.mayhem.core.GameThread.cycle(GameThread.java:137)
[2017-05-21 00:52:03] 	at com.mayhem.core.GameThread.run(GameThread.java:152)
[2017-05-21 01:52:42] java.lang.NullPointerException
[2017-05-21 01:52:42] 	at com.mayhem.rs2.content.combat.formula.MeleeFormulas.calculateBaseDamage(MeleeFormulas.java:208)
[2017-05-21 01:52:42] 	at com.mayhem.rs2.entity.player.net.in.impl.ClickButtonPacket.handle(ClickButtonPacket.java:378)
[2017-05-21 01:52:42] 	at com.mayhem.rs2.entity.player.net.in.PacketHandler.handlePacket(PacketHandler.java:149)
[2017-05-21 01:52:42] 	at com.mayhem.rs2.entity.player.net.Client.processIncomingPackets(Client.java:211)
[2017-05-21 01:52:42] 	at com.mayhem.rs2.entity.World.process(World.java:322)
[2017-05-21 01:52:42] 	at com.mayhem.core.GameThread.cycle(GameThread.java:137)
[2017-05-21 01:52:42] 	at com.mayhem.core.GameThread.run(GameThread.java:152)
[2017-05-21 01:53:06] java.lang.NullPointerException
[2017-05-21 01:53:06] 	at com.mayhem.rs2.content.combat.formula.MeleeFormulas.calculateBaseDamage(MeleeFormulas.java:208)
[2017-05-21 01:53:06] 	at com.mayhem.rs2.entity.player.net.in.impl.ClickButtonPacket.handle(ClickButtonPacket.java:378)
[2017-05-21 01:53:06] 	at com.mayhem.rs2.entity.player.net.in.PacketHandler.handlePacket(PacketHandler.java:149)
[2017-05-21 01:53:06] 	at com.mayhem.rs2.entity.player.net.Client.processIncomingPackets(Client.java:211)
[2017-05-21 01:53:06] 	at com.mayhem.rs2.entity.World.process(World.java:322)
[2017-05-21 01:53:06] 	at com.mayhem.core.GameThread.cycle(GameThread.java:137)
[2017-05-21 01:53:06] 	at com.mayhem.core.GameThread.run(GameThread.java:152)
[2017-05-21 02:02:48] java.lang.NullPointerException
[2017-05-21 02:02:48] 	at com.mayhem.rs2.content.DropTable.displayNpc(DropTable.java:177)
[2017-05-21 02:02:48] 	at com.mayhem.rs2.entity.player.net.in.impl.ClickButtonPacket.handle(ClickButtonPacket.java:134)
[2017-05-21 02:02:48] 	at com.mayhem.rs2.entity.player.net.in.PacketHandler.handlePacket(PacketHandler.java:149)
[2017-05-21 02:02:48] 	at com.mayhem.rs2.entity.player.net.Client.processIncomingPackets(Client.java:211)
[2017-05-21 02:02:48] 	at com.mayhem.rs2.entity.World.process(World.java:322)
[2017-05-21 02:02:48] 	at com.mayhem.core.GameThread.cycle(GameThread.java:137)
[2017-05-21 02:02:48] 	at com.mayhem.core.GameThread.run(GameThread.java:152)
[2017-05-23 17:57:37] Didn't save hiscores for [EXTREME]Mod divine
[2017-05-23 19:36:06] Didn't save hiscores for [EXTREME]Mod divine
[2017-05-23 19:54:24] Didn't save hiscores for [EXTREME]Mod divine
[2017-05-23 23:16:10] java.lang.NullPointerException
[2017-05-23 23:16:10] 	at com.mayhem.rs2.entity.player.net.in.command.impl.AdministratorCommand.handleCommand(AdministratorCommand.java:254)
[2017-05-23 23:16:10] 	at com.mayhem.rs2.entity.player.net.in.impl.CommandPacket.handle(CommandPacket.java:57)
[2017-05-23 23:16:10] 	at com.mayhem.rs2.entity.player.net.in.PacketHandler.handlePacket(PacketHandler.java:149)
[2017-05-23 23:16:10] 	at com.mayhem.rs2.entity.player.net.Client.processIncomingPackets(Client.java:211)
[2017-05-23 23:16:10] 	at com.mayhem.rs2.entity.World.process(World.java:322)
[2017-05-23 23:16:10] 	at com.mayhem.core.GameThread.cycle(GameThread.java:137)
[2017-05-23 23:16:10] 	at com.mayhem.core.GameThread.run(GameThread.java:152)
[2017-05-23 23:16:18] java.lang.NullPointerException
[2017-05-23 23:16:18] 	at com.mayhem.rs2.entity.player.net.in.command.impl.AdministratorCommand.handleCommand(AdministratorCommand.java:254)
[2017-05-23 23:16:18] 	at com.mayhem.rs2.entity.player.net.in.impl.CommandPacket.handle(CommandPacket.java:57)
[2017-05-23 23:16:18] 	at com.mayhem.rs2.entity.player.net.in.PacketHandler.handlePacket(PacketHandler.java:149)
[2017-05-23 23:16:18] 	at com.mayhem.rs2.entity.player.net.Client.processIncomingPackets(Client.java:211)
[2017-05-23 23:16:18] 	at com.mayhem.rs2.entity.World.process(World.java:322)
[2017-05-23 23:16:18] 	at com.mayhem.core.GameThread.cycle(GameThread.java:137)
[2017-05-23 23:16:18] 	at com.mayhem.core.GameThread.run(GameThread.java:152)
[2017-05-23 23:24:19] Didn't save hiscores for [EXTREME]Mod divine
[2017-05-23 23:31:34] java.lang.NumberFormatException: For input string: "vote"
[2017-05-23 23:31:34] 	at java.lang.NumberFormatException.forInputString(Unknown Source)
[2017-05-23 23:31:34] 	at java.lang.Integer.parseInt(Unknown Source)
[2017-05-23 23:31:34] 	at java.lang.Integer.parseInt(Unknown Source)
[2017-05-23 23:31:34] 	at com.mayhem.rs2.entity.player.net.in.command.CommandParser.nextInt(CommandParser.java:46)
[2017-05-23 23:31:34] 	at com.mayhem.rs2.entity.player.net.in.command.impl.DeveloperCommand.handleCommand(DeveloperCommand.java:1164)
[2017-05-23 23:31:34] 	at com.mayhem.rs2.entity.player.net.in.impl.CommandPacket.handle(CommandPacket.java:57)
[2017-05-23 23:31:34] 	at com.mayhem.rs2.entity.player.net.in.PacketHandler.handlePacket(PacketHandler.java:149)
[2017-05-23 23:31:34] 	at com.mayhem.rs2.entity.player.net.Client.processIncomingPackets(Client.java:211)
[2017-05-23 23:31:34] 	at com.mayhem.rs2.entity.World.process(World.java:322)
[2017-05-23 23:31:34] 	at com.mayhem.core.GameThread.cycle(GameThread.java:137)
[2017-05-23 23:31:34] 	at com.mayhem.core.GameThread.run(GameThread.java:152)
[2017-05-23 23:31:40] java.lang.NumberFormatException: For input string: "vote"
[2017-05-23 23:31:40] 	at java.lang.NumberFormatException.forInputString(Unknown Source)
[2017-05-23 23:31:40] 	at java.lang.Integer.parseInt(Unknown Source)
[2017-05-23 23:31:40] 	at java.lang.Integer.parseInt(Unknown Source)
[2017-05-23 23:31:40] 	at com.mayhem.rs2.entity.player.net.in.command.CommandParser.nextInt(CommandParser.java:46)
[2017-05-23 23:31:40] 	at com.mayhem.rs2.entity.player.net.in.command.impl.AdministratorCommand.handleCommand(AdministratorCommand.java:233)
[2017-05-23 23:31:40] 	at com.mayhem.rs2.entity.player.net.in.impl.CommandPacket.handle(CommandPacket.java:57)
[2017-05-23 23:31:40] 	at com.mayhem.rs2.entity.player.net.in.PacketHandler.handlePacket(PacketHandler.java:149)
[2017-05-23 23:31:40] 	at com.mayhem.rs2.entity.player.net.Client.processIncomingPackets(Client.java:211)
[2017-05-23 23:31:40] 	at com.mayhem.rs2.entity.World.process(World.java:322)
[2017-05-23 23:31:40] 	at com.mayhem.core.GameThread.cycle(GameThread.java:137)
[2017-05-23 23:31:40] 	at com.mayhem.core.GameThread.run(GameThread.java:152)
[2017-05-23 23:32:59] Didn't save hiscores for [EXTREME]Mod divine
[2017-05-23 23:35:25] Didn't save hiscores for [EXTREME]Mod divine
[2017-05-24 13:22:58] Didn't save hiscores for [EXTREME]Mod divine
