Logging started at 2017-05-24 13:27:08
File name: C:\Users\Administrator\Dropbox\Valius\Valius Source\.\data\logs\err\1495625228843 - Administrator - [Wed May 24][1.27PM].txt
System.getProperty("os.name"): "Windows Server 2012 R2"

[2017-05-24 17:57:38] Didn't save hiscores for [EXTREME]Mod divine
[2017-05-24 18:13:17] Didn't save hiscores for [EXTREME]Mod divine
[2017-05-24 18:25:14] java.lang.NullPointerException
[2017-05-24 18:25:14] 	at com.mayhem.rs2.content.event.objects.BossChest$1.execute(BossChest.java:179)
[2017-05-24 18:25:14] 	at com.mayhem.core.task.TaskQueue.queue(TaskQueue.java:117)
[2017-05-24 18:25:14] 	at com.mayhem.rs2.content.event.objects.BossChest.dispatchLoot(BossChest.java:174)
[2017-05-24 18:25:14] 	at com.mayhem.rs2.entity.WalkToActions.finishObjectClick(WalkToActions.java:2095)
[2017-05-24 18:25:14] 	at com.mayhem.rs2.entity.WalkToActions$7.onDestination(WalkToActions.java:330)
[2017-05-24 18:25:14] 	at com.mayhem.core.task.impl.WalkToTask.execute(WalkToTask.java:39)
[2017-05-24 18:25:14] 	at com.mayhem.core.task.Task.run(Task.java:183)
[2017-05-24 18:25:14] 	at com.mayhem.core.task.TaskQueue.process(TaskQueue.java:78)
[2017-05-24 18:25:14] 	at com.mayhem.core.GameThread.cycle(GameThread.java:129)
[2017-05-24 18:25:14] 	at com.mayhem.core.GameThread.run(GameThread.java:152)
[2017-05-24 18:31:52] Didn't save hiscores for [EXTREME]Mod divine
[2017-05-24 18:58:38] Didn't save hiscores for [EXTREME]Mod divine
[2017-05-24 19:03:40] Didn't save hiscores for [EXTREME]Mod divine
[2017-05-24 19:31:43] Didn't save hiscores for [EXTREME]Mod divine
[2017-05-24 20:43:38] Didn't save hiscores for [EXTREME]Mod divine
[2017-05-24 20:58:45] Didn't save hiscores for [EXTREME]Mod divine
[2017-05-24 21:25:55] Didn't save hiscores for [EXTREME]Mod divine
[2017-05-24 21:28:45] Didn't save hiscores for [EXTREME]Mod divine
[2017-05-24 21:29:47] Didn't save hiscores for [EXTREME]Mod divine
[2017-05-25 01:11:47] Didn't save hiscores for [EXTREME]Mod divine
[2017-05-25 01:15:51] Didn't save hiscores for [EXTREME]Mod divine
[2017-05-25 18:01:21] Didn't save hiscores for [EXTREME]Mod divine
[2017-05-25 18:14:34] Didn't save hiscores for [EXTREME]Mod divine
[2017-05-25 18:24:18] Didn't save hiscores for [EXTREME]Mod divine
[2017-05-25 18:37:19] java.lang.NumberFormatException: For input string: "bloodkey"
[2017-05-25 18:37:19] 	at java.lang.NumberFormatException.forInputString(Unknown Source)
[2017-05-25 18:37:19] 	at java.lang.Integer.parseInt(Unknown Source)
[2017-05-25 18:37:19] 	at java.lang.Integer.parseInt(Unknown Source)
[2017-05-25 18:37:19] 	at com.mayhem.rs2.entity.player.net.in.command.CommandParser.nextInt(CommandParser.java:46)
[2017-05-25 18:37:19] 	at com.mayhem.rs2.entity.player.net.in.command.impl.AdministratorCommand.handleCommand(AdministratorCommand.java:233)
[2017-05-25 18:37:19] 	at com.mayhem.rs2.entity.player.net.in.impl.CommandPacket.handle(CommandPacket.java:57)
[2017-05-25 18:37:19] 	at com.mayhem.rs2.entity.player.net.in.PacketHandler.handlePacket(PacketHandler.java:149)
[2017-05-25 18:37:19] 	at com.mayhem.rs2.entity.player.net.Client.processIncomingPackets(Client.java:211)
[2017-05-25 18:37:19] 	at com.mayhem.rs2.entity.World.process(World.java:322)
[2017-05-25 18:37:19] 	at com.mayhem.core.GameThread.cycle(GameThread.java:137)
[2017-05-25 18:37:19] 	at com.mayhem.core.GameThread.run(GameThread.java:152)
[2017-05-25 18:37:25] java.lang.NumberFormatException: For input string: "bloody"
[2017-05-25 18:37:25] 	at java.lang.NumberFormatException.forInputString(Unknown Source)
[2017-05-25 18:37:25] 	at java.lang.Integer.parseInt(Unknown Source)
[2017-05-25 18:37:25] 	at java.lang.Integer.parseInt(Unknown Source)
[2017-05-25 18:37:25] 	at com.mayhem.rs2.entity.player.net.in.command.CommandParser.nextInt(CommandParser.java:46)
[2017-05-25 18:37:25] 	at com.mayhem.rs2.entity.player.net.in.command.impl.AdministratorCommand.handleCommand(AdministratorCommand.java:233)
[2017-05-25 18:37:25] 	at com.mayhem.rs2.entity.player.net.in.impl.CommandPacket.handle(CommandPacket.java:57)
[2017-05-25 18:37:25] 	at com.mayhem.rs2.entity.player.net.in.PacketHandler.handlePacket(PacketHandler.java:149)
[2017-05-25 18:37:25] 	at com.mayhem.rs2.entity.player.net.Client.processIncomingPackets(Client.java:211)
[2017-05-25 18:37:25] 	at com.mayhem.rs2.entity.World.process(World.java:322)
[2017-05-25 18:37:25] 	at com.mayhem.core.GameThread.cycle(GameThread.java:137)
[2017-05-25 18:37:25] 	at com.mayhem.core.GameThread.run(GameThread.java:152)
[2017-05-25 18:37:32] java.lang.NumberFormatException: For input string: "code"
[2017-05-25 18:37:32] 	at java.lang.NumberFormatException.forInputString(Unknown Source)
[2017-05-25 18:37:32] 	at java.lang.Integer.parseInt(Unknown Source)
[2017-05-25 18:37:32] 	at java.lang.Integer.parseInt(Unknown Source)
[2017-05-25 18:37:32] 	at com.mayhem.rs2.entity.player.net.in.command.CommandParser.nextInt(CommandParser.java:46)
[2017-05-25 18:37:32] 	at com.mayhem.rs2.entity.player.net.in.command.impl.AdministratorCommand.handleCommand(AdministratorCommand.java:233)
[2017-05-25 18:37:32] 	at com.mayhem.rs2.entity.player.net.in.impl.CommandPacket.handle(CommandPacket.java:57)
[2017-05-25 18:37:32] 	at com.mayhem.rs2.entity.player.net.in.PacketHandler.handlePacket(PacketHandler.java:149)
[2017-05-25 18:37:32] 	at com.mayhem.rs2.entity.player.net.Client.processIncomingPackets(Client.java:211)
[2017-05-25 18:37:32] 	at com.mayhem.rs2.entity.World.process(World.java:322)
[2017-05-25 18:37:32] 	at com.mayhem.core.GameThread.cycle(GameThread.java:137)
[2017-05-25 18:37:32] 	at com.mayhem.core.GameThread.run(GameThread.java:152)
[2017-05-25 18:37:38] java.lang.NumberFormatException: For input string: "bloody"
[2017-05-25 18:37:38] 	at java.lang.NumberFormatException.forInputString(Unknown Source)
[2017-05-25 18:37:38] 	at java.lang.Integer.parseInt(Unknown Source)
[2017-05-25 18:37:38] 	at java.lang.Integer.parseInt(Unknown Source)
[2017-05-25 18:37:38] 	at com.mayhem.rs2.entity.player.net.in.command.CommandParser.nextInt(CommandParser.java:46)
[2017-05-25 18:37:38] 	at com.mayhem.rs2.entity.player.net.in.command.impl.AdministratorCommand.handleCommand(AdministratorCommand.java:233)
[2017-05-25 18:37:38] 	at com.mayhem.rs2.entity.player.net.in.impl.CommandPacket.handle(CommandPacket.java:57)
[2017-05-25 18:37:38] 	at com.mayhem.rs2.entity.player.net.in.PacketHandler.handlePacket(PacketHandler.java:149)
[2017-05-25 18:37:38] 	at com.mayhem.rs2.entity.player.net.Client.processIncomingPackets(Client.java:211)
[2017-05-25 18:37:38] 	at com.mayhem.rs2.entity.World.process(World.java:322)
[2017-05-25 18:37:38] 	at com.mayhem.core.GameThread.cycle(GameThread.java:137)
[2017-05-25 18:37:38] 	at com.mayhem.core.GameThread.run(GameThread.java:152)
[2017-05-25 18:37:48] java.lang.NumberFormatException: For input string: "event"
[2017-05-25 18:37:48] 	at java.lang.NumberFormatException.forInputString(Unknown Source)
[2017-05-25 18:37:48] 	at java.lang.Integer.parseInt(Unknown Source)
[2017-05-25 18:37:48] 	at java.lang.Integer.parseInt(Unknown Source)
[2017-05-25 18:37:48] 	at com.mayhem.rs2.entity.player.net.in.command.CommandParser.nextInt(CommandParser.java:46)
[2017-05-25 18:37:48] 	at com.mayhem.rs2.entity.player.net.in.command.impl.AdministratorCommand.handleCommand(AdministratorCommand.java:233)
[2017-05-25 18:37:48] 	at com.mayhem.rs2.entity.player.net.in.impl.CommandPacket.handle(CommandPacket.java:57)
[2017-05-25 18:37:48] 	at com.mayhem.rs2.entity.player.net.in.PacketHandler.handlePacket(PacketHandler.java:149)
[2017-05-25 18:37:48] 	at com.mayhem.rs2.entity.player.net.Client.processIncomingPackets(Client.java:211)
[2017-05-25 18:37:48] 	at com.mayhem.rs2.entity.World.process(World.java:322)
[2017-05-25 18:37:48] 	at com.mayhem.core.GameThread.cycle(GameThread.java:137)
[2017-05-25 18:37:48] 	at com.mayhem.core.GameThread.run(GameThread.java:152)
[2017-05-25 19:00:24] Didn't save hiscores for [EXTREME]Mod divine
[2017-05-25 19:26:09] Didn't save hiscores for [IRONMAN] Mackars
[2017-05-25 19:35:50] Didn't save hiscores for [EXTREME]Mod divine
[2017-05-25 19:36:33] Didn't save hiscores for [IRONMAN] Mackars
[2017-05-25 19:37:04] Didn't save hiscores for [IRONMAN] Mackars
[2017-05-25 19:37:16] Didn't save hiscores for [EXTREME]Mod divine
[2017-05-25 19:37:18] Didn't save hiscores for [NORMAL] Mr boss man
[2017-05-25 19:51:14] java.lang.NullPointerException
[2017-05-25 19:51:14] 	at com.mayhem.rs2.entity.player.net.in.command.impl.AdministratorCommand.handleCommand(AdministratorCommand.java:254)
[2017-05-25 19:51:14] 	at com.mayhem.rs2.entity.player.net.in.impl.CommandPacket.handle(CommandPacket.java:57)
[2017-05-25 19:51:14] 	at com.mayhem.rs2.entity.player.net.in.PacketHandler.handlePacket(PacketHandler.java:149)
[2017-05-25 19:51:14] 	at com.mayhem.rs2.entity.player.net.Client.processIncomingPackets(Client.java:211)
[2017-05-25 19:51:14] 	at com.mayhem.rs2.entity.World.process(World.java:322)
[2017-05-25 19:51:14] 	at com.mayhem.core.GameThread.cycle(GameThread.java:137)
[2017-05-25 19:51:14] 	at com.mayhem.core.GameThread.run(GameThread.java:152)
[2017-05-25 20:02:29] java.lang.NumberFormatException: For input string: "::item"
[2017-05-25 20:02:29] 	at java.lang.NumberFormatException.forInputString(Unknown Source)
[2017-05-25 20:02:29] 	at java.lang.Integer.parseInt(Unknown Source)
[2017-05-25 20:02:29] 	at java.lang.Integer.parseInt(Unknown Source)
[2017-05-25 20:02:29] 	at com.mayhem.rs2.entity.player.net.in.command.CommandParser.nextInt(CommandParser.java:46)
[2017-05-25 20:02:29] 	at com.mayhem.rs2.entity.player.net.in.command.impl.AdministratorCommand.handleCommand(AdministratorCommand.java:233)
[2017-05-25 20:02:29] 	at com.mayhem.rs2.entity.player.net.in.impl.CommandPacket.handle(CommandPacket.java:57)
[2017-05-25 20:02:29] 	at com.mayhem.rs2.entity.player.net.in.PacketHandler.handlePacket(PacketHandler.java:149)
[2017-05-25 20:02:29] 	at com.mayhem.rs2.entity.player.net.Client.processIncomingPackets(Client.java:211)
[2017-05-25 20:02:29] 	at com.mayhem.rs2.entity.World.process(World.java:322)
[2017-05-25 20:02:29] 	at com.mayhem.core.GameThread.cycle(GameThread.java:137)
[2017-05-25 20:02:29] 	at com.mayhem.core.GameThread.run(GameThread.java:152)
[2017-05-25 20:29:26] Didn't save hiscores for [IRONMAN] Mackars
[2017-05-25 20:34:49] Didn't save hiscores for [NORMAL] Mr boss man
[2017-05-25 20:36:06] Didn't save hiscores for [EXTREME]Mod divine
[2017-05-25 20:44:15] java.lang.NullPointerException
[2017-05-25 20:44:15] 	at com.mayhem.rs2.entity.player.net.in.command.impl.AdministratorCommand.handleCommand(AdministratorCommand.java:254)
[2017-05-25 20:44:15] 	at com.mayhem.rs2.entity.player.net.in.impl.CommandPacket.handle(CommandPacket.java:57)
[2017-05-25 20:44:15] 	at com.mayhem.rs2.entity.player.net.in.PacketHandler.handlePacket(PacketHandler.java:149)
[2017-05-25 20:44:15] 	at com.mayhem.rs2.entity.player.net.Client.processIncomingPackets(Client.java:211)
[2017-05-25 20:44:15] 	at com.mayhem.rs2.entity.World.process(World.java:322)
[2017-05-25 20:44:15] 	at com.mayhem.core.GameThread.cycle(GameThread.java:137)
[2017-05-25 20:44:15] 	at com.mayhem.core.GameThread.run(GameThread.java:152)
[2017-05-25 20:49:56] Didn't save hiscores for [NORMAL] Mr boss man
[2017-05-25 22:30:45] Didn't save hiscores for [NORMAL] Mr boss man
[2017-05-25 22:33:33] Didn't save hiscores for [EXTREME]Mod divine
[2017-05-25 22:37:51] Didn't save hiscores for [NORMAL] Mr boss man
[2017-05-26 14:14:16] Didn't save hiscores for [NORMAL] Mr boss man
[2017-05-26 17:34:10] Didn't save hiscores for [NORMAL] Mr boss man
[2017-05-26 18:33:18] Didn't save hiscores for [EXTREME]Mod divine
[2017-05-26 18:33:40] Didn't save hiscores for [NORMAL] Mr boss man
[2017-05-27 20:14:09] Didn't save hiscores for [NORMAL] Mr boss man
[2017-05-28 20:29:47] Didn't save hiscores for [NORMAL] Mr boss man
[2017-05-31 16:16:30] Didn't save hiscores for [NORMAL] Mr boss man
[2017-05-31 22:58:25] Didn't save hiscores for [NORMAL] Mr boss man
[2017-05-31 23:01:38] Didn't save hiscores for [NORMAL] Mr boss man
[2017-05-31 23:20:48] Didn't save hiscores for [NORMAL] Mr boss man
[2017-05-31 23:24:19] Didn't save hiscores for [NORMAL] Sandy
[2017-05-31 23:31:56] Didn't save hiscores for [EXTREME]Mod divine
[2017-05-31 23:48:26] java.lang.NumberFormatException: For input string: "getsponged"
[2017-05-31 23:48:26] 	at java.lang.NumberFormatException.forInputString(Unknown Source)
[2017-05-31 23:48:26] 	at java.lang.Integer.parseInt(Unknown Source)
[2017-05-31 23:48:26] 	at java.lang.Integer.parseInt(Unknown Source)
[2017-05-31 23:48:26] 	at com.mayhem.rs2.entity.player.net.in.command.impl.AdministratorCommand.handleCommand(AdministratorCommand.java:192)
[2017-05-31 23:48:26] 	at com.mayhem.rs2.entity.player.net.in.impl.CommandPacket.handle(CommandPacket.java:57)
[2017-05-31 23:48:26] 	at com.mayhem.rs2.entity.player.net.in.PacketHandler.handlePacket(PacketHandler.java:149)
[2017-05-31 23:48:26] 	at com.mayhem.rs2.entity.player.net.Client.processIncomingPackets(Client.java:211)
[2017-05-31 23:48:26] 	at com.mayhem.rs2.entity.World.process(World.java:322)
[2017-05-31 23:48:26] 	at com.mayhem.core.GameThread.cycle(GameThread.java:137)
[2017-05-31 23:48:26] 	at com.mayhem.core.GameThread.run(GameThread.java:152)
[2017-05-31 23:48:38] Didn't save hiscores for [NORMAL] Get sponged
[2017-05-31 23:49:27] java.lang.NullPointerException
[2017-05-31 23:49:27] 	at com.mayhem.rs2.content.GenieReset.handle(GenieReset.java:118)
[2017-05-31 23:49:27] 	at com.mayhem.rs2.entity.player.net.in.impl.ClickButtonPacket.handle(ClickButtonPacket.java:962)
[2017-05-31 23:49:27] 	at com.mayhem.rs2.entity.player.net.in.PacketHandler.handlePacket(PacketHandler.java:149)
[2017-05-31 23:49:27] 	at com.mayhem.rs2.entity.player.net.Client.processIncomingPackets(Client.java:211)
[2017-05-31 23:49:27] 	at com.mayhem.rs2.entity.World.process(World.java:322)
[2017-05-31 23:49:27] 	at com.mayhem.core.GameThread.cycle(GameThread.java:137)
[2017-05-31 23:49:27] 	at com.mayhem.core.GameThread.run(GameThread.java:152)
[2017-05-31 23:49:34] java.lang.NullPointerException
[2017-05-31 23:49:34] 	at com.mayhem.rs2.content.GenieReset.handle(GenieReset.java:118)
[2017-05-31 23:49:34] 	at com.mayhem.rs2.entity.player.net.in.impl.ClickButtonPacket.handle(ClickButtonPacket.java:962)
[2017-05-31 23:49:34] 	at com.mayhem.rs2.entity.player.net.in.PacketHandler.handlePacket(PacketHandler.java:149)
[2017-05-31 23:49:34] 	at com.mayhem.rs2.entity.player.net.Client.processIncomingPackets(Client.java:211)
[2017-05-31 23:49:34] 	at com.mayhem.rs2.entity.World.process(World.java:322)
[2017-05-31 23:49:34] 	at com.mayhem.core.GameThread.cycle(GameThread.java:137)
[2017-05-31 23:49:34] 	at com.mayhem.core.GameThread.run(GameThread.java:152)
[2017-05-31 23:49:40] java.lang.NullPointerException
[2017-05-31 23:49:40] 	at com.mayhem.rs2.content.GenieReset.handle(GenieReset.java:118)
[2017-05-31 23:49:40] 	at com.mayhem.rs2.entity.player.net.in.impl.ClickButtonPacket.handle(ClickButtonPacket.java:962)
[2017-05-31 23:49:40] 	at com.mayhem.rs2.entity.player.net.in.PacketHandler.handlePacket(PacketHandler.java:149)
[2017-05-31 23:49:40] 	at com.mayhem.rs2.entity.player.net.Client.processIncomingPackets(Client.java:211)
[2017-05-31 23:49:40] 	at com.mayhem.rs2.entity.World.process(World.java:322)
[2017-05-31 23:49:40] 	at com.mayhem.core.GameThread.cycle(GameThread.java:137)
[2017-05-31 23:49:40] 	at com.mayhem.core.GameThread.run(GameThread.java:152)
[2017-05-31 23:49:52] Didn't save hiscores for [NORMAL] Get sponged
[2017-05-31 23:51:47] Didn't save hiscores for [EXTREME]Mod divine
[2017-06-01 13:48:57] Didn't save hiscores for [NORMAL] Sandy
[2017-06-01 13:55:21] java.lang.NullPointerException
[2017-06-01 13:55:21] 	at com.mayhem.rs2.content.GenieReset.handle(GenieReset.java:118)
[2017-06-01 13:55:21] 	at com.mayhem.rs2.entity.player.net.in.impl.ClickButtonPacket.handle(ClickButtonPacket.java:962)
[2017-06-01 13:55:21] 	at com.mayhem.rs2.entity.player.net.in.PacketHandler.handlePacket(PacketHandler.java:149)
[2017-06-01 13:55:21] 	at com.mayhem.rs2.entity.player.net.Client.processIncomingPackets(Client.java:211)
[2017-06-01 13:55:21] 	at com.mayhem.rs2.entity.World.process(World.java:322)
[2017-06-01 13:55:21] 	at com.mayhem.core.GameThread.cycle(GameThread.java:137)
[2017-06-01 13:55:21] 	at com.mayhem.core.GameThread.run(GameThread.java:152)
[2017-06-01 13:55:25] java.lang.NullPointerException
[2017-06-01 13:55:25] 	at com.mayhem.rs2.content.GenieReset.handle(GenieReset.java:118)
[2017-06-01 13:55:25] 	at com.mayhem.rs2.entity.player.net.in.impl.ClickButtonPacket.handle(ClickButtonPacket.java:962)
[2017-06-01 13:55:25] 	at com.mayhem.rs2.entity.player.net.in.PacketHandler.handlePacket(PacketHandler.java:149)
[2017-06-01 13:55:25] 	at com.mayhem.rs2.entity.player.net.Client.processIncomingPackets(Client.java:211)
[2017-06-01 13:55:25] 	at com.mayhem.rs2.entity.World.process(World.java:322)
[2017-06-01 13:55:25] 	at com.mayhem.core.GameThread.cycle(GameThread.java:137)
[2017-06-01 13:55:25] 	at com.mayhem.core.GameThread.run(GameThread.java:152)
[2017-06-01 13:55:29] java.lang.NullPointerException
[2017-06-01 13:55:29] 	at com.mayhem.rs2.content.GenieReset.handle(GenieReset.java:118)
[2017-06-01 13:55:29] 	at com.mayhem.rs2.entity.player.net.in.impl.ClickButtonPacket.handle(ClickButtonPacket.java:962)
[2017-06-01 13:55:29] 	at com.mayhem.rs2.entity.player.net.in.PacketHandler.handlePacket(PacketHandler.java:149)
[2017-06-01 13:55:29] 	at com.mayhem.rs2.entity.player.net.Client.processIncomingPackets(Client.java:211)
[2017-06-01 13:55:29] 	at com.mayhem.rs2.entity.World.process(World.java:322)
[2017-06-01 13:55:29] 	at com.mayhem.core.GameThread.cycle(GameThread.java:137)
[2017-06-01 13:55:29] 	at com.mayhem.core.GameThread.run(GameThread.java:152)
[2017-06-01 13:56:34] java.lang.NullPointerException
[2017-06-01 13:56:34] 	at com.mayhem.rs2.content.GenieReset.handle(GenieReset.java:118)
[2017-06-01 13:56:34] 	at com.mayhem.rs2.entity.player.net.in.impl.ClickButtonPacket.handle(ClickButtonPacket.java:962)
[2017-06-01 13:56:34] 	at com.mayhem.rs2.entity.player.net.in.PacketHandler.handlePacket(PacketHandler.java:149)
[2017-06-01 13:56:34] 	at com.mayhem.rs2.entity.player.net.Client.processIncomingPackets(Client.java:211)
[2017-06-01 13:56:34] 	at com.mayhem.rs2.entity.World.process(World.java:322)
[2017-06-01 13:56:34] 	at com.mayhem.core.GameThread.cycle(GameThread.java:137)
[2017-06-01 13:56:34] 	at com.mayhem.core.GameThread.run(GameThread.java:152)
[2017-06-01 13:56:39] java.lang.NullPointerException
[2017-06-01 13:56:39] 	at com.mayhem.rs2.content.GenieReset.handle(GenieReset.java:118)
[2017-06-01 13:56:39] 	at com.mayhem.rs2.entity.player.net.in.impl.ClickButtonPacket.handle(ClickButtonPacket.java:962)
[2017-06-01 13:56:39] 	at com.mayhem.rs2.entity.player.net.in.PacketHandler.handlePacket(PacketHandler.java:149)
[2017-06-01 13:56:39] 	at com.mayhem.rs2.entity.player.net.Client.processIncomingPackets(Client.java:211)
[2017-06-01 13:56:39] 	at com.mayhem.rs2.entity.World.process(World.java:322)
[2017-06-01 13:56:39] 	at com.mayhem.core.GameThread.cycle(GameThread.java:137)
[2017-06-01 13:56:39] 	at com.mayhem.core.GameThread.run(GameThread.java:152)
[2017-06-01 13:58:04] Didn't save hiscores for [EXTREME]Mod divine
[2017-06-01 17:37:39] Didn't save hiscores for [EXTREME]Mod divine
[2017-06-02 21:23:07] Didn't save hiscores for [IRONMAN] Plankton
[2017-06-02 21:23:46] Didn't save hiscores for [IRONMAN] Plankton
[2017-06-02 21:25:30] Didn't save hiscores for [EXTREME]Mod divine
[2017-06-02 21:44:34] Didn't save hiscores for [NORMAL] Mr boss man
[2017-06-02 21:45:53] Didn't save hiscores for [NORMAL] The best
[2017-06-02 21:46:21] Didn't save hiscores for [NORMAL] The best
[2017-06-02 21:46:29] Didn't save hiscores for [EXTREME]Mod divine
[2017-06-02 21:50:11] java.lang.NullPointerException
[2017-06-02 21:50:11] 	at com.mayhem.rs2.entity.player.net.in.command.impl.AdministratorCommand.handleCommand(AdministratorCommand.java:254)
[2017-06-02 21:50:11] 	at com.mayhem.rs2.entity.player.net.in.impl.CommandPacket.handle(CommandPacket.java:57)
[2017-06-02 21:50:11] 	at com.mayhem.rs2.entity.player.net.in.PacketHandler.handlePacket(PacketHandler.java:149)
[2017-06-02 21:50:11] 	at com.mayhem.rs2.entity.player.net.Client.processIncomingPackets(Client.java:211)
[2017-06-02 21:50:11] 	at com.mayhem.rs2.entity.World.process(World.java:322)
[2017-06-02 21:50:11] 	at com.mayhem.core.GameThread.cycle(GameThread.java:137)
[2017-06-02 21:50:11] 	at com.mayhem.core.GameThread.run(GameThread.java:152)
[2017-06-02 21:50:14] java.lang.NumberFormatException: For input string: ""
[2017-06-02 21:50:14] 	at java.lang.NumberFormatException.forInputString(Unknown Source)
[2017-06-02 21:50:14] 	at java.lang.Integer.parseInt(Unknown Source)
[2017-06-02 21:50:14] 	at java.lang.Integer.parseInt(Unknown Source)
[2017-06-02 21:50:14] 	at com.mayhem.rs2.entity.player.net.in.command.CommandParser.nextInt(CommandParser.java:46)
[2017-06-02 21:50:14] 	at com.mayhem.rs2.entity.player.net.in.command.impl.AdministratorCommand.handleCommand(AdministratorCommand.java:233)
[2017-06-02 21:50:14] 	at com.mayhem.rs2.entity.player.net.in.impl.CommandPacket.handle(CommandPacket.java:57)
[2017-06-02 21:50:14] 	at com.mayhem.rs2.entity.player.net.in.PacketHandler.handlePacket(PacketHandler.java:149)
[2017-06-02 21:50:14] 	at com.mayhem.rs2.entity.player.net.Client.processIncomingPackets(Client.java:211)
[2017-06-02 21:50:14] 	at com.mayhem.rs2.entity.World.process(World.java:322)
[2017-06-02 21:50:14] 	at com.mayhem.core.GameThread.cycle(GameThread.java:137)
[2017-06-02 21:50:14] 	at com.mayhem.core.GameThread.run(GameThread.java:152)
[2017-06-02 21:51:42] Didn't save hiscores for [EXTREME]Mod divine
[2017-06-02 22:04:20] Didn't save hiscores for [EXTREME]Mod divine
[2017-06-03 02:09:34] Didn't save hiscores for [IRONMAN] Mackars
[2017-06-03 02:14:22] Didn't save hiscores for [EXTREME]Mod divine
[2017-06-03 02:20:54] Didn't save hiscores for [NORMAL] Beroca
[2017-06-03 02:21:01] Didn't save hiscores for [EXTREME]Mod divine
[2017-06-03 02:37:35] java.lang.NullPointerException
[2017-06-03 02:37:35] 	at com.mayhem.rs2.entity.player.net.in.command.impl.AdministratorCommand.handleCommand(AdministratorCommand.java:254)
[2017-06-03 02:37:35] 	at com.mayhem.rs2.entity.player.net.in.impl.CommandPacket.handle(CommandPacket.java:57)
[2017-06-03 02:37:35] 	at com.mayhem.rs2.entity.player.net.in.PacketHandler.handlePacket(PacketHandler.java:149)
[2017-06-03 02:37:35] 	at com.mayhem.rs2.entity.player.net.Client.processIncomingPackets(Client.java:211)
[2017-06-03 02:37:35] 	at com.mayhem.rs2.entity.World.process(World.java:322)
[2017-06-03 02:37:35] 	at com.mayhem.core.GameThread.cycle(GameThread.java:137)
[2017-06-03 02:37:35] 	at com.mayhem.core.GameThread.run(GameThread.java:152)
[2017-06-03 02:40:19] Didn't save hiscores for [EXTREME]Mod divine
[2017-06-03 02:40:19] Didn't save hiscores for [NORMAL] Beroca
