Logging started at 2018-05-05 12:37:27
File name: C:\Users\travi\Desktop\Dropbox\Valius\Valius Source\.\data\logs\err\1525538247748 - travi - [Sat May 5][12.37PM].txt
System.getProperty("os.name"): "Windows 10"

[2018-05-05 13:24:37] [Extreme]: Failed to update Mod Divine highscores. Database could not connect.
