Logging started at 2018-05-22 01:20:52
File name: C:\Users\travi\Desktop\Dropbox\Valius\Valius Source\.\data\logs\err\1526966451932 - travi - [Tue May 22][1.20AM].txt
System.getProperty("os.name"): "Windows 10"

