Logging started at 2018-06-01 03:44:27
File name: C:\Users\travi\Desktop\Dropbox\Valius\Valius Source\.\data\logs\err\1527839067334 - travi - [Fri Jun 1][3.44AM].txt
System.getProperty("os.name"): "Windows 10"

