Logging started at 2018-05-26 16:28:25
File name: C:\Users\travi\Desktop\Dropbox\Valius\Valius Source\.\data\logs\err\1527366505374 - travi - [Sat May 26][4.28PM].txt
System.getProperty("os.name"): "Windows 10"

