Logging started at 2018-05-30 22:18:36
File name: C:\Users\travi\Desktop\Dropbox\Valius\Valius Source\.\data\logs\err\1527733116708 - travi - [Wed May 30][10.18PM].txt
System.getProperty("os.name"): "Windows 10"

