Logging started at 2018-05-26 03:38:00
File name: C:\Users\travi\Desktop\Dropbox\Valius\Valius Source\.\data\logs\err\1527320280615 - travi - [Sat May 26][3.38AM].txt
System.getProperty("os.name"): "Windows 10"

