Logging started at 2018-06-08 00:35:00
File name: C:\Users\Administrator\Dropbox\Valius\Valius Source\.\data\logs\err\1528443299939 - Administrator - [Fri Jun 8][12.34AM].txt
System.getProperty("os.name"): "Windows Server 2016"

