Logging started at 2018-06-12 20:18:59
File name: C:\Users\travi\Dropbox\Valius\Valius Source\.\data\logs\err\1528849139581 - travi - [Tue Jun 12][8.18PM].txt
System.getProperty("os.name"): "Windows 10"

