Logging started at 2018-06-25 03:15:25
File name: C:\Users\travi\Dropbox\Valius\Valius Source\.\data\logs\err\1529910925378 - travi - [Mon Jun 25][3.15AM].txt
System.getProperty("os.name"): "Windows 10"

