Logging started at 2018-06-25 11:27:16
File name: C:\Users\Administrator\Dropbox\Valius\Valius Source\.\data\logs\err\1529951236610 - Administrator - [Mon Jun 25][11.27AM].txt
System.getProperty("os.name"): "Windows Server 2016"

