Logging started at 2018-06-25 03:28:02
File name: C:\Users\travi\Dropbox\Valius\Valius Source\.\data\logs\err\1529911682326 - travi - [Mon Jun 25][3.28AM].txt
System.getProperty("os.name"): "Windows 10"

[2018-06-25 03:46:52] Didn't save hiscores for Mod divine
