Logging started at 2018-06-18 00:04:27
File name: C:\Users\travi\Dropbox\Valius\Valius Source\.\data\logs\err\1529294667254 - travi - [Mon Jun 18][12.04AM].txt
System.getProperty("os.name"): "Windows 10"

[2018-06-18 00:08:57] Didn't save hiscores for Mod divine
