Logging started at 2018-06-15 03:18:21
File name: C:\Users\travi\Dropbox\Valius\Valius Source\.\data\logs\err\1529047100608 - travi - [Fri Jun 15][3.18AM].txt
System.getProperty("os.name"): "Windows 10"

