Logging started at 2018-06-18 02:07:03
File name: C:\Users\travi\Dropbox\Valius\Valius Source\.\data\logs\err\1529302023268 - travi - [Mon Jun 18][2.07AM].txt
System.getProperty("os.name"): "Windows 10"

[2018-06-18 02:11:49] java.lang.ArrayIndexOutOfBoundsException: 9998
[2018-06-18 02:11:49] 	at com.mayhem.rs2.entity.player.net.in.command.impl.AdministratorCommand.handleCommand(AdministratorCommand.java:122)
[2018-06-18 02:11:49] 	at com.mayhem.rs2.entity.player.net.in.impl.CommandPacket.handle(CommandPacket.java:57)
[2018-06-18 02:11:49] 	at com.mayhem.rs2.entity.player.net.in.PacketHandler.handlePacket(PacketHandler.java:149)
[2018-06-18 02:11:49] 	at com.mayhem.rs2.entity.player.net.Client.processIncomingPackets(Client.java:211)
[2018-06-18 02:11:49] 	at com.mayhem.rs2.entity.World.process(World.java:321)
[2018-06-18 02:11:49] 	at com.mayhem.core.GameThread.cycle(GameThread.java:136)
[2018-06-18 02:11:49] 	at com.mayhem.core.GameThread.run(GameThread.java:151)
[2018-06-18 02:12:24] java.lang.ArrayIndexOutOfBoundsException: 22324
[2018-06-18 02:12:24] 	at com.mayhem.rs2.content.sounds.PlayerSounds.sendSoundForId(PlayerSounds.java:108)
[2018-06-18 02:12:24] 	at com.mayhem.rs2.content.combat.PlayerCombatInterface.onCombatProcess(PlayerCombatInterface.java:448)
[2018-06-18 02:12:24] 	at com.mayhem.rs2.entity.player.Player.onCombatProcess(Player.java:1628)
[2018-06-18 02:12:24] 	at com.mayhem.rs2.content.combat.Combat.attack(Combat.java:79)
[2018-06-18 02:12:24] 	at com.mayhem.rs2.content.combat.Combat.process(Combat.java:215)
[2018-06-18 02:12:24] 	at com.mayhem.rs2.entity.player.Player.process(Player.java:1689)
[2018-06-18 02:12:24] 	at com.mayhem.rs2.entity.World.process(World.java:323)
[2018-06-18 02:12:24] 	at com.mayhem.core.GameThread.cycle(GameThread.java:136)
[2018-06-18 02:12:24] 	at com.mayhem.core.GameThread.run(GameThread.java:151)
[2018-06-18 02:12:24] Didn't save hiscores for Mod divine
[2018-06-18 02:13:34] java.lang.ArrayIndexOutOfBoundsException: 22324
[2018-06-18 02:13:34] 	at com.mayhem.rs2.content.sounds.PlayerSounds.sendSoundForId(PlayerSounds.java:108)
[2018-06-18 02:13:34] 	at com.mayhem.rs2.content.combat.PlayerCombatInterface.onCombatProcess(PlayerCombatInterface.java:448)
[2018-06-18 02:13:34] 	at com.mayhem.rs2.entity.player.Player.onCombatProcess(Player.java:1628)
[2018-06-18 02:13:34] 	at com.mayhem.rs2.content.combat.Combat.attack(Combat.java:79)
[2018-06-18 02:13:34] 	at com.mayhem.rs2.content.combat.Combat.process(Combat.java:215)
[2018-06-18 02:13:34] 	at com.mayhem.rs2.entity.player.Player.process(Player.java:1689)
[2018-06-18 02:13:34] 	at com.mayhem.rs2.entity.World.process(World.java:323)
[2018-06-18 02:13:34] 	at com.mayhem.core.GameThread.cycle(GameThread.java:136)
[2018-06-18 02:13:34] 	at com.mayhem.core.GameThread.run(GameThread.java:151)
[2018-06-18 02:13:34] Didn't save hiscores for Mod divine
[2018-06-18 02:21:00] java.lang.ArrayIndexOutOfBoundsException: 22324
[2018-06-18 02:21:00] 	at com.mayhem.rs2.content.sounds.PlayerSounds.sendSoundForId(PlayerSounds.java:108)
[2018-06-18 02:21:00] 	at com.mayhem.rs2.content.combat.PlayerCombatInterface.onCombatProcess(PlayerCombatInterface.java:448)
[2018-06-18 02:21:00] 	at com.mayhem.rs2.entity.player.Player.onCombatProcess(Player.java:1628)
[2018-06-18 02:21:00] 	at com.mayhem.rs2.content.combat.Combat.attack(Combat.java:79)
[2018-06-18 02:21:00] 	at com.mayhem.rs2.content.combat.Combat.process(Combat.java:215)
[2018-06-18 02:21:00] 	at com.mayhem.rs2.entity.player.Player.process(Player.java:1689)
[2018-06-18 02:21:00] 	at com.mayhem.rs2.entity.World.process(World.java:323)
[2018-06-18 02:21:00] 	at com.mayhem.core.GameThread.cycle(GameThread.java:136)
[2018-06-18 02:21:00] 	at com.mayhem.core.GameThread.run(GameThread.java:151)
[2018-06-18 02:21:00] Didn't save hiscores for Mod divine
