Logging started at 2018-06-29 05:00:28
File name: C:\Users\travi\Dropbox\Valius\Valius Source\.\data\logs\err\1530262828821 - travi - [Fri Jun 29][5.00AM].txt
System.getProperty("os.name"): "Windows 10"

