Logging started at 2018-07-06 09:56:56
File name: C:\Users\Administrator\Dropbox\Valius\Valius Source\.\data\logs\err\1530896216881 - Administrator - [Fri Jul 6][9.56AM].txt
System.getProperty("os.name"): "Windows Server 2016"

[2018-07-06 09:58:47] Didn't save hiscores for Saint plague
[2018-07-06 09:59:27] java.lang.ArrayIndexOutOfBoundsException: 64
[2018-07-06 09:59:27] 	at com.mayhem.core.util.Utility.textUnpack(Utility.java:722)
[2018-07-06 09:59:27] 	at com.mayhem.rs2.entity.ReportHandler.addText(ReportHandler.java:28)
[2018-07-06 09:59:27] 	at com.mayhem.rs2.entity.player.net.in.impl.PublicChatPacket.handle(PublicChatPacket.java:61)
[2018-07-06 09:59:27] 	at com.mayhem.rs2.entity.player.net.in.PacketHandler.handlePacket(PacketHandler.java:149)
[2018-07-06 09:59:27] 	at com.mayhem.rs2.entity.player.net.Client.processIncomingPackets(Client.java:211)
[2018-07-06 09:59:27] 	at com.mayhem.rs2.entity.World.process(World.java:323)
[2018-07-06 09:59:27] 	at com.mayhem.core.GameThread.cycle(GameThread.java:136)
[2018-07-06 09:59:27] 	at com.mayhem.core.GameThread.run(GameThread.java:151)
[2018-07-06 10:13:34] Didn't save hiscores for Mod divine
[2018-07-06 10:30:09] Didn't save hiscores for Mod divine
[2018-07-06 10:46:29] Didn't save hiscores for Mod divine
[2018-07-06 11:06:44] Didn't save hiscores for Mod divine
[2018-07-06 13:02:00] java.lang.IndexOutOfBoundsException: Index: 10, Size: 8
[2018-07-06 13:02:00] 	at java.util.LinkedList.checkElementIndex(Unknown Source)
[2018-07-06 13:02:00] 	at java.util.LinkedList.get(Unknown Source)
[2018-07-06 13:02:00] 	at com.mayhem.rs2.entity.player.net.in.impl.InterfaceAction.handle(InterfaceAction.java:88)
[2018-07-06 13:02:00] 	at com.mayhem.rs2.entity.player.net.in.PacketHandler.handlePacket(PacketHandler.java:149)
[2018-07-06 13:02:00] 	at com.mayhem.rs2.entity.player.net.Client.processIncomingPackets(Client.java:211)
[2018-07-06 13:02:00] 	at com.mayhem.rs2.entity.World.process(World.java:323)
[2018-07-06 13:02:00] 	at com.mayhem.core.GameThread.cycle(GameThread.java:136)
[2018-07-06 13:02:00] 	at com.mayhem.core.GameThread.run(GameThread.java:151)
[2018-07-06 13:02:00] java.lang.IndexOutOfBoundsException: Index: 10, Size: 8
[2018-07-06 13:02:00] 	at java.util.LinkedList.checkElementIndex(Unknown Source)
[2018-07-06 13:02:00] 	at java.util.LinkedList.get(Unknown Source)
[2018-07-06 13:02:00] 	at com.mayhem.rs2.entity.player.net.in.impl.InterfaceAction.handle(InterfaceAction.java:88)
[2018-07-06 13:02:00] 	at com.mayhem.rs2.entity.player.net.in.PacketHandler.handlePacket(PacketHandler.java:149)
[2018-07-06 13:02:00] 	at com.mayhem.rs2.entity.player.net.Client.processIncomingPackets(Client.java:211)
[2018-07-06 13:02:00] 	at com.mayhem.rs2.entity.World.process(World.java:323)
[2018-07-06 13:02:00] 	at com.mayhem.core.GameThread.cycle(GameThread.java:136)
[2018-07-06 13:02:00] 	at com.mayhem.core.GameThread.run(GameThread.java:151)
[2018-07-06 13:22:59] Didn't save hiscores for Mod divine
[2018-07-06 13:33:35] java.lang.NullPointerException
[2018-07-06 13:33:35] 	at com.mayhem.rs2.content.combat.formula.MeleeFormulas.calculateBaseDamage(MeleeFormulas.java:212)
[2018-07-06 13:33:35] 	at com.mayhem.rs2.entity.player.net.in.impl.ClickButtonPacket.handle(ClickButtonPacket.java:378)
[2018-07-06 13:33:35] 	at com.mayhem.rs2.entity.player.net.in.PacketHandler.handlePacket(PacketHandler.java:149)
[2018-07-06 13:33:35] 	at com.mayhem.rs2.entity.player.net.Client.processIncomingPackets(Client.java:211)
[2018-07-06 13:33:35] 	at com.mayhem.rs2.entity.World.process(World.java:323)
[2018-07-06 13:33:35] 	at com.mayhem.core.GameThread.cycle(GameThread.java:136)
[2018-07-06 13:33:35] 	at com.mayhem.core.GameThread.run(GameThread.java:151)
[2018-07-06 13:54:55] Didn't save hiscores for Mod divine
