Logging started at 2018-06-30 03:58:34
File name: C:\Users\travi\Dropbox\Valius\Valius Source\.\data\logs\err\1530345514428 - travi - [Sat Jun 30][3.58AM].txt
System.getProperty("os.name"): "Windows 10"

