Logging started at 2018-07-04 04:06:00
File name: C:\Users\travi\Dropbox\Valius\Valius Source\.\data\logs\err\1530691560633 - travi - [Wed Jul 4][4.06AM].txt
System.getProperty("os.name"): "Windows 10"

