Logging started at 2018-06-29 04:55:10
File name: C:\Users\travi\Dropbox\Valius\Valius Source\.\data\logs\err\1530262510893 - travi - [Fri Jun 29][4.55AM].txt
System.getProperty("os.name"): "Windows 10"

