Logging started at 2018-07-05 23:44:45
File name: C:\Users\travi\Dropbox\Valius\Valius Source\.\data\logs\err\1530848684909 - travi - [Thu Jul 5][11.44PM].txt
System.getProperty("os.name"): "Windows 10"

[2018-07-05 23:54:59] Didn't save hiscores for Mod divine
