Logging started at 2018-07-14 03:37:15
File name: C:\Users\travi\Dropbox\Valius\Valius Source\.\data\logs\err\1531553835322 - travi - [Sat Jul 14][3.37AM].txt
System.getProperty("os.name"): "Windows 10"

[2018-07-14 03:40:35] java.lang.ArrayIndexOutOfBoundsException: 14002
[2018-07-14 03:40:35] 	at com.mayhem.rs2.entity.item.Equipment.isWearingItem(Equipment.java:445)
[2018-07-14 03:40:35] 	at com.mayhem.rs2.content.combat.formula.MeleeFormulas.getAttackRoll(MeleeFormulas.java:105)
[2018-07-14 03:40:35] 	at com.mayhem.rs2.content.combat.impl.Melee.execute(Melee.java:31)
[2018-07-14 03:40:35] 	at com.mayhem.rs2.content.combat.Combat.attack(Combat.java:82)
[2018-07-14 03:40:35] 	at com.mayhem.rs2.content.combat.Combat.process(Combat.java:215)
[2018-07-14 03:40:35] 	at com.mayhem.rs2.entity.player.Player.process(Player.java:1712)
[2018-07-14 03:40:35] 	at com.mayhem.rs2.entity.World.process(World.java:325)
[2018-07-14 03:40:35] 	at com.mayhem.core.GameThread.cycle(GameThread.java:131)
[2018-07-14 03:40:35] 	at com.mayhem.core.GameThread.run(GameThread.java:146)
[2018-07-14 03:40:35] Didn't save hiscores for Mod divine
