Logging started at 2018-07-10 05:47:54
File name: C:\Users\travi\Dropbox\Valius\Valius Source\.\data\logs\err\1531216073960 - travi - [Tue Jul 10][5.47AM].txt
System.getProperty("os.name"): "Windows 10"

[2018-07-10 05:56:43] Didn't save hiscores for Mod divine
