Logging started at 2018-07-17 02:51:38
File name: C:\Users\travi\Dropbox\Valius\Valius Source\.\data\logs\err\1531810298787 - travi - [Tue Jul 17][2.51AM].txt
System.getProperty("os.name"): "Windows 10"

[2018-07-17 02:56:56] Didn't save hiscores for Mod divine
[2018-07-17 02:58:01] Didn't save hiscores for Mod divine
[2018-07-17 02:59:59] Didn't save hiscores for Mod divine
[2018-07-17 03:00:40] Didn't save hiscores for Mod divine
[2018-07-17 03:03:21] Didn't save hiscores for Mod divine
