Logging started at 2018-07-17 01:03:42
File name: C:\Users\Administrator\Dropbox\Valius\Valius Source\.\data\logs\err\1531814622509 - Administrator - [Tue Jul 17][1.03AM].txt
System.getProperty("os.name"): "Windows Server 2016"

[2018-07-17 04:46:48] java.lang.ArrayIndexOutOfBoundsException: 64
[2018-07-17 04:46:48] 	at com.mayhem.core.util.Utility.textUnpack(Utility.java:722)
[2018-07-17 04:46:48] 	at com.mayhem.rs2.entity.ReportHandler.addText(ReportHandler.java:28)
[2018-07-17 04:46:48] 	at com.mayhem.rs2.entity.player.net.in.impl.PublicChatPacket.handle(PublicChatPacket.java:61)
[2018-07-17 04:46:48] 	at com.mayhem.rs2.entity.player.net.in.PacketHandler.handlePacket(PacketHandler.java:149)
[2018-07-17 04:46:48] 	at com.mayhem.rs2.entity.player.net.Client.processIncomingPackets(Client.java:211)
[2018-07-17 04:46:48] 	at com.mayhem.rs2.entity.World.process(World.java:323)
[2018-07-17 04:46:48] 	at com.mayhem.core.GameThread.cycle(GameThread.java:131)
[2018-07-17 04:46:48] 	at com.mayhem.core.GameThread.run(GameThread.java:146)
[2018-07-17 10:15:00] java.lang.ArrayIndexOutOfBoundsException: 64
[2018-07-17 10:15:00] 	at com.mayhem.core.util.Utility.textUnpack(Utility.java:722)
[2018-07-17 10:15:00] 	at com.mayhem.rs2.entity.ReportHandler.addText(ReportHandler.java:28)
[2018-07-17 10:15:00] 	at com.mayhem.rs2.entity.player.net.in.impl.PublicChatPacket.handle(PublicChatPacket.java:61)
[2018-07-17 10:15:00] 	at com.mayhem.rs2.entity.player.net.in.PacketHandler.handlePacket(PacketHandler.java:149)
[2018-07-17 10:15:00] 	at com.mayhem.rs2.entity.player.net.Client.processIncomingPackets(Client.java:211)
[2018-07-17 10:15:00] 	at com.mayhem.rs2.entity.World.process(World.java:323)
[2018-07-17 10:15:00] 	at com.mayhem.core.GameThread.cycle(GameThread.java:131)
[2018-07-17 10:15:00] 	at com.mayhem.core.GameThread.run(GameThread.java:146)
[2018-07-17 13:12:46] java.lang.NullPointerException
[2018-07-17 13:12:46] 	at com.mayhem.rs2.content.combat.formula.RangeFormulas.getRangedMaxHit(RangeFormulas.java:226)
[2018-07-17 13:12:46] 	at com.mayhem.rs2.entity.player.net.in.impl.ClickButtonPacket.handle(ClickButtonPacket.java:379)
[2018-07-17 13:12:46] 	at com.mayhem.rs2.entity.player.net.in.PacketHandler.handlePacket(PacketHandler.java:149)
[2018-07-17 13:12:46] 	at com.mayhem.rs2.entity.player.net.Client.processIncomingPackets(Client.java:211)
[2018-07-17 13:12:46] 	at com.mayhem.rs2.entity.World.process(World.java:323)
[2018-07-17 13:12:46] 	at com.mayhem.core.GameThread.cycle(GameThread.java:131)
[2018-07-17 13:12:46] 	at com.mayhem.core.GameThread.run(GameThread.java:146)
[2018-07-17 13:40:33] java.lang.IndexOutOfBoundsException: Readable byte limit exceeded: 12
[2018-07-17 13:40:33] 	at org.jboss.netty.buffer.AbstractChannelBuffer.readByte(AbstractChannelBuffer.java:236)
[2018-07-17 13:40:33] 	at com.mayhem.core.network.StreamBuffer$InBuffer.readByte(StreamBuffer.java:120)
[2018-07-17 13:40:33] 	at com.mayhem.core.network.StreamBuffer$InBuffer.readByte(StreamBuffer.java:107)
[2018-07-17 13:40:33] 	at com.mayhem.core.network.StreamBuffer$InBuffer.readShort(StreamBuffer.java:467)
[2018-07-17 13:40:33] 	at com.mayhem.core.network.StreamBuffer$InBuffer.readShort(StreamBuffer.java:412)
[2018-07-17 13:40:33] 	at com.mayhem.rs2.entity.player.net.in.impl.ItemPackets.handle(ItemPackets.java:851)
[2018-07-17 13:40:33] 	at com.mayhem.rs2.entity.player.net.in.PacketHandler.handlePacket(PacketHandler.java:149)
[2018-07-17 13:40:34] 	at com.mayhem.rs2.entity.player.net.Client.processIncomingPackets(Client.java:211)
[2018-07-17 13:40:34] 	at com.mayhem.rs2.entity.World.process(World.java:323)
[2018-07-17 13:40:34] 	at com.mayhem.core.GameThread.cycle(GameThread.java:131)
[2018-07-17 13:40:34] 	at com.mayhem.core.GameThread.run(GameThread.java:146)
[2018-07-17 13:54:06] java.lang.ArrayIndexOutOfBoundsException: 64
[2018-07-17 13:54:06] 	at com.mayhem.core.util.Utility.textUnpack(Utility.java:722)
[2018-07-17 13:54:06] 	at com.mayhem.rs2.entity.ReportHandler.addText(ReportHandler.java:28)
[2018-07-17 13:54:06] 	at com.mayhem.rs2.entity.player.net.in.impl.PublicChatPacket.handle(PublicChatPacket.java:61)
[2018-07-17 13:54:06] 	at com.mayhem.rs2.entity.player.net.in.PacketHandler.handlePacket(PacketHandler.java:149)
[2018-07-17 13:54:06] 	at com.mayhem.rs2.entity.player.net.Client.processIncomingPackets(Client.java:211)
[2018-07-17 13:54:06] 	at com.mayhem.rs2.entity.World.process(World.java:323)
[2018-07-17 13:54:06] 	at com.mayhem.core.GameThread.cycle(GameThread.java:131)
[2018-07-17 13:54:06] 	at com.mayhem.core.GameThread.run(GameThread.java:146)
[2018-07-17 13:59:44] Didn't save hiscores for Mod divine
[2018-07-17 14:01:20] Didn't save hiscores for Mod divine
[2018-07-17 14:40:35] java.lang.NullPointerException
[2018-07-17 14:40:35] 	at com.mayhem.rs2.content.combat.formula.RangeFormulas.getRangedMaxHit(RangeFormulas.java:226)
[2018-07-17 14:40:35] 	at com.mayhem.rs2.entity.player.net.in.impl.ClickButtonPacket.handle(ClickButtonPacket.java:379)
[2018-07-17 14:40:35] 	at com.mayhem.rs2.entity.player.net.in.PacketHandler.handlePacket(PacketHandler.java:149)
[2018-07-17 14:40:35] 	at com.mayhem.rs2.entity.player.net.Client.processIncomingPackets(Client.java:211)
[2018-07-17 14:40:35] 	at com.mayhem.rs2.entity.World.process(World.java:323)
[2018-07-17 14:40:35] 	at com.mayhem.core.GameThread.cycle(GameThread.java:131)
[2018-07-17 14:40:35] 	at com.mayhem.core.GameThread.run(GameThread.java:146)
[2018-07-17 14:56:20] Didn't save hiscores for Saint plague
[2018-07-17 15:11:06] java.lang.ArrayIndexOutOfBoundsException: 64
[2018-07-17 15:11:06] 	at com.mayhem.core.util.Utility.textUnpack(Utility.java:722)
[2018-07-17 15:11:06] 	at com.mayhem.rs2.entity.ReportHandler.addText(ReportHandler.java:28)
[2018-07-17 15:11:06] 	at com.mayhem.rs2.entity.player.net.in.impl.PublicChatPacket.handle(PublicChatPacket.java:61)
[2018-07-17 15:11:06] 	at com.mayhem.rs2.entity.player.net.in.PacketHandler.handlePacket(PacketHandler.java:149)
[2018-07-17 15:11:06] 	at com.mayhem.rs2.entity.player.net.Client.processIncomingPackets(Client.java:211)
[2018-07-17 15:11:06] 	at com.mayhem.rs2.entity.World.process(World.java:323)
[2018-07-17 15:11:06] 	at com.mayhem.core.GameThread.cycle(GameThread.java:131)
[2018-07-17 15:11:06] 	at com.mayhem.core.GameThread.run(GameThread.java:146)
[2018-07-17 15:31:01] java.lang.NullPointerException
[2018-07-17 15:31:01] 	at com.mayhem.rs2.content.combat.formula.RangeFormulas.calculateRangeAttack(RangeFormulas.java:87)
[2018-07-17 15:31:01] 	at com.mayhem.rs2.content.combat.impl.Ranged.execute(Ranged.java:41)
[2018-07-17 15:31:01] 	at com.mayhem.rs2.content.combat.Combat.attack(Combat.java:92)
[2018-07-17 15:31:01] 	at com.mayhem.rs2.content.combat.Combat.process(Combat.java:215)
[2018-07-17 15:31:01] 	at com.mayhem.rs2.entity.player.Player.process(Player.java:1712)
[2018-07-17 15:31:01] 	at com.mayhem.rs2.entity.World.process(World.java:325)
[2018-07-17 15:31:01] 	at com.mayhem.core.GameThread.cycle(GameThread.java:131)
[2018-07-17 15:31:01] 	at com.mayhem.core.GameThread.run(GameThread.java:146)
[2018-07-17 15:31:01] java.lang.NullPointerException
[2018-07-17 15:31:01] 	at com.mayhem.rs2.entity.player.net.Client.send(Client.java:329)
[2018-07-17 15:31:01] 	at com.mayhem.rs2.entity.player.net.out.impl.SendLogout.execute(SendLogout.java:13)
[2018-07-17 15:31:01] 	at com.mayhem.rs2.entity.player.Player.logout(Player.java:1636)
[2018-07-17 15:31:02] 	at com.mayhem.rs2.entity.World.process(World.java:338)
[2018-07-17 15:31:02] 	at com.mayhem.core.GameThread.cycle(GameThread.java:131)
[2018-07-17 15:31:02] 	at com.mayhem.core.GameThread.run(GameThread.java:146)
[2018-07-17 16:31:57] Didn't save hiscores for Saint plague
[2018-07-17 17:27:04] java.lang.ArrayIndexOutOfBoundsException: 64
[2018-07-17 17:27:04] 	at com.mayhem.core.util.Utility.textUnpack(Utility.java:722)
[2018-07-17 17:27:04] 	at com.mayhem.rs2.entity.ReportHandler.addText(ReportHandler.java:28)
[2018-07-17 17:27:04] 	at com.mayhem.rs2.entity.player.net.in.impl.PublicChatPacket.handle(PublicChatPacket.java:61)
[2018-07-17 17:27:04] 	at com.mayhem.rs2.entity.player.net.in.PacketHandler.handlePacket(PacketHandler.java:149)
[2018-07-17 17:27:04] 	at com.mayhem.rs2.entity.player.net.Client.processIncomingPackets(Client.java:211)
[2018-07-17 17:27:04] 	at com.mayhem.rs2.entity.World.process(World.java:323)
[2018-07-17 17:27:04] 	at com.mayhem.core.GameThread.cycle(GameThread.java:131)
[2018-07-17 17:27:04] 	at com.mayhem.core.GameThread.run(GameThread.java:146)
[2018-07-17 18:13:10] java.lang.ArrayIndexOutOfBoundsException: 64
[2018-07-17 18:13:10] 	at com.mayhem.core.util.Utility.textUnpack(Utility.java:722)
[2018-07-17 18:13:10] 	at com.mayhem.rs2.entity.ReportHandler.addText(ReportHandler.java:28)
[2018-07-17 18:13:10] 	at com.mayhem.rs2.entity.player.net.in.impl.PublicChatPacket.handle(PublicChatPacket.java:61)
[2018-07-17 18:13:10] 	at com.mayhem.rs2.entity.player.net.in.PacketHandler.handlePacket(PacketHandler.java:149)
[2018-07-17 18:13:10] 	at com.mayhem.rs2.entity.player.net.Client.processIncomingPackets(Client.java:211)
[2018-07-17 18:13:10] 	at com.mayhem.rs2.entity.World.process(World.java:323)
[2018-07-17 18:13:10] 	at com.mayhem.core.GameThread.cycle(GameThread.java:131)
[2018-07-17 18:13:10] 	at com.mayhem.core.GameThread.run(GameThread.java:146)
[2018-07-17 18:25:47] java.lang.ArrayIndexOutOfBoundsException: 64
[2018-07-17 18:25:47] 	at com.mayhem.core.util.Utility.textUnpack(Utility.java:722)
[2018-07-17 18:25:47] 	at com.mayhem.rs2.entity.ReportHandler.addText(ReportHandler.java:28)
[2018-07-17 18:25:47] 	at com.mayhem.rs2.entity.player.net.in.impl.PublicChatPacket.handle(PublicChatPacket.java:61)
[2018-07-17 18:25:47] 	at com.mayhem.rs2.entity.player.net.in.PacketHandler.handlePacket(PacketHandler.java:149)
[2018-07-17 18:25:47] 	at com.mayhem.rs2.entity.player.net.Client.processIncomingPackets(Client.java:211)
[2018-07-17 18:25:47] 	at com.mayhem.rs2.entity.World.process(World.java:323)
[2018-07-17 18:25:47] 	at com.mayhem.core.GameThread.cycle(GameThread.java:131)
[2018-07-17 18:25:47] 	at com.mayhem.core.GameThread.run(GameThread.java:146)
[2018-07-17 18:37:32] java.lang.ArrayIndexOutOfBoundsException: 64
[2018-07-17 18:37:32] 	at com.mayhem.core.util.Utility.textUnpack(Utility.java:722)
[2018-07-17 18:37:32] 	at com.mayhem.rs2.entity.ReportHandler.addText(ReportHandler.java:28)
[2018-07-17 18:37:32] 	at com.mayhem.rs2.entity.player.net.in.impl.PublicChatPacket.handle(PublicChatPacket.java:61)
[2018-07-17 18:37:32] 	at com.mayhem.rs2.entity.player.net.in.PacketHandler.handlePacket(PacketHandler.java:149)
[2018-07-17 18:37:32] 	at com.mayhem.rs2.entity.player.net.Client.processIncomingPackets(Client.java:211)
[2018-07-17 18:37:32] 	at com.mayhem.rs2.entity.World.process(World.java:323)
[2018-07-17 18:37:32] 	at com.mayhem.core.GameThread.cycle(GameThread.java:131)
[2018-07-17 18:37:32] 	at com.mayhem.core.GameThread.run(GameThread.java:146)
[2018-07-17 18:50:49] Didn't save hiscores for Saint plague
[2018-07-17 19:17:28] Didn't save hiscores for Mod divine
[2018-07-17 19:20:51] java.lang.NullPointerException
[2018-07-17 19:48:21] Didn't save hiscores for Saint plague
[2018-07-17 20:34:00] java.lang.NullPointerException
[2018-07-17 20:34:00] 	at com.mayhem.rs2.content.combat.formula.RangeFormulas.getRangedMaxHit(RangeFormulas.java:226)
[2018-07-17 20:34:00] 	at com.mayhem.rs2.entity.player.net.in.impl.ClickButtonPacket.handle(ClickButtonPacket.java:379)
[2018-07-17 20:34:00] 	at com.mayhem.rs2.entity.player.net.in.PacketHandler.handlePacket(PacketHandler.java:149)
[2018-07-17 20:34:00] 	at com.mayhem.rs2.entity.player.net.Client.processIncomingPackets(Client.java:211)
[2018-07-17 20:34:00] 	at com.mayhem.rs2.entity.World.process(World.java:323)
[2018-07-17 20:34:00] 	at com.mayhem.core.GameThread.cycle(GameThread.java:131)
[2018-07-17 20:34:00] 	at com.mayhem.core.GameThread.run(GameThread.java:146)
[2018-07-17 21:30:01] java.lang.IllegalStateException: unprepared
[2018-07-17 21:30:01] 	at com.mayhem.core.network.mysql.MembershipRewards.collectReward(MembershipRewards.java:38)
[2018-07-17 21:30:01] 	at com.mayhem.rs2.content.dialogue.impl.MembershipDialogue.execute(MembershipDialogue.java:70)
[2018-07-17 21:30:01] 	at com.mayhem.rs2.entity.player.net.in.impl.ChatInterfacePacket.handleDialogue(ChatInterfacePacket.java:47)
[2018-07-17 21:30:01] 	at com.mayhem.rs2.entity.player.net.in.impl.ChatInterfacePacket.handle(ChatInterfacePacket.java:33)
[2018-07-17 21:30:01] 	at com.mayhem.rs2.entity.player.net.in.PacketHandler.handlePacket(PacketHandler.java:149)
[2018-07-17 21:30:01] 	at com.mayhem.rs2.entity.player.net.Client.processIncomingPackets(Client.java:211)
[2018-07-17 21:30:01] 	at com.mayhem.rs2.entity.World.process(World.java:323)
[2018-07-17 21:30:01] 	at com.mayhem.core.GameThread.cycle(GameThread.java:131)
[2018-07-17 21:30:01] 	at com.mayhem.core.GameThread.run(GameThread.java:146)
[2018-07-17 21:37:57] java.lang.IllegalStateException: unprepared
[2018-07-17 21:37:57] 	at com.mayhem.core.network.mysql.MembershipRewards.collectReward(MembershipRewards.java:38)
[2018-07-17 21:37:57] 	at com.mayhem.rs2.content.dialogue.impl.MembershipDialogue.execute(MembershipDialogue.java:70)
[2018-07-17 21:37:57] 	at com.mayhem.rs2.entity.player.net.in.impl.ChatInterfacePacket.handleDialogue(ChatInterfacePacket.java:47)
[2018-07-17 21:37:57] 	at com.mayhem.rs2.entity.player.net.in.impl.ChatInterfacePacket.handle(ChatInterfacePacket.java:33)
[2018-07-17 21:37:57] 	at com.mayhem.rs2.entity.player.net.in.PacketHandler.handlePacket(PacketHandler.java:149)
[2018-07-17 21:37:57] 	at com.mayhem.rs2.entity.player.net.Client.processIncomingPackets(Client.java:211)
[2018-07-17 21:37:57] 	at com.mayhem.rs2.entity.World.process(World.java:323)
[2018-07-17 21:37:57] 	at com.mayhem.core.GameThread.cycle(GameThread.java:131)
[2018-07-17 21:37:57] 	at com.mayhem.core.GameThread.run(GameThread.java:146)
[2018-07-17 21:49:15] java.lang.ArrayIndexOutOfBoundsException: 64
[2018-07-17 21:49:15] 	at com.mayhem.core.util.Utility.textUnpack(Utility.java:722)
[2018-07-17 21:49:15] 	at com.mayhem.rs2.entity.ReportHandler.addText(ReportHandler.java:28)
[2018-07-17 21:49:15] 	at com.mayhem.rs2.entity.player.net.in.impl.PublicChatPacket.handle(PublicChatPacket.java:61)
[2018-07-17 21:49:15] 	at com.mayhem.rs2.entity.player.net.in.PacketHandler.handlePacket(PacketHandler.java:149)
[2018-07-17 21:49:15] 	at com.mayhem.rs2.entity.player.net.Client.processIncomingPackets(Client.java:211)
[2018-07-17 21:49:15] 	at com.mayhem.rs2.entity.World.process(World.java:323)
[2018-07-17 21:49:15] 	at com.mayhem.core.GameThread.cycle(GameThread.java:131)
[2018-07-17 21:49:15] 	at com.mayhem.core.GameThread.run(GameThread.java:146)
[2018-07-17 23:50:10] java.lang.IndexOutOfBoundsException: Readable byte limit exceeded: 12
[2018-07-17 23:50:10] 	at org.jboss.netty.buffer.AbstractChannelBuffer.readByte(AbstractChannelBuffer.java:236)
[2018-07-17 23:50:10] 	at com.mayhem.core.network.StreamBuffer$InBuffer.readByte(StreamBuffer.java:120)
[2018-07-17 23:50:10] 	at com.mayhem.core.network.StreamBuffer$InBuffer.readByte(StreamBuffer.java:107)
[2018-07-17 23:50:10] 	at com.mayhem.core.network.StreamBuffer$InBuffer.readShort(StreamBuffer.java:467)
[2018-07-17 23:50:10] 	at com.mayhem.core.network.StreamBuffer$InBuffer.readShort(StreamBuffer.java:412)
[2018-07-17 23:50:10] 	at com.mayhem.rs2.entity.player.net.in.impl.ItemPackets.handle(ItemPackets.java:851)
[2018-07-17 23:50:10] 	at com.mayhem.rs2.entity.player.net.in.PacketHandler.handlePacket(PacketHandler.java:149)
[2018-07-17 23:50:10] 	at com.mayhem.rs2.entity.player.net.Client.processIncomingPackets(Client.java:211)
[2018-07-17 23:50:10] 	at com.mayhem.rs2.entity.World.process(World.java:323)
[2018-07-17 23:50:10] 	at com.mayhem.core.GameThread.cycle(GameThread.java:131)
[2018-07-17 23:50:10] 	at com.mayhem.core.GameThread.run(GameThread.java:146)
[2018-07-18 01:01:50] java.lang.IndexOutOfBoundsException: Readable byte limit exceeded: 12
[2018-07-18 01:01:50] 	at org.jboss.netty.buffer.AbstractChannelBuffer.readByte(AbstractChannelBuffer.java:236)
[2018-07-18 01:01:50] 	at com.mayhem.core.network.StreamBuffer$InBuffer.readByte(StreamBuffer.java:120)
[2018-07-18 01:01:50] 	at com.mayhem.core.network.StreamBuffer$InBuffer.readByte(StreamBuffer.java:107)
[2018-07-18 01:01:50] 	at com.mayhem.core.network.StreamBuffer$InBuffer.readShort(StreamBuffer.java:467)
[2018-07-18 01:01:50] 	at com.mayhem.core.network.StreamBuffer$InBuffer.readShort(StreamBuffer.java:412)
[2018-07-18 01:01:50] 	at com.mayhem.rs2.entity.player.net.in.impl.ItemPackets.handle(ItemPackets.java:851)
[2018-07-18 01:01:50] 	at com.mayhem.rs2.entity.player.net.in.PacketHandler.handlePacket(PacketHandler.java:149)
[2018-07-18 01:01:50] 	at com.mayhem.rs2.entity.player.net.Client.processIncomingPackets(Client.java:211)
[2018-07-18 01:01:50] 	at com.mayhem.rs2.entity.World.process(World.java:323)
[2018-07-18 01:01:50] 	at com.mayhem.core.GameThread.cycle(GameThread.java:131)
[2018-07-18 01:01:50] 	at com.mayhem.core.GameThread.run(GameThread.java:146)
[2018-07-18 01:02:06] java.lang.IndexOutOfBoundsException: Readable byte limit exceeded: 12
[2018-07-18 01:02:06] 	at org.jboss.netty.buffer.AbstractChannelBuffer.readByte(AbstractChannelBuffer.java:236)
[2018-07-18 01:02:06] 	at com.mayhem.core.network.StreamBuffer$InBuffer.readByte(StreamBuffer.java:120)
[2018-07-18 01:02:06] 	at com.mayhem.core.network.StreamBuffer$InBuffer.readByte(StreamBuffer.java:107)
[2018-07-18 01:02:06] 	at com.mayhem.core.network.StreamBuffer$InBuffer.readShort(StreamBuffer.java:467)
[2018-07-18 01:02:06] 	at com.mayhem.core.network.StreamBuffer$InBuffer.readShort(StreamBuffer.java:412)
[2018-07-18 01:02:06] 	at com.mayhem.rs2.entity.player.net.in.impl.ItemPackets.handle(ItemPackets.java:851)
[2018-07-18 01:02:06] 	at com.mayhem.rs2.entity.player.net.in.PacketHandler.handlePacket(PacketHandler.java:149)
[2018-07-18 01:02:06] 	at com.mayhem.rs2.entity.player.net.Client.processIncomingPackets(Client.java:211)
[2018-07-18 01:02:06] 	at com.mayhem.rs2.entity.World.process(World.java:323)
[2018-07-18 01:02:06] 	at com.mayhem.core.GameThread.cycle(GameThread.java:131)
[2018-07-18 01:02:06] 	at com.mayhem.core.GameThread.run(GameThread.java:146)
[2018-07-18 04:13:58] java.lang.NullPointerException
[2018-07-18 04:13:58] 	at com.mayhem.rs2.content.combat.formula.MeleeFormulas.calculateBaseDamage(MeleeFormulas.java:219)
[2018-07-18 04:13:58] 	at com.mayhem.rs2.entity.player.net.in.impl.ClickButtonPacket.handle(ClickButtonPacket.java:378)
[2018-07-18 04:13:58] 	at com.mayhem.rs2.entity.player.net.in.PacketHandler.handlePacket(PacketHandler.java:149)
[2018-07-18 04:13:58] 	at com.mayhem.rs2.entity.player.net.Client.processIncomingPackets(Client.java:211)
[2018-07-18 04:13:58] 	at com.mayhem.rs2.entity.World.process(World.java:323)
[2018-07-18 04:13:58] 	at com.mayhem.core.GameThread.cycle(GameThread.java:131)
[2018-07-18 04:13:58] 	at com.mayhem.core.GameThread.run(GameThread.java:146)
[2018-07-18 04:14:01] java.lang.NullPointerException
[2018-07-18 04:14:01] 	at com.mayhem.rs2.content.combat.formula.MeleeFormulas.calculateBaseDamage(MeleeFormulas.java:219)
[2018-07-18 04:14:01] 	at com.mayhem.rs2.entity.player.net.in.impl.ClickButtonPacket.handle(ClickButtonPacket.java:378)
[2018-07-18 04:14:01] 	at com.mayhem.rs2.entity.player.net.in.PacketHandler.handlePacket(PacketHandler.java:149)
[2018-07-18 04:14:01] 	at com.mayhem.rs2.entity.player.net.Client.processIncomingPackets(Client.java:211)
[2018-07-18 04:14:01] 	at com.mayhem.rs2.entity.World.process(World.java:323)
[2018-07-18 04:14:01] 	at com.mayhem.core.GameThread.cycle(GameThread.java:131)
[2018-07-18 04:14:01] 	at com.mayhem.core.GameThread.run(GameThread.java:146)
[2018-07-18 04:14:02] java.lang.NullPointerException
[2018-07-18 04:14:02] 	at com.mayhem.rs2.content.combat.formula.MeleeFormulas.calculateBaseDamage(MeleeFormulas.java:219)
[2018-07-18 04:14:02] 	at com.mayhem.rs2.entity.player.net.in.impl.ClickButtonPacket.handle(ClickButtonPacket.java:378)
[2018-07-18 04:14:02] 	at com.mayhem.rs2.entity.player.net.in.PacketHandler.handlePacket(PacketHandler.java:149)
[2018-07-18 04:14:02] 	at com.mayhem.rs2.entity.player.net.Client.processIncomingPackets(Client.java:211)
[2018-07-18 04:14:02] 	at com.mayhem.rs2.entity.World.process(World.java:323)
[2018-07-18 04:14:02] 	at com.mayhem.core.GameThread.cycle(GameThread.java:131)
[2018-07-18 04:14:02] 	at com.mayhem.core.GameThread.run(GameThread.java:146)
[2018-07-18 04:14:02] java.lang.NullPointerException
[2018-07-18 04:14:02] 	at com.mayhem.rs2.content.combat.formula.MeleeFormulas.calculateBaseDamage(MeleeFormulas.java:219)
[2018-07-18 04:14:02] 	at com.mayhem.rs2.entity.player.net.in.impl.ClickButtonPacket.handle(ClickButtonPacket.java:378)
[2018-07-18 04:14:02] 	at com.mayhem.rs2.entity.player.net.in.PacketHandler.handlePacket(PacketHandler.java:149)
[2018-07-18 04:14:02] 	at com.mayhem.rs2.entity.player.net.Client.processIncomingPackets(Client.java:211)
[2018-07-18 04:14:02] 	at com.mayhem.rs2.entity.World.process(World.java:323)
[2018-07-18 04:14:02] 	at com.mayhem.core.GameThread.cycle(GameThread.java:131)
[2018-07-18 04:14:02] 	at com.mayhem.core.GameThread.run(GameThread.java:146)
[2018-07-18 04:14:03] java.lang.NullPointerException
[2018-07-18 04:14:05] 	at com.mayhem.rs2.content.combat.formula.MeleeFormulas.calculateBaseDamage(MeleeFormulas.java:219)
[2018-07-18 04:14:05] 	at com.mayhem.rs2.entity.player.net.in.impl.ClickButtonPacket.handle(ClickButtonPacket.java:378)
[2018-07-18 04:14:05] 	at com.mayhem.rs2.entity.player.net.in.PacketHandler.handlePacket(PacketHandler.java:149)
[2018-07-18 04:14:05] 	at com.mayhem.rs2.entity.player.net.Client.processIncomingPackets(Client.java:211)
[2018-07-18 04:14:05] 	at com.mayhem.rs2.entity.World.process(World.java:323)
[2018-07-18 04:14:05] 	at com.mayhem.core.GameThread.cycle(GameThread.java:131)
[2018-07-18 04:14:05] 	at com.mayhem.core.GameThread.run(GameThread.java:146)
[2018-07-18 04:14:05] java.lang.NullPointerException
[2018-07-18 04:14:05] 	at com.mayhem.rs2.content.combat.formula.MeleeFormulas.calculateBaseDamage(MeleeFormulas.java:219)
[2018-07-18 04:14:05] 	at com.mayhem.rs2.entity.player.net.in.impl.ClickButtonPacket.handle(ClickButtonPacket.java:378)
[2018-07-18 04:14:05] 	at com.mayhem.rs2.entity.player.net.in.PacketHandler.handlePacket(PacketHandler.java:149)
[2018-07-18 04:14:05] 	at com.mayhem.rs2.entity.player.net.Client.processIncomingPackets(Client.java:211)
[2018-07-18 04:14:05] 	at com.mayhem.rs2.entity.World.process(World.java:323)
[2018-07-18 04:14:05] 	at com.mayhem.core.GameThread.cycle(GameThread.java:131)
[2018-07-18 04:14:05] 	at com.mayhem.core.GameThread.run(GameThread.java:146)
[2018-07-18 04:14:05] java.lang.NullPointerException
[2018-07-18 04:14:05] 	at com.mayhem.rs2.content.combat.formula.MeleeFormulas.calculateBaseDamage(MeleeFormulas.java:219)
[2018-07-18 04:14:05] 	at com.mayhem.rs2.entity.player.net.in.impl.ClickButtonPacket.handle(ClickButtonPacket.java:378)
[2018-07-18 04:14:05] 	at com.mayhem.rs2.entity.player.net.in.PacketHandler.handlePacket(PacketHandler.java:149)
[2018-07-18 04:14:05] 	at com.mayhem.rs2.entity.player.net.Client.processIncomingPackets(Client.java:211)
[2018-07-18 04:14:05] 	at com.mayhem.rs2.entity.World.process(World.java:323)
[2018-07-18 04:14:05] 	at com.mayhem.core.GameThread.cycle(GameThread.java:131)
[2018-07-18 04:14:05] 	at com.mayhem.core.GameThread.run(GameThread.java:146)
[2018-07-18 04:14:05] java.lang.NullPointerException
[2018-07-18 04:14:05] 	at com.mayhem.rs2.content.combat.formula.MeleeFormulas.calculateBaseDamage(MeleeFormulas.java:219)
[2018-07-18 04:14:05] 	at com.mayhem.rs2.entity.player.net.in.impl.ClickButtonPacket.handle(ClickButtonPacket.java:378)
[2018-07-18 04:14:05] 	at com.mayhem.rs2.entity.player.net.in.PacketHandler.handlePacket(PacketHandler.java:149)
[2018-07-18 04:14:05] 	at com.mayhem.rs2.entity.player.net.Client.processIncomingPackets(Client.java:211)
[2018-07-18 04:14:05] 	at com.mayhem.rs2.entity.World.process(World.java:323)
[2018-07-18 04:14:05] 	at com.mayhem.core.GameThread.cycle(GameThread.java:131)
[2018-07-18 04:14:05] 	at com.mayhem.core.GameThread.run(GameThread.java:146)
[2018-07-18 04:14:05] java.lang.NullPointerException
[2018-07-18 04:14:05] 	at com.mayhem.rs2.content.combat.formula.MeleeFormulas.calculateBaseDamage(MeleeFormulas.java:219)
[2018-07-18 04:14:05] 	at com.mayhem.rs2.entity.player.net.in.impl.ClickButtonPacket.handle(ClickButtonPacket.java:378)
[2018-07-18 04:14:05] 	at com.mayhem.rs2.entity.player.net.in.PacketHandler.handlePacket(PacketHandler.java:149)
[2018-07-18 04:14:05] 	at com.mayhem.rs2.entity.player.net.Client.processIncomingPackets(Client.java:211)
[2018-07-18 04:14:05] 	at com.mayhem.rs2.entity.World.process(World.java:323)
[2018-07-18 04:14:05] 	at com.mayhem.core.GameThread.cycle(GameThread.java:131)
[2018-07-18 04:14:05] 	at com.mayhem.core.GameThread.run(GameThread.java:146)
[2018-07-18 04:14:05] java.lang.NullPointerException
[2018-07-18 04:14:05] 	at com.mayhem.rs2.content.combat.formula.MeleeFormulas.calculateBaseDamage(MeleeFormulas.java:219)
[2018-07-18 04:14:05] 	at com.mayhem.rs2.entity.player.net.in.impl.ClickButtonPacket.handle(ClickButtonPacket.java:378)
[2018-07-18 04:14:05] 	at com.mayhem.rs2.entity.player.net.in.PacketHandler.handlePacket(PacketHandler.java:149)
[2018-07-18 04:14:05] 	at com.mayhem.rs2.entity.player.net.Client.processIncomingPackets(Client.java:211)
[2018-07-18 04:14:05] 	at com.mayhem.rs2.entity.World.process(World.java:323)
[2018-07-18 04:14:05] 	at com.mayhem.core.GameThread.cycle(GameThread.java:131)
[2018-07-18 04:14:05] 	at com.mayhem.core.GameThread.run(GameThread.java:146)
[2018-07-18 04:14:10] java.lang.NullPointerException
[2018-07-18 04:14:10] 	at com.mayhem.rs2.content.combat.formula.MeleeFormulas.calculateBaseDamage(MeleeFormulas.java:219)
[2018-07-18 04:14:10] 	at com.mayhem.rs2.entity.player.net.in.impl.ClickButtonPacket.handle(ClickButtonPacket.java:378)
[2018-07-18 04:14:10] 	at com.mayhem.rs2.entity.player.net.in.PacketHandler.handlePacket(PacketHandler.java:149)
[2018-07-18 04:14:10] 	at com.mayhem.rs2.entity.player.net.Client.processIncomingPackets(Client.java:211)
[2018-07-18 04:14:10] 	at com.mayhem.rs2.entity.World.process(World.java:323)
[2018-07-18 04:14:10] 	at com.mayhem.core.GameThread.cycle(GameThread.java:131)
[2018-07-18 04:14:10] 	at com.mayhem.core.GameThread.run(GameThread.java:146)
[2018-07-18 04:14:10] java.lang.NullPointerException
[2018-07-18 04:14:10] 	at com.mayhem.rs2.content.combat.formula.MeleeFormulas.calculateBaseDamage(MeleeFormulas.java:219)
[2018-07-18 04:14:10] 	at com.mayhem.rs2.entity.player.net.in.impl.ClickButtonPacket.handle(ClickButtonPacket.java:378)
[2018-07-18 04:14:10] 	at com.mayhem.rs2.entity.player.net.in.PacketHandler.handlePacket(PacketHandler.java:149)
[2018-07-18 04:14:10] 	at com.mayhem.rs2.entity.player.net.Client.processIncomingPackets(Client.java:211)
[2018-07-18 04:14:10] 	at com.mayhem.rs2.entity.World.process(World.java:323)
[2018-07-18 04:14:10] 	at com.mayhem.core.GameThread.cycle(GameThread.java:131)
[2018-07-18 04:14:10] 	at com.mayhem.core.GameThread.run(GameThread.java:146)
[2018-07-18 04:14:16] java.lang.NullPointerException
[2018-07-18 04:14:16] 	at com.mayhem.rs2.content.combat.formula.MeleeFormulas.calculateBaseDamage(MeleeFormulas.java:219)
[2018-07-18 04:14:16] 	at com.mayhem.rs2.entity.player.net.in.impl.ClickButtonPacket.handle(ClickButtonPacket.java:378)
[2018-07-18 04:14:16] 	at com.mayhem.rs2.entity.player.net.in.PacketHandler.handlePacket(PacketHandler.java:149)
[2018-07-18 04:14:16] 	at com.mayhem.rs2.entity.player.net.Client.processIncomingPackets(Client.java:211)
[2018-07-18 04:14:16] 	at com.mayhem.rs2.entity.World.process(World.java:323)
[2018-07-18 04:14:16] 	at com.mayhem.core.GameThread.cycle(GameThread.java:131)
[2018-07-18 04:14:16] 	at com.mayhem.core.GameThread.run(GameThread.java:146)
[2018-07-18 04:14:16] java.lang.NullPointerException
[2018-07-18 04:14:16] 	at com.mayhem.rs2.content.combat.formula.MeleeFormulas.calculateBaseDamage(MeleeFormulas.java:219)
[2018-07-18 04:14:16] 	at com.mayhem.rs2.entity.player.net.in.impl.ClickButtonPacket.handle(ClickButtonPacket.java:378)
[2018-07-18 04:14:16] 	at com.mayhem.rs2.entity.player.net.in.PacketHandler.handlePacket(PacketHandler.java:149)
[2018-07-18 04:14:16] 	at com.mayhem.rs2.entity.player.net.Client.processIncomingPackets(Client.java:211)
[2018-07-18 04:14:16] 	at com.mayhem.rs2.entity.World.process(World.java:323)
[2018-07-18 04:14:16] 	at com.mayhem.core.GameThread.cycle(GameThread.java:131)
[2018-07-18 04:14:16] 	at com.mayhem.core.GameThread.run(GameThread.java:146)
[2018-07-18 04:14:16] java.lang.NullPointerException
[2018-07-18 04:14:16] 	at com.mayhem.rs2.content.combat.formula.MeleeFormulas.calculateBaseDamage(MeleeFormulas.java:219)
[2018-07-18 04:14:16] 	at com.mayhem.rs2.entity.player.net.in.impl.ClickButtonPacket.handle(ClickButtonPacket.java:378)
[2018-07-18 04:14:16] 	at com.mayhem.rs2.entity.player.net.in.PacketHandler.handlePacket(PacketHandler.java:149)
[2018-07-18 04:14:16] 	at com.mayhem.rs2.entity.player.net.Client.processIncomingPackets(Client.java:211)
[2018-07-18 04:14:16] 	at com.mayhem.rs2.entity.World.process(World.java:323)
[2018-07-18 04:14:16] 	at com.mayhem.core.GameThread.cycle(GameThread.java:131)
[2018-07-18 04:14:16] 	at com.mayhem.core.GameThread.run(GameThread.java:146)
[2018-07-18 04:14:17] java.lang.NullPointerException
[2018-07-18 04:14:17] 	at com.mayhem.rs2.content.combat.formula.MeleeFormulas.calculateBaseDamage(MeleeFormulas.java:219)
[2018-07-18 04:14:17] 	at com.mayhem.rs2.entity.player.net.in.impl.ClickButtonPacket.handle(ClickButtonPacket.java:378)
[2018-07-18 04:14:17] 	at com.mayhem.rs2.entity.player.net.in.PacketHandler.handlePacket(PacketHandler.java:149)
[2018-07-18 04:14:17] 	at com.mayhem.rs2.entity.player.net.Client.processIncomingPackets(Client.java:211)
[2018-07-18 04:14:17] 	at com.mayhem.rs2.entity.World.process(World.java:323)
[2018-07-18 04:14:17] 	at com.mayhem.core.GameThread.cycle(GameThread.java:131)
[2018-07-18 04:14:17] 	at com.mayhem.core.GameThread.run(GameThread.java:146)
[2018-07-18 04:14:20] java.lang.NullPointerException
[2018-07-18 04:14:20] 	at com.mayhem.rs2.content.combat.formula.MeleeFormulas.calculateBaseDamage(MeleeFormulas.java:219)
[2018-07-18 04:14:20] 	at com.mayhem.rs2.entity.player.net.in.impl.ClickButtonPacket.handle(ClickButtonPacket.java:378)
[2018-07-18 04:14:20] 	at com.mayhem.rs2.entity.player.net.in.PacketHandler.handlePacket(PacketHandler.java:149)
[2018-07-18 04:14:20] 	at com.mayhem.rs2.entity.player.net.Client.processIncomingPackets(Client.java:211)
[2018-07-18 04:14:20] 	at com.mayhem.rs2.entity.World.process(World.java:323)
[2018-07-18 04:14:20] 	at com.mayhem.core.GameThread.cycle(GameThread.java:131)
[2018-07-18 04:14:20] 	at com.mayhem.core.GameThread.run(GameThread.java:146)
[2018-07-18 04:14:23] java.lang.NullPointerException
[2018-07-18 04:14:23] 	at com.mayhem.rs2.content.combat.formula.MeleeFormulas.calculateBaseDamage(MeleeFormulas.java:219)
[2018-07-18 04:14:23] 	at com.mayhem.rs2.entity.player.net.in.impl.ClickButtonPacket.handle(ClickButtonPacket.java:378)
[2018-07-18 04:14:23] 	at com.mayhem.rs2.entity.player.net.in.PacketHandler.handlePacket(PacketHandler.java:149)
[2018-07-18 04:14:23] 	at com.mayhem.rs2.entity.player.net.Client.processIncomingPackets(Client.java:211)
[2018-07-18 04:14:23] 	at com.mayhem.rs2.entity.World.process(World.java:323)
[2018-07-18 04:14:23] 	at com.mayhem.core.GameThread.cycle(GameThread.java:131)
[2018-07-18 04:14:23] 	at com.mayhem.core.GameThread.run(GameThread.java:146)
[2018-07-18 04:14:23] java.lang.NullPointerException
[2018-07-18 04:14:23] 	at com.mayhem.rs2.content.combat.formula.MeleeFormulas.calculateBaseDamage(MeleeFormulas.java:219)
[2018-07-18 04:14:23] 	at com.mayhem.rs2.entity.player.net.in.impl.ClickButtonPacket.handle(ClickButtonPacket.java:378)
[2018-07-18 04:14:23] 	at com.mayhem.rs2.entity.player.net.in.PacketHandler.handlePacket(PacketHandler.java:149)
[2018-07-18 04:14:23] 	at com.mayhem.rs2.entity.player.net.Client.processIncomingPackets(Client.java:211)
[2018-07-18 04:14:23] 	at com.mayhem.rs2.entity.World.process(World.java:323)
[2018-07-18 04:14:23] 	at com.mayhem.core.GameThread.cycle(GameThread.java:131)
[2018-07-18 04:14:23] 	at com.mayhem.core.GameThread.run(GameThread.java:146)
[2018-07-18 04:14:23] java.lang.NullPointerException
[2018-07-18 04:14:23] 	at com.mayhem.rs2.content.combat.formula.MeleeFormulas.calculateBaseDamage(MeleeFormulas.java:219)
[2018-07-18 04:14:23] 	at com.mayhem.rs2.entity.player.net.in.impl.ClickButtonPacket.handle(ClickButtonPacket.java:378)
[2018-07-18 04:14:23] 	at com.mayhem.rs2.entity.player.net.in.PacketHandler.handlePacket(PacketHandler.java:149)
[2018-07-18 04:14:23] 	at com.mayhem.rs2.entity.player.net.Client.processIncomingPackets(Client.java:211)
[2018-07-18 04:14:23] 	at com.mayhem.rs2.entity.World.process(World.java:323)
[2018-07-18 04:14:23] 	at com.mayhem.core.GameThread.cycle(GameThread.java:131)
[2018-07-18 04:14:23] 	at com.mayhem.core.GameThread.run(GameThread.java:146)
[2018-07-18 04:14:23] java.lang.NullPointerException
[2018-07-18 04:14:23] 	at com.mayhem.rs2.content.combat.formula.MeleeFormulas.calculateBaseDamage(MeleeFormulas.java:219)
[2018-07-18 04:14:23] 	at com.mayhem.rs2.entity.player.net.in.impl.ClickButtonPacket.handle(ClickButtonPacket.java:378)
[2018-07-18 04:14:23] 	at com.mayhem.rs2.entity.player.net.in.PacketHandler.handlePacket(PacketHandler.java:149)
[2018-07-18 04:14:23] 	at com.mayhem.rs2.entity.player.net.Client.processIncomingPackets(Client.java:211)
[2018-07-18 04:14:23] 	at com.mayhem.rs2.entity.World.process(World.java:323)
[2018-07-18 04:14:23] 	at com.mayhem.core.GameThread.cycle(GameThread.java:131)
[2018-07-18 04:14:23] 	at com.mayhem.core.GameThread.run(GameThread.java:146)
[2018-07-18 04:14:24] java.lang.NullPointerException
[2018-07-18 04:14:24] 	at com.mayhem.rs2.content.combat.formula.MeleeFormulas.calculateBaseDamage(MeleeFormulas.java:219)
[2018-07-18 04:14:24] 	at com.mayhem.rs2.entity.player.net.in.impl.ClickButtonPacket.handle(ClickButtonPacket.java:378)
[2018-07-18 04:14:24] 	at com.mayhem.rs2.entity.player.net.in.PacketHandler.handlePacket(PacketHandler.java:149)
[2018-07-18 04:14:24] 	at com.mayhem.rs2.entity.player.net.Client.processIncomingPackets(Client.java:211)
[2018-07-18 04:14:24] 	at com.mayhem.rs2.entity.World.process(World.java:323)
[2018-07-18 04:14:24] 	at com.mayhem.core.GameThread.cycle(GameThread.java:131)
[2018-07-18 04:14:24] 	at com.mayhem.core.GameThread.run(GameThread.java:146)
[2018-07-18 04:14:25] java.lang.NullPointerException
[2018-07-18 04:14:25] 	at com.mayhem.rs2.content.combat.formula.MeleeFormulas.calculateBaseDamage(MeleeFormulas.java:219)
[2018-07-18 04:14:25] 	at com.mayhem.rs2.entity.player.net.in.impl.ClickButtonPacket.handle(ClickButtonPacket.java:378)
[2018-07-18 04:14:25] 	at com.mayhem.rs2.entity.player.net.in.PacketHandler.handlePacket(PacketHandler.java:149)
[2018-07-18 04:14:25] 	at com.mayhem.rs2.entity.player.net.Client.processIncomingPackets(Client.java:211)
[2018-07-18 04:14:25] 	at com.mayhem.rs2.entity.World.process(World.java:323)
[2018-07-18 04:14:25] 	at com.mayhem.core.GameThread.cycle(GameThread.java:131)
[2018-07-18 04:14:25] 	at com.mayhem.core.GameThread.run(GameThread.java:146)
[2018-07-18 04:14:28] java.lang.NullPointerException
[2018-07-18 04:14:28] 	at com.mayhem.rs2.content.combat.formula.MeleeFormulas.calculateBaseDamage(MeleeFormulas.java:219)
[2018-07-18 04:14:28] 	at com.mayhem.rs2.entity.player.net.in.impl.ClickButtonPacket.handle(ClickButtonPacket.java:378)
[2018-07-18 04:14:28] 	at com.mayhem.rs2.entity.player.net.in.PacketHandler.handlePacket(PacketHandler.java:149)
[2018-07-18 04:14:28] 	at com.mayhem.rs2.entity.player.net.Client.processIncomingPackets(Client.java:211)
[2018-07-18 04:14:28] 	at com.mayhem.rs2.entity.World.process(World.java:323)
[2018-07-18 04:14:28] 	at com.mayhem.core.GameThread.cycle(GameThread.java:131)
[2018-07-18 04:14:28] 	at com.mayhem.core.GameThread.run(GameThread.java:146)
[2018-07-18 04:14:28] java.lang.NullPointerException
[2018-07-18 04:14:28] 	at com.mayhem.rs2.content.combat.formula.MeleeFormulas.calculateBaseDamage(MeleeFormulas.java:219)
[2018-07-18 04:14:28] 	at com.mayhem.rs2.entity.player.net.in.impl.ClickButtonPacket.handle(ClickButtonPacket.java:378)
[2018-07-18 04:14:28] 	at com.mayhem.rs2.entity.player.net.in.PacketHandler.handlePacket(PacketHandler.java:149)
[2018-07-18 04:14:28] 	at com.mayhem.rs2.entity.player.net.Client.processIncomingPackets(Client.java:211)
[2018-07-18 04:14:28] 	at com.mayhem.rs2.entity.World.process(World.java:323)
[2018-07-18 04:14:28] 	at com.mayhem.core.GameThread.cycle(GameThread.java:131)
[2018-07-18 04:14:28] 	at com.mayhem.core.GameThread.run(GameThread.java:146)
[2018-07-18 04:14:29] java.lang.NullPointerException
[2018-07-18 04:14:29] 	at com.mayhem.rs2.content.combat.formula.MeleeFormulas.calculateBaseDamage(MeleeFormulas.java:219)
[2018-07-18 04:14:29] 	at com.mayhem.rs2.entity.player.net.in.impl.ClickButtonPacket.handle(ClickButtonPacket.java:378)
[2018-07-18 04:14:29] 	at com.mayhem.rs2.entity.player.net.in.PacketHandler.handlePacket(PacketHandler.java:149)
[2018-07-18 04:14:29] 	at com.mayhem.rs2.entity.player.net.Client.processIncomingPackets(Client.java:211)
[2018-07-18 04:14:29] 	at com.mayhem.rs2.entity.World.process(World.java:323)
[2018-07-18 04:14:29] 	at com.mayhem.core.GameThread.cycle(GameThread.java:131)
[2018-07-18 04:14:29] 	at com.mayhem.core.GameThread.run(GameThread.java:146)
[2018-07-18 04:14:29] java.lang.NullPointerException
[2018-07-18 04:14:29] 	at com.mayhem.rs2.content.combat.formula.MeleeFormulas.calculateBaseDamage(MeleeFormulas.java:219)
[2018-07-18 04:14:29] 	at com.mayhem.rs2.entity.player.net.in.impl.ClickButtonPacket.handle(ClickButtonPacket.java:378)
[2018-07-18 04:14:29] 	at com.mayhem.rs2.entity.player.net.in.PacketHandler.handlePacket(PacketHandler.java:149)
[2018-07-18 04:14:29] 	at com.mayhem.rs2.entity.player.net.Client.processIncomingPackets(Client.java:211)
[2018-07-18 04:14:29] 	at com.mayhem.rs2.entity.World.process(World.java:323)
[2018-07-18 04:14:29] 	at com.mayhem.core.GameThread.cycle(GameThread.java:131)
[2018-07-18 04:14:29] 	at com.mayhem.core.GameThread.run(GameThread.java:146)
[2018-07-18 04:14:29] java.lang.NullPointerException
[2018-07-18 04:14:29] 	at com.mayhem.rs2.content.combat.formula.MeleeFormulas.calculateBaseDamage(MeleeFormulas.java:219)
[2018-07-18 04:14:29] 	at com.mayhem.rs2.entity.player.net.in.impl.ClickButtonPacket.handle(ClickButtonPacket.java:378)
[2018-07-18 04:14:29] 	at com.mayhem.rs2.entity.player.net.in.PacketHandler.handlePacket(PacketHandler.java:149)
[2018-07-18 04:14:29] 	at com.mayhem.rs2.entity.player.net.Client.processIncomingPackets(Client.java:211)
[2018-07-18 04:14:29] 	at com.mayhem.rs2.entity.World.process(World.java:323)
[2018-07-18 04:14:29] 	at com.mayhem.core.GameThread.cycle(GameThread.java:131)
[2018-07-18 04:14:29] 	at com.mayhem.core.GameThread.run(GameThread.java:146)
[2018-07-18 04:14:29] java.lang.NullPointerException
[2018-07-18 04:14:29] 	at com.mayhem.rs2.content.combat.formula.MeleeFormulas.calculateBaseDamage(MeleeFormulas.java:219)
[2018-07-18 04:14:29] 	at com.mayhem.rs2.entity.player.net.in.impl.ClickButtonPacket.handle(ClickButtonPacket.java:378)
[2018-07-18 04:14:29] 	at com.mayhem.rs2.entity.player.net.in.PacketHandler.handlePacket(PacketHandler.java:149)
[2018-07-18 04:14:29] 	at com.mayhem.rs2.entity.player.net.Client.processIncomingPackets(Client.java:211)
[2018-07-18 04:14:29] 	at com.mayhem.rs2.entity.World.process(World.java:323)
[2018-07-18 04:14:29] 	at com.mayhem.core.GameThread.cycle(GameThread.java:131)
[2018-07-18 04:14:29] 	at com.mayhem.core.GameThread.run(GameThread.java:146)
[2018-07-18 10:25:58] Didn't save hiscores for Mod divine
[2018-07-18 13:34:24] java.lang.ArrayIndexOutOfBoundsException
[2018-07-18 13:50:51] java.lang.IllegalStateException: unprepared
[2018-07-18 13:50:51] 	at com.mayhem.core.network.mysql.MembershipRewards.collectReward(MembershipRewards.java:38)
[2018-07-18 13:50:51] 	at com.mayhem.rs2.content.dialogue.impl.MembershipDialogue.execute(MembershipDialogue.java:70)
[2018-07-18 13:50:51] 	at com.mayhem.rs2.entity.player.net.in.impl.ChatInterfacePacket.handleDialogue(ChatInterfacePacket.java:47)
[2018-07-18 13:50:51] 	at com.mayhem.rs2.entity.player.net.in.impl.ChatInterfacePacket.handle(ChatInterfacePacket.java:33)
[2018-07-18 13:50:51] 	at com.mayhem.rs2.entity.player.net.in.PacketHandler.handlePacket(PacketHandler.java:149)
[2018-07-18 13:50:51] 	at com.mayhem.rs2.entity.player.net.Client.processIncomingPackets(Client.java:211)
[2018-07-18 13:50:51] 	at com.mayhem.rs2.entity.World.process(World.java:323)
[2018-07-18 13:50:51] 	at com.mayhem.core.GameThread.cycle(GameThread.java:131)
[2018-07-18 13:50:51] 	at com.mayhem.core.GameThread.run(GameThread.java:146)
[2018-07-18 13:51:52] java.lang.IllegalStateException: unprepared
[2018-07-18 13:51:52] 	at com.mayhem.core.network.mysql.MembershipRewards.collectReward(MembershipRewards.java:38)
[2018-07-18 13:51:52] 	at com.mayhem.rs2.content.dialogue.impl.MembershipDialogue.execute(MembershipDialogue.java:70)
[2018-07-18 13:51:52] 	at com.mayhem.rs2.entity.player.net.in.impl.ChatInterfacePacket.handleDialogue(ChatInterfacePacket.java:47)
[2018-07-18 13:51:52] 	at com.mayhem.rs2.entity.player.net.in.impl.ChatInterfacePacket.handle(ChatInterfacePacket.java:33)
[2018-07-18 13:51:52] 	at com.mayhem.rs2.entity.player.net.in.PacketHandler.handlePacket(PacketHandler.java:149)
[2018-07-18 13:51:52] 	at com.mayhem.rs2.entity.player.net.Client.processIncomingPackets(Client.java:211)
[2018-07-18 13:51:52] 	at com.mayhem.rs2.entity.World.process(World.java:323)
[2018-07-18 13:51:52] 	at com.mayhem.core.GameThread.cycle(GameThread.java:131)
[2018-07-18 13:51:52] 	at com.mayhem.core.GameThread.run(GameThread.java:146)
[2018-07-18 13:55:45] java.lang.IllegalStateException: unprepared
[2018-07-18 13:55:45] 	at com.mayhem.core.network.mysql.MembershipRewards.collectReward(MembershipRewards.java:38)
[2018-07-18 13:55:45] 	at com.mayhem.rs2.content.dialogue.impl.MembershipDialogue.execute(MembershipDialogue.java:70)
[2018-07-18 13:55:45] 	at com.mayhem.rs2.entity.player.net.in.impl.ChatInterfacePacket.handleDialogue(ChatInterfacePacket.java:47)
[2018-07-18 13:55:45] 	at com.mayhem.rs2.entity.player.net.in.impl.ChatInterfacePacket.handle(ChatInterfacePacket.java:33)
[2018-07-18 13:55:45] 	at com.mayhem.rs2.entity.player.net.in.PacketHandler.handlePacket(PacketHandler.java:149)
[2018-07-18 13:55:45] 	at com.mayhem.rs2.entity.player.net.Client.processIncomingPackets(Client.java:211)
[2018-07-18 13:55:45] 	at com.mayhem.rs2.entity.World.process(World.java:323)
[2018-07-18 13:55:45] 	at com.mayhem.core.GameThread.cycle(GameThread.java:131)
[2018-07-18 13:55:45] 	at com.mayhem.core.GameThread.run(GameThread.java:146)
[2018-07-18 15:29:56] Didn't save hiscores for Saint plague
[2018-07-18 15:39:41] Didn't save hiscores for Saint plague
[2018-07-18 16:55:04] java.lang.NullPointerException
[2018-07-18 17:36:19] java.lang.NullPointerException
[2018-07-18 21:33:22] Didn't save hiscores for Saint plague
[2018-07-18 21:34:02] Didn't save hiscores for Saint plague
[2018-07-18 22:19:41] java.lang.NullPointerException
[2018-07-18 22:20:37] java.lang.ArrayIndexOutOfBoundsException
[2018-07-18 22:21:00] java.lang.ArrayIndexOutOfBoundsException
[2018-07-18 23:35:23] java.lang.ArrayIndexOutOfBoundsException
[2018-07-19 01:09:41] java.lang.NullPointerException
[2018-07-19 01:52:40] Didn't save hiscores for Mod divine
