Logging started at 2018-07-14 17:19:48
File name: C:\Users\Administrator\Dropbox\Valius\Valius Source\.\data\logs\err\1531613988878 - Administrator - [Sat Jul 14][5.19PM].txt
System.getProperty("os.name"): "Windows Server 2016"

[2018-07-14 17:20:40] java.lang.NullPointerException
[2018-07-14 17:20:40] 	at com.mayhem.rs2.content.combat.formula.RangeFormulas.getRangedMaxHit(RangeFormulas.java:230)
[2018-07-14 17:20:40] 	at com.mayhem.rs2.entity.player.net.in.impl.ClickButtonPacket.handle(ClickButtonPacket.java:379)
[2018-07-14 17:20:40] 	at com.mayhem.rs2.entity.player.net.in.PacketHandler.handlePacket(PacketHandler.java:149)
[2018-07-14 17:20:40] 	at com.mayhem.rs2.entity.player.net.Client.processIncomingPackets(Client.java:211)
[2018-07-14 17:20:40] 	at com.mayhem.rs2.entity.World.process(World.java:323)
[2018-07-14 17:20:40] 	at com.mayhem.core.GameThread.cycle(GameThread.java:131)
[2018-07-14 17:20:40] 	at com.mayhem.core.GameThread.run(GameThread.java:146)
[2018-07-14 17:20:41] java.lang.NullPointerException
[2018-07-14 17:20:41] 	at com.mayhem.rs2.content.combat.formula.RangeFormulas.getRangedMaxHit(RangeFormulas.java:230)
[2018-07-14 17:20:41] 	at com.mayhem.rs2.entity.player.net.in.impl.ClickButtonPacket.handle(ClickButtonPacket.java:379)
[2018-07-14 17:20:41] 	at com.mayhem.rs2.entity.player.net.in.PacketHandler.handlePacket(PacketHandler.java:149)
[2018-07-14 17:20:41] 	at com.mayhem.rs2.entity.player.net.Client.processIncomingPackets(Client.java:211)
[2018-07-14 17:20:41] 	at com.mayhem.rs2.entity.World.process(World.java:323)
[2018-07-14 17:20:41] 	at com.mayhem.core.GameThread.cycle(GameThread.java:131)
[2018-07-14 17:20:41] 	at com.mayhem.core.GameThread.run(GameThread.java:146)
[2018-07-14 17:20:42] java.lang.NullPointerException
[2018-07-14 17:20:42] 	at com.mayhem.rs2.content.combat.formula.RangeFormulas.getRangedMaxHit(RangeFormulas.java:230)
[2018-07-14 17:20:42] 	at com.mayhem.rs2.entity.player.net.in.impl.ClickButtonPacket.handle(ClickButtonPacket.java:379)
[2018-07-14 17:20:42] 	at com.mayhem.rs2.entity.player.net.in.PacketHandler.handlePacket(PacketHandler.java:149)
[2018-07-14 17:20:42] 	at com.mayhem.rs2.entity.player.net.Client.processIncomingPackets(Client.java:211)
[2018-07-14 17:20:42] 	at com.mayhem.rs2.entity.World.process(World.java:323)
[2018-07-14 17:20:42] 	at com.mayhem.core.GameThread.cycle(GameThread.java:131)
[2018-07-14 17:20:42] 	at com.mayhem.core.GameThread.run(GameThread.java:146)
[2018-07-14 17:20:52] java.lang.NullPointerException
[2018-07-14 17:20:52] 	at com.mayhem.rs2.content.combat.formula.RangeFormulas.getRangedMaxHit(RangeFormulas.java:230)
[2018-07-14 17:20:52] 	at com.mayhem.rs2.entity.player.net.in.impl.ClickButtonPacket.handle(ClickButtonPacket.java:379)
[2018-07-14 17:20:52] 	at com.mayhem.rs2.entity.player.net.in.PacketHandler.handlePacket(PacketHandler.java:149)
[2018-07-14 17:20:52] 	at com.mayhem.rs2.entity.player.net.Client.processIncomingPackets(Client.java:211)
[2018-07-14 17:20:52] 	at com.mayhem.rs2.entity.World.process(World.java:323)
[2018-07-14 17:20:52] 	at com.mayhem.core.GameThread.cycle(GameThread.java:131)
[2018-07-14 17:20:52] 	at com.mayhem.core.GameThread.run(GameThread.java:146)
[2018-07-14 17:21:27] java.lang.NullPointerException
[2018-07-14 17:21:27] 	at com.mayhem.rs2.content.combat.formula.RangeFormulas.getRangedMaxHit(RangeFormulas.java:230)
[2018-07-14 17:21:27] 	at com.mayhem.rs2.entity.player.net.in.impl.ClickButtonPacket.handle(ClickButtonPacket.java:379)
[2018-07-14 17:21:27] 	at com.mayhem.rs2.entity.player.net.in.PacketHandler.handlePacket(PacketHandler.java:149)
[2018-07-14 17:21:27] 	at com.mayhem.rs2.entity.player.net.Client.processIncomingPackets(Client.java:211)
[2018-07-14 17:21:27] 	at com.mayhem.rs2.entity.World.process(World.java:323)
[2018-07-14 17:21:27] 	at com.mayhem.core.GameThread.cycle(GameThread.java:131)
[2018-07-14 17:21:27] 	at com.mayhem.core.GameThread.run(GameThread.java:146)
[2018-07-14 17:21:33] java.lang.NullPointerException
[2018-07-14 17:21:33] 	at com.mayhem.rs2.content.combat.formula.RangeFormulas.getRangedMaxHit(RangeFormulas.java:230)
[2018-07-14 17:21:33] 	at com.mayhem.rs2.entity.player.net.in.impl.ClickButtonPacket.handle(ClickButtonPacket.java:379)
[2018-07-14 17:21:33] 	at com.mayhem.rs2.entity.player.net.in.PacketHandler.handlePacket(PacketHandler.java:149)
[2018-07-14 17:21:33] 	at com.mayhem.rs2.entity.player.net.Client.processIncomingPackets(Client.java:211)
[2018-07-14 17:21:33] 	at com.mayhem.rs2.entity.World.process(World.java:323)
[2018-07-14 17:21:33] 	at com.mayhem.core.GameThread.cycle(GameThread.java:131)
[2018-07-14 17:21:33] 	at com.mayhem.core.GameThread.run(GameThread.java:146)
[2018-07-14 17:21:41] java.lang.NullPointerException
[2018-07-14 17:21:41] 	at com.mayhem.rs2.content.combat.formula.RangeFormulas.getRangedMaxHit(RangeFormulas.java:230)
[2018-07-14 17:21:41] 	at com.mayhem.rs2.entity.player.net.in.impl.ClickButtonPacket.handle(ClickButtonPacket.java:379)
[2018-07-14 17:21:41] 	at com.mayhem.rs2.entity.player.net.in.PacketHandler.handlePacket(PacketHandler.java:149)
[2018-07-14 17:21:41] 	at com.mayhem.rs2.entity.player.net.Client.processIncomingPackets(Client.java:211)
[2018-07-14 17:21:41] 	at com.mayhem.rs2.entity.World.process(World.java:323)
[2018-07-14 17:21:41] 	at com.mayhem.core.GameThread.cycle(GameThread.java:131)
[2018-07-14 17:21:41] 	at com.mayhem.core.GameThread.run(GameThread.java:146)
[2018-07-14 17:21:43] java.lang.NullPointerException
[2018-07-14 17:21:43] 	at com.mayhem.rs2.content.combat.formula.RangeFormulas.getRangedMaxHit(RangeFormulas.java:230)
[2018-07-14 17:21:43] 	at com.mayhem.rs2.entity.player.net.in.impl.ClickButtonPacket.handle(ClickButtonPacket.java:379)
[2018-07-14 17:21:43] 	at com.mayhem.rs2.entity.player.net.in.PacketHandler.handlePacket(PacketHandler.java:149)
[2018-07-14 17:21:43] 	at com.mayhem.rs2.entity.player.net.Client.processIncomingPackets(Client.java:211)
[2018-07-14 17:21:43] 	at com.mayhem.rs2.entity.World.process(World.java:323)
[2018-07-14 17:21:43] 	at com.mayhem.core.GameThread.cycle(GameThread.java:131)
[2018-07-14 17:21:43] 	at com.mayhem.core.GameThread.run(GameThread.java:146)
[2018-07-14 17:21:43] java.lang.NullPointerException
[2018-07-14 17:21:43] 	at com.mayhem.rs2.content.combat.formula.RangeFormulas.getRangedMaxHit(RangeFormulas.java:230)
[2018-07-14 17:21:43] 	at com.mayhem.rs2.entity.player.net.in.impl.ClickButtonPacket.handle(ClickButtonPacket.java:379)
[2018-07-14 17:21:43] 	at com.mayhem.rs2.entity.player.net.in.PacketHandler.handlePacket(PacketHandler.java:149)
[2018-07-14 17:21:43] 	at com.mayhem.rs2.entity.player.net.Client.processIncomingPackets(Client.java:211)
[2018-07-14 17:21:43] 	at com.mayhem.rs2.entity.World.process(World.java:323)
[2018-07-14 17:21:43] 	at com.mayhem.core.GameThread.cycle(GameThread.java:131)
[2018-07-14 17:21:43] 	at com.mayhem.core.GameThread.run(GameThread.java:146)
[2018-07-14 17:21:43] java.lang.NullPointerException
[2018-07-14 17:21:43] 	at com.mayhem.rs2.content.combat.formula.RangeFormulas.getRangedMaxHit(RangeFormulas.java:230)
[2018-07-14 17:21:43] 	at com.mayhem.rs2.entity.player.net.in.impl.ClickButtonPacket.handle(ClickButtonPacket.java:379)
[2018-07-14 17:21:43] 	at com.mayhem.rs2.entity.player.net.in.PacketHandler.handlePacket(PacketHandler.java:149)
[2018-07-14 17:21:43] 	at com.mayhem.rs2.entity.player.net.Client.processIncomingPackets(Client.java:211)
[2018-07-14 17:21:43] 	at com.mayhem.rs2.entity.World.process(World.java:323)
[2018-07-14 17:21:43] 	at com.mayhem.core.GameThread.cycle(GameThread.java:131)
[2018-07-14 17:21:43] 	at com.mayhem.core.GameThread.run(GameThread.java:146)
[2018-07-14 17:21:43] java.lang.NullPointerException
[2018-07-14 17:21:43] 	at com.mayhem.rs2.content.combat.formula.RangeFormulas.getRangedMaxHit(RangeFormulas.java:230)
[2018-07-14 17:21:43] 	at com.mayhem.rs2.entity.player.net.in.impl.ClickButtonPacket.handle(ClickButtonPacket.java:379)
[2018-07-14 17:21:43] 	at com.mayhem.rs2.entity.player.net.in.PacketHandler.handlePacket(PacketHandler.java:149)
[2018-07-14 17:21:43] 	at com.mayhem.rs2.entity.player.net.Client.processIncomingPackets(Client.java:211)
[2018-07-14 17:21:43] 	at com.mayhem.rs2.entity.World.process(World.java:323)
[2018-07-14 17:21:43] 	at com.mayhem.core.GameThread.cycle(GameThread.java:131)
[2018-07-14 17:21:43] 	at com.mayhem.core.GameThread.run(GameThread.java:146)
[2018-07-14 17:23:41] java.lang.NullPointerException
[2018-07-14 17:23:41] 	at com.mayhem.rs2.content.combat.formula.RangeFormulas.getRangedMaxHit(RangeFormulas.java:230)
[2018-07-14 17:23:41] 	at com.mayhem.rs2.entity.player.net.in.impl.ClickButtonPacket.handle(ClickButtonPacket.java:379)
[2018-07-14 17:23:41] 	at com.mayhem.rs2.entity.player.net.in.PacketHandler.handlePacket(PacketHandler.java:149)
[2018-07-14 17:23:41] 	at com.mayhem.rs2.entity.player.net.Client.processIncomingPackets(Client.java:211)
[2018-07-14 17:23:41] 	at com.mayhem.rs2.entity.World.process(World.java:323)
[2018-07-14 17:23:41] 	at com.mayhem.core.GameThread.cycle(GameThread.java:131)
[2018-07-14 17:23:41] 	at com.mayhem.core.GameThread.run(GameThread.java:146)
[2018-07-14 17:39:55] java.lang.NullPointerException
[2018-07-14 17:39:55] 	at com.mayhem.rs2.content.combat.formula.RangeFormulas.getRangedMaxHit(RangeFormulas.java:230)
[2018-07-14 17:39:55] 	at com.mayhem.rs2.entity.player.net.in.impl.ClickButtonPacket.handle(ClickButtonPacket.java:379)
[2018-07-14 17:39:55] 	at com.mayhem.rs2.entity.player.net.in.PacketHandler.handlePacket(PacketHandler.java:149)
[2018-07-14 17:39:55] 	at com.mayhem.rs2.entity.player.net.Client.processIncomingPackets(Client.java:211)
[2018-07-14 17:39:55] 	at com.mayhem.rs2.entity.World.process(World.java:323)
[2018-07-14 17:39:55] 	at com.mayhem.core.GameThread.cycle(GameThread.java:131)
[2018-07-14 17:39:55] 	at com.mayhem.core.GameThread.run(GameThread.java:146)
[2018-07-14 17:39:56] java.lang.NullPointerException
[2018-07-14 17:39:56] 	at com.mayhem.rs2.content.combat.formula.RangeFormulas.getRangedMaxHit(RangeFormulas.java:230)
[2018-07-14 17:39:56] 	at com.mayhem.rs2.entity.player.net.in.impl.ClickButtonPacket.handle(ClickButtonPacket.java:379)
[2018-07-14 17:39:56] 	at com.mayhem.rs2.entity.player.net.in.PacketHandler.handlePacket(PacketHandler.java:149)
[2018-07-14 17:39:56] 	at com.mayhem.rs2.entity.player.net.Client.processIncomingPackets(Client.java:211)
[2018-07-14 17:39:56] 	at com.mayhem.rs2.entity.World.process(World.java:323)
[2018-07-14 17:39:56] 	at com.mayhem.core.GameThread.cycle(GameThread.java:131)
[2018-07-14 17:39:56] 	at com.mayhem.core.GameThread.run(GameThread.java:146)
[2018-07-14 17:39:57] java.lang.NullPointerException
[2018-07-14 17:39:57] 	at com.mayhem.rs2.content.combat.formula.RangeFormulas.getRangedMaxHit(RangeFormulas.java:230)
[2018-07-14 17:39:57] 	at com.mayhem.rs2.entity.player.net.in.impl.ClickButtonPacket.handle(ClickButtonPacket.java:379)
[2018-07-14 17:39:57] 	at com.mayhem.rs2.entity.player.net.in.PacketHandler.handlePacket(PacketHandler.java:149)
[2018-07-14 17:39:57] 	at com.mayhem.rs2.entity.player.net.Client.processIncomingPackets(Client.java:211)
[2018-07-14 17:39:57] 	at com.mayhem.rs2.entity.World.process(World.java:323)
[2018-07-14 17:39:57] 	at com.mayhem.core.GameThread.cycle(GameThread.java:131)
[2018-07-14 17:39:57] 	at com.mayhem.core.GameThread.run(GameThread.java:146)
[2018-07-14 17:39:58] java.lang.NullPointerException
[2018-07-14 17:39:58] 	at com.mayhem.rs2.content.combat.formula.RangeFormulas.getRangedMaxHit(RangeFormulas.java:230)
[2018-07-14 17:39:58] 	at com.mayhem.rs2.entity.player.net.in.impl.ClickButtonPacket.handle(ClickButtonPacket.java:379)
[2018-07-14 17:39:58] 	at com.mayhem.rs2.entity.player.net.in.PacketHandler.handlePacket(PacketHandler.java:149)
[2018-07-14 17:39:58] 	at com.mayhem.rs2.entity.player.net.Client.processIncomingPackets(Client.java:211)
[2018-07-14 17:39:58] 	at com.mayhem.rs2.entity.World.process(World.java:323)
[2018-07-14 17:39:58] 	at com.mayhem.core.GameThread.cycle(GameThread.java:131)
[2018-07-14 17:39:58] 	at com.mayhem.core.GameThread.run(GameThread.java:146)
[2018-07-14 17:39:58] java.lang.NullPointerException
[2018-07-14 17:39:58] 	at com.mayhem.rs2.content.combat.formula.RangeFormulas.getRangedMaxHit(RangeFormulas.java:230)
[2018-07-14 17:39:58] 	at com.mayhem.rs2.entity.player.net.in.impl.ClickButtonPacket.handle(ClickButtonPacket.java:379)
[2018-07-14 17:39:58] 	at com.mayhem.rs2.entity.player.net.in.PacketHandler.handlePacket(PacketHandler.java:149)
[2018-07-14 17:39:58] 	at com.mayhem.rs2.entity.player.net.Client.processIncomingPackets(Client.java:211)
[2018-07-14 17:39:58] 	at com.mayhem.rs2.entity.World.process(World.java:323)
[2018-07-14 17:39:58] 	at com.mayhem.core.GameThread.cycle(GameThread.java:131)
[2018-07-14 17:39:58] 	at com.mayhem.core.GameThread.run(GameThread.java:146)
[2018-07-14 17:46:39] Didn't save hiscores for Saint plague
[2018-07-14 17:47:21] java.lang.NullPointerException
[2018-07-14 17:47:21] 	at com.mayhem.rs2.content.combat.formula.RangeFormulas.getRangedMaxHit(RangeFormulas.java:230)
[2018-07-14 17:47:21] 	at com.mayhem.rs2.entity.player.net.in.impl.ClickButtonPacket.handle(ClickButtonPacket.java:379)
[2018-07-14 17:47:21] 	at com.mayhem.rs2.entity.player.net.in.PacketHandler.handlePacket(PacketHandler.java:149)
[2018-07-14 17:47:21] 	at com.mayhem.rs2.entity.player.net.Client.processIncomingPackets(Client.java:211)
[2018-07-14 17:47:21] 	at com.mayhem.rs2.entity.World.process(World.java:323)
[2018-07-14 17:47:21] 	at com.mayhem.core.GameThread.cycle(GameThread.java:131)
[2018-07-14 17:47:21] 	at com.mayhem.core.GameThread.run(GameThread.java:146)
[2018-07-14 17:47:23] java.lang.NullPointerException
[2018-07-14 17:47:23] 	at com.mayhem.rs2.content.combat.formula.RangeFormulas.getRangedMaxHit(RangeFormulas.java:230)
[2018-07-14 17:47:23] 	at com.mayhem.rs2.entity.player.net.in.impl.ClickButtonPacket.handle(ClickButtonPacket.java:379)
[2018-07-14 17:47:23] 	at com.mayhem.rs2.entity.player.net.in.PacketHandler.handlePacket(PacketHandler.java:149)
[2018-07-14 17:47:23] 	at com.mayhem.rs2.entity.player.net.Client.processIncomingPackets(Client.java:211)
[2018-07-14 17:47:23] 	at com.mayhem.rs2.entity.World.process(World.java:323)
[2018-07-14 17:47:23] 	at com.mayhem.core.GameThread.cycle(GameThread.java:131)
[2018-07-14 17:47:23] 	at com.mayhem.core.GameThread.run(GameThread.java:146)
[2018-07-14 17:47:26] java.lang.NullPointerException
[2018-07-14 17:47:26] 	at com.mayhem.rs2.content.combat.formula.RangeFormulas.getRangedMaxHit(RangeFormulas.java:230)
[2018-07-14 17:47:26] 	at com.mayhem.rs2.entity.player.net.in.impl.ClickButtonPacket.handle(ClickButtonPacket.java:379)
[2018-07-14 17:47:26] 	at com.mayhem.rs2.entity.player.net.in.PacketHandler.handlePacket(PacketHandler.java:149)
[2018-07-14 17:47:26] 	at com.mayhem.rs2.entity.player.net.Client.processIncomingPackets(Client.java:211)
[2018-07-14 17:47:26] 	at com.mayhem.rs2.entity.World.process(World.java:323)
[2018-07-14 17:47:26] 	at com.mayhem.core.GameThread.cycle(GameThread.java:131)
[2018-07-14 17:47:26] 	at com.mayhem.core.GameThread.run(GameThread.java:146)
[2018-07-14 18:08:44] Didn't save hiscores for Saint plague
[2018-07-14 18:23:02] java.lang.StringIndexOutOfBoundsException: String index out of range: 0
[2018-07-14 18:23:02] 	at java.lang.String.charAt(Unknown Source)
[2018-07-14 18:23:02] 	at com.mayhem.core.util.Utility.getAOrAn(Utility.java:345)
[2018-07-14 18:23:02] 	at com.mayhem.rs2.content.minigames.miniraid.Rewards.getRewards(Rewards.java:96)
[2018-07-14 18:23:02] 	at com.mayhem.rs2.content.minigames.miniraid.MiniRaidGame.end(MiniRaidGame.java:109)
[2018-07-14 18:23:02] 	at com.mayhem.rs2.content.minigames.miniraid.MiniRaidGame.process(MiniRaidGame.java:203)
[2018-07-14 18:23:02] 	at com.mayhem.rs2.content.minigames.miniraid.MiniRaid.tick(MiniRaid.java:161)
[2018-07-14 18:23:02] 	at com.mayhem.rs2.entity.World.process(World.java:298)
[2018-07-14 18:23:02] 	at com.mayhem.core.GameThread.cycle(GameThread.java:131)
[2018-07-14 18:23:02] 	at com.mayhem.core.GameThread.run(GameThread.java:146)
[2018-07-14 18:26:32] java.lang.ArrayIndexOutOfBoundsException: 254
[2018-07-14 18:26:32] 	at com.mayhem.rs2.entity.player.net.in.command.impl.AdministratorCommand.handleCommand(AdministratorCommand.java:122)
[2018-07-14 18:26:32] 	at com.mayhem.rs2.entity.player.net.in.impl.CommandPacket.handle(CommandPacket.java:57)
[2018-07-14 18:26:32] 	at com.mayhem.rs2.entity.player.net.in.PacketHandler.handlePacket(PacketHandler.java:149)
[2018-07-14 18:26:32] 	at com.mayhem.rs2.entity.player.net.Client.processIncomingPackets(Client.java:211)
[2018-07-14 18:26:32] 	at com.mayhem.rs2.entity.World.process(World.java:323)
[2018-07-14 18:26:32] 	at com.mayhem.core.GameThread.cycle(GameThread.java:131)
[2018-07-14 18:26:32] 	at com.mayhem.core.GameThread.run(GameThread.java:146)
[2018-07-14 18:30:22] java.lang.ArrayIndexOutOfBoundsException: 254
[2018-07-14 18:30:22] 	at com.mayhem.rs2.entity.player.net.in.command.impl.AdministratorCommand.handleCommand(AdministratorCommand.java:122)
[2018-07-14 18:30:22] 	at com.mayhem.rs2.entity.player.net.in.impl.CommandPacket.handle(CommandPacket.java:57)
[2018-07-14 18:30:22] 	at com.mayhem.rs2.entity.player.net.in.PacketHandler.handlePacket(PacketHandler.java:149)
[2018-07-14 18:30:22] 	at com.mayhem.rs2.entity.player.net.Client.processIncomingPackets(Client.java:211)
[2018-07-14 18:30:22] 	at com.mayhem.rs2.entity.World.process(World.java:323)
[2018-07-14 18:30:22] 	at com.mayhem.core.GameThread.cycle(GameThread.java:131)
[2018-07-14 18:30:22] 	at com.mayhem.core.GameThread.run(GameThread.java:146)
[2018-07-14 18:32:08] java.lang.ArrayIndexOutOfBoundsException: 254
[2018-07-14 18:32:08] 	at com.mayhem.rs2.entity.player.net.in.command.impl.AdministratorCommand.handleCommand(AdministratorCommand.java:122)
[2018-07-14 18:32:08] 	at com.mayhem.rs2.entity.player.net.in.impl.CommandPacket.handle(CommandPacket.java:57)
[2018-07-14 18:32:08] 	at com.mayhem.rs2.entity.player.net.in.PacketHandler.handlePacket(PacketHandler.java:149)
[2018-07-14 18:32:08] 	at com.mayhem.rs2.entity.player.net.Client.processIncomingPackets(Client.java:211)
[2018-07-14 18:32:08] 	at com.mayhem.rs2.entity.World.process(World.java:323)
[2018-07-14 18:32:08] 	at com.mayhem.core.GameThread.cycle(GameThread.java:131)
[2018-07-14 18:32:08] 	at com.mayhem.core.GameThread.run(GameThread.java:146)
[2018-07-14 18:33:00] java.lang.ArrayIndexOutOfBoundsException: 254
[2018-07-14 18:33:00] 	at com.mayhem.rs2.entity.player.net.in.command.impl.AdministratorCommand.handleCommand(AdministratorCommand.java:122)
[2018-07-14 18:33:00] 	at com.mayhem.rs2.entity.player.net.in.impl.CommandPacket.handle(CommandPacket.java:57)
[2018-07-14 18:33:00] 	at com.mayhem.rs2.entity.player.net.in.PacketHandler.handlePacket(PacketHandler.java:149)
[2018-07-14 18:33:00] 	at com.mayhem.rs2.entity.player.net.Client.processIncomingPackets(Client.java:211)
[2018-07-14 18:33:00] 	at com.mayhem.rs2.entity.World.process(World.java:323)
[2018-07-14 18:33:00] 	at com.mayhem.core.GameThread.cycle(GameThread.java:131)
[2018-07-14 18:33:00] 	at com.mayhem.core.GameThread.run(GameThread.java:146)
[2018-07-14 18:33:41] java.lang.NullPointerException
[2018-07-14 18:33:42] java.lang.NullPointerException
[2018-07-14 18:33:44] java.lang.NullPointerException
[2018-07-14 18:35:17] java.lang.ArrayIndexOutOfBoundsException: 254
[2018-07-14 18:35:17] 	at com.mayhem.rs2.entity.player.net.in.command.impl.AdministratorCommand.handleCommand(AdministratorCommand.java:122)
[2018-07-14 18:35:17] 	at com.mayhem.rs2.entity.player.net.in.impl.CommandPacket.handle(CommandPacket.java:57)
[2018-07-14 18:35:17] 	at com.mayhem.rs2.entity.player.net.in.PacketHandler.handlePacket(PacketHandler.java:149)
[2018-07-14 18:35:17] 	at com.mayhem.rs2.entity.player.net.Client.processIncomingPackets(Client.java:211)
[2018-07-14 18:35:17] 	at com.mayhem.rs2.entity.World.process(World.java:323)
[2018-07-14 18:35:17] 	at com.mayhem.core.GameThread.cycle(GameThread.java:131)
[2018-07-14 18:35:17] 	at com.mayhem.core.GameThread.run(GameThread.java:146)
[2018-07-14 18:35:30] java.lang.ArrayIndexOutOfBoundsException: 254
[2018-07-14 18:35:30] 	at com.mayhem.rs2.entity.player.net.in.command.impl.AdministratorCommand.handleCommand(AdministratorCommand.java:122)
[2018-07-14 18:35:30] 	at com.mayhem.rs2.entity.player.net.in.impl.CommandPacket.handle(CommandPacket.java:57)
[2018-07-14 18:35:30] 	at com.mayhem.rs2.entity.player.net.in.PacketHandler.handlePacket(PacketHandler.java:149)
[2018-07-14 18:35:30] 	at com.mayhem.rs2.entity.player.net.Client.processIncomingPackets(Client.java:211)
[2018-07-14 18:35:30] 	at com.mayhem.rs2.entity.World.process(World.java:323)
[2018-07-14 18:35:30] 	at com.mayhem.core.GameThread.cycle(GameThread.java:131)
[2018-07-14 18:35:30] 	at com.mayhem.core.GameThread.run(GameThread.java:146)
[2018-07-14 18:41:17] Didn't save hiscores for Mod andy
[2018-07-14 19:08:14] java.lang.ArrayIndexOutOfBoundsException: 64
[2018-07-14 19:08:14] 	at com.mayhem.core.util.Utility.textUnpack(Utility.java:722)
[2018-07-14 19:08:14] 	at com.mayhem.rs2.entity.ReportHandler.addText(ReportHandler.java:28)
[2018-07-14 19:08:14] 	at com.mayhem.rs2.entity.player.net.in.impl.PublicChatPacket.handle(PublicChatPacket.java:61)
[2018-07-14 19:08:14] 	at com.mayhem.rs2.entity.player.net.in.PacketHandler.handlePacket(PacketHandler.java:149)
[2018-07-14 19:08:14] 	at com.mayhem.rs2.entity.player.net.Client.processIncomingPackets(Client.java:211)
[2018-07-14 19:08:14] 	at com.mayhem.rs2.entity.World.process(World.java:323)
[2018-07-14 19:08:14] 	at com.mayhem.core.GameThread.cycle(GameThread.java:131)
[2018-07-14 19:08:14] 	at com.mayhem.core.GameThread.run(GameThread.java:146)
[2018-07-14 19:27:52] java.lang.NullPointerException
[2018-07-14 19:27:52] 	at com.mayhem.rs2.content.combat.formula.RangeFormulas.calculateRangeAttack(RangeFormulas.java:127)
[2018-07-14 19:27:52] 	at com.mayhem.rs2.content.combat.impl.Ranged.execute(Ranged.java:41)
[2018-07-14 19:27:52] 	at com.mayhem.rs2.content.combat.Combat.attack(Combat.java:92)
[2018-07-14 19:27:52] 	at com.mayhem.rs2.content.combat.Combat.process(Combat.java:215)
[2018-07-14 19:27:52] 	at com.mayhem.rs2.entity.player.Player.process(Player.java:1712)
[2018-07-14 19:27:52] 	at com.mayhem.rs2.entity.World.process(World.java:325)
[2018-07-14 19:27:52] 	at com.mayhem.core.GameThread.cycle(GameThread.java:131)
[2018-07-14 19:27:52] 	at com.mayhem.core.GameThread.run(GameThread.java:146)
[2018-07-14 19:30:51] java.lang.NullPointerException
[2018-07-14 19:30:51] 	at com.mayhem.rs2.content.combat.formula.RangeFormulas.calculateRangeAttack(RangeFormulas.java:127)
[2018-07-14 19:30:51] 	at com.mayhem.rs2.content.combat.impl.Ranged.execute(Ranged.java:41)
[2018-07-14 19:30:51] 	at com.mayhem.rs2.content.combat.Combat.attack(Combat.java:92)
[2018-07-14 19:30:51] 	at com.mayhem.rs2.content.combat.Combat.process(Combat.java:215)
[2018-07-14 19:30:51] 	at com.mayhem.rs2.entity.player.Player.process(Player.java:1712)
[2018-07-14 19:30:51] 	at com.mayhem.rs2.entity.World.process(World.java:325)
[2018-07-14 19:30:51] 	at com.mayhem.core.GameThread.cycle(GameThread.java:131)
[2018-07-14 19:30:51] 	at com.mayhem.core.GameThread.run(GameThread.java:146)
[2018-07-14 19:34:09] Didn't save hiscores for Saint plague
[2018-07-14 19:34:23] java.lang.NullPointerException
[2018-07-14 19:34:23] 	at com.mayhem.rs2.content.combat.formula.RangeFormulas.calculateRangeAttack(RangeFormulas.java:127)
[2018-07-14 19:34:23] 	at com.mayhem.rs2.content.combat.impl.Ranged.execute(Ranged.java:41)
[2018-07-14 19:34:23] 	at com.mayhem.rs2.content.combat.special.specials.MagicShortbowSpecialAttack.handleAttack(MagicShortbowSpecialAttack.java:35)
[2018-07-14 19:34:23] 	at com.mayhem.rs2.content.combat.special.SpecialAttackHandler.handleSpecialAttack(SpecialAttackHandler.java:214)
[2018-07-14 19:34:23] 	at com.mayhem.rs2.content.combat.PlayerCombatInterface.onCombatProcess(PlayerCombatInterface.java:432)
[2018-07-14 19:34:23] 	at com.mayhem.rs2.entity.player.Player.onCombatProcess(Player.java:1651)
[2018-07-14 19:34:23] 	at com.mayhem.rs2.content.combat.Combat.attack(Combat.java:79)
[2018-07-14 19:34:23] 	at com.mayhem.rs2.content.combat.Combat.process(Combat.java:215)
[2018-07-14 19:34:23] 	at com.mayhem.rs2.entity.player.Player.process(Player.java:1712)
[2018-07-14 19:34:23] 	at com.mayhem.rs2.entity.World.process(World.java:325)
[2018-07-14 19:34:23] 	at com.mayhem.core.GameThread.cycle(GameThread.java:131)
[2018-07-14 19:34:23] 	at com.mayhem.core.GameThread.run(GameThread.java:146)
[2018-07-14 19:44:27] java.lang.NullPointerException
[2018-07-14 19:45:12] Didn't save hiscores for Saint plague
[2018-07-14 19:46:56] java.lang.NullPointerException
[2018-07-14 19:52:32] java.lang.NullPointerException
[2018-07-14 19:52:32] 	at com.mayhem.rs2.entity.mob.Mob.hit(Mob.java:530)
[2018-07-14 19:52:32] 	at com.mayhem.core.task.impl.HitTask.execute(HitTask.java:64)
[2018-07-14 19:52:32] 	at com.mayhem.core.task.Task.run(Task.java:183)
[2018-07-14 19:52:32] 	at com.mayhem.core.task.TaskQueue.process(TaskQueue.java:78)
[2018-07-14 19:52:32] 	at com.mayhem.core.GameThread.cycle(GameThread.java:123)
[2018-07-14 19:52:32] 	at com.mayhem.core.GameThread.run(GameThread.java:146)
[2018-07-14 20:16:51] java.lang.NullPointerException
[2018-07-14 20:16:51] 	at com.mayhem.rs2.entity.mob.Mob.hit(Mob.java:530)
[2018-07-14 20:16:51] 	at com.mayhem.core.task.impl.HitTask.execute(HitTask.java:64)
[2018-07-14 20:16:51] 	at com.mayhem.core.task.Task.run(Task.java:183)
[2018-07-14 20:16:51] 	at com.mayhem.core.task.TaskQueue.process(TaskQueue.java:78)
[2018-07-14 20:16:51] 	at com.mayhem.core.GameThread.cycle(GameThread.java:123)
[2018-07-14 20:16:51] 	at com.mayhem.core.GameThread.run(GameThread.java:146)
[2018-07-14 22:27:54] Didn't save hiscores for Saint plague
[2018-07-14 23:18:39] java.lang.NullPointerException
[2018-07-14 23:18:39] 	at com.mayhem.rs2.content.wilderness.TargetSystem.calculateTargetWealth(TargetSystem.java:173)
[2018-07-14 23:18:39] 	at com.mayhem.rs2.content.wilderness.TargetSystem.update(TargetSystem.java:162)
[2018-07-14 23:18:39] 	at com.mayhem.rs2.entity.player.controllers.WildernessController.tick(WildernessController.java:175)
[2018-07-14 23:18:39] 	at com.mayhem.rs2.entity.player.Player.process(Player.java:1701)
[2018-07-14 23:18:39] 	at com.mayhem.rs2.entity.World.process(World.java:325)
[2018-07-14 23:18:39] 	at com.mayhem.core.GameThread.cycle(GameThread.java:131)
[2018-07-14 23:18:39] 	at com.mayhem.core.GameThread.run(GameThread.java:146)
[2018-07-14 23:21:57] Didn't save hiscores for Saint plague
[2018-07-14 23:38:31] java.lang.NullPointerException
[2018-07-14 23:38:31] 	at com.mayhem.rs2.content.combat.formula.RangeFormulas.getRangedMaxHit(RangeFormulas.java:230)
[2018-07-14 23:38:31] 	at com.mayhem.rs2.entity.player.net.in.impl.ClickButtonPacket.handle(ClickButtonPacket.java:379)
[2018-07-14 23:38:31] 	at com.mayhem.rs2.entity.player.net.in.PacketHandler.handlePacket(PacketHandler.java:149)
[2018-07-14 23:38:31] 	at com.mayhem.rs2.entity.player.net.Client.processIncomingPackets(Client.java:211)
[2018-07-14 23:38:31] 	at com.mayhem.rs2.entity.World.process(World.java:323)
[2018-07-14 23:38:31] 	at com.mayhem.core.GameThread.cycle(GameThread.java:131)
[2018-07-14 23:38:31] 	at com.mayhem.core.GameThread.run(GameThread.java:146)
[2018-07-14 23:38:33] java.lang.NullPointerException
[2018-07-14 23:38:33] 	at com.mayhem.rs2.content.combat.formula.RangeFormulas.getRangedMaxHit(RangeFormulas.java:230)
[2018-07-14 23:38:33] 	at com.mayhem.rs2.entity.player.net.in.impl.ClickButtonPacket.handle(ClickButtonPacket.java:379)
[2018-07-14 23:38:33] 	at com.mayhem.rs2.entity.player.net.in.PacketHandler.handlePacket(PacketHandler.java:149)
[2018-07-14 23:38:33] 	at com.mayhem.rs2.entity.player.net.Client.processIncomingPackets(Client.java:211)
[2018-07-14 23:38:33] 	at com.mayhem.rs2.entity.World.process(World.java:323)
[2018-07-14 23:38:33] 	at com.mayhem.core.GameThread.cycle(GameThread.java:131)
[2018-07-14 23:38:33] 	at com.mayhem.core.GameThread.run(GameThread.java:146)
[2018-07-14 23:38:35] java.lang.NullPointerException
[2018-07-14 23:38:35] 	at com.mayhem.rs2.content.combat.formula.RangeFormulas.getRangedMaxHit(RangeFormulas.java:230)
[2018-07-14 23:38:35] 	at com.mayhem.rs2.entity.player.net.in.impl.ClickButtonPacket.handle(ClickButtonPacket.java:379)
[2018-07-14 23:38:35] 	at com.mayhem.rs2.entity.player.net.in.PacketHandler.handlePacket(PacketHandler.java:149)
[2018-07-14 23:38:35] 	at com.mayhem.rs2.entity.player.net.Client.processIncomingPackets(Client.java:211)
[2018-07-14 23:38:35] 	at com.mayhem.rs2.entity.World.process(World.java:323)
[2018-07-14 23:38:35] 	at com.mayhem.core.GameThread.cycle(GameThread.java:131)
[2018-07-14 23:38:35] 	at com.mayhem.core.GameThread.run(GameThread.java:146)
[2018-07-14 23:38:39] java.lang.NullPointerException
[2018-07-14 23:38:39] 	at com.mayhem.rs2.content.combat.formula.RangeFormulas.getRangedMaxHit(RangeFormulas.java:230)
[2018-07-14 23:38:39] 	at com.mayhem.rs2.entity.player.net.in.impl.ClickButtonPacket.handle(ClickButtonPacket.java:379)
[2018-07-14 23:38:39] 	at com.mayhem.rs2.entity.player.net.in.PacketHandler.handlePacket(PacketHandler.java:149)
[2018-07-14 23:38:39] 	at com.mayhem.rs2.entity.player.net.Client.processIncomingPackets(Client.java:211)
[2018-07-14 23:38:39] 	at com.mayhem.rs2.entity.World.process(World.java:323)
[2018-07-14 23:38:39] 	at com.mayhem.core.GameThread.cycle(GameThread.java:131)
[2018-07-14 23:38:39] 	at com.mayhem.core.GameThread.run(GameThread.java:146)
[2018-07-14 23:38:51] java.lang.NullPointerException
[2018-07-14 23:38:51] 	at com.mayhem.rs2.content.combat.formula.RangeFormulas.getRangedMaxHit(RangeFormulas.java:230)
[2018-07-14 23:38:51] 	at com.mayhem.rs2.entity.player.net.in.impl.ClickButtonPacket.handle(ClickButtonPacket.java:379)
[2018-07-14 23:38:51] 	at com.mayhem.rs2.entity.player.net.in.PacketHandler.handlePacket(PacketHandler.java:149)
[2018-07-14 23:38:51] 	at com.mayhem.rs2.entity.player.net.Client.processIncomingPackets(Client.java:211)
[2018-07-14 23:38:51] 	at com.mayhem.rs2.entity.World.process(World.java:323)
[2018-07-14 23:38:51] 	at com.mayhem.core.GameThread.cycle(GameThread.java:131)
[2018-07-14 23:38:51] 	at com.mayhem.core.GameThread.run(GameThread.java:146)
[2018-07-14 23:57:53] Didn't save hiscores for Mod andy
[2018-07-15 00:02:42] Didn't save hiscores for Mod divine
[2018-07-15 00:04:03] java.lang.NullPointerException
[2018-07-15 00:04:03] 	at com.mayhem.rs2.content.GenieReset.handle(GenieReset.java:118)
[2018-07-15 00:04:03] 	at com.mayhem.rs2.entity.player.net.in.impl.ClickButtonPacket.handle(ClickButtonPacket.java:962)
[2018-07-15 00:04:03] 	at com.mayhem.rs2.entity.player.net.in.PacketHandler.handlePacket(PacketHandler.java:149)
[2018-07-15 00:04:03] 	at com.mayhem.rs2.entity.player.net.Client.processIncomingPackets(Client.java:211)
[2018-07-15 00:04:03] 	at com.mayhem.rs2.entity.World.process(World.java:323)
[2018-07-15 00:04:03] 	at com.mayhem.core.GameThread.cycle(GameThread.java:131)
[2018-07-15 00:04:03] 	at com.mayhem.core.GameThread.run(GameThread.java:146)
[2018-07-15 00:13:17] java.lang.NullPointerException
[2018-07-15 00:13:17] 	at com.mayhem.rs2.content.combat.formula.RangeFormulas.calculateRangeAttack(RangeFormulas.java:87)
[2018-07-15 00:13:17] 	at com.mayhem.rs2.content.combat.impl.Ranged.execute(Ranged.java:41)
[2018-07-15 00:13:17] 	at com.mayhem.rs2.content.combat.Combat.attack(Combat.java:92)
[2018-07-15 00:13:17] 	at com.mayhem.rs2.content.combat.Combat.process(Combat.java:215)
[2018-07-15 00:13:17] 	at com.mayhem.rs2.entity.player.Player.process(Player.java:1712)
[2018-07-15 00:13:17] 	at com.mayhem.rs2.entity.World.process(World.java:325)
[2018-07-15 00:13:17] 	at com.mayhem.core.GameThread.cycle(GameThread.java:131)
[2018-07-15 00:13:17] 	at com.mayhem.core.GameThread.run(GameThread.java:146)
[2018-07-15 00:13:17] java.lang.NullPointerException
[2018-07-15 00:13:17] 	at com.mayhem.rs2.entity.player.net.Client.send(Client.java:329)
[2018-07-15 00:13:17] 	at com.mayhem.rs2.entity.player.net.out.impl.SendLogout.execute(SendLogout.java:13)
[2018-07-15 00:13:17] 	at com.mayhem.rs2.entity.player.Player.logout(Player.java:1636)
[2018-07-15 00:13:17] 	at com.mayhem.rs2.entity.World.process(World.java:338)
[2018-07-15 00:13:17] 	at com.mayhem.core.GameThread.cycle(GameThread.java:131)
[2018-07-15 00:13:17] 	at com.mayhem.core.GameThread.run(GameThread.java:146)
[2018-07-15 00:29:24] java.lang.IndexOutOfBoundsException: Index: 9, Size: 7
[2018-07-15 00:29:24] 	at java.util.LinkedList.checkElementIndex(Unknown Source)
[2018-07-15 00:29:24] 	at java.util.LinkedList.get(Unknown Source)
[2018-07-15 00:29:24] 	at com.mayhem.rs2.entity.player.net.in.impl.InterfaceAction.handle(InterfaceAction.java:88)
[2018-07-15 00:29:24] 	at com.mayhem.rs2.entity.player.net.in.PacketHandler.handlePacket(PacketHandler.java:149)
[2018-07-15 00:29:24] 	at com.mayhem.rs2.entity.player.net.Client.processIncomingPackets(Client.java:211)
[2018-07-15 00:29:24] 	at com.mayhem.rs2.entity.World.process(World.java:323)
[2018-07-15 00:29:24] 	at com.mayhem.core.GameThread.cycle(GameThread.java:131)
[2018-07-15 00:29:24] 	at com.mayhem.core.GameThread.run(GameThread.java:146)
[2018-07-15 00:29:24] java.lang.IndexOutOfBoundsException: Index: 9, Size: 7
[2018-07-15 00:29:24] 	at java.util.LinkedList.checkElementIndex(Unknown Source)
[2018-07-15 00:29:24] 	at java.util.LinkedList.get(Unknown Source)
[2018-07-15 00:29:24] 	at com.mayhem.rs2.entity.player.net.in.impl.InterfaceAction.handle(InterfaceAction.java:88)
[2018-07-15 00:29:24] 	at com.mayhem.rs2.entity.player.net.in.PacketHandler.handlePacket(PacketHandler.java:149)
[2018-07-15 00:29:24] 	at com.mayhem.rs2.entity.player.net.Client.processIncomingPackets(Client.java:211)
[2018-07-15 00:29:24] 	at com.mayhem.rs2.entity.World.process(World.java:323)
[2018-07-15 00:29:24] 	at com.mayhem.core.GameThread.cycle(GameThread.java:131)
[2018-07-15 00:29:24] 	at com.mayhem.core.GameThread.run(GameThread.java:146)
[2018-07-15 00:38:29] java.lang.NullPointerException
[2018-07-15 00:38:29] 	at com.mayhem.rs2.content.combat.formula.MeleeFormulas.calculateBaseDamage(MeleeFormulas.java:219)
[2018-07-15 00:38:29] 	at com.mayhem.rs2.entity.player.net.in.impl.ClickButtonPacket.handle(ClickButtonPacket.java:378)
[2018-07-15 00:38:29] 	at com.mayhem.rs2.entity.player.net.in.PacketHandler.handlePacket(PacketHandler.java:149)
[2018-07-15 00:38:29] 	at com.mayhem.rs2.entity.player.net.Client.processIncomingPackets(Client.java:211)
[2018-07-15 00:38:29] 	at com.mayhem.rs2.entity.World.process(World.java:323)
[2018-07-15 00:38:29] 	at com.mayhem.core.GameThread.cycle(GameThread.java:131)
[2018-07-15 00:38:29] 	at com.mayhem.core.GameThread.run(GameThread.java:146)
[2018-07-15 00:38:33] java.lang.NullPointerException
[2018-07-15 00:38:33] 	at com.mayhem.rs2.content.combat.formula.MeleeFormulas.calculateBaseDamage(MeleeFormulas.java:219)
[2018-07-15 00:38:33] 	at com.mayhem.rs2.entity.player.net.in.impl.ClickButtonPacket.handle(ClickButtonPacket.java:378)
[2018-07-15 00:38:33] 	at com.mayhem.rs2.entity.player.net.in.PacketHandler.handlePacket(PacketHandler.java:149)
[2018-07-15 00:38:33] 	at com.mayhem.rs2.entity.player.net.Client.processIncomingPackets(Client.java:211)
[2018-07-15 00:38:33] 	at com.mayhem.rs2.entity.World.process(World.java:323)
[2018-07-15 00:38:33] 	at com.mayhem.core.GameThread.cycle(GameThread.java:131)
[2018-07-15 00:38:33] 	at com.mayhem.core.GameThread.run(GameThread.java:146)
[2018-07-15 00:38:36] java.lang.NullPointerException
[2018-07-15 00:38:36] 	at com.mayhem.rs2.content.combat.formula.MeleeFormulas.calculateBaseDamage(MeleeFormulas.java:219)
[2018-07-15 00:38:36] 	at com.mayhem.rs2.entity.player.net.in.impl.ClickButtonPacket.handle(ClickButtonPacket.java:378)
[2018-07-15 00:38:36] 	at com.mayhem.rs2.entity.player.net.in.PacketHandler.handlePacket(PacketHandler.java:149)
[2018-07-15 00:38:36] 	at com.mayhem.rs2.entity.player.net.Client.processIncomingPackets(Client.java:211)
[2018-07-15 00:38:36] 	at com.mayhem.rs2.entity.World.process(World.java:323)
[2018-07-15 00:38:36] 	at com.mayhem.core.GameThread.cycle(GameThread.java:131)
[2018-07-15 00:38:36] 	at com.mayhem.core.GameThread.run(GameThread.java:146)
[2018-07-15 00:38:36] java.lang.NullPointerException
[2018-07-15 00:38:36] 	at com.mayhem.rs2.content.combat.formula.MeleeFormulas.calculateBaseDamage(MeleeFormulas.java:219)
[2018-07-15 00:38:36] 	at com.mayhem.rs2.entity.player.net.in.impl.ClickButtonPacket.handle(ClickButtonPacket.java:378)
[2018-07-15 00:38:36] 	at com.mayhem.rs2.entity.player.net.in.PacketHandler.handlePacket(PacketHandler.java:149)
[2018-07-15 00:38:36] 	at com.mayhem.rs2.entity.player.net.Client.processIncomingPackets(Client.java:211)
[2018-07-15 00:38:36] 	at com.mayhem.rs2.entity.World.process(World.java:323)
[2018-07-15 00:38:36] 	at com.mayhem.core.GameThread.cycle(GameThread.java:131)
[2018-07-15 00:38:36] 	at com.mayhem.core.GameThread.run(GameThread.java:146)
[2018-07-15 01:26:13] java.lang.ArrayIndexOutOfBoundsException: 64
[2018-07-15 01:26:13] 	at com.mayhem.core.util.Utility.textUnpack(Utility.java:722)
[2018-07-15 01:26:13] 	at com.mayhem.rs2.entity.ReportHandler.addText(ReportHandler.java:28)
[2018-07-15 01:26:13] 	at com.mayhem.rs2.entity.player.net.in.impl.PublicChatPacket.handle(PublicChatPacket.java:61)
[2018-07-15 01:26:13] 	at com.mayhem.rs2.entity.player.net.in.PacketHandler.handlePacket(PacketHandler.java:149)
[2018-07-15 01:26:13] 	at com.mayhem.rs2.entity.player.net.Client.processIncomingPackets(Client.java:211)
[2018-07-15 01:26:13] 	at com.mayhem.rs2.entity.World.process(World.java:323)
[2018-07-15 01:26:13] 	at com.mayhem.core.GameThread.cycle(GameThread.java:131)
[2018-07-15 01:26:13] 	at com.mayhem.core.GameThread.run(GameThread.java:146)
[2018-07-15 02:02:19] java.lang.ArrayIndexOutOfBoundsException: 64
[2018-07-15 02:02:19] 	at com.mayhem.core.util.Utility.textUnpack(Utility.java:722)
[2018-07-15 02:02:19] 	at com.mayhem.rs2.entity.ReportHandler.addText(ReportHandler.java:28)
[2018-07-15 02:02:19] 	at com.mayhem.rs2.entity.player.net.in.impl.PublicChatPacket.handle(PublicChatPacket.java:61)
[2018-07-15 02:02:19] 	at com.mayhem.rs2.entity.player.net.in.PacketHandler.handlePacket(PacketHandler.java:149)
[2018-07-15 02:02:19] 	at com.mayhem.rs2.entity.player.net.Client.processIncomingPackets(Client.java:211)
[2018-07-15 02:02:19] 	at com.mayhem.rs2.entity.World.process(World.java:323)
[2018-07-15 02:02:19] 	at com.mayhem.core.GameThread.cycle(GameThread.java:131)
[2018-07-15 02:02:19] 	at com.mayhem.core.GameThread.run(GameThread.java:146)
[2018-07-15 02:09:05] Didn't save hiscores for Mod divine
