Logging started at 2018-07-19 01:53:33
File name: C:\Users\Administrator\Dropbox\Valius\Valius Source\.\data\logs\err\1531990411774 - Administrator - [Thu Jul 19][1.53AM].txt
System.getProperty("os.name"): "Windows Server 2016"

[2018-07-19 01:56:41] java.lang.NullPointerException
[2018-07-19 01:56:41] 	at com.mayhem.rs2.entity.player.net.Client.send(Client.java:329)
[2018-07-19 01:56:41] 	at com.mayhem.rs2.entity.player.net.out.impl.SendLogout.execute(SendLogout.java:13)
[2018-07-19 01:56:41] 	at com.mayhem.rs2.entity.player.Player.logout(Player.java:1636)
[2018-07-19 01:56:41] 	at com.mayhem.rs2.entity.player.Player.process(Player.java:1696)
[2018-07-19 01:56:41] 	at com.mayhem.rs2.entity.World.process(World.java:325)
[2018-07-19 01:56:41] 	at com.mayhem.core.GameThread.cycle(GameThread.java:131)
[2018-07-19 01:56:41] 	at com.mayhem.core.GameThread.run(GameThread.java:146)
[2018-07-19 01:56:45] java.lang.NullPointerException
[2018-07-19 01:56:49] 	at com.mayhem.rs2.entity.player.net.Client.send(Client.java:329)
[2018-07-19 01:56:49] 	at com.mayhem.rs2.entity.player.net.out.impl.SendLogout.execute(SendLogout.java:13)
[2018-07-19 01:56:49] 	at com.mayhem.rs2.entity.player.Player.logout(Player.java:1636)
[2018-07-19 01:56:49] 	at com.mayhem.rs2.entity.player.Player.process(Player.java:1696)
[2018-07-19 01:56:49] 	at com.mayhem.rs2.entity.World.process(World.java:325)
[2018-07-19 01:56:49] 	at com.mayhem.core.GameThread.cycle(GameThread.java:131)
[2018-07-19 01:56:49] 	at com.mayhem.core.GameThread.run(GameThread.java:146)
[2018-07-19 02:19:08] java.lang.ArrayIndexOutOfBoundsException: 64
[2018-07-19 02:19:08] 	at com.mayhem.core.util.Utility.textUnpack(Utility.java:722)
[2018-07-19 02:19:08] 	at com.mayhem.rs2.entity.ReportHandler.addText(ReportHandler.java:28)
[2018-07-19 02:19:08] 	at com.mayhem.rs2.entity.player.net.in.impl.PublicChatPacket.handle(PublicChatPacket.java:61)
[2018-07-19 02:19:08] 	at com.mayhem.rs2.entity.player.net.in.PacketHandler.handlePacket(PacketHandler.java:149)
[2018-07-19 02:19:08] 	at com.mayhem.rs2.entity.player.net.Client.processIncomingPackets(Client.java:211)
[2018-07-19 02:19:08] 	at com.mayhem.rs2.entity.World.process(World.java:323)
[2018-07-19 02:19:08] 	at com.mayhem.core.GameThread.cycle(GameThread.java:131)
[2018-07-19 02:19:08] 	at com.mayhem.core.GameThread.run(GameThread.java:146)
[2018-07-19 04:04:32] java.lang.IndexOutOfBoundsException: Index: 10, Size: 8
[2018-07-19 04:04:32] 	at java.util.LinkedList.checkElementIndex(Unknown Source)
[2018-07-19 04:04:32] 	at java.util.LinkedList.get(Unknown Source)
[2018-07-19 04:04:32] 	at com.mayhem.rs2.entity.player.net.in.impl.InterfaceAction.handle(InterfaceAction.java:88)
[2018-07-19 04:04:32] 	at com.mayhem.rs2.entity.player.net.in.PacketHandler.handlePacket(PacketHandler.java:149)
[2018-07-19 04:04:32] 	at com.mayhem.rs2.entity.player.net.Client.processIncomingPackets(Client.java:211)
[2018-07-19 04:04:32] 	at com.mayhem.rs2.entity.World.process(World.java:323)
[2018-07-19 04:04:32] 	at com.mayhem.core.GameThread.cycle(GameThread.java:131)
[2018-07-19 04:04:32] 	at com.mayhem.core.GameThread.run(GameThread.java:146)
[2018-07-19 04:04:32] java.lang.IndexOutOfBoundsException: Index: 10, Size: 8
[2018-07-19 04:04:32] 	at java.util.LinkedList.checkElementIndex(Unknown Source)
[2018-07-19 04:04:32] 	at java.util.LinkedList.get(Unknown Source)
[2018-07-19 04:04:32] 	at com.mayhem.rs2.entity.player.net.in.impl.InterfaceAction.handle(InterfaceAction.java:88)
[2018-07-19 04:04:32] 	at com.mayhem.rs2.entity.player.net.in.PacketHandler.handlePacket(PacketHandler.java:149)
[2018-07-19 04:04:32] 	at com.mayhem.rs2.entity.player.net.Client.processIncomingPackets(Client.java:211)
[2018-07-19 04:04:32] 	at com.mayhem.rs2.entity.World.process(World.java:323)
[2018-07-19 04:04:32] 	at com.mayhem.core.GameThread.cycle(GameThread.java:131)
[2018-07-19 04:04:32] 	at com.mayhem.core.GameThread.run(GameThread.java:146)
[2018-07-19 06:21:27] Didn't save hiscores for Saint plague
[2018-07-19 06:26:25] Didn't save hiscores for Saint plague
[2018-07-19 09:57:26] java.lang.ArrayIndexOutOfBoundsException: 64
[2018-07-19 09:57:26] 	at com.mayhem.core.util.Utility.textUnpack(Utility.java:722)
[2018-07-19 09:57:26] 	at com.mayhem.rs2.entity.ReportHandler.addText(ReportHandler.java:28)
[2018-07-19 09:57:26] 	at com.mayhem.rs2.entity.player.net.in.impl.PublicChatPacket.handle(PublicChatPacket.java:61)
[2018-07-19 09:57:26] 	at com.mayhem.rs2.entity.player.net.in.PacketHandler.handlePacket(PacketHandler.java:149)
[2018-07-19 09:57:26] 	at com.mayhem.rs2.entity.player.net.Client.processIncomingPackets(Client.java:211)
[2018-07-19 09:57:26] 	at com.mayhem.rs2.entity.World.process(World.java:323)
[2018-07-19 09:57:26] 	at com.mayhem.core.GameThread.cycle(GameThread.java:131)
[2018-07-19 09:57:26] 	at com.mayhem.core.GameThread.run(GameThread.java:146)
[2018-07-19 10:31:35] java.lang.ArrayIndexOutOfBoundsException: 64
[2018-07-19 10:31:35] 	at com.mayhem.core.util.Utility.textUnpack(Utility.java:722)
[2018-07-19 10:31:35] 	at com.mayhem.rs2.entity.ReportHandler.addText(ReportHandler.java:28)
[2018-07-19 10:31:35] 	at com.mayhem.rs2.entity.player.net.in.impl.PublicChatPacket.handle(PublicChatPacket.java:61)
[2018-07-19 10:31:35] 	at com.mayhem.rs2.entity.player.net.in.PacketHandler.handlePacket(PacketHandler.java:149)
[2018-07-19 10:31:35] 	at com.mayhem.rs2.entity.player.net.Client.processIncomingPackets(Client.java:211)
[2018-07-19 10:31:35] 	at com.mayhem.rs2.entity.World.process(World.java:323)
[2018-07-19 10:31:35] 	at com.mayhem.core.GameThread.cycle(GameThread.java:131)
[2018-07-19 10:31:35] 	at com.mayhem.core.GameThread.run(GameThread.java:146)
[2018-07-19 11:23:46] Didn't save hiscores for Saint plague
[2018-07-19 11:24:36] java.lang.NullPointerException
[2018-07-19 11:24:36] 	at com.mayhem.rs2.content.combat.formula.RangeFormulas.getRangedMaxHit(RangeFormulas.java:226)
[2018-07-19 11:24:36] 	at com.mayhem.rs2.entity.player.net.in.impl.ClickButtonPacket.handle(ClickButtonPacket.java:379)
[2018-07-19 11:24:36] 	at com.mayhem.rs2.entity.player.net.in.PacketHandler.handlePacket(PacketHandler.java:149)
[2018-07-19 11:24:36] 	at com.mayhem.rs2.entity.player.net.Client.processIncomingPackets(Client.java:211)
[2018-07-19 11:24:36] 	at com.mayhem.rs2.entity.World.process(World.java:323)
[2018-07-19 11:24:36] 	at com.mayhem.core.GameThread.cycle(GameThread.java:131)
[2018-07-19 11:24:36] 	at com.mayhem.core.GameThread.run(GameThread.java:146)
[2018-07-19 11:24:36] java.lang.NullPointerException
[2018-07-19 11:24:36] 	at com.mayhem.rs2.content.combat.formula.RangeFormulas.getRangedMaxHit(RangeFormulas.java:226)
[2018-07-19 11:24:36] 	at com.mayhem.rs2.entity.player.net.in.impl.ClickButtonPacket.handle(ClickButtonPacket.java:379)
[2018-07-19 11:24:36] 	at com.mayhem.rs2.entity.player.net.in.PacketHandler.handlePacket(PacketHandler.java:149)
[2018-07-19 11:24:36] 	at com.mayhem.rs2.entity.player.net.Client.processIncomingPackets(Client.java:211)
[2018-07-19 11:24:36] 	at com.mayhem.rs2.entity.World.process(World.java:323)
[2018-07-19 11:24:36] 	at com.mayhem.core.GameThread.cycle(GameThread.java:131)
[2018-07-19 11:24:36] 	at com.mayhem.core.GameThread.run(GameThread.java:146)
[2018-07-19 11:24:38] java.lang.NullPointerException
[2018-07-19 11:24:38] 	at com.mayhem.rs2.content.combat.formula.RangeFormulas.getRangedMaxHit(RangeFormulas.java:226)
[2018-07-19 11:24:38] 	at com.mayhem.rs2.entity.player.net.in.impl.ClickButtonPacket.handle(ClickButtonPacket.java:379)
[2018-07-19 11:24:38] 	at com.mayhem.rs2.entity.player.net.in.PacketHandler.handlePacket(PacketHandler.java:149)
[2018-07-19 11:24:38] 	at com.mayhem.rs2.entity.player.net.Client.processIncomingPackets(Client.java:211)
[2018-07-19 11:24:38] 	at com.mayhem.rs2.entity.World.process(World.java:323)
[2018-07-19 11:24:38] 	at com.mayhem.core.GameThread.cycle(GameThread.java:131)
[2018-07-19 11:24:38] 	at com.mayhem.core.GameThread.run(GameThread.java:146)
[2018-07-19 11:24:43] java.lang.NullPointerException
[2018-07-19 11:24:43] 	at com.mayhem.rs2.content.combat.formula.RangeFormulas.getRangedMaxHit(RangeFormulas.java:226)
[2018-07-19 11:24:43] 	at com.mayhem.rs2.entity.player.net.in.impl.ClickButtonPacket.handle(ClickButtonPacket.java:379)
[2018-07-19 11:24:43] 	at com.mayhem.rs2.entity.player.net.in.PacketHandler.handlePacket(PacketHandler.java:149)
[2018-07-19 11:24:43] 	at com.mayhem.rs2.entity.player.net.Client.processIncomingPackets(Client.java:211)
[2018-07-19 11:24:43] 	at com.mayhem.rs2.entity.World.process(World.java:323)
[2018-07-19 11:24:43] 	at com.mayhem.core.GameThread.cycle(GameThread.java:131)
[2018-07-19 11:24:43] 	at com.mayhem.core.GameThread.run(GameThread.java:146)
[2018-07-19 11:24:44] java.lang.NullPointerException
[2018-07-19 11:24:44] 	at com.mayhem.rs2.content.combat.formula.RangeFormulas.getRangedMaxHit(RangeFormulas.java:226)
[2018-07-19 11:24:44] 	at com.mayhem.rs2.entity.player.net.in.impl.ClickButtonPacket.handle(ClickButtonPacket.java:379)
[2018-07-19 11:24:44] 	at com.mayhem.rs2.entity.player.net.in.PacketHandler.handlePacket(PacketHandler.java:149)
[2018-07-19 11:24:44] 	at com.mayhem.rs2.entity.player.net.Client.processIncomingPackets(Client.java:211)
[2018-07-19 11:24:44] 	at com.mayhem.rs2.entity.World.process(World.java:323)
[2018-07-19 11:24:44] 	at com.mayhem.core.GameThread.cycle(GameThread.java:131)
[2018-07-19 11:24:44] 	at com.mayhem.core.GameThread.run(GameThread.java:146)
[2018-07-19 11:24:46] java.lang.NullPointerException
[2018-07-19 11:24:46] 	at com.mayhem.rs2.content.combat.formula.RangeFormulas.getRangedMaxHit(RangeFormulas.java:226)
[2018-07-19 11:24:46] 	at com.mayhem.rs2.entity.player.net.in.impl.ClickButtonPacket.handle(ClickButtonPacket.java:379)
[2018-07-19 11:24:46] 	at com.mayhem.rs2.entity.player.net.in.PacketHandler.handlePacket(PacketHandler.java:149)
[2018-07-19 11:24:46] 	at com.mayhem.rs2.entity.player.net.Client.processIncomingPackets(Client.java:211)
[2018-07-19 11:24:46] 	at com.mayhem.rs2.entity.World.process(World.java:323)
[2018-07-19 11:24:46] 	at com.mayhem.core.GameThread.cycle(GameThread.java:131)
[2018-07-19 11:24:46] 	at com.mayhem.core.GameThread.run(GameThread.java:146)
[2018-07-19 11:24:46] java.lang.NullPointerException
[2018-07-19 11:24:46] 	at com.mayhem.rs2.content.combat.formula.RangeFormulas.getRangedMaxHit(RangeFormulas.java:226)
[2018-07-19 11:24:46] 	at com.mayhem.rs2.entity.player.net.in.impl.ClickButtonPacket.handle(ClickButtonPacket.java:379)
[2018-07-19 11:24:46] 	at com.mayhem.rs2.entity.player.net.in.PacketHandler.handlePacket(PacketHandler.java:149)
[2018-07-19 11:24:46] 	at com.mayhem.rs2.entity.player.net.Client.processIncomingPackets(Client.java:211)
[2018-07-19 11:24:46] 	at com.mayhem.rs2.entity.World.process(World.java:323)
[2018-07-19 11:24:46] 	at com.mayhem.core.GameThread.cycle(GameThread.java:131)
[2018-07-19 11:24:46] 	at com.mayhem.core.GameThread.run(GameThread.java:146)
[2018-07-19 11:24:47] java.lang.NullPointerException
[2018-07-19 11:24:47] 	at com.mayhem.rs2.content.combat.formula.RangeFormulas.getRangedMaxHit(RangeFormulas.java:226)
[2018-07-19 11:24:47] 	at com.mayhem.rs2.entity.player.net.in.impl.ClickButtonPacket.handle(ClickButtonPacket.java:379)
[2018-07-19 11:24:47] 	at com.mayhem.rs2.entity.player.net.in.PacketHandler.handlePacket(PacketHandler.java:149)
[2018-07-19 11:24:47] 	at com.mayhem.rs2.entity.player.net.Client.processIncomingPackets(Client.java:211)
[2018-07-19 11:24:47] 	at com.mayhem.rs2.entity.World.process(World.java:323)
[2018-07-19 11:24:47] 	at com.mayhem.core.GameThread.cycle(GameThread.java:131)
[2018-07-19 11:24:47] 	at com.mayhem.core.GameThread.run(GameThread.java:146)
[2018-07-19 11:24:47] java.lang.NullPointerException
[2018-07-19 11:24:47] 	at com.mayhem.rs2.content.combat.formula.RangeFormulas.getRangedMaxHit(RangeFormulas.java:226)
[2018-07-19 11:24:47] 	at com.mayhem.rs2.entity.player.net.in.impl.ClickButtonPacket.handle(ClickButtonPacket.java:379)
[2018-07-19 11:24:47] 	at com.mayhem.rs2.entity.player.net.in.PacketHandler.handlePacket(PacketHandler.java:149)
[2018-07-19 11:24:47] 	at com.mayhem.rs2.entity.player.net.Client.processIncomingPackets(Client.java:211)
[2018-07-19 11:24:47] 	at com.mayhem.rs2.entity.World.process(World.java:323)
[2018-07-19 11:24:47] 	at com.mayhem.core.GameThread.cycle(GameThread.java:131)
[2018-07-19 11:24:47] 	at com.mayhem.core.GameThread.run(GameThread.java:146)
[2018-07-19 11:25:04] java.lang.NullPointerException
[2018-07-19 11:25:04] 	at com.mayhem.rs2.content.combat.formula.RangeFormulas.getRangedMaxHit(RangeFormulas.java:226)
[2018-07-19 11:25:04] 	at com.mayhem.rs2.entity.player.net.in.impl.ClickButtonPacket.handle(ClickButtonPacket.java:379)
[2018-07-19 11:25:04] 	at com.mayhem.rs2.entity.player.net.in.PacketHandler.handlePacket(PacketHandler.java:149)
[2018-07-19 11:25:04] 	at com.mayhem.rs2.entity.player.net.Client.processIncomingPackets(Client.java:211)
[2018-07-19 11:25:04] 	at com.mayhem.rs2.entity.World.process(World.java:323)
[2018-07-19 11:25:04] 	at com.mayhem.core.GameThread.cycle(GameThread.java:131)
[2018-07-19 11:25:04] 	at com.mayhem.core.GameThread.run(GameThread.java:146)
[2018-07-19 11:25:05] java.lang.NullPointerException
[2018-07-19 11:25:05] 	at com.mayhem.rs2.content.combat.formula.RangeFormulas.getRangedMaxHit(RangeFormulas.java:226)
[2018-07-19 11:25:05] 	at com.mayhem.rs2.entity.player.net.in.impl.ClickButtonPacket.handle(ClickButtonPacket.java:379)
[2018-07-19 11:25:05] 	at com.mayhem.rs2.entity.player.net.in.PacketHandler.handlePacket(PacketHandler.java:149)
[2018-07-19 11:25:05] 	at com.mayhem.rs2.entity.player.net.Client.processIncomingPackets(Client.java:211)
[2018-07-19 11:25:05] 	at com.mayhem.rs2.entity.World.process(World.java:323)
[2018-07-19 11:25:05] 	at com.mayhem.core.GameThread.cycle(GameThread.java:131)
[2018-07-19 11:25:05] 	at com.mayhem.core.GameThread.run(GameThread.java:146)
[2018-07-19 11:25:05] java.lang.NullPointerException
[2018-07-19 11:25:05] 	at com.mayhem.rs2.content.combat.formula.RangeFormulas.getRangedMaxHit(RangeFormulas.java:226)
[2018-07-19 11:25:05] 	at com.mayhem.rs2.entity.player.net.in.impl.ClickButtonPacket.handle(ClickButtonPacket.java:379)
[2018-07-19 11:25:05] 	at com.mayhem.rs2.entity.player.net.in.PacketHandler.handlePacket(PacketHandler.java:149)
[2018-07-19 11:25:05] 	at com.mayhem.rs2.entity.player.net.Client.processIncomingPackets(Client.java:211)
[2018-07-19 11:25:05] 	at com.mayhem.rs2.entity.World.process(World.java:323)
[2018-07-19 11:25:05] 	at com.mayhem.core.GameThread.cycle(GameThread.java:131)
[2018-07-19 11:25:05] 	at com.mayhem.core.GameThread.run(GameThread.java:146)
[2018-07-19 11:25:06] java.lang.NullPointerException
[2018-07-19 11:25:06] 	at com.mayhem.rs2.content.combat.formula.RangeFormulas.getRangedMaxHit(RangeFormulas.java:226)
[2018-07-19 11:25:06] 	at com.mayhem.rs2.entity.player.net.in.impl.ClickButtonPacket.handle(ClickButtonPacket.java:379)
[2018-07-19 11:25:06] 	at com.mayhem.rs2.entity.player.net.in.PacketHandler.handlePacket(PacketHandler.java:149)
[2018-07-19 11:25:06] 	at com.mayhem.rs2.entity.player.net.Client.processIncomingPackets(Client.java:211)
[2018-07-19 11:25:06] 	at com.mayhem.rs2.entity.World.process(World.java:323)
[2018-07-19 11:25:06] 	at com.mayhem.core.GameThread.cycle(GameThread.java:131)
[2018-07-19 11:25:06] 	at com.mayhem.core.GameThread.run(GameThread.java:146)
[2018-07-19 11:25:06] java.lang.NullPointerException
[2018-07-19 11:25:06] 	at com.mayhem.rs2.content.combat.formula.RangeFormulas.getRangedMaxHit(RangeFormulas.java:226)
[2018-07-19 11:25:06] 	at com.mayhem.rs2.entity.player.net.in.impl.ClickButtonPacket.handle(ClickButtonPacket.java:379)
[2018-07-19 11:25:06] 	at com.mayhem.rs2.entity.player.net.in.PacketHandler.handlePacket(PacketHandler.java:149)
[2018-07-19 11:25:06] 	at com.mayhem.rs2.entity.player.net.Client.processIncomingPackets(Client.java:211)
[2018-07-19 11:25:06] 	at com.mayhem.rs2.entity.World.process(World.java:323)
[2018-07-19 11:25:06] 	at com.mayhem.core.GameThread.cycle(GameThread.java:131)
[2018-07-19 11:25:06] 	at com.mayhem.core.GameThread.run(GameThread.java:146)
[2018-07-19 11:25:06] java.lang.NullPointerException
[2018-07-19 11:25:06] 	at com.mayhem.rs2.content.combat.formula.RangeFormulas.getRangedMaxHit(RangeFormulas.java:226)
[2018-07-19 11:25:06] 	at com.mayhem.rs2.entity.player.net.in.impl.ClickButtonPacket.handle(ClickButtonPacket.java:379)
[2018-07-19 11:25:06] 	at com.mayhem.rs2.entity.player.net.in.PacketHandler.handlePacket(PacketHandler.java:149)
[2018-07-19 11:25:06] 	at com.mayhem.rs2.entity.player.net.Client.processIncomingPackets(Client.java:211)
[2018-07-19 11:25:06] 	at com.mayhem.rs2.entity.World.process(World.java:323)
[2018-07-19 11:25:06] 	at com.mayhem.core.GameThread.cycle(GameThread.java:131)
[2018-07-19 11:25:06] 	at com.mayhem.core.GameThread.run(GameThread.java:146)
[2018-07-19 11:25:06] java.lang.NullPointerException
[2018-07-19 11:25:06] 	at com.mayhem.rs2.content.combat.formula.RangeFormulas.getRangedMaxHit(RangeFormulas.java:226)
[2018-07-19 11:25:06] 	at com.mayhem.rs2.entity.player.net.in.impl.ClickButtonPacket.handle(ClickButtonPacket.java:379)
[2018-07-19 11:25:06] 	at com.mayhem.rs2.entity.player.net.in.PacketHandler.handlePacket(PacketHandler.java:149)
[2018-07-19 11:25:06] 	at com.mayhem.rs2.entity.player.net.Client.processIncomingPackets(Client.java:211)
[2018-07-19 11:25:06] 	at com.mayhem.rs2.entity.World.process(World.java:323)
[2018-07-19 11:25:06] 	at com.mayhem.core.GameThread.cycle(GameThread.java:131)
[2018-07-19 11:25:06] 	at com.mayhem.core.GameThread.run(GameThread.java:146)
[2018-07-19 12:04:19] java.lang.ArrayIndexOutOfBoundsException: 64
[2018-07-19 12:04:19] 	at com.mayhem.core.util.Utility.textUnpack(Utility.java:722)
[2018-07-19 12:04:19] 	at com.mayhem.rs2.entity.ReportHandler.addText(ReportHandler.java:28)
[2018-07-19 12:04:19] 	at com.mayhem.rs2.entity.player.net.in.impl.PublicChatPacket.handle(PublicChatPacket.java:61)
[2018-07-19 12:04:19] 	at com.mayhem.rs2.entity.player.net.in.PacketHandler.handlePacket(PacketHandler.java:149)
[2018-07-19 12:04:19] 	at com.mayhem.rs2.entity.player.net.Client.processIncomingPackets(Client.java:211)
[2018-07-19 12:04:19] 	at com.mayhem.rs2.entity.World.process(World.java:323)
[2018-07-19 12:04:19] 	at com.mayhem.core.GameThread.cycle(GameThread.java:131)
[2018-07-19 12:04:19] 	at com.mayhem.core.GameThread.run(GameThread.java:146)
[2018-07-19 12:10:16] java.lang.ArrayIndexOutOfBoundsException: 64
[2018-07-19 12:10:16] 	at com.mayhem.core.util.Utility.textUnpack(Utility.java:722)
[2018-07-19 12:10:16] 	at com.mayhem.rs2.entity.ReportHandler.addText(ReportHandler.java:28)
[2018-07-19 12:10:16] 	at com.mayhem.rs2.entity.player.net.in.impl.PublicChatPacket.handle(PublicChatPacket.java:61)
[2018-07-19 12:10:16] 	at com.mayhem.rs2.entity.player.net.in.PacketHandler.handlePacket(PacketHandler.java:149)
[2018-07-19 12:10:16] 	at com.mayhem.rs2.entity.player.net.Client.processIncomingPackets(Client.java:211)
[2018-07-19 12:10:16] 	at com.mayhem.rs2.entity.World.process(World.java:323)
[2018-07-19 12:10:16] 	at com.mayhem.core.GameThread.cycle(GameThread.java:131)
[2018-07-19 12:10:16] 	at com.mayhem.core.GameThread.run(GameThread.java:146)
[2018-07-19 12:11:32] java.lang.ArrayIndexOutOfBoundsException: 64
[2018-07-19 12:11:32] 	at com.mayhem.core.util.Utility.textUnpack(Utility.java:722)
[2018-07-19 12:11:32] 	at com.mayhem.rs2.entity.ReportHandler.addText(ReportHandler.java:28)
[2018-07-19 12:11:32] 	at com.mayhem.rs2.entity.player.net.in.impl.PublicChatPacket.handle(PublicChatPacket.java:61)
[2018-07-19 12:11:32] 	at com.mayhem.rs2.entity.player.net.in.PacketHandler.handlePacket(PacketHandler.java:149)
[2018-07-19 12:11:32] 	at com.mayhem.rs2.entity.player.net.Client.processIncomingPackets(Client.java:211)
[2018-07-19 12:11:32] 	at com.mayhem.rs2.entity.World.process(World.java:323)
[2018-07-19 12:11:32] 	at com.mayhem.core.GameThread.cycle(GameThread.java:131)
[2018-07-19 12:11:32] 	at com.mayhem.core.GameThread.run(GameThread.java:146)
[2018-07-19 12:12:24] java.lang.ArrayIndexOutOfBoundsException: 64
[2018-07-19 12:12:24] 	at com.mayhem.core.util.Utility.textUnpack(Utility.java:722)
[2018-07-19 12:12:24] 	at com.mayhem.rs2.entity.ReportHandler.addText(ReportHandler.java:28)
[2018-07-19 12:12:24] 	at com.mayhem.rs2.entity.player.net.in.impl.PublicChatPacket.handle(PublicChatPacket.java:61)
[2018-07-19 12:12:24] 	at com.mayhem.rs2.entity.player.net.in.PacketHandler.handlePacket(PacketHandler.java:149)
[2018-07-19 12:12:24] 	at com.mayhem.rs2.entity.player.net.Client.processIncomingPackets(Client.java:211)
[2018-07-19 12:12:24] 	at com.mayhem.rs2.entity.World.process(World.java:323)
[2018-07-19 12:12:24] 	at com.mayhem.core.GameThread.cycle(GameThread.java:131)
[2018-07-19 12:12:24] 	at com.mayhem.core.GameThread.run(GameThread.java:146)
[2018-07-19 12:13:06] java.lang.ArrayIndexOutOfBoundsException: 64
[2018-07-19 12:13:06] 	at com.mayhem.core.util.Utility.textUnpack(Utility.java:722)
[2018-07-19 12:13:06] 	at com.mayhem.rs2.entity.ReportHandler.addText(ReportHandler.java:28)
[2018-07-19 12:13:06] 	at com.mayhem.rs2.entity.player.net.in.impl.PublicChatPacket.handle(PublicChatPacket.java:61)
[2018-07-19 12:13:06] 	at com.mayhem.rs2.entity.player.net.in.PacketHandler.handlePacket(PacketHandler.java:149)
[2018-07-19 12:13:06] 	at com.mayhem.rs2.entity.player.net.Client.processIncomingPackets(Client.java:211)
[2018-07-19 12:13:06] 	at com.mayhem.rs2.entity.World.process(World.java:323)
[2018-07-19 12:13:06] 	at com.mayhem.core.GameThread.cycle(GameThread.java:131)
[2018-07-19 12:13:06] 	at com.mayhem.core.GameThread.run(GameThread.java:146)
[2018-07-19 12:13:23] java.lang.ArrayIndexOutOfBoundsException: 64
[2018-07-19 12:13:23] 	at com.mayhem.core.util.Utility.textUnpack(Utility.java:722)
[2018-07-19 12:13:23] 	at com.mayhem.rs2.entity.ReportHandler.addText(ReportHandler.java:28)
[2018-07-19 12:13:23] 	at com.mayhem.rs2.entity.player.net.in.impl.PublicChatPacket.handle(PublicChatPacket.java:61)
[2018-07-19 12:13:23] 	at com.mayhem.rs2.entity.player.net.in.PacketHandler.handlePacket(PacketHandler.java:149)
[2018-07-19 12:13:23] 	at com.mayhem.rs2.entity.player.net.Client.processIncomingPackets(Client.java:211)
[2018-07-19 12:13:23] 	at com.mayhem.rs2.entity.World.process(World.java:323)
[2018-07-19 12:13:23] 	at com.mayhem.core.GameThread.cycle(GameThread.java:131)
[2018-07-19 12:13:23] 	at com.mayhem.core.GameThread.run(GameThread.java:146)
[2018-07-19 12:14:50] java.lang.ArrayIndexOutOfBoundsException: 64
[2018-07-19 12:14:50] 	at com.mayhem.core.util.Utility.textUnpack(Utility.java:722)
[2018-07-19 12:14:51] 	at com.mayhem.rs2.entity.ReportHandler.addText(ReportHandler.java:28)
[2018-07-19 12:14:51] 	at com.mayhem.rs2.entity.player.net.in.impl.PublicChatPacket.handle(PublicChatPacket.java:61)
[2018-07-19 12:14:51] 	at com.mayhem.rs2.entity.player.net.in.PacketHandler.handlePacket(PacketHandler.java:149)
[2018-07-19 12:14:51] 	at com.mayhem.rs2.entity.player.net.Client.processIncomingPackets(Client.java:211)
[2018-07-19 12:14:51] 	at com.mayhem.rs2.entity.World.process(World.java:323)
[2018-07-19 12:14:51] 	at com.mayhem.core.GameThread.cycle(GameThread.java:131)
[2018-07-19 12:14:51] 	at com.mayhem.core.GameThread.run(GameThread.java:146)
[2018-07-19 12:28:04] java.lang.ArrayIndexOutOfBoundsException: 64
[2018-07-19 12:28:04] 	at com.mayhem.core.util.Utility.textUnpack(Utility.java:722)
[2018-07-19 12:28:04] 	at com.mayhem.rs2.entity.ReportHandler.addText(ReportHandler.java:28)
[2018-07-19 12:28:04] 	at com.mayhem.rs2.entity.player.net.in.impl.PublicChatPacket.handle(PublicChatPacket.java:61)
[2018-07-19 12:28:04] 	at com.mayhem.rs2.entity.player.net.in.PacketHandler.handlePacket(PacketHandler.java:149)
[2018-07-19 12:28:04] 	at com.mayhem.rs2.entity.player.net.Client.processIncomingPackets(Client.java:211)
[2018-07-19 12:28:04] 	at com.mayhem.rs2.entity.World.process(World.java:323)
[2018-07-19 12:28:04] 	at com.mayhem.core.GameThread.cycle(GameThread.java:131)
[2018-07-19 12:28:04] 	at com.mayhem.core.GameThread.run(GameThread.java:146)
[2018-07-19 12:30:17] java.lang.ArrayIndexOutOfBoundsException: 170
[2018-07-19 12:30:17] 	at com.mayhem.rs2.content.bank.Bank.withdraw(Bank.java:348)
[2018-07-19 12:30:17] 	at com.mayhem.rs2.entity.player.net.in.impl.ItemPackets.withdrawBankItem(ItemPackets.java:1419)
[2018-07-19 12:30:17] 	at com.mayhem.rs2.entity.player.net.in.impl.ItemPackets.handle(ItemPackets.java:528)
[2018-07-19 12:30:17] 	at com.mayhem.rs2.entity.player.net.in.PacketHandler.handlePacket(PacketHandler.java:149)
[2018-07-19 12:30:17] 	at com.mayhem.rs2.entity.player.net.Client.processIncomingPackets(Client.java:211)
[2018-07-19 12:30:17] 	at com.mayhem.rs2.entity.World.process(World.java:323)
[2018-07-19 12:30:17] 	at com.mayhem.core.GameThread.cycle(GameThread.java:131)
[2018-07-19 12:30:17] 	at com.mayhem.core.GameThread.run(GameThread.java:146)
[2018-07-19 13:06:43] Didn't save hiscores for Saint plague
[2018-07-19 13:17:19] java.lang.ArrayIndexOutOfBoundsException: 64
[2018-07-19 13:17:19] 	at com.mayhem.core.util.Utility.textUnpack(Utility.java:722)
[2018-07-19 13:17:19] 	at com.mayhem.rs2.entity.ReportHandler.addText(ReportHandler.java:28)
[2018-07-19 13:17:19] 	at com.mayhem.rs2.entity.player.net.in.impl.PublicChatPacket.handle(PublicChatPacket.java:61)
[2018-07-19 13:17:19] 	at com.mayhem.rs2.entity.player.net.in.PacketHandler.handlePacket(PacketHandler.java:149)
[2018-07-19 13:17:19] 	at com.mayhem.rs2.entity.player.net.Client.processIncomingPackets(Client.java:211)
[2018-07-19 13:17:19] 	at com.mayhem.rs2.entity.World.process(World.java:323)
[2018-07-19 13:17:19] 	at com.mayhem.core.GameThread.cycle(GameThread.java:131)
[2018-07-19 13:17:19] 	at com.mayhem.core.GameThread.run(GameThread.java:146)
[2018-07-19 13:40:51] java.lang.StringIndexOutOfBoundsException: String index out of range: 0
[2018-07-19 13:40:51] 	at java.lang.String.charAt(Unknown Source)
[2018-07-19 13:40:51] 	at com.mayhem.core.util.Utility.getAOrAn(Utility.java:345)
[2018-07-19 13:40:51] 	at com.mayhem.rs2.content.minigames.miniraid.Rewards.getRewards(Rewards.java:100)
[2018-07-19 13:40:51] 	at com.mayhem.rs2.content.minigames.miniraid.MiniRaidGame.end(MiniRaidGame.java:109)
[2018-07-19 13:40:51] 	at com.mayhem.rs2.content.minigames.miniraid.MiniRaidGame.process(MiniRaidGame.java:203)
[2018-07-19 13:40:51] 	at com.mayhem.rs2.content.minigames.miniraid.MiniRaid.tick(MiniRaid.java:161)
[2018-07-19 13:40:51] 	at com.mayhem.rs2.entity.World.process(World.java:298)
[2018-07-19 13:40:51] 	at com.mayhem.core.GameThread.cycle(GameThread.java:131)
[2018-07-19 13:40:51] 	at com.mayhem.core.GameThread.run(GameThread.java:146)
[2018-07-19 14:26:03] Didn't save hiscores for Saint plague
[2018-07-19 14:33:11] Didn't save hiscores for Saint plague
[2018-07-19 16:01:06] java.lang.ArrayIndexOutOfBoundsException
[2018-07-19 16:02:43] java.lang.ArrayIndexOutOfBoundsException
[2018-07-19 16:03:45] java.lang.ArrayIndexOutOfBoundsException
[2018-07-19 16:18:40] java.lang.ArrayIndexOutOfBoundsException
[2018-07-19 16:50:32] java.lang.IndexOutOfBoundsException: Index: 9, Size: 4
[2018-07-19 16:50:32] 	at java.util.LinkedList.checkElementIndex(Unknown Source)
[2018-07-19 16:50:32] 	at java.util.LinkedList.get(Unknown Source)
[2018-07-19 16:50:32] 	at com.mayhem.rs2.entity.player.net.in.impl.InterfaceAction.handle(InterfaceAction.java:88)
[2018-07-19 16:50:32] 	at com.mayhem.rs2.entity.player.net.in.PacketHandler.handlePacket(PacketHandler.java:149)
[2018-07-19 16:50:32] 	at com.mayhem.rs2.entity.player.net.Client.processIncomingPackets(Client.java:211)
[2018-07-19 16:50:32] 	at com.mayhem.rs2.entity.World.process(World.java:323)
[2018-07-19 16:50:32] 	at com.mayhem.core.GameThread.cycle(GameThread.java:131)
[2018-07-19 16:50:32] 	at com.mayhem.core.GameThread.run(GameThread.java:146)
[2018-07-19 16:50:32] java.lang.IndexOutOfBoundsException: Index: 9, Size: 4
[2018-07-19 16:50:32] 	at java.util.LinkedList.checkElementIndex(Unknown Source)
[2018-07-19 16:50:32] 	at java.util.LinkedList.get(Unknown Source)
[2018-07-19 16:50:32] 	at com.mayhem.rs2.entity.player.net.in.impl.InterfaceAction.handle(InterfaceAction.java:88)
[2018-07-19 16:50:32] 	at com.mayhem.rs2.entity.player.net.in.PacketHandler.handlePacket(PacketHandler.java:149)
[2018-07-19 16:50:32] 	at com.mayhem.rs2.entity.player.net.Client.processIncomingPackets(Client.java:211)
[2018-07-19 16:50:32] 	at com.mayhem.rs2.entity.World.process(World.java:323)
[2018-07-19 16:50:32] 	at com.mayhem.core.GameThread.cycle(GameThread.java:131)
[2018-07-19 16:50:32] 	at com.mayhem.core.GameThread.run(GameThread.java:146)
[2018-07-19 17:25:12] java.lang.ArrayIndexOutOfBoundsException
[2018-07-19 17:25:29] java.lang.ArrayIndexOutOfBoundsException
[2018-07-19 17:37:44] java.lang.ArrayIndexOutOfBoundsException
[2018-07-19 17:43:11] java.lang.ArrayIndexOutOfBoundsException
[2018-07-19 17:44:56] java.lang.NullPointerException
[2018-07-19 17:44:56] 	at com.mayhem.rs2.content.combat.formula.RangeFormulas.getRangedMaxHit(RangeFormulas.java:226)
[2018-07-19 17:44:56] 	at com.mayhem.rs2.entity.player.net.in.impl.ClickButtonPacket.handle(ClickButtonPacket.java:379)
[2018-07-19 17:44:56] 	at com.mayhem.rs2.entity.player.net.in.PacketHandler.handlePacket(PacketHandler.java:149)
[2018-07-19 17:44:56] 	at com.mayhem.rs2.entity.player.net.Client.processIncomingPackets(Client.java:211)
[2018-07-19 17:44:56] 	at com.mayhem.rs2.entity.World.process(World.java:323)
[2018-07-19 17:44:56] 	at com.mayhem.core.GameThread.cycle(GameThread.java:131)
[2018-07-19 17:44:56] 	at com.mayhem.core.GameThread.run(GameThread.java:146)
[2018-07-19 18:43:07] java.lang.ArrayIndexOutOfBoundsException
[2018-07-19 19:10:43] java.lang.StringIndexOutOfBoundsException: String index out of range: 0
[2018-07-19 19:10:43] 	at java.lang.String.charAt(Unknown Source)
[2018-07-19 19:10:43] 	at com.mayhem.core.util.Utility.getAOrAn(Utility.java:345)
[2018-07-19 19:10:43] 	at com.mayhem.rs2.content.minigames.miniraid.Rewards.getRewards(Rewards.java:100)
[2018-07-19 19:10:43] 	at com.mayhem.rs2.content.minigames.miniraid.MiniRaidGame.end(MiniRaidGame.java:109)
[2018-07-19 19:10:43] 	at com.mayhem.rs2.content.minigames.miniraid.MiniRaidGame.process(MiniRaidGame.java:203)
[2018-07-19 19:10:43] 	at com.mayhem.rs2.content.minigames.miniraid.MiniRaid.tick(MiniRaid.java:161)
[2018-07-19 19:10:43] 	at com.mayhem.rs2.entity.World.process(World.java:298)
[2018-07-19 19:10:43] 	at com.mayhem.core.GameThread.cycle(GameThread.java:131)
[2018-07-19 19:10:43] 	at com.mayhem.core.GameThread.run(GameThread.java:146)
[2018-07-19 19:49:22] java.lang.ArrayIndexOutOfBoundsException
[2018-07-19 20:13:25] java.lang.ArrayIndexOutOfBoundsException
[2018-07-19 20:51:51] java.lang.NumberFormatException: For input string: "10l"
[2018-07-19 20:51:51] 	at java.lang.NumberFormatException.forInputString(Unknown Source)
[2018-07-19 20:51:51] 	at java.lang.Long.parseLong(Unknown Source)
[2018-07-19 20:51:51] 	at java.lang.Long.parseLong(Unknown Source)
[2018-07-19 20:51:51] 	at com.mayhem.rs2.entity.player.net.in.command.impl.PlayerCommand.handleCommand(PlayerCommand.java:261)
[2018-07-19 20:51:51] 	at com.mayhem.rs2.entity.player.net.in.impl.CommandPacket.handle(CommandPacket.java:57)
[2018-07-19 20:51:51] 	at com.mayhem.rs2.entity.player.net.in.PacketHandler.handlePacket(PacketHandler.java:149)
[2018-07-19 20:51:51] 	at com.mayhem.rs2.entity.player.net.Client.processIncomingPackets(Client.java:211)
[2018-07-19 20:51:51] 	at com.mayhem.rs2.entity.World.process(World.java:323)
[2018-07-19 20:51:51] 	at com.mayhem.core.GameThread.cycle(GameThread.java:131)
[2018-07-19 20:51:51] 	at com.mayhem.core.GameThread.run(GameThread.java:146)
[2018-07-19 21:00:10] java.lang.IndexOutOfBoundsException: Readable byte limit exceeded: 12
[2018-07-19 21:00:10] 	at org.jboss.netty.buffer.AbstractChannelBuffer.readByte(AbstractChannelBuffer.java:236)
[2018-07-19 21:00:10] 	at com.mayhem.core.network.StreamBuffer$InBuffer.readByte(StreamBuffer.java:120)
[2018-07-19 21:00:10] 	at com.mayhem.core.network.StreamBuffer$InBuffer.readByte(StreamBuffer.java:107)
[2018-07-19 21:00:10] 	at com.mayhem.core.network.StreamBuffer$InBuffer.readShort(StreamBuffer.java:467)
[2018-07-19 21:00:10] 	at com.mayhem.core.network.StreamBuffer$InBuffer.readShort(StreamBuffer.java:412)
[2018-07-19 21:00:10] 	at com.mayhem.rs2.entity.player.net.in.impl.ItemPackets.handle(ItemPackets.java:851)
[2018-07-19 21:00:10] 	at com.mayhem.rs2.entity.player.net.in.PacketHandler.handlePacket(PacketHandler.java:149)
[2018-07-19 21:00:10] 	at com.mayhem.rs2.entity.player.net.Client.processIncomingPackets(Client.java:211)
[2018-07-19 21:00:10] 	at com.mayhem.rs2.entity.World.process(World.java:323)
[2018-07-19 21:00:10] 	at com.mayhem.core.GameThread.cycle(GameThread.java:131)
[2018-07-19 21:00:10] 	at com.mayhem.core.GameThread.run(GameThread.java:146)
[2018-07-19 21:02:09] java.lang.IndexOutOfBoundsException: Readable byte limit exceeded: 12
[2018-07-19 21:02:09] 	at org.jboss.netty.buffer.AbstractChannelBuffer.readByte(AbstractChannelBuffer.java:236)
[2018-07-19 21:02:09] 	at com.mayhem.core.network.StreamBuffer$InBuffer.readByte(StreamBuffer.java:120)
[2018-07-19 21:02:09] 	at com.mayhem.core.network.StreamBuffer$InBuffer.readByte(StreamBuffer.java:107)
[2018-07-19 21:02:09] 	at com.mayhem.core.network.StreamBuffer$InBuffer.readShort(StreamBuffer.java:467)
[2018-07-19 21:02:09] 	at com.mayhem.core.network.StreamBuffer$InBuffer.readShort(StreamBuffer.java:412)
[2018-07-19 21:02:09] 	at com.mayhem.rs2.entity.player.net.in.impl.ItemPackets.handle(ItemPackets.java:851)
[2018-07-19 21:02:09] 	at com.mayhem.rs2.entity.player.net.in.PacketHandler.handlePacket(PacketHandler.java:149)
[2018-07-19 21:02:09] 	at com.mayhem.rs2.entity.player.net.Client.processIncomingPackets(Client.java:211)
[2018-07-19 21:02:09] 	at com.mayhem.rs2.entity.World.process(World.java:323)
[2018-07-19 21:02:09] 	at com.mayhem.core.GameThread.cycle(GameThread.java:131)
[2018-07-19 21:02:09] 	at com.mayhem.core.GameThread.run(GameThread.java:146)
[2018-07-19 21:38:58] Didn't save hiscores for Saint plague
[2018-07-19 22:46:59] java.lang.IllegalStateException: unprepared
[2018-07-19 22:46:59] 	at com.mayhem.core.network.mysql.MembershipRewards.collectReward(MembershipRewards.java:38)
[2018-07-19 22:46:59] 	at com.mayhem.rs2.content.dialogue.impl.MembershipDialogue.execute(MembershipDialogue.java:70)
[2018-07-19 22:46:59] 	at com.mayhem.rs2.entity.player.net.in.impl.ChatInterfacePacket.handleDialogue(ChatInterfacePacket.java:47)
[2018-07-19 22:46:59] 	at com.mayhem.rs2.entity.player.net.in.impl.ChatInterfacePacket.handle(ChatInterfacePacket.java:33)
[2018-07-19 22:46:59] 	at com.mayhem.rs2.entity.player.net.in.PacketHandler.handlePacket(PacketHandler.java:149)
[2018-07-19 22:46:59] 	at com.mayhem.rs2.entity.player.net.Client.processIncomingPackets(Client.java:211)
[2018-07-19 22:46:59] 	at com.mayhem.rs2.entity.World.process(World.java:323)
[2018-07-19 22:46:59] 	at com.mayhem.core.GameThread.cycle(GameThread.java:131)
[2018-07-19 22:46:59] 	at com.mayhem.core.GameThread.run(GameThread.java:146)
[2018-07-20 00:17:02] Didn't save hiscores for Mod divine
[2018-07-20 00:21:15] java.lang.ArrayIndexOutOfBoundsException
[2018-07-20 01:03:01] Didn't save hiscores for Mod divine
[2018-07-20 01:12:26] java.lang.ArrayIndexOutOfBoundsException: 48
[2018-07-20 01:12:26] 	at com.mayhem.rs2.content.bank.Bank.withdraw(Bank.java:348)
[2018-07-20 01:12:26] 	at com.mayhem.rs2.entity.player.net.in.impl.ItemPackets.withdrawBankItem(ItemPackets.java:1419)
[2018-07-20 01:12:26] 	at com.mayhem.rs2.entity.player.net.in.impl.ItemPackets.handle(ItemPackets.java:528)
[2018-07-20 01:12:26] 	at com.mayhem.rs2.entity.player.net.in.PacketHandler.handlePacket(PacketHandler.java:149)
[2018-07-20 01:12:26] 	at com.mayhem.rs2.entity.player.net.Client.processIncomingPackets(Client.java:211)
[2018-07-20 01:12:26] 	at com.mayhem.rs2.entity.World.process(World.java:323)
[2018-07-20 01:12:26] 	at com.mayhem.core.GameThread.cycle(GameThread.java:131)
[2018-07-20 01:12:26] 	at com.mayhem.core.GameThread.run(GameThread.java:146)
[2018-07-20 01:18:45] Didn't save hiscores for Mod divine
[2018-07-20 01:25:18] java.lang.ArrayIndexOutOfBoundsException
[2018-07-20 02:15:31] java.lang.ArrayIndexOutOfBoundsException
[2018-07-20 03:15:06] java.lang.NullPointerException
[2018-07-20 03:15:06] 	at com.mayhem.rs2.content.combat.formula.RangeFormulas.calculateRangeAttack(RangeFormulas.java:87)
[2018-07-20 03:15:06] 	at com.mayhem.rs2.content.combat.impl.Ranged.execute(Ranged.java:41)
[2018-07-20 03:15:06] 	at com.mayhem.rs2.content.combat.Combat.attack(Combat.java:92)
[2018-07-20 03:15:06] 	at com.mayhem.rs2.content.combat.Combat.process(Combat.java:215)
[2018-07-20 03:15:06] 	at com.mayhem.rs2.entity.player.Player.process(Player.java:1712)
[2018-07-20 03:15:06] 	at com.mayhem.rs2.entity.World.process(World.java:325)
[2018-07-20 03:15:06] 	at com.mayhem.core.GameThread.cycle(GameThread.java:131)
[2018-07-20 03:15:06] 	at com.mayhem.core.GameThread.run(GameThread.java:146)
[2018-07-20 03:15:06] java.lang.NullPointerException
[2018-07-20 03:45:06] java.lang.ArrayIndexOutOfBoundsException: 9998
[2018-07-20 03:45:06] 	at com.mayhem.rs2.entity.player.net.in.command.impl.AdministratorCommand.handleCommand(AdministratorCommand.java:122)
[2018-07-20 03:45:06] 	at com.mayhem.rs2.entity.player.net.in.impl.CommandPacket.handle(CommandPacket.java:57)
[2018-07-20 03:45:06] 	at com.mayhem.rs2.entity.player.net.in.PacketHandler.handlePacket(PacketHandler.java:149)
[2018-07-20 03:45:06] 	at com.mayhem.rs2.entity.player.net.Client.processIncomingPackets(Client.java:211)
[2018-07-20 03:45:06] 	at com.mayhem.rs2.entity.World.process(World.java:323)
[2018-07-20 03:45:06] 	at com.mayhem.core.GameThread.cycle(GameThread.java:131)
[2018-07-20 03:45:06] 	at com.mayhem.core.GameThread.run(GameThread.java:146)
[2018-07-20 03:45:14] Didn't save hiscores for Mod divine
