Logging started at 2018-07-20 04:18:31
File name: C:\Users\travi\Dropbox\Valius\Valius Source\.\data\logs\err\1532074711219 - travi - [Fri Jul 20][4.18AM].txt
System.getProperty("os.name"): "Windows 10"

