Logging started at 2018-07-21 04:57:09
File name: C:\Users\travi\Dropbox\Valius\Valius Source\.\data\logs\err\1532163428884 - travi - [Sat Jul 21][4.57AM].txt
System.getProperty("os.name"): "Windows 10"

[2018-07-21 05:10:14] java.lang.ArrayIndexOutOfBoundsException: 9998
[2018-07-21 05:10:14] 	at com.mayhem.rs2.entity.player.net.in.command.impl.AdministratorCommand.handleCommand(AdministratorCommand.java:122)
[2018-07-21 05:10:14] 	at com.mayhem.rs2.entity.player.net.in.impl.CommandPacket.handle(CommandPacket.java:57)
[2018-07-21 05:10:14] 	at com.mayhem.rs2.entity.player.net.in.PacketHandler.handlePacket(PacketHandler.java:149)
[2018-07-21 05:10:14] 	at com.mayhem.rs2.entity.player.net.Client.processIncomingPackets(Client.java:211)
[2018-07-21 05:10:14] 	at com.mayhem.rs2.entity.World.process(World.java:323)
[2018-07-21 05:10:14] 	at com.mayhem.core.GameThread.cycle(GameThread.java:131)
[2018-07-21 05:10:15] 	at com.mayhem.core.GameThread.run(GameThread.java:146)
