Logging started at 2018-08-08 04:23:24
File name: C:\Users\travi\Dropbox\Valius\Valius Source\.\data\logs\err\1533716603803 - travi - [Wed Aug 8][4.23AM].txt
System.getProperty("os.name"): "Windows 10"

