Logging started at 2018-08-10 01:38:58
File name: C:\Users\Administrator\Dropbox\Valius\Valius Source\.\data\logs\err\1533890338427 - Administrator - [Fri Aug 10][1.38AM].txt
System.getProperty("os.name"): "Windows Server 2016"

