Logging started at 2018-07-30 23:53:11
File name: C:\Users\Administrator\Dropbox\Valius\Valius Source\.\data\logs\err\1533019990918 - Administrator - [Mon Jul 30][11.53PM].txt
System.getProperty("os.name"): "Windows Server 2016"

