Logging started at 2018-08-05 05:55:12
File name: C:\Users\travi\Dropbox\Valius\Valius Source\.\data\logs\err\1533462912051 - travi - [Sun Aug 5][5.55AM].txt
System.getProperty("os.name"): "Windows 10"

