
---2017/03/25 01:12:05---
Chaos Knight has won 1 vesta's platebody from Oops.

---2017/03/25 01:12:05---
Chaos Knight has won 1 Vesta's chainskirt from Oops.

---2017/03/25 01:12:05---
Chaos Knight has won 1 Bronze Partyhat from Oops.
