
---2017/03/18 23:00:19---
Good Rng has won 5000000 Coins from Vape.

---2017/03/18 23:03:37---
Good Rng has won 2500000 Coins from Vape.

---2017/04/09 13:22:54---
Good Rng has won 1000000 Coins from Dishonest.

---2017/04/09 13:36:07---
Good Rng has won 7000000 Coins from Dishonest.

---2017/04/09 13:37:50---
Good Rng has won 22000000 Coins from Dishonest.

---2017/04/22 17:30:36---
Good Rng has won 1 Serpentine helm from Spongebob.

---2017/04/22 17:32:38---
Good Rng has won 1 Serpentine helm from Spongebob.
