
---2017/03/21 20:51:03---
Spongebob has won 1 Clue scroll (elite) from Imextremefam.

---2017/03/27 18:07:51---
Spongebob has won 20 Castle wars ticket from Nub.

---2017/03/27 18:08:42---
Spongebob has won 40 Castle wars ticket from Nub.

---2017/03/27 18:09:28---
Spongebob has won 29 Castle wars ticket from Nub.

---2017/03/29 16:47:38---
Spongebob has won 5000000 Coins from Nub.

---2017/03/29 16:48:19---
Spongebob has won 5000000 Coins from Nub.

---2017/04/05 17:56:00---
Spongebob has won 120000000 Coins from Bink.

---2017/04/05 17:56:52---
Spongebob has won 1 Serpentine helm from Bink.

---2017/04/05 17:56:52---
Spongebob has won 1 Primordial boots from Bink.

---2017/04/05 17:56:52---
Spongebob has won 1 Twisted buckler from Bink.

---2017/04/05 17:59:56---
Spongebob has won 2 Bandos chestplate from Bink.

---2017/04/05 17:59:56---
Spongebob has won 1 Bandos tassets from Bink.

---2017/04/05 18:02:10---
Spongebob has won 1 Statius platebody from Bink.

---2017/04/05 18:02:10---
Spongebob has won 2 Statius platelegs from Bink.

---2017/04/05 18:02:10---
Spongebob has won 1 Statius fullhelm from Bink.

---2017/04/05 18:02:10---
Spongebob has won 1 Vesta's chainskirt from Bink.

---2017/04/05 18:10:53---
Spongebob has won 1 3rd age longsword from Bink.

---2017/04/05 18:15:14---
Spongebob has won 2 Armadyl chestplate from Bink.

---2017/04/05 18:15:14---
Spongebob has won 1 Abyssal tentacle from Bink.

---2017/04/05 18:15:14---
Spongebob has won 1 Heavy frame from Bink.

---2017/04/05 18:15:14---
Spongebob has won 1 Vesta's longsword from Bink.

---2017/04/05 18:15:14---
Spongebob has won 3 3rd age range top from Bink.

---2017/04/05 18:15:14---
Spongebob has won 1 3rd age range legs from Bink.

---2017/04/05 18:28:27---
Spongebob has won 1 Dragon pickaxe from Bink.

---2017/04/05 18:28:27---
Spongebob has won 1 Robin hood hat from Bink.

---2017/04/05 18:36:33---
Spongebob has won 55000000 Coins from Bink.

---2017/04/05 18:45:53---
Spongebob has won 1 Frozen whip mix from Bink.

---2017/04/05 18:45:53---
Spongebob has won 2 Volcanic whip mix from Bink.

---2017/04/05 18:45:53---
Spongebob has won 1 Dragon warhammer from Bink.

---2017/04/05 18:45:53---
Spongebob has won 1 Uncut onyx from Bink.

---2017/04/05 18:45:53---
Spongebob has won 2 Pegasian crystal from Bink.

---2017/04/05 18:45:53---
Spongebob has won 1 Ring of wealth (i) from Bink.

---2017/04/05 18:45:53---
Spongebob has won 1 Zamorakian hasta from Bink.

---2017/04/05 18:45:53---
Spongebob has won 1 Dragonfire shield from Bink.

---2017/04/05 18:45:53---
Spongebob has won 1 Eternal boots from Bink.

---2017/04/05 18:45:53---
Spongebob has won 3 Challenge scroll (medium) from Bink.

---2017/04/05 18:45:53---
Spongebob has won 1 Gilded platebody from Bink.

---2017/04/05 18:45:53---
Spongebob has won 1 Gilded platelegs from Bink.

---2017/04/05 18:45:53---
Spongebob has won 1 Bandos godsword from Bink.

---2017/04/05 18:45:53---
Spongebob has won 1 Gilded plateskirt from Bink.

---2017/04/05 18:47:51---
Spongebob has won 100000000 Coins from Toodenchh.

---2017/04/05 18:52:06---
Spongebob has won 20000000 Coins from Toodenchh.

---2017/04/16 20:15:35---
Spongebob has won 20000000 Coins from Andyy.

---2017/04/19 12:17:15---
Spongebob has won 100000000 Coins from Loot.

---2017/04/19 12:17:15---
Spongebob has won 1 Toxic blowpipe from Loot.

---2017/04/19 12:20:10---
Spongebob has won 1 Statius platebody from Loot.

---2017/04/19 12:20:10---
Spongebob has won 240000000 Coins from Loot.

---2017/04/19 14:21:03---
Spongebob has won 900000 Blood money from Loot.

---2017/04/19 14:21:03---
Spongebob has won 1 Necklace of anguish from Loot.

---2017/04/19 14:21:03---
Spongebob has won 1 Ring of suffering from Loot.

---2017/04/19 14:21:03---
Spongebob has won 1 Toxic blowpipe from Loot.

---2017/04/22 17:27:51---
Spongebob has won 40000000 Coins from Good Rng.

---2017/04/22 17:31:42---
Spongebob has won 1 Serpentine helm from Good Rng.

---2017/04/22 17:33:30---
Spongebob has won 1 Statius platebody from Good Rng.

---2017/04/22 17:33:30---
Spongebob has won 2 Serpentine helm from Good Rng.

---2017/04/22 17:33:30---
Spongebob has won 1 Armadyl chestplate from Good Rng.

---2017/04/23 18:00:04---
Spongebob has won 5000000 Coins from Pasap.

---2017/04/23 18:03:24---
Spongebob has won 16000000 Coins from Pasap.

---2017/04/23 18:04:31---
Spongebob has won 1 Armadyl godsword from Pasap.

---2017/04/23 21:04:11---
Spongebob has won 200000000 Coins from Verlossing.

---2017/04/23 21:04:11---
Spongebob has won 4 Twisted bow from Verlossing.

---2017/04/23 21:04:11---
Spongebob has won 1 Toxic blowpipe from Verlossing.

---2017/04/23 21:07:35---
Spongebob has won 300000000 Coins from Verlossing.

---2017/04/23 21:07:35---
Spongebob has won 2 Armadyl godsword from Verlossing.

---2017/04/23 21:08:39---
Spongebob has won 60000000 Coins from Verlossing.

---2017/04/23 21:08:39---
Spongebob has won 1 Twisted bow from Verlossing.

---2017/04/23 21:08:39---
Spongebob has won 4 Armadyl crossbow from Verlossing.

---2017/04/23 21:08:39---
Spongebob has won 6 Armadyl godsword from Verlossing.

---2017/04/23 21:08:39---
Spongebob has won 600726 Blood money from Verlossing.

---2017/04/23 21:14:28---
Spongebob has won 1 3rd age robe top from Verlossing.

---2017/04/23 21:14:28---
Spongebob has won 251110165 Coins from Verlossing.

---2017/04/23 21:14:28---
Spongebob has won 1 3rd age robe from Verlossing.

---2017/04/23 21:14:28---
Spongebob has won 2 Divine spirit shield from Verlossing.

---2017/04/23 21:14:28---
Spongebob has won 1 Bone club from Verlossing.

---2017/04/23 21:14:28---
Spongebob has won 1 Bone club from Verlossing.

---2017/04/23 21:14:28---
Spongebob has won 1 Kodai wand from Verlossing.

---2017/04/23 22:23:58---
Spongebob has won 2 Master wand from Dhar.

---2017/04/23 22:23:58---
Spongebob has won 1 Clue scroll (elite) from Dhar.

---2017/04/23 22:23:58---
Spongebob has won 1 Casket (medium) from Dhar.

---2017/04/23 22:23:58---
Spongebob has won 1 Ballista limbs from Dhar.

---2017/04/23 22:23:58---
Spongebob has won 1 Clue scroll (elite) from Dhar.

---2017/04/23 22:23:58---
Spongebob has won 1 Dharok's helm from Dhar.

---2017/04/23 22:23:58---
Spongebob has won 1 Dharok's greataxe from Dhar.

---2017/04/23 22:23:58---
Spongebob has won 1 Dharok's platebody from Dhar.

---2017/04/23 22:23:58---
Spongebob has won 1 Dharok's platelegs from Dhar.

---2017/04/23 22:23:58---
Spongebob has won 2 Guthan's warspear 0 from Dhar.

---2017/04/23 22:23:58---
Spongebob has won 1 Dharok's helm 0 from Dhar.

---2017/04/23 22:23:58---
Spongebob has won 1 Guthan's warspear from Dhar.

---2017/04/23 22:23:58---
Spongebob has won 2 Guthan's platebody from Dhar.

---2017/04/26 17:04:03---
Spongebob has won 2 Black mask from Daggx.

---2017/04/26 18:24:50---
Spongebob has won 1 Statius platelegs from Daggx.

---2017/04/26 18:28:07---
Spongebob has won 2 Statius platelegs from Daggx.

---2017/04/26 18:30:05---
Spongebob has won 1 Black mask from Daggx.

---2017/04/26 18:31:53---
Spongebob has won 1 Black mask from Daggx.

---2017/04/26 18:34:36---
Spongebob has won 14000223 Coins from Daggx.

---2017/04/26 18:39:41---
Spongebob has won 1 Black mask from Daggx.

---2017/05/02 14:00:52---
Spongebob has won 1 Statius fullhelm from Helz.

---2017/05/02 14:00:52---
Spongebob has won 11244943 Coins from Helz.

---2017/05/02 14:01:42---
Spongebob has won 1 Statius platebody from Helz.

---2017/05/02 14:01:42---
Spongebob has won 1 Statius platelegs from Helz.

---2017/05/02 14:01:42---
Spongebob has won 1 Statius fullhelm from Helz.

---2017/05/02 14:01:42---
Spongebob has won 1 Statius warhammer from Helz.

---2017/05/02 14:02:42---
Spongebob has won 1 Dragon boots from Helz.

---2017/05/02 14:02:42---
Spongebob has won 1 Verac's flail from Helz.

---2017/05/02 14:02:42---
Spongebob has won 1 Verac's plateskirt from Helz.

---2017/05/02 14:02:42---
Spongebob has won 1 Amulet of fury from Helz.

---2017/05/02 14:02:42---
Spongebob has won 120465 Blood money from Helz.

---2017/05/02 14:02:42---
Spongebob has won 1 Torag's platebody from Helz.

---2017/05/02 14:02:42---
Spongebob has won 1 Torag's platelegs from Helz.

---2017/05/02 14:05:18---
Spongebob has won 1 Verac's helm from Helz.

---2017/05/02 14:05:18---
Spongebob has won 1 Verac's flail from Helz.

---2017/05/02 14:05:18---
Spongebob has won 1 Verac's brassard from Helz.

---2017/05/02 14:05:18---
Spongebob has won 1 Verac's plateskirt from Helz.

---2017/05/02 14:05:18---
Spongebob has won 1 Torag's helm from Helz.

---2017/05/02 14:05:18---
Spongebob has won 590 Dragon bones from Helz.

---2017/05/02 14:05:18---
Spongebob has won 1 3rd age axe from Helz.

---2017/05/02 14:05:18---
Spongebob has won 1 Torag's platebody from Helz.

---2017/05/02 14:05:18---
Spongebob has won 1 3rd age pickaxe from Helz.

---2017/05/13 20:08:38---
Spongebob has won 1 Toxic blowpipe (empty) from Fallen.

---2017/05/13 20:08:38---
Spongebob has won 1 Toxic blowpipe from Fallen.

---2017/05/13 20:12:27---
Spongebob has won 1 Amulet of torture from Fallen.

---2017/05/13 20:12:27---
Spongebob has won 1 Serpentine helm from Fallen.

---2017/05/13 20:12:27---
Spongebob has won 38000000 Coins from Fallen.

---2017/05/13 20:12:27---
Spongebob has won 1 Bandos tassets (i) from Fallen.

---2017/05/13 20:12:27---
Spongebob has won 1 Abyssal tentacle from Fallen.

---2017/05/13 20:12:27---
Spongebob has won 1 Dragon warhammer from Fallen.

---2017/05/13 20:12:27---
Spongebob has won 1 Dragonfire shield from Fallen.

---2017/05/13 20:12:27---
Spongebob has won 1 Dragon hunter crossbow from Fallen.

---2017/05/13 20:12:27---
Spongebob has won 1 Dinh's bulwark from Fallen.

---2017/05/13 20:12:27---
Spongebob has won 1 Primordial boots from Fallen.

---2017/05/13 20:12:27---
Spongebob has won 1 Bandos chestplate from Fallen.

---2017/05/13 20:12:27---
Spongebob has won 5 Tormented bracelet from Fallen.

---2017/05/13 20:12:27---
Spongebob has won 1 Armadyl godsword from Fallen.

---2017/05/13 20:12:27---
Spongebob has won 1 Elder maul from Fallen.

---2017/05/15 18:32:36---
Spongebob has won 1 Statius platelegs from Daggx.

---2017/05/15 18:33:29---
Spongebob has won 1 Statius platelegs from Daggx.

---2017/05/15 18:36:15---
Spongebob has won 2 Statius platelegs from Daggx.

---2017/05/15 18:37:09---
Spongebob has won 1 Vesta's chainskirt from Daggx.

---2017/06/22 22:53:15---
Spongebob has won 10000000 Coins from Vape.

---2017/06/22 22:58:52---
Spongebob has won 1 Dragon claws from Vape.

---2017/06/25 23:42:43---
Spongebob has won 5000000 Coins from Vape.

---2017/06/25 23:44:32---
Spongebob has won 10000000 Coins from Vape.

---2017/06/25 23:46:20---
Spongebob has won 1 Clue scroll (elite) from Vape.

---2017/06/25 23:50:58---
Spongebob has won 35000000 Coins from Vape.
