
---2017/03/09 21:52:29---
Toodenchh has won 24000 Blood money from Antirag.

---2017/03/09 21:56:04---
Toodenchh has won 5000000 Coins from Antirag.

---2017/04/05 18:38:28---
Toodenchh has won 1 Dark bow from Bink.

---2017/04/05 18:38:28---
Toodenchh has won 1 Dragon hunter crossbow from Bink.

---2017/04/05 18:38:28---
Toodenchh has won 1 Pegasian boots from Bink.

---2017/04/05 18:38:28---
Toodenchh has won 3 3rd age cloak from Bink.

---2017/04/05 18:40:30---
Toodenchh has won 55000001 Coins from Spongebob.

---2017/04/05 18:42:33---
Toodenchh has won 55000000 Coins from Spongebob.

---2017/04/05 18:50:08---
Toodenchh has won 10000000 Coins from Spongebob.
