
---2017/03/09 11:45:43---
Vape has won 1 3rd age range legs from Dalby.

---2017/03/09 19:57:48---
Vape has won 6000000 Coins from Antirag.

---2017/03/09 20:03:44---
Vape has won 2 Verac's helm from Antirag.

---2017/03/09 20:03:44---
Vape has won 1 Dharok's platelegs from Antirag.

---2017/03/09 20:03:44---
Vape has won 12672770 Coins from Antirag.

---2017/03/09 20:03:44---
Vape has won 2 Verac's flail from Antirag.

---2017/03/09 20:03:44---
Vape has won 2 Verac's brassard from Antirag.

---2017/03/09 20:03:44---
Vape has won 1 Verac's plateskirt from Antirag.

---2017/03/09 20:03:44---
Vape has won 1 Guthan's platebody from Antirag.

---2017/03/09 20:03:44---
Vape has won 1 Torag's helm from Antirag.

---2017/03/09 20:03:44---
Vape has won 1 Karil's crossbow from Antirag.

---2017/03/12 21:14:51---
Vape has won 50000000 Coins from Limpovic.

---2017/03/12 21:14:51---
Vape has won 1 Dark bow from Limpovic.

---2017/03/12 21:14:51---
Vape has won 1  from Limpovic.

---2017/03/12 21:14:51---
Vape has won 1 Clue scroll (elite) from Limpovic.

---2017/03/12 21:14:51---
Vape has won 150000 Blood money from Limpovic.

---2017/03/18 23:01:41---
Vape has won 7500000 Coins from Good Rng.

---2017/03/18 23:04:44---
Vape has won 5000000 Coins from Good Rng.

---2017/03/18 23:10:10---
Vape has won 8000915 Coins from Squidward.

---2017/03/18 23:10:10---
Vape has won 1 Gilded platebody from Squidward.

---2017/03/18 23:10:10---
Vape has won 3 Monkey tail from Squidward.

---2017/03/18 23:10:10---
Vape has won 1 Gilded platelegs from Squidward.

---2017/03/18 23:10:10---
Vape has won 9961 Blood money from Squidward.

---2017/06/25 23:41:09---
Vape has won 5000000 Coins from Spongebob.

---2017/06/25 23:49:11---
Vape has won 35000000 Coins from Spongebob.

---2017/06/25 23:49:11---
Vape has won 1 Clue scroll (elite) from Spongebob.

---2017/06/25 23:53:09---
Vape has won 70000000 Coins from Spongebob.

---2017/06/25 23:55:32---
Vape has won 65000000 Coins from Spongebob.

---2017/06/25 23:57:31---
Vape has won 100000000 Coins from Spongebob.

---2017/06/26 02:48:00---
Vape has won 1 Casket (medium) from Tameer000.
