
---2017/02/23 04:27:17---
Alchemy has recieved 55 Bolt rack.

---2017/02/23 04:27:17---
Alchemy has recieved 150 Big bones.

---2017/02/23 04:27:17---
Alchemy has recieved 75 Water rune.

---2017/02/23 04:34:28---
Alchemy has recieved 1 Karil's leathertop 0.

---2017/02/23 04:34:28---
Alchemy has recieved 250 Soul rune.

---2017/02/23 04:34:28---
Alchemy has recieved 75 Body rune.

---2017/02/23 05:20:06---
Alchemy has recieved 250 Death rune.

---2017/02/23 05:20:06---
Alchemy has recieved 150 Big bones.

---2017/02/23 05:20:06---
Alchemy has recieved 250 Soul rune.

---2017/02/23 05:27:06---
Alchemy has recieved 70 Bolt rack.

---2017/02/23 05:27:06---
Alchemy has recieved 75 Water rune.

---2017/02/23 05:27:06---
Alchemy has recieved 75 Mind rune.

---2017/02/23 05:34:07---
Alchemy has recieved 1 Ashes.

---2017/02/23 05:34:07---
Alchemy has recieved 50 Bolt rack.

---2017/02/23 05:34:07---
Alchemy has recieved 75 Water rune.

---2017/02/23 05:34:07---
Alchemy has recieved 75 Air rune.

---2017/02/23 05:38:59---
Alchemy has recieved 210 Bolt rack.

---2017/02/23 05:38:59---
Alchemy has recieved 1 Verac's flail 0.

---2017/02/23 05:38:59---
Alchemy has recieved 1 Ahrim's robeskirt 0.

---2017/02/23 05:44:15---
Alchemy has recieved 860 Bolt rack.

---2017/02/23 05:49:10---
Alchemy has recieved 40 Bolt rack.

---2017/02/23 05:49:10---
Alchemy has recieved 75 Earth rune.

---2017/02/23 05:54:15---
Alchemy has recieved 1 Ashes.

---2017/02/23 05:54:15---
Alchemy has recieved 40 Bolt rack.

---2017/02/23 06:00:40---
Alchemy has recieved 30 Bolt rack.

---2017/02/23 06:00:40---
Alchemy has recieved 150 Big bones.

---2017/02/23 06:00:40---
Alchemy has recieved 1 Bones.

---2017/02/23 06:19:19---
Alchemy has recieved 85 Bolt rack.

---2017/02/23 06:19:19---
Alchemy has recieved 150 Big bones.

---2017/02/23 06:23:07---
Alchemy has recieved 1 Ashes.

---2017/02/23 06:23:07---
Alchemy has recieved 250 Death rune.

---2017/02/23 06:23:07---
Alchemy has recieved 150 Big bones.

---2017/02/23 06:23:07---
Alchemy has recieved 75 Fire rune.

---2017/02/23 20:31:24---
Alchemy has recieved 1 Ashes.

---2017/02/23 20:31:24---
Alchemy has recieved 150 Air rune.

---2017/02/23 20:31:24---
Alchemy has recieved 1 Bones.

---2017/02/23 20:46:18---
Alchemy has recieved 550 Bolt rack.

---2017/02/23 20:46:18---
Alchemy has recieved 150 Big bones.

---2017/02/23 20:46:18---
Alchemy has recieved 250 Soul rune.

---2017/02/23 20:46:18---
Alchemy has recieved 75 Water rune.

---2017/02/23 20:50:05---
Alchemy has recieved 5 Bolt rack.

---2017/02/23 20:50:05---
Alchemy has recieved 75 Fire rune.

---2017/02/23 20:50:05---
Alchemy has recieved 75 Earth rune.

---2017/02/23 20:55:17---
Alchemy has recieved 75 Air rune.

---2017/02/23 20:55:17---
Alchemy has recieved 1 Bones.

---2017/02/23 20:55:17---
Alchemy has recieved 150 Mind rune.

---2017/02/23 21:00:36---
Alchemy has recieved 250 Death rune.

---2017/02/23 21:00:36---
Alchemy has recieved 85 Bolt rack.

---2017/02/23 21:33:18---
Alchemy has recieved 55 Bolt rack.

---2017/02/23 21:33:18---
Alchemy has recieved 150 Big bones.

---2017/02/23 21:33:18---
Alchemy has recieved 75 Fire rune.

---2017/02/23 21:33:18---
Alchemy has recieved 75 Earth rune.

---2017/02/23 21:42:05---
Alchemy has recieved 175 Bolt rack.

---2017/02/23 21:42:05---
Alchemy has recieved 75 Body rune.

---2017/02/23 21:50:40---
Alchemy has recieved 1 Ashes.

---2017/02/23 21:50:40---
Alchemy has recieved 25 Bolt rack.

---2017/02/23 21:50:40---
Alchemy has recieved 1 Karil's crossbow 0.

---2017/02/23 21:50:40---
Alchemy has recieved 150 Water rune.

---2017/02/23 22:53:54---
Alchemy has recieved 250 Chaos rune.

---2017/02/23 22:53:54---
Alchemy has recieved 40 Bolt rack.

---2017/02/23 22:53:54---
Alchemy has recieved 150 Big bones.

---2017/02/23 22:53:54---
Alchemy has recieved 75 Earth rune.

---2017/02/23 22:59:23---
Alchemy has recieved 5 Bolt rack.

---2017/02/23 22:59:23---
Alchemy has recieved 75 Air rune.

---2017/02/23 22:59:23---
Alchemy has recieved 75 Earth rune.

---2017/02/23 23:04:18---
Alchemy has recieved 75 Bolt rack.

---2017/02/23 23:04:18---
Alchemy has recieved 75 Earth rune.

---2017/02/23 23:04:18---
Alchemy has recieved 75 Mind rune.

---2017/02/23 23:04:18---
Alchemy has recieved 1 Bones.

---2017/02/23 23:09:14---
Alchemy has recieved 1 Guthan's warspear 0.

---2017/02/23 23:09:14---
Alchemy has recieved 5 Bolt rack.

---2017/02/23 23:09:14---
Alchemy has recieved 75 Water rune.

---2017/02/23 23:13:30---
Alchemy has recieved 250 Nature rune.

---2017/02/23 23:13:30---
Alchemy has recieved 105 Bolt rack.

---2017/02/23 23:17:28---
Alchemy has recieved 1 Dharok's platebody 0.

---2017/02/23 23:17:28---
Alchemy has recieved 70 Bolt rack.

---2017/02/23 23:17:28---
Alchemy has recieved 1 Bones.

---2017/02/23 23:22:03---
Alchemy has recieved 75 Air rune.

---2017/02/23 23:22:03---
Alchemy has recieved 75 Earth rune.

---2017/02/23 23:22:03---
Alchemy has recieved 1 Bones.

---2017/02/23 23:22:03---
Alchemy has recieved 75 Body rune.

---2017/02/23 23:38:54---
Alchemy has recieved 125 Bolt rack.

---2017/02/23 23:46:12---
Alchemy has recieved 250 Chaos rune.

---2017/02/23 23:46:12---
Alchemy has recieved 85 Bolt rack.

---2017/02/23 23:46:12---
Alchemy has recieved 75 Air rune.
