
---2017/03/21 00:12:53---
Castle Wars has recieved 55 Bolt rack.

---2017/03/21 00:12:53---
Castle Wars has recieved 150 Big bones.

---2017/03/21 00:12:53---
Castle Wars has recieved 1 Bones.

---2017/03/21 17:03:48---
Castle Wars has recieved 150 Big bones.

---2017/03/21 17:03:48---
Castle Wars has recieved 75 Air rune.

---2017/03/21 17:03:48---
Castle Wars has recieved 75 Mind rune.

---2017/03/21 17:07:18---
Castle Wars has recieved 20 Bolt rack.

---2017/03/21 17:07:18---
Castle Wars has recieved 150 Big bones.

---2017/03/21 17:07:18---
Castle Wars has recieved 75 Water rune.

---2017/03/21 17:07:18---
Castle Wars has recieved 75 Mind rune.

---2017/03/21 17:16:25---
Castle Wars has recieved 75 Bolt rack.

---2017/03/21 17:16:25---
Castle Wars has recieved 75 Fire rune.

---2017/03/21 17:16:25---
Castle Wars has recieved 75 Mind rune.

---2017/03/21 17:20:10---
Castle Wars has recieved 565 Bolt rack.

---2017/03/21 17:20:10---
Castle Wars has recieved 75 Water rune.

---2017/03/21 17:20:10---
Castle Wars has recieved 1 Bones.

---2017/03/21 17:29:12---
Castle Wars has recieved 145 Bolt rack.

---2017/03/21 17:29:12---
Castle Wars has recieved 75 Earth rune.

---2017/03/21 17:33:04---
Castle Wars has recieved 1 Verac's helm 0.

---2017/03/21 17:33:04---
Castle Wars has recieved 55 Bolt rack.

---2017/03/21 17:33:04---
Castle Wars has recieved 75 Water rune.

---2017/03/21 17:33:04---
Castle Wars has recieved 75 Air rune.
