
---2017/02/24 02:57:17---
Dottel has recieved 95 Bolt rack.

---2017/02/24 03:02:17---
Dottel has recieved 1 Ashes.

---2017/02/24 03:02:17---
Dottel has recieved 155 Bolt rack.

---2017/02/24 03:02:17---
Dottel has recieved 75 Mind rune.

---2017/02/24 03:02:17---
Dottel has recieved 75 Body rune.

---2017/02/24 03:07:40---
Dottel has recieved 2 Bones.

---2017/02/24 03:07:40---
Dottel has recieved 75 Body rune.

---2017/02/24 03:21:00---
Dottel has recieved 5 Bolt rack.

---2017/02/24 03:21:00---
Dottel has recieved 1 Karil's crossbow 0.

---2017/02/24 03:21:00---
Dottel has recieved 75 Body rune.

---2017/02/24 03:26:28---
Dottel has recieved 1 Ashes.

---2017/02/24 03:26:28---
Dottel has recieved 250 Death rune.

---2017/02/24 03:26:28---
Dottel has recieved 25 Bolt rack.

---2017/02/24 03:26:28---
Dottel has recieved 75 Mind rune.

---2017/02/24 03:33:38---
Dottel has recieved 50 Bolt rack.

---2017/02/24 03:33:38---
Dottel has recieved 75 Air rune.

---2017/02/24 03:33:38---
Dottel has recieved 1 Ahrim's hood 0.

---2017/02/24 03:38:53---
Dottel has recieved 5 Bolt rack.

---2017/02/24 03:38:53---
Dottel has recieved 150 Big bones.

---2017/02/24 03:38:53---
Dottel has recieved 1 Bones.
