
---2017/04/26 05:20:19---
Dream has recieved 1 Ashes.

---2017/04/26 05:20:19---
Dream has recieved 250 Chaos rune.

---2017/04/26 05:20:19---
Dream has recieved 25 Bolt rack.

---2017/04/26 05:20:19---
Dream has recieved 75 Water rune.

---2017/04/26 05:20:19---
Dream has recieved 75 Air rune.

---2017/04/26 05:23:55---
Dream has recieved 15 Bolt rack.

---2017/04/26 05:23:55---
Dream has recieved 1 Ahrim's robetop 0.

---2017/04/26 05:23:55---
Dream has recieved 75 Air rune.

---2017/04/26 05:23:55---
Dream has recieved 1 Bones.

---2017/04/26 05:23:55---
Dream has recieved 75 Body rune.

---2017/04/26 05:28:16---
Dream has recieved 15 Bolt rack.

---2017/04/26 05:28:16---
Dream has recieved 75 Fire rune.

---2017/04/26 05:28:16---
Dream has recieved 75 Air rune.

---2017/04/26 05:28:16---
Dream has recieved 1 Bones.

---2017/04/26 05:32:49---
Dream has recieved 90 Bolt rack.

---2017/04/26 05:32:49---
Dream has recieved 1 Torag's helm 0.

---2017/04/26 05:32:49---
Dream has recieved 1 Guthan's chainskirt 0.

---2017/04/26 05:32:49---
Dream has recieved 75 Body rune.
