
---2018/08/04 13:37:44---
Reaxis has recieved 20 Bolt rack.

---2018/08/04 13:37:44---
Reaxis has recieved 250 Blood rune.

---2018/08/04 13:39:58---
Reaxis has recieved 1 Ashes.

---2018/08/04 13:39:58---
Reaxis has recieved 55 Bolt rack.

---2018/08/04 13:39:58---
Reaxis has recieved 75 Mind rune.

---2018/08/04 13:42:43---
Reaxis has recieved 55 Bolt rack.

---2018/08/04 13:42:43---
Reaxis has recieved 1 Guthan's helm 0.

---2018/08/04 13:42:43---
Reaxis has recieved 75 Earth rune.

---2018/08/04 13:45:17---
Reaxis has recieved 15 Bolt rack.

---2018/08/04 13:45:17---
Reaxis has recieved 75 Fire rune.

---2018/08/04 13:45:17---
Reaxis has recieved 75 Earth rune.

---2018/08/04 13:45:17---
Reaxis has recieved 75 Body rune.

---2018/08/04 16:28:12---
Reaxis has recieved 565 Bolt rack.

---2018/08/04 16:28:12---
Reaxis has recieved 75 Earth rune.

---2018/08/04 16:30:43---
Reaxis has recieved 90 Bolt rack.

---2018/08/04 16:30:43---
Reaxis has recieved 75 Earth rune.

---2018/08/04 16:33:13---
Reaxis has recieved 90 Bolt rack.

---2018/08/04 16:33:13---
Reaxis has recieved 200 Babydragon bones.

---2018/08/04 16:36:03---
Reaxis has recieved 80 Bolt rack.

---2018/08/04 16:36:03---
Reaxis has recieved 1 .

---2018/08/04 16:38:37---
Reaxis has recieved 1 Ashes.

---2018/08/04 16:38:37---
Reaxis has recieved 40 Bolt rack.

---2018/08/04 16:38:37---
Reaxis has recieved 1 Bones.

---2018/08/04 16:40:58---
Reaxis has recieved 1 Dharok's platebody 0.

---2018/08/04 16:40:58---
Reaxis has recieved 5 Bolt rack.

---2018/08/04 16:40:58---
Reaxis has recieved 75 Water rune.

---2018/08/04 16:40:58---
Reaxis has recieved 75 Air rune.

---2018/08/04 16:43:16---
Reaxis has recieved 75 Bolt rack.

---2018/08/04 16:43:16---
Reaxis has recieved 150 Big bones.

---2018/08/04 16:43:16---
Reaxis has recieved 75 Fire rune.

---2018/08/04 16:45:23---
Reaxis has recieved 1 Ashes.

---2018/08/04 16:45:23---
Reaxis has recieved 15 Bolt rack.

---2018/08/04 16:45:24---
Reaxis has recieved 75 Body rune.

---2018/08/04 16:47:37---
Reaxis has recieved 25 Bolt rack.

---2018/08/04 16:47:37---
Reaxis has recieved 1 Torag's platebody 0.

---2018/08/04 16:47:37---
Reaxis has recieved 75 Air rune.

---2018/08/04 16:47:37---
Reaxis has recieved 75 Mind rune.

---2018/08/04 17:54:55---
Reaxis has recieved 15 Bolt rack.

---2018/08/04 17:54:55---
Reaxis has recieved 75 Fire rune.

---2018/08/04 17:54:55---
Reaxis has recieved 1 Bones.

---2018/08/04 17:58:11---
Reaxis has recieved 1 Ashes.

---2018/08/04 17:58:11---
Reaxis has recieved 1 Karil's leathertop 0.

---2018/08/04 17:58:11---
Reaxis has recieved 15 Bolt rack.

---2018/08/04 17:58:11---
Reaxis has recieved 75 Fire rune.

---2018/08/04 21:02:20---
Reaxis has recieved 75 Bolt rack.

---2018/08/04 21:02:20---
Reaxis has recieved 150 Fire rune.

---2018/08/04 21:04:58---
Reaxis has recieved 555 Bolt rack.

---2018/08/04 21:04:58---
Reaxis has recieved 75 Water rune.

---2018/08/04 21:07:37---
Reaxis has recieved 75 Mind rune.

---2018/08/04 21:07:37---
Reaxis has recieved 2 Bones.

---2018/08/05 00:45:53---
Reaxis has recieved 15 Bolt rack.

---2018/08/05 00:45:53---
Reaxis has recieved 1 Guthan's platebody 0.

---2018/08/05 00:45:53---
Reaxis has recieved 75 Air rune.

---2018/08/05 00:45:53---
Reaxis has recieved 75 Earth rune.

---2018/08/05 00:48:50---
Reaxis has recieved 75 Bolt rack.

---2018/08/05 00:48:50---
Reaxis has recieved 150 Big bones.

---2018/08/05 00:48:50---
Reaxis has recieved 1 Dharok's platelegs 0.

---2018/08/05 00:48:50---
Reaxis has recieved 75 Body rune.

---2018/08/05 00:51:32---
Reaxis has recieved 1 Ashes.

---2018/08/05 00:51:32---
Reaxis has recieved 30 Bolt rack.

---2018/08/05 00:51:32---
Reaxis has recieved 1 Karil's coif 0.

---2018/08/05 00:54:22---
Reaxis has recieved 1 Ashes.

---2018/08/05 00:54:22---
Reaxis has recieved 150 Earth rune.

---2018/08/05 00:56:41---
Reaxis has recieved 250 Death rune.

---2018/08/05 00:56:41---
Reaxis has recieved 15 Bolt rack.

---2018/08/05 00:56:41---
Reaxis has recieved 150 Body rune.

---2018/08/05 00:59:49---
Reaxis has recieved 2 Ashes.

---2018/08/05 00:59:49---
Reaxis has recieved 75 Earth rune.

---2018/08/05 00:59:50---
Reaxis has recieved 75 Mind rune.

---2018/08/05 01:02:28---
Reaxis has recieved 75 Bolt rack.

---2018/08/05 01:02:28---
Reaxis has recieved 250 Blood rune.

---2018/08/05 01:02:28---
Reaxis has recieved 150 Big bones.

---2018/08/05 01:02:28---
Reaxis has recieved 1 Bones.

---2018/08/05 01:02:28---
Reaxis has recieved 75 Body rune.

---2018/08/05 01:05:36---
Reaxis has recieved 15 Bolt rack.

---2018/08/05 01:05:36---
Reaxis has recieved 150 Big bones.

---2018/08/05 01:05:36---
Reaxis has recieved 1 Bones.

---2018/08/05 01:08:07---
Reaxis has recieved 30 Bolt rack.

---2018/08/05 01:08:07---
Reaxis has recieved 75 Mind rune.

---2018/08/05 01:10:40---
Reaxis has recieved 15 Bolt rack.

---2018/08/05 01:10:40---
Reaxis has recieved 150 Big bones.

---2018/08/05 01:10:40---
Reaxis has recieved 75 Air rune.

---2018/08/05 01:10:40---
Reaxis has recieved 1 Bones.

---2018/08/05 01:14:10---
Reaxis has recieved 205 Bolt rack.

---2018/08/05 01:14:10---
Reaxis has recieved 150 Big bones.

---2018/08/05 01:14:10---
Reaxis has recieved 75 Earth rune.

---2018/08/05 01:14:10---
Reaxis has recieved 150 Mind rune.

---2018/08/05 01:16:57---
Reaxis has recieved 1 Ashes.

---2018/08/05 01:16:57---
Reaxis has recieved 55 Bolt rack.

---2018/08/05 01:16:57---
Reaxis has recieved 75 Fire rune.

---2018/08/05 01:16:57---
Reaxis has recieved 75 Water rune.

---2018/08/05 01:19:52---
Reaxis has recieved 40 Bolt rack.

---2018/08/05 01:19:52---
Reaxis has recieved 150 Big bones.

---2018/08/05 01:19:52---
Reaxis has recieved 1 Bones.

---2018/08/05 01:22:38---
Reaxis has recieved 1 Ashes.

---2018/08/05 01:22:38---
Reaxis has recieved 1 Dharok's helm 0.

---2018/08/05 01:22:38---
Reaxis has recieved 1 Ahrim's robetop 0.

---2018/08/05 01:22:38---
Reaxis has recieved 1 Ahrim's robeskirt 0.
