
---2018/07/29 13:03:40---
Risharu has recieved 40 Bolt rack.

---2018/07/29 13:03:40---
Risharu has recieved 75 Body rune.

---2018/08/03 11:26:14---
Risharu has recieved 150 Big bones.

---2018/08/03 11:26:14---
Risharu has recieved 2 Bones.

---2018/08/03 11:33:50---
Risharu has recieved 555 Bolt rack.

---2018/08/03 11:33:50---
Risharu has recieved 75 Water rune.
