
---2017/04/30 14:50:32---
Tetra Hydra has recieved 165 Bolt rack.

---2017/04/30 14:50:32---
Tetra Hydra has recieved 250 Blood rune.

---2017/04/30 14:54:31---
Tetra Hydra has recieved 75 Water rune.

---2017/04/30 14:54:31---
Tetra Hydra has recieved 75 Air rune.

---2017/04/30 14:54:31---
Tetra Hydra has recieved 75 Body rune.

---2017/05/01 01:48:47---
Tetra Hydra has recieved 40 Bolt rack.

---2017/05/01 01:48:47---
Tetra Hydra has recieved 1 Dharok's platelegs 0.

---2017/05/01 01:48:47---
Tetra Hydra has recieved 75 Air rune.

---2017/05/01 01:48:47---
Tetra Hydra has recieved 75 Earth rune.

---2017/05/01 01:51:46---
Tetra Hydra has recieved 75 Fire rune.

---2017/05/01 01:51:46---
Tetra Hydra has recieved 1 Bones.

---2017/05/01 01:51:46---
Tetra Hydra has recieved 75 Body rune.

---2017/05/01 01:54:28---
Tetra Hydra has recieved 1 Ashes.

---2017/05/01 01:54:28---
Tetra Hydra has recieved 150 Big bones.

---2017/05/01 01:54:28---
Tetra Hydra has recieved 75 Fire rune.

---2017/05/01 01:57:05---
Tetra Hydra has recieved 25 Bolt rack.

---2017/05/01 01:57:05---
Tetra Hydra has recieved 150 Big bones.

---2017/05/01 01:57:05---
Tetra Hydra has recieved 1 Bones.

---2017/05/01 02:00:18---
Tetra Hydra has recieved 55 Bolt rack.

---2017/05/01 02:00:18---
Tetra Hydra has recieved 75 Water rune.

---2017/05/01 02:00:18---
Tetra Hydra has recieved 75 Air rune.

---2017/05/01 02:00:18---
Tetra Hydra has recieved 75 Earth rune.
