
---2017/03/07 19:07:39---
Twisted Iron has recieved 55 Bolt rack.

---2017/03/07 19:07:39---
Twisted Iron has recieved 75 Water rune.

---2017/03/07 19:07:39---
Twisted Iron has recieved 75 Earth rune.

---2017/03/07 19:07:39---
Twisted Iron has recieved 75 Mind rune.
