
---2018/07/25 01:30:28---
Vuhjineuh has recieved 1 Ashes.

---2018/07/25 01:30:28---
Vuhjineuh has recieved 15 Bolt rack.

---2018/07/25 01:30:28---
Vuhjineuh has recieved 150 Fire rune.

---2018/07/25 01:36:12---
Vuhjineuh has recieved 1 Ashes.

---2018/07/25 01:36:12---
Vuhjineuh has recieved 250 Chaos rune.

---2018/07/25 01:36:12---
Vuhjineuh has recieved 15 Bolt rack.

---2018/07/25 01:36:12---
Vuhjineuh has recieved 75 Body rune.
