
---2015/07/25 12:08:11---
Server ended with 12 online.

---2015/07/25 12:14:39---
Server ended with 9 online.

---2015/07/25 13:56:21---
Server ended with 12 online.

---2015/07/25 15:46:23---
Server ended with 18 online.

---2015/07/25 15:49:19---
Server ended with 12 online.

---2015/07/25 23:32:25---
Server ended with 6 online.

---2015/07/25 21:27:17---
Server ended with 10 online.

---2015/07/25 22:05:23---
Server ended with 11 online.

---2015/07/25 23:08:38---
Server ended with 11 online.

---2015/07/26 00:09:21---
Server ended with 8 online.

---2015/07/26 00:18:24---
Server ended with 11 online.

---2015/07/26 01:03:51---
Server ended with 9 online.

---2015/07/26 01:56:24---
Server ended with 4 online.

---2015/07/26 02:46:15---
Server ended with 2 online.

---2015/07/26 07:44:43---
Server ended with 10 online.

---2015/07/26 15:49:46---
Server ended with 15 online.

---2015/07/26 19:51:33---
Server ended with 9 online.

---2015/07/27 00:38:42---
Server ended with 8 online.

---2015/07/27 01:09:16---
Server ended with 6 online.

---2015/07/27 01:19:20---
Server ended with 6 online.

---2015/07/27 02:10:30---
Server ended with 5 online.

---2015/07/28 00:55:58---
Server ended with 8 online.

---2015/07/28 12:44:20---
Server ended with 20 online.

---2015/07/28 13:55:37---
Server ended with 13 online.

---2015/07/28 16:53:53---
Server ended with 16 online.

---2015/07/29 08:21:27---
Server ended with 13 online.

---2015/07/29 13:43:53---
Server ended with 13 online.

---2015/07/29 16:16:21---
Server ended with 15 online.

---2015/07/30 03:15:59---
Server ended with 13 online.

---2015/07/30 03:45:29---
Server ended with 7 online.

---2015/07/30 04:48:41---
Server ended with 0 online.

---2015/07/30 04:50:03---
Server ended with 0 online.

---2015/07/30 04:51:07---
Server ended with 0 online.

---2015/07/30 04:53:21---
Server ended with 0 online.

---2015/07/30 04:57:10---
Server ended with 0 online.

---2015/07/30 04:59:04---
Server ended with 0 online.

---2015/07/30 05:00:34---
Server ended with 0 online.

---2015/07/30 05:05:34---
Server ended with 0 online.

---2015/07/30 05:07:06---
Server ended with 0 online.

---2015/07/30 05:07:54---
Server ended with 0 online.

---2015/07/30 05:10:06---
Server ended with 0 online.

---2015/07/30 05:14:04---
Server ended with 0 online.

---2015/07/30 05:14:48---
Server ended with 0 online.

---2015/07/30 05:19:13---
Server ended with 0 online.

---2015/07/30 05:39:12---
Server ended with 0 online.

---2015/07/30 23:43:27---
Server ended with 0 online.

---2015/07/31 01:00:03---
Server ended with 0 online.

---2015/07/31 01:11:15---
Server ended with 0 online.

---2015/07/31 08:46:05---
Server ended with 0 online.

---2015/07/31 11:02:32---
Server ended with 0 online.

---2015/07/31 13:41:39---
Server ended with 0 online.

---2015/08/01 01:54:50---
Server ended with 0 online.

---2015/08/01 08:16:39---
Server ended with 0 online.

---2015/08/01 08:23:50---
Server ended with 0 online.

---2015/08/01 09:15:02---
Server ended with 0 online.

---2015/08/01 09:28:32---
Server ended with 0 online.

---2015/08/01 14:00:16---
Server ended with 0 online.

---2015/08/01 15:11:57---
Server ended with 0 online.

---2015/08/01 17:15:11---
Server ended with 0 online.

---2015/08/02 06:58:05---
Server ended with 0 online.

---2015/08/02 16:53:31---
Server ended with 0 online.

---2015/08/03 11:28:59---
Server ended with 0 online.

---2015/08/03 15:18:48---
Server ended with 0 online.

---2015/08/04 12:57:43---
Server ended with 0 online.

---2015/08/05 11:57:13---
Server ended with 0 online.

---2015/08/06 09:17:09---
Server ended with 0 online.

---2015/08/07 07:24:34---
Server ended with 0 online.

---2015/08/09 00:25:49---
Server ended with 0 online.

---2015/08/08 20:11:24---
Server ended with 0 online.

---2015/08/09 18:42:25---
Server ended with 0 online.

---2015/08/13 12:01:34---
Server ended with 0 online.

---2015/08/13 23:05:21---
Server ended with 0 online.

---2015/08/17 00:21:04---
Server ended with 0 online.

---2015/08/18 20:28:13---
Server ended with 0 online.

---2015/08/19 15:18:44---
Server ended with 0 online.

---2015/09/05 23:40:46---
Server shutdown with 0 online.

---2015/09/06 01:33:45---
Server shutdown with 0 online.

---2015/09/06 07:38:55---
Server shutdown with 0 online.

---2015/09/06 07:51:40---
Server shutdown with 0 online.

---2015/09/07 17:58:02---
Server shutdown with 0 online.

---2015/09/08 04:49:13---
Server shutdown with 0 online.

---2015/09/09 18:55:43---
Server shutdown with 0 online.

---2015/09/10 07:47:18---
Server shutdown with 0 online.

---2015/09/10 18:32:07---
Server shutdown with 0 online.

---2015/09/10 19:12:41---
Server shutdown with 0 online.

---2015/09/11 00:46:07---
Server shutdown with 0 online.

---2015/09/11 06:37:01---
Server shutdown with 0 online.

---2015/09/11 06:48:31---
Server shutdown with 0 online.

---2015/09/11 23:18:23---
Server shutdown with 0 online.

---2015/09/12 02:26:26---
Server shutdown with 0 online.

---2015/09/12 05:30:04---
Server shutdown with 0 online.

---2015/09/13 03:54:03---
Server shutdown with 0 online.

---2015/09/13 21:35:09---
Server shutdown with 0 online.

---2015/09/18 03:16:07---
Server shutdown with 0 online.

---2015/09/18 04:29:59---
Server shutdown with 0 online.

---2015/09/19 06:44:35---
Server shutdown with 0 online.

---2015/09/20 05:17:14---
Server shutdown with 0 online.

---2015/09/23 14:32:09---
Server shutdown with 0 online.

---2015/09/24 09:26:02---
Server shutdown with 0 online.

---2015/09/27 02:48:21---
Server shutdown with 0 online.

---2015/09/29 00:07:25---
Server shutdown with 0 online.

---2015/10/02 19:43:31---
Server shutdown with 0 online.

---2015/10/05 21:32:05---
Server shutdown with 0 online.

---2015/10/07 04:03:40---
Server shutdown with 0 online.

---2015/10/08 19:50:59---
Server shutdown with 0 online.

---2015/10/09 16:31:16---
Server shutdown with 0 online.

---2015/10/09 16:55:54---
Server shutdown with 0 online.

---2015/10/11 01:24:15---
Server shutdown with 0 online.

---2015/10/14 13:37:18---
Server shutdown with 0 online.

---2015/10/17 06:47:29---
Server shutdown with 0 online.

---2015/10/23 14:53:29---
Server shutdown with 0 online.

---2015/10/23 20:00:06---
Server shutdown with 0 online.

---2015/10/28 17:19:53---
Server shutdown with 0 online.

---2015/10/28 17:31:08---
Server shutdown with 0 online.

---2015/10/28 03:10:00---
Server shutdown with 1 online.

---2015/10/28 03:24:00---
Server shutdown with 1 online.

---2015/10/30 00:54:17---
Server shutdown with 0 online.

---2015/11/04 05:43:38---
Server shutdown with 0 online.

---2015/11/09 09:33:39---
Server shutdown with 0 online.

---2017/02/15 06:18:57---
Server shutdown with 0 online.

---2017/02/15 08:34:41---
Server shutdown with 0 online.

---2017/02/18 21:24:17---
Server shutdown with 0 online.

---2017/02/18 23:40:08---
Server shutdown with 0 online.

---2017/02/19 00:33:50---
Server shutdown with 0 online.

---2017/02/19 00:45:01---
Server shutdown with 0 online.

---2017/02/19 01:53:40---
Server shutdown with 0 online.

---2017/02/19 08:56:45---
Server shutdown with 0 online.

---2017/02/19 23:59:27---
Server shutdown with 0 online.

---2017/02/20 06:44:03---
Server shutdown with 0 online.

---2017/02/20 09:05:38---
Server shutdown with 0 online.

---2017/02/20 09:26:29---
Server shutdown with 0 online.

---2017/02/20 09:50:28---
Server shutdown with 0 online.

---2017/02/20 23:18:01---
Server shutdown with 0 online.

---2017/02/20 23:48:11---
Server shutdown with 0 online.

---2017/02/21 00:08:45---
Server shutdown with 0 online.

---2017/02/21 00:31:48---
Server shutdown with 0 online.

---2017/02/21 04:48:52---
Server shutdown with 0 online.

---2017/02/21 06:19:20---
Server shutdown with 0 online.

---2017/02/21 07:30:30---
Server shutdown with 0 online.

---2017/02/21 08:26:33---
Server shutdown with 0 online.

---2017/02/21 08:48:54---
Server shutdown with 0 online.

---2017/02/21 08:58:50---
Server shutdown with 0 online.

---2017/02/22 00:38:58---
Server shutdown with 0 online.

---2017/02/22 01:24:29---
Server shutdown with 0 online.

---2017/02/22 05:03:23---
Server shutdown with 0 online.

---2017/02/22 05:19:22---
Server shutdown with 0 online.

---2017/02/22 09:29:40---
Server shutdown with 0 online.

---2017/02/23 07:29:40---
Server shutdown with 0 online.

---2017/02/23 07:53:04---
Server shutdown with 0 online.

---2017/02/23 08:35:09---
Server shutdown with 0 online.

---2017/02/23 10:34:40---
Server shutdown with 0 online.

---2017/02/24 05:07:15---
Server shutdown with 0 online.

---2017/02/24 05:25:54---
Server shutdown with 0 online.

---2017/02/25 04:04:41---
Server shutdown with 0 online.

---2017/02/26 00:20:54---
Server shutdown with 0 online.

---2017/02/26 08:38:57---
Server shutdown with 0 online.

---2017/02/26 08:53:12---
Server shutdown with 0 online.

---2017/02/26 23:47:31---
Server shutdown with 0 online.

---2017/02/27 08:02:47---
Server shutdown with 0 online.

---2017/02/27 08:43:20---
Server shutdown with 0 online.

---2017/02/27 09:07:08---
Server shutdown with 0 online.

---2017/03/01 03:57:29---
Server shutdown with 0 online.

---2017/03/01 19:41:50---
Server shutdown with 0 online.

---2017/03/01 23:55:26---
Server shutdown with 0 online.

---2017/03/02 04:31:10---
Server shutdown with 0 online.

---2017/03/03 05:43:43---
Server shutdown with 0 online.

---2017/03/03 06:03:20---
Server shutdown with 0 online.

---2017/03/04 03:49:04---
Server shutdown with 0 online.

---2017/03/04 04:18:21---
Server shutdown with 0 online.

---2017/03/05 06:41:39---
Server shutdown with 0 online.

---2017/03/06 06:28:32---
Server shutdown with 0 online.

---2017/03/07 06:12:09---
Server shutdown with 0 online.

---2017/03/07 06:38:50---
Server shutdown with 0 online.

---2017/03/07 06:56:06---
Server shutdown with 0 online.

---2017/03/07 07:19:42---
Server shutdown with 0 online.

---2017/03/08 08:34:58---
Server shutdown with 0 online.

---2017/03/08 09:31:39---
Server shutdown with 0 online.

---2017/03/09 06:58:17---
Server shutdown with 0 online.

---2017/03/10 06:31:04---
Server shutdown with 0 online.

---2017/03/10 07:02:54---
Server shutdown with 0 online.

---2017/03/11 06:02:17---
Server shutdown with 0 online.

---2017/03/12 06:24:49---
Server shutdown with 0 online.

---2017/03/13 04:13:09---
Server shutdown with 0 online.

---2017/03/13 04:34:12---
Server shutdown with 0 online.

---2017/03/14 06:20:55---
Server shutdown with 0 online.

---2017/03/15 06:55:58---
Server shutdown with 0 online.

---2017/03/18 02:26:56---
Server shutdown with 0 online.

---2017/03/18 05:02:46---
Server shutdown with 0 online.

---2017/03/19 05:15:50---
Server shutdown with 0 online.

---2017/03/20 06:24:56---
Server shutdown with 0 online.

---2017/03/21 05:15:32---
Server shutdown with 0 online.

---2017/03/22 05:23:47---
Server shutdown with 0 online.

---2017/03/23 05:19:13---
Server shutdown with 0 online.

---2017/03/24 09:28:10---
Server shutdown with 0 online.

---2017/03/25 07:04:55---
Server shutdown with 0 online.

---2017/03/27 07:34:24---
Server shutdown with 0 online.

---2017/03/28 07:03:20---
Server shutdown with 0 online.

---2017/03/28 07:27:34---
Server shutdown with 0 online.

---2017/03/28 07:49:20---
Server shutdown with 0 online.

---2017/03/29 08:31:20---
Server shutdown with 0 online.

---2017/03/30 06:37:51---
Server shutdown with 0 online.

---2017/03/31 07:26:18---
Server shutdown with 0 online.

---2017/04/01 07:46:58---
Server shutdown with 0 online.

---2017/04/02 07:10:34---
Server shutdown with 0 online.

---2017/04/03 07:49:30---
Server shutdown with 0 online.

---2017/04/03 22:18:40---
Server shutdown with 0 online.

---2017/04/03 22:30:12---
Server shutdown with 0 online.

---2017/04/04 15:23:43---
Server shutdown with 0 online.

---2017/04/05 06:21:33---
Server shutdown with 0 online.

---2017/04/06 07:02:12---
Server shutdown with 0 online.

---2017/04/07 07:28:18---
Server shutdown with 0 online.

---2017/04/08 07:24:55---
Server shutdown with 0 online.

---2017/04/10 04:04:30---
Server shutdown with 0 online.

---2017/04/10 08:31:06---
Server shutdown with 0 online.

---2017/04/10 15:47:51---
Server shutdown with 0 online.

---2017/04/11 07:37:53---
Server shutdown with 0 online.

---2017/04/12 10:20:58---
Server shutdown with 0 online.

---2017/04/13 09:41:00---
Server shutdown with 0 online.

---2017/04/14 10:37:41---
Server shutdown with 0 online.

---2017/04/14 10:46:47---
Server shutdown with 0 online.

---2017/04/15 09:17:45---
Server shutdown with 0 online.

---2017/04/16 08:04:01---
Server shutdown with 0 online.

---2017/04/17 07:43:49---
Server shutdown with 0 online.

---2017/04/17 09:47:31---
Server shutdown with 0 online.

---2017/04/19 05:05:56---
Server shutdown with 0 online.

---2017/04/21 07:18:00---
Server shutdown with 0 online.

---2017/04/21 07:41:52---
Server shutdown with 0 online.

---2017/04/22 05:40:54---
Server shutdown with 0 online.

---2017/05/02 07:33:39---
Server shutdown with 0 online.

---2017/05/13 22:14:59---
Server shutdown with 0 online.

---2017/06/03 02:40:19---
Server shutdown with 0 online.

---2017/06/16 06:35:25---
Server shutdown with 0 online.

---2017/06/16 16:04:00---
Server shutdown with 0 online.

---2017/06/17 02:04:54---
Server shutdown with 0 online.

---2017/06/20 05:21:38---
Server shutdown with 0 online.

---2017/06/25 05:43:46---
Server shutdown with 0 online.

---2018/06/03 20:08:54---
Server shutdown with 0 online.

---2018/06/03 20:57:01---
Server shutdown with 0 online.

---2018/06/03 22:11:41---
Server shutdown with 0 online.

---2018/06/05 01:02:17---
Server shutdown with 0 online.

---2018/06/06 00:45:46---
Server shutdown with 0 online.

---2018/06/08 00:12:23---
Server shutdown with 0 online.

---2018/06/10 00:05:23---
Server shutdown with 1 online.

---2018/06/11 23:18:47---
Server shutdown with 0 online.

---2018/06/14 01:04:00---
Server shutdown with 0 online.

---2018/06/19 03:25:01---
Server shutdown with 0 online.

---2018/06/20 00:15:45---
Server shutdown with 0 online.

---2018/06/23 15:42:48---
Server shutdown with 0 online.

---2018/06/25 00:48:16---
Server shutdown with 0 online.

---2018/06/26 19:44:43---
Server shutdown with 0 online.

---2018/06/26 23:51:18---
Server shutdown with 0 online.

---2018/06/29 06:01:17---
Server shutdown with 0 online.

---2018/06/30 01:11:18---
Server shutdown with 0 online.

---2018/07/01 04:01:42---
Server shutdown with 0 online.

---2018/07/02 04:27:30---
Server shutdown with 0 online.

---2018/07/03 01:48:05---
Server shutdown with 0 online.

---2018/07/06 00:29:37---
Server shutdown with 0 online.

---2018/07/06 08:30:15---
Server shutdown with 0 online.

---2018/07/06 09:55:06---
Server shutdown with 0 online.

---2018/07/06 13:54:56---
Server shutdown with 0 online.

---2018/07/06 14:37:04---
Server shutdown with 0 online.

---2018/07/06 15:17:57---
Server shutdown with 0 online.

---2018/07/06 17:10:25---
Server shutdown with 0 online.

---2018/07/06 19:02:49---
Server shutdown with 0 online.

---2018/07/09 02:21:07---
Server shutdown with 0 online.

---2018/07/10 04:44:52---
Server shutdown with 0 online.

---2018/07/11 00:48:39---
Server shutdown with 0 online.

---2018/07/13 03:34:56---
Server shutdown with 0 online.

---2018/07/13 16:05:57---
Server shutdown with 0 online.

---2018/07/14 02:14:33---
Server shutdown with 0 online.

---2018/07/14 17:19:27---
Server shutdown with 0 online.

---2018/07/15 02:09:05---
Server shutdown with 0 online.

---2018/07/16 03:33:15---
Server shutdown with 0 online.

---2018/07/17 00:55:45---
Server shutdown with 0 online.

---2018/07/19 01:52:41---
Server shutdown with 0 online.

---2018/07/20 03:45:14---
Server shutdown with 0 online.

---2018/07/21 00:00:24---
Server shutdown with 0 online.

---2018/07/21 02:31:20---
Server shutdown with 0 online.

---2018/07/26 02:55:53---
Server shutdown with 0 online.

---2018/07/30 12:05:49---
Server shutdown with 0 online.

---2018/08/05 03:56:44---
Server shutdown with 0 online.

---2018/08/09 02:58:51---
Server shutdown with 0 online.

---2018/08/10 01:38:46---
Server shutdown with 0 online.

---2018/08/12 03:50:38---
Server shutdown with 0 online.

---2018/08/14 17:15:08---
Server shutdown with 0 online.
