
---2018/08/12 09:43:41---
Alter has been killed by Brandon.

---2018/08/12 09:46:12---
Alter has been killed by Lava Dragon.

---2018/08/12 10:09:22---
Alter has been killed by Brandon.

---2018/08/12 10:53:12---
Alter has been killed by Dagannoth Supreme.

---2018/08/13 09:54:32---
Alter has been killed by General Graardor.
