
---2017/05/08 15:11:25---
Aveenx has been killed by Lava Dragon.

---2017/05/08 15:29:04---
Aveenx has been killed by Lava Dragon.

---2017/05/08 15:46:36---
Aveenx has been killed by Blue Dragon.

---2017/05/08 15:51:14---
Aveenx has been killed by Lesser Demon.

---2017/05/08 21:11:20---
Aveenx has been killed by Demonic Gorilla.
