
---2018/06/28 18:14:43---
Bank has been killed by Enraged General Graador.

---2018/07/04 12:53:34---
Bank has been killed by Double Agent.

---2018/07/04 12:55:34---
Bank has been killed by Double Agent.
