
---2017/04/14 07:27:22---
Brom0777 has been killed by Dharok The Wretched.

---2017/04/15 16:32:17---
Brom0777 has been killed by Scorpia.

---2017/04/15 16:43:55---
Brom0777 has been killed by Scorpia.

---2017/04/17 22:58:27---
Brom0777 has been killed by Venenatis.

---2017/04/21 02:12:12---
Brom0777 has been killed by Bronze Dragon.

---2017/04/21 02:13:45---
Brom0777 has been killed by Bronze Dragon.

---2017/04/21 02:14:55---
Brom0777 has been killed by Bronze Dragon.
