
---2017/05/02 21:49:29---
Chimera has been killed by Cave Abomination.

---2017/05/15 19:52:36---
Chimera has been killed by Enraged General Graador.

---2017/05/19 20:05:57---
Chimera has been killed by Cerberus.

---2017/06/22 21:24:12---
Chimera has been killed by Enraged Skotizo.
