
---2018/06/12 23:47:11---
Classic has been killed by Enraged Cerberus.

---2018/06/12 23:50:43---
Classic has been killed by Enraged Cerberus.

---2018/06/12 23:53:10---
Classic has been killed by Enraged Cerberus.

---2018/06/12 23:54:19---
Classic has been killed by Enraged Cerberus.

---2018/06/13 11:41:29---
Classic has been killed by Verac The Defiled.

---2018/06/14 03:23:02---
Classic has been killed by Enraged General Graador.

---2018/06/14 03:24:15---
Classic has been killed by Enraged General Graador.

---2018/06/14 03:25:26---
Classic has been killed by Enraged General Graador.

---2018/06/17 06:28:59---
Classic has been killed by Crystal Dragon.

---2018/06/17 14:43:43---
Classic has been killed by Enraged General Graador.

---2018/06/17 14:45:40---
Classic has been killed by Enraged General Graador.

---2018/06/18 10:00:06---
Classic has been killed by Giant Mole.

---2018/06/19 05:45:03---
Classic has been killed by Enraged Skotizo.

---2018/06/19 05:45:35---
Classic has been killed by Enraged Skotizo.

---2018/06/19 12:39:58---
Classic has been killed by Crystal Dragon.
