
---2017/04/04 03:02:03---
Fallen has been killed by Crystal Dragon.

---2017/04/06 03:15:51---
Fallen has been killed by Corrupt Sorceress.

---2017/04/06 17:26:48---
Fallen has been killed by Bronze Dragon.

---2017/04/07 00:11:38---
Fallen has been killed by Dagannoth Prime.

---2017/04/07 19:16:38---
Fallen has been killed by Skotizo.

---2017/04/08 01:01:40---
Fallen has been killed by Demonic Gorilla.

---2017/04/11 00:04:01---
Fallen has been killed by Corrupt Sorceress.

---2017/04/11 23:25:30---
Fallen has been killed by Enraged Cerberus.

---2017/04/13 05:32:18---
Fallen has been killed by Not Kenny.

---2017/04/13 05:43:25---
Fallen has been killed by Not Kenny.

---2017/04/13 17:39:35---
Fallen has been killed by Demonic Gorilla.

---2017/04/15 23:18:39---
Fallen has been killed by Enraged Skotizo.
