
---2017/04/27 22:06:38---
Fir3 0p has been killed by Screaming Banshee.

---2017/05/11 15:38:57---
Fir3 0p has been killed by Demonic Gorilla.

---2017/05/14 19:43:10---
Fir3 0p has been killed by Enraged General Graador.
