
---2017/03/14 03:25:38---
Flux has been killed by Sea Troll Queen.

---2017/03/14 13:59:58---
Flux has been killed by Bronze Dragon.

---2017/03/14 17:23:31---
Flux has been killed by Scorpia.
