
---2018/07/13 14:06:34---
Hugepen15 has been killed by Burgz.

---2018/07/13 16:19:05---
Hugepen15 has been killed by Josh.

---2018/07/13 16:52:23---
Hugepen15 has been killed by Tom.

---2018/07/13 17:53:18---
Hugepen15 has been killed by Tom.

---2018/07/13 19:21:18---
Hugepen15 has been killed by Demonic Gorilla.

---2018/07/14 08:20:33---
Hugepen15 has been killed by I Pwn Noobs.

---2018/07/14 14:57:31---
Hugepen15 has been killed by Dagannoth Prime.

---2018/07/15 18:27:00---
Hugepen15 has been killed by Fat Ghost.

---2018/07/16 09:57:32---
Hugepen15 has been killed by Demonic Gorilla.

---2018/07/16 13:43:56---
Hugepen15 has been killed by Enraged General Graador.

---2018/07/17 19:43:26---
Hugepen15 has been killed by Lizardman Shaman.

---2018/07/18 19:10:14---
Hugepen15 has been killed by Enraged Skotizo.

---2018/07/19 11:04:08---
Hugepen15 has been killed by Enraged General Graador.

---2018/07/19 11:18:45---
Hugepen15 has been killed by Enraged General Graador.

---2018/07/20 08:05:37---
Hugepen15 has been killed by Enraged Skotizo.

---2018/07/20 16:01:04---
Hugepen15 has been killed by Enraged Skotizo.

---2018/07/22 19:32:56---
Hugepen15 has been killed by Brandon.

---2018/07/24 11:13:57---
Hugepen15 has been killed by Corporeal Beast.

---2018/07/24 15:49:29---
Hugepen15 has been killed by Kree'Arra.

---2018/07/26 17:17:00---
Hugepen15 has been killed by Enraged General Graador.

---2018/07/26 21:16:38---
Hugepen15 has been killed by Venenatis.
