
---2017/03/08 23:41:20---
Iron Maximus has been killed by Double Agent.

---2017/03/09 10:35:44---
Iron Maximus has been killed by Scorpia.

---2017/03/09 10:37:36---
Iron Maximus has been killed by Scorpia.
