
---2017/04/06 08:35:53---
Ivan has been killed by Enraged Cerberus.

---2017/04/08 00:51:49---
Ivan has been killed by Black Dragon.

---2017/04/08 00:53:09---
Ivan has been killed by Black Dragon.

---2017/04/15 05:27:19---
Ivan has been killed by Enraged Cerberus.
