
---2017/02/21 23:46:35---
Kidsanity has been killed by Black Knight.

---2017/02/22 00:02:09---
Kidsanity has been killed by Black Knight.

---2017/02/22 02:07:52---
Kidsanity has been killed by Reanimated Dragon.
