
---2017/03/15 03:45:22---
Lynx Alt has been killed by Vet'Ion.

---2017/03/15 03:46:34---
Lynx Alt has been killed by General Graardor.

---2017/03/15 03:47:39---
Lynx Alt has been killed by Skeleton Warlock.

---2017/03/15 03:51:02---
Lynx Alt has been killed by Dagannoth Supreme.
