
---2017/03/15 05:07:20---
Monkey Turd has been killed by Green Dragon.

---2017/03/26 12:36:47---
Monkey Turd has been killed by Divine Turd.

---2017/03/26 12:37:29---
Monkey Turd has been killed by Divine Turd.
