
---2017/04/04 00:25:43---
Of The Wild has been killed by Crystal Dragon.

---2017/04/04 22:00:56---
Of The Wild has been killed by Lizardman Shaman.

---2017/04/05 23:54:27---
Of The Wild has been killed by Demonic Gorilla.

---2017/04/06 02:35:25---
Of The Wild has been killed by Bree.

---2017/04/08 01:22:55---
Of The Wild has been killed by Optic R Tard.
