
---2018/08/01 15:26:29---
Pat has been killed by Enraged General Graador.

---2018/08/10 15:45:33---
Pat has been killed by Enraged General Graador.

---2018/08/11 18:22:29---
Pat has been killed by Bronze Dragon.

---2018/08/13 03:11:13---
Pat has been killed by The Everlasting.

---2018/08/13 03:37:55---
Pat has been killed by The Everlasting.

---2018/08/14 18:14:27---
Pat has been killed by Enraged Skotizo.
