
---2018/08/13 12:01:40---
Risharu has been killed by Rev Dragon.

---2018/08/13 12:02:21---
Risharu has been killed by Rev Dragon.

---2018/08/14 11:33:57---
Risharu has been killed by Dagannoth Supreme.

---2018/08/14 12:06:17---
Risharu has been killed by Dagannoth Supreme.
