
---2017/04/17 04:05:28---
Rsps Chaos has been killed by Enraged Skotizo.

---2017/04/17 05:03:38---
Rsps Chaos has been killed by Enraged General Graador.

---2017/04/17 05:07:30---
Rsps Chaos has been killed by Enraged General Graador.

---2017/04/17 05:12:36---
Rsps Chaos has been killed by Enraged General Graador.

---2017/04/17 22:05:33---
Rsps Chaos has been killed by Skeleton Archer.

---2017/04/18 02:07:40---
Rsps Chaos has been killed by Enraged General Graador.
