
---2017/03/22 02:08:53---
Spongebob has been killed by Commander Zilyana.

---2017/04/12 19:09:37---
Spongebob has been killed by General Graardor.

---2017/04/12 19:10:00---
Spongebob has been killed by General Graardor.

---2017/04/14 21:47:14---
Spongebob has been killed by Enraged Cerberus.

---2017/04/16 14:56:30---
Spongebob has been killed by General Graardor.

---2017/05/14 19:39:05---
Spongebob has been killed by Enraged General Graador.

---2017/05/14 19:43:42---
Spongebob has been killed by Enraged General Graador.

---2017/05/14 19:51:36---
Spongebob has been killed by Enraged General Graador.

---2017/05/15 19:58:45---
Spongebob has been killed by Enraged General Graador.

---2017/05/16 15:39:16---
Spongebob has been killed by Enraged Skotizo.

---2017/05/16 15:39:54---
Spongebob has been killed by Enraged Skotizo.

---2017/05/16 15:45:42---
Spongebob has been killed by Enraged Skotizo.

---2017/05/17 16:55:00---
Spongebob has been killed by Daggx.

---2017/05/17 17:03:20---
Spongebob has been killed by Daggx.

---2017/05/17 17:13:45---
Spongebob has been killed by Daggx.

---2017/05/17 17:16:31---
Spongebob has been killed by Daggx.

---2017/05/17 17:32:24---
Spongebob has been killed by Daggx.

---2017/05/17 17:45:45---
Spongebob has been killed by Daggx.

---2017/05/23 18:56:49---
Spongebob has been killed by Daggx.

---2017/05/23 19:16:20---
Spongebob has been killed by Daggx.

---2017/05/23 19:21:21---
Spongebob has been killed by Daggx.

---2017/05/23 19:38:17---
Spongebob has been killed by Enraged General Graador.

---2017/05/25 19:00:43---
Spongebob has been killed by Enraged General Graador.

---2018/06/03 11:12:23---
Spongebob has been killed by Barbarian.

---2018/06/03 11:12:58---
Spongebob has been killed by Barbarian.

---2018/06/03 11:13:23---
Spongebob has been killed by Barbarian.

---2018/06/03 11:14:05---
Spongebob has been killed by Barbarian.

---2018/06/03 11:14:26---
Spongebob has been killed by Barbarian.

---2018/06/03 11:15:49---
Spongebob has been killed by Barbarian.

---2018/06/03 11:16:54---
Spongebob has been killed by Barbarian.

---2018/06/03 11:17:23---
Spongebob has been killed by Barbarian.

---2018/06/03 15:42:31---
Spongebob has been killed by Barbarian.

---2018/06/03 15:43:01---
Spongebob has been killed by Barbarian.

---2018/06/03 15:43:15---
Spongebob has been killed by Barbarian.

---2018/06/08 15:09:26---
Spongebob has been killed by Crawling Hand.
