
---2017/02/26 03:44:55---
Vape has been killed by Spiritual Mage.

---2017/02/26 04:07:44---
Vape has been killed by Mithril Dragon.

---2017/02/26 04:10:49---
Vape has been killed by Verac The Defiled.

---2017/02/26 10:44:38---
Vape has been killed by Barrelchest.

---2017/03/02 04:08:37---
Vape has been killed by Skeleton Archer.

---2017/03/02 05:41:30---
Vape has been killed by Corporeal Beast.

---2017/03/02 22:24:19---
Vape has been killed by Cerberus.

---2017/03/02 22:31:26---
Vape has been killed by Ancient Samurai.

---2017/03/02 22:36:25---
Vape has been killed by Ancient Samurai.

---2017/03/09 04:03:10---
Vape has been killed by Sand Crab.

---2017/03/09 04:24:20---
Vape has been killed by Sand Crab.

---2017/03/09 12:29:17---
Vape has been killed by Corporeal Beast.

---2017/03/09 19:32:14---
Vape has been killed by Lava Dragon.

---2017/03/11 13:47:40---
Vape has been killed by Bloodveld.

---2017/03/12 04:22:15---
Vape has been killed by Callisto.

---2017/03/12 23:58:01---
Vape has been killed by Demonic Gorilla.

---2017/03/16 04:52:07---
Vape has been killed by Corporeal Beast.

---2017/03/16 06:20:50---
Vape has been killed by King Black Dragon.

---2017/03/16 09:37:03---
Vape has been killed by Callisto.

---2017/03/16 09:38:27---
Vape has been killed by Callisto.

---2017/03/16 09:39:15---
Vape has been killed by Callisto.

---2017/03/16 09:40:55---
Vape has been killed by Callisto.

---2017/04/15 06:41:58---
Vape has been killed by King Black Dragon.

---2017/06/19 04:19:35---
Vape has been killed by Enraged General Graador.

---2017/06/19 06:20:09---
Vape has been killed by Enraged Skotizo.

---2017/06/19 06:21:14---
Vape has been killed by Enraged Skotizo.

---2017/06/19 06:22:29---
Vape has been killed by Enraged Skotizo.

---2017/06/19 06:23:29---
Vape has been killed by Enraged Skotizo.

---2017/06/20 02:23:46---
Vape has been killed by Enraged General Graador.

---2017/06/20 04:21:11---
Vape has been killed by Enraged General Graador.

---2017/06/20 04:22:17---
Vape has been killed by Enraged General Graador.

---2017/06/20 04:25:25---
Vape has been killed by Enraged General Graador.

---2017/06/21 05:28:15---
Vape has been killed by Enraged General Graador.

---2017/06/21 11:26:14---
Vape has been killed by Enraged Skotizo.

---2017/06/21 11:27:23---
Vape has been killed by Enraged Skotizo.

---2017/06/21 23:34:34---
Vape has been killed by Enraged General Graador.

---2017/06/22 03:27:17---
Vape has been killed by Enraged General Graador.

---2017/06/22 06:21:09---
Vape has been killed by Corporeal Beast.

---2017/06/23 01:29:35---
Vape has been killed by Enraged General Graador.

---2017/06/23 01:30:49---
Vape has been killed by Enraged General Graador.

---2017/06/24 05:35:30---
Vape has been killed by Enraged General Graador.

---2017/06/24 07:28:25---
Vape has been killed by Enraged General Graador.

---2017/06/24 08:07:04---
Vape has been killed by Crystal Dragon.

---2017/06/24 08:10:59---
Vape has been killed by Plague.

---2017/06/24 08:18:20---
Vape has been killed by Plague.

---2017/06/24 08:19:19---
Vape has been killed by Plague.

---2017/06/24 08:22:14---
Vape has been killed by Nxi.

---2017/06/24 08:24:27---
Vape has been killed by Nxi.

---2017/06/24 19:52:00---
Vape has been killed by Spongebob.

---2017/06/25 00:34:46---
Vape has been killed by Corporeal Beast.

---2017/06/25 07:51:06---
Vape has been killed by Enraged Skotizo.

---2017/06/25 07:59:00---
Vape has been killed by Enraged Skotizo.

---2017/06/25 08:00:00---
Vape has been killed by Enraged Skotizo.

---2017/06/25 08:01:06---
Vape has been killed by Enraged Skotizo.

---2017/06/25 08:01:43---
Vape has been killed by Enraged Skotizo.

---2017/06/25 08:05:30---
Vape has been killed by Enraged Skotizo.

---2017/06/25 08:07:30---
Vape has been killed by Enraged Skotizo.

---2017/06/25 08:09:44---
Vape has been killed by Enraged Skotizo.

---2017/06/25 10:00:34---
Vape has been killed by Enraged General Graador.

---2017/06/26 03:46:57---
Vape has been killed by Enraged Skotizo.

---2017/06/26 04:10:48---
Vape has been killed by Enraged Skotizo.

---2018/07/15 12:19:41---
Vape has been killed by Enraged General Graador.

---2018/07/15 12:26:31---
Vape has been killed by Enraged General Graador.

---2018/07/15 12:30:07---
Vape has been killed by Enraged General Graador.

---2018/07/15 12:36:51---
Vape has been killed by Enraged General Graador.

---2018/07/16 00:09:51---
Vape has been killed by Enraged General Graador.

---2018/07/16 15:07:24---
Vape has been killed by General Graardor.
