
---2017/04/23 17:44:07---
Ak47 has received 3000 Dragon Dart from Foxly

---2017/04/23 18:03:37---
Ak47 has received 2000 Dragon Dart from Dream

---2017/04/23 19:19:21---
Ak47 has received 1 Rune Crossbow from Rsps Chaos
Ak47 has received 1 Dark Bow from Rsps Chaos
Ak47 has received 1 Blue Dark Bow Paint from Rsps Chaos
