
---2017/03/13 00:32:16---
Alpha F has received 1 Verac'S Plateskirt from Dottel

---2017/03/13 00:34:37---
Alpha F has received 1 Dragon Boots from Dottel
Alpha F has received 1 Amulet Of Fury from Dottel
