
---2017/03/12 19:00:04---
Antitank has received 7 Tooth Half Of Key from Antirag
Antitank has received 1 Loop Half Of Key from Antirag
Antitank has received 10 Loop Half Of Key from Antirag

---2017/03/12 19:06:45---
Antitank has received 1 Tooth Half Of Key from Antirag
Antitank has received 4 Loop Half Of Key from Antirag

---2017/03/12 19:08:05---
Antitank has received 10 Crystal Key from Antirag

---2017/03/12 19:09:16---
Antitank has given 576669 Coins to Antirag

---2017/03/12 19:09:51---
Antitank has received 7 Tooth Half Of Key from Antirag
