
---2018/08/12 18:24:59---
Baker has received 1 Dragon Boots from Scuzzy
Baker has received 1 Bandos Tassets from Scuzzy

---2018/08/12 18:24:59---
Baker has given 1 Morrigans Chaps to Scuzzy

---2018/08/13 10:22:44---
Baker has given 750000 Coins to Ariza
Baker has given 1 Dragon Scimitar to Ariza

---2018/08/13 11:58:08---
Baker has received 1 Dragon Platelegs from Risharu
Baker has received 1 Vesta'S Platebody from Risharu

---2018/08/13 16:26:39---
Baker has given 608 Death Rune to Ariza
