
---2017/03/24 11:34:15---
Cell has received 1000000 Coins from Chaotical

---2017/03/24 11:59:45---
Cell has received 1 Armadyl Chestplate from Chaotical
Cell has received 1 Armadyl Chainskirt from Chaotical

---2017/03/24 12:00:29---
Cell has received 150 Dragon Dart from Chaotical

---2017/03/28 00:22:47---
Cell has given 1000000 Coins to Invalid

---2017/03/28 00:22:48---
Cell has received 1000 Dragon Dart from Invalid

---2017/03/28 01:48:54---
Cell has given 1 Armadyl Helmet to Exodus
Cell has given 1 Armadyl Chestplate to Exodus
Cell has given 1 Armadyl Chainskirt to Exodus
Cell has given 400 Dragon Dart to Exodus

---2017/03/28 01:48:54---
Cell has received 1 Black D'Hide Chaps from Exodus
Cell has received 1 Black D'Hide Body from Exodus
Cell has received 1 Black D'Hide Vamb from Exodus

---2017/03/28 04:15:32---
Cell has received 1 Dragon Boots from Chaotical

---2017/03/28 04:17:53---
Cell has given 1 Chisel to Chaotical
Cell has given 1 Serpentine Visage to Chaotical

---2017/03/28 04:18:05---
Cell has received 1 Serpentine Helm (Uncharged) from Chaotical
Cell has received 1 Chisel from Chaotical

---2017/03/28 04:19:08---
Cell has received 2000 Zulrah'S Scales from Luke

---2017/03/28 04:19:32---
Cell has received 15954 Zulrah'S Scales from Chaotical

---2017/03/28 04:21:19---
Cell has given 1 Dragon Boots to Exodus
Cell has given 3887403 Coins to Exodus
Cell has given 1 Serpentine Helm to Exodus
Cell has given 10117 Zulrah'S Scales to Exodus
Cell has given 83650 Blood Money to Exodus
Cell has given 4 Loop Half Of Key to Exodus
Cell has given 440 Dragon Dart to Exodus
