
---2017/02/26 03:32:03---
Dream has received 1 Spade from Leonidas

---2017/02/27 04:41:43---
Dream has received 5000000 Coins from Bink

---2017/02/27 04:41:43---
Dream has given 1 Verac'S Plateskirt to Bink

---2017/02/27 04:51:07---
Dream has received 1 Armadyl D'Hide from Toodenchh
Dream has received 1 Armadyl Chaps from Toodenchh

---2017/02/27 04:51:07---
Dream has given 1 Ancient D'Hide to Toodenchh
Dream has given 1 Guthix Chaps to Toodenchh

---2017/02/27 04:54:09---
Dream has given 1 Guthix Coif to Toodenchh

---2017/03/02 01:56:39---
Dream has received 1 Amulet Of Fury from Vape

---2017/03/02 01:56:39---
Dream has given 5000000 Coins to Vape

---2017/03/03 07:54:21---
Dream has given 1000000 Coins to Zeeks

---2017/03/03 07:54:21---
Dream has received 4 Loop Half Of Key from Zeeks

---2017/03/06 00:00:59---
Dream has received 3000000 Coins from Invalid

---2017/03/06 00:00:59---
Dream has given 1 Gilded Platelegs to Invalid

---2017/03/06 06:33:52---
Dream has given 1000000 Coins to Leo

---2017/03/06 06:33:52---
Dream has received 1 Black D'Hide Chaps (G) from Leo

---2017/03/06 09:03:41---
Dream has received 1 Statius Platebody from Toodenchh
Dream has received 1 Vesta'S Spear from Toodenchh

---2017/03/06 10:03:26---
Dream has given 1000000 Coins to Greedo

---2017/03/06 10:03:26---
Dream has received 4 Tooth Half Of Key from Greedo

---2017/03/06 10:03:52---
Dream has received 2 Tooth Half Of Key from Toodenchh

---2017/03/06 10:26:16---
Dream has given 150000 Blood Money to Toodenchh

---2017/03/06 10:26:16---
Dream has received 5000000 Coins from Toodenchh

---2017/03/07 00:36:20---
Dream has received 1 Statius Fullhelm from Dottel

---2017/03/07 00:36:57---
Dream has given 1 Vesta'S Spear to Squidward

---2017/03/07 00:52:15---
Dream has received 100 Dragon Bones from Dottel

---2017/03/07 03:10:34---
Dream has received 1 Robe Bottom Of Darkness from Dottel

---2017/03/07 04:58:39---
Dream has given 3500000 Coins to Ganja

---2017/03/07 04:58:39---
Dream has received 7 Loop Half Of Key from Ganja

---2017/03/10 07:10:04---
Dream has received 159 Wyvern Bones from Dottel
Dream has received 21 Lava Dragon Bones from Dottel

---2017/03/10 07:10:04---
Dream has given 2000000 Coins to Dottel

---2017/03/10 07:43:45---
Dream has received 31 Lava Dragon Bones from Dottel

---2017/03/10 07:43:45---
Dream has given 31000 Blood Money to Dottel

---2017/03/10 18:49:02---
Dream has received 1 Boots Of Darkness from Nub

---2017/03/10 18:49:02---
Dream has given 2000000 Coins to Nub

---2017/03/10 19:46:49---
Dream has received 12 Lava Dragon Bones from Antirag
Dream has received 25 Dragon Bones from Antirag

---2017/03/10 21:35:44---
Dream has received 54 Lava Dragon Bones from Beroca

---2017/03/10 21:35:44---
Dream has given 1500000 Coins to Beroca

---2017/03/10 21:40:13---
Dream has received 25 Lava Dragon Bones from Beroca

---2017/03/10 21:40:13---
Dream has given 625000 Coins to Beroca

---2017/03/21 03:17:02---
Dream has received 5 Tooth Half Of Key from Bad Rng

---2017/03/23 01:53:38---
Dream has given 10000000 Coins to Luke

---2017/03/23 01:53:38---
Dream has received 10 Crystal Key from Luke

---2017/03/23 22:01:26---
Dream has given 5000000 Coins to Sensi

---2017/03/23 22:24:28---
Dream has received 1 Draconic Visage from Clemens

---2017/03/23 22:24:28---
Dream has given 20000000 Coins to Clemens

---2017/03/24 04:31:16---
Dream has received 8000 Uncut Diamond from Chaotical

---2017/03/24 07:36:34---
Dream has given 78 Dragon Bones to Trout

---2017/03/28 05:44:49---
Dream has received 1 3rd Age Pickaxe from Chaotical

---2017/03/28 08:28:12---
Dream has received 5203 Dragon Dart Tip from Chaotical
Dream has received 5400 Feather from Chaotical

---2017/03/28 08:39:45---
Dream has given 3 Dragon Dart Tip to Chaotical
Dream has given 200 Feather to Chaotical
Dream has given 5200 Dragon Dart to Chaotical

---2017/03/28 08:42:30---
Dream has given 139 Dragon Bones to Chaotical

---2017/03/28 09:40:03---
Dream has given 1 Dragonfire Shield to Chaotical

---2017/03/28 09:40:03---
Dream has received 10000000 Coins from Chaotical

---2017/03/28 13:14:13---
Dream has received 3 Loop Half Of Key from Luke

---2017/03/28 20:23:58---
Dream has given 1 Guthix Full Helm to Pvm Doop
Dream has given 1 Guthix Platebody to Pvm Doop
Dream has given 1 Guthix Platelegs to Pvm Doop

---2017/03/30 23:12:39---
Dream has given 1 3rd Age Pickaxe to Chaotical

---2017/03/31 07:51:37---
Dream has received 82 Runite Ore from Chaotical

---2017/03/31 08:56:53---
Dream has given 1 Abyssal Whip to Nawnq

---2017/03/31 15:27:38---
Dream has received 33 Harralander from Pvm Doop
Dream has received 1202 Pure Essence from Pvm Doop
Dream has received 2 Ranarr Weed from Pvm Doop
Dream has received 3 Avantoe from Pvm Doop
Dream has received 6 Kwuarm from Pvm Doop
Dream has received 73 Grimy Guam Leaf from Pvm Doop
Dream has received 19 Dwarf Weed from Pvm Doop
Dream has received 9 Tarromin Seed from Pvm Doop
Dream has received 3 Harralander Seed from Pvm Doop
Dream has received 284 Grimy Harralander from Pvm Doop
Dream has received 21 Ranarr Seed from Pvm Doop
Dream has received 6 Grimy Ranarr Weed from Pvm Doop
Dream has received 11 Toadflax Seed from Pvm Doop
Dream has received 30 Irit Seed from Pvm Doop
Dream has received 31 Avantoe Seed from Pvm Doop
Dream has received 54 Grimy Irit Leaf from Pvm Doop
Dream has received 10 Kwuarm Seed from Pvm Doop
Dream has received 82 Grimy Avantoe from Pvm Doop
Dream has received 66 Grimy Cadantine from Pvm Doop
Dream has received 4 Guam Leaf from Pvm Doop
Dream has received 114 Grimy Dwarf Weed from Pvm Doop
Dream has received 8 Marrentill from Pvm Doop
Dream has received 1000 Rune Essence from Pvm Doop
Dream has received 6 Tarromin from Pvm Doop

---2017/04/04 05:03:55---
Dream has given 10000000 Coins to Reihana
Dream has given 1 Statius Warhammer to Reihana
Dream has given 1 Vesta'S Longsword to Reihana

---2017/04/04 05:05:47---
Dream has given 1 Vesta'S Longsword to Yoza

---2017/04/04 05:24:45---
Dream has given 1000000 Coins to Yoza

---2017/04/04 05:24:45---
Dream has received 11698 Blood Money from Yoza

---2017/04/04 05:36:13---
Dream has given 1 Statius Fullhelm to Yoza
Dream has given 1 Vesta'S Platebody to Yoza
Dream has given 1 Vesta'S Chainskirt to Yoza

---2017/04/04 05:36:13---
Dream has received 1 Statius Platelegs from Yoza

---2017/04/04 06:23:59---
Dream has received 5404 Blood Money from Yoza

---2017/04/04 09:27:24---
Dream has received 600 Pure Essence from Yoza

---2017/04/04 09:27:24---
Dream has given 400000 Coins to Yoza

---2017/04/04 10:24:26---
Dream has received 300 Pure Essence from Yoza

---2017/04/07 23:22:19---
Dream has received 4150 Pure Essence from Spongebob

---2017/04/07 23:22:19---
Dream has given 5000000 Coins to Spongebob

---2017/04/10 07:11:24---
Dream has given 2403 Dragon Dart to Nexi

---2017/04/10 07:49:59---
Dream has given 11000000 Coins to Nexi

---2017/04/10 07:49:59---
Dream has received 1 Primordial Boots from Nexi

---2017/04/11 22:14:32---
Dream has given 1 Abyssal Whip to Eliteforge

---2017/04/11 22:30:06---
Dream has received 487 Dragon Bones from Fallen

---2017/04/13 06:58:41---
Dream has given 1 Statius Platebody to Spunkymunkey
Dream has given 1 Statius Platelegs to Spunkymunkey

---2017/04/13 18:52:00---
Dream has received 1000 Dragon Bones from Spunkymunkey

---2017/04/13 19:32:43---
Dream has given 231 Magic Logs to Spunkymunkey

---2017/04/13 19:33:47---
Dream has given 2000 Dragon Dart to Spunkymunkey

---2017/04/13 19:33:47---
Dream has received 5 Magic Longbow (U) from Spunkymunkey

---2017/04/15 00:28:03---
Dream has given 15000000 Coins to Nxi

---2017/04/15 00:28:03---
Dream has received 1 Kraken Tentacle from Nxi

---2017/04/15 03:26:43---
Dream has given 1 Kraken Tentacle to Andyy

---2017/04/15 03:26:43---
Dream has received 10000000 Coins from Andyy

---2017/04/16 22:39:54---
Dream has given 1 Dragon Boots to Number 1

---2017/04/16 22:39:54---
Dream has received 3500000 Coins from Number 1

---2017/04/17 00:40:50---
Dream has given 1 Babydragon Bones to Foxly

---2017/04/17 00:40:50---
Dream has received 2789 Babydragon Bones from Foxly
Dream has received 516 Dragon Bones from Foxly

---2017/04/17 01:16:15---
Dream has given 200 Super Combat Potion(4) to Strawberry

---2017/04/17 01:42:58---
Dream has received 3240 Babydragon Bones from Foxly
Dream has received 224 Dragon Bones from Foxly

---2017/04/17 01:48:15---
Dream has given 1243 Zulrah'S Scales to Foxly

---2017/04/17 01:53:18---
Dream has received 50000000 Coins from Verlossing

---2017/04/17 01:53:18---
Dream has given 1 Armadyl Godsword to Verlossing

---2017/04/17 22:40:35---
Dream has given 1 Dinh'S Bulwark to Fallen

---2017/04/17 22:40:35---
Dream has received 70000000 Coins from Fallen

---2017/04/18 03:29:47---
Dream has given 727 Babydragon Bones to Brom0777
Dream has given 1045 Dragon Bones to Brom0777

---2017/04/18 21:27:06---
Dream has received 1 Twisted Bow from Foxly

---2017/04/18 21:27:06---
Dream has given 50000000 Coins to Foxly
Dream has given 50000 Blood Money to Foxly

---2017/04/19 16:47:53---
Dream has received 8000000 Coins from Spongebob

---2017/04/19 16:47:53---
Dream has given 1 Fury Ornament Kit to Spongebob

---2017/04/20 01:33:36---
Dream has received 1 Cosmic Rune from Aaron
Dream has received 1 Onyx Amulet from Aaron
Dream has received 20 Fire Rune from Aaron
Dream has received 20 Earth Rune from Aaron

---2017/04/20 01:34:39---
Dream has received 1 Staff Of Fire from Aaron

---2017/04/20 01:35:29---
Dream has given 1 Amulet Of Fury to Aaron

---2017/04/20 23:06:25---
Dream has received 1964 Dragon Dart Tip from Nxi
Dream has received 1964 Feather from Nxi

---2017/04/20 23:10:54---
Dream has given 4 Dragon Dart Tip to Nxi
Dream has given 4 Feather to Nxi
Dream has given 1960 Dragon Dart to Nxi

---2017/04/22 23:16:04---
Dream has given 1 Statius Warhammer to Greeny
Dream has given 1 3rd Age Range Top to Greeny

---2017/04/22 23:18:31---
Dream has given 1 Ring Of Wealth to Greeny

---2017/04/23 02:49:21---
Dream has received 60000000 Coins from Verlossing

---2017/04/23 02:49:21---
Dream has given 1 Dharok'S Platebody to Verlossing
Dream has given 1 Twisted Bow to Verlossing
Dream has given 1 Fury Ornament Kit to Verlossing

---2017/04/23 05:23:32---
Dream has given 1 Rune Crossbow to Abyssal
Dream has given 1 Dragon Scimitar Ornament Kit to Abyssal
Dream has given 10000000 Coins to Abyssal
Dream has given 50 Prayer Potion(4) to Abyssal
Dream has given 50 Ranging Potion(4) to Abyssal
Dream has given 2 Black Cavalier to Abyssal
Dream has given 1 3rd Age Cloak to Abyssal
Dream has given 1 Armadyl Chainskirt to Abyssal
Dream has given 1 3rd Age Range Top to Abyssal
Dream has given 1 Black D'Hide Body (G) to Abyssal
Dream has given 1 Spirit Shield to Abyssal
Dream has given 681 Dragon Bolts to Abyssal
Dream has given 2000 Dragon Dart to Abyssal
Dream has given 1 Black D'Hide Chaps (G) to Abyssal

---2017/04/23 05:27:23---
Dream has given 1 Tzhaar-Ket-Om to Abyssal

---2017/04/23 05:33:00---
Dream has given 665 Shark to Abyssal

---2017/04/23 05:56:27---
Dream has received 8 Crystal Key from Abyssal

---2017/04/23 06:07:32---
Dream has given 334 Dragon Bones to Abyssal

---2017/04/23 07:01:58---
Dream has received 14 Crystal Key from Abyssal

---2017/04/23 18:03:37---
Dream has given 2000 Dragon Dart to Ak47

---2017/04/23 20:21:19---
Dream has given 7 Prayer Potion(4) to Greeny

---2017/04/23 21:18:32---
Dream has given 78000000 Coins to Spongebob

---2017/04/23 21:18:32---
Dream has received 600000 Blood Money from Spongebob

---2017/04/23 22:14:59---
Dream has received 1 Toxic Blowpipe (Empty) from Spongebob

---2017/04/23 22:14:59---
Dream has given 90004620 Coins to Spongebob

---2017/04/24 00:18:53---
Dream has received 1 Tooth Half Of Key from Abyssal
Dream has received 10079 Blood Money from Abyssal
Dream has received 1 Crystal Key from Abyssal

---2017/04/24 00:19:57---
Dream has received 1 3rd Age Cloak from Abyssal

---2017/04/24 00:22:01---
Dream has received 2 Crystal Key from Abyssal

---2017/04/25 05:44:32---
Dream has given 76 Dragon Bones to Hunned

---2017/04/25 05:51:05---
Dream has given 1 Statius Platebody to Hunned
Dream has given 1 Bandos Godsword to Hunned

---2017/04/25 07:26:57---
Dream has given 1 Dragon Chainbody to Abyssal
Dream has given 1 Dragon Full Helm to Abyssal
Dream has given 1 Vesta'S Platebody to Abyssal
Dream has given 2 Black Helm (H4) to Abyssal
Dream has given 1 Vesta'S Chainskirt to Abyssal
Dream has given 5194 Uncut Diamond to Abyssal
Dream has given 1 Statius Fullhelm to Abyssal
Dream has given 4 Zamorak Cloak to Abyssal
Dream has given 1 Dragonfire Shield to Abyssal
Dream has given 38 Black Cavalier to Abyssal
Dream has given 217 Uncut Ruby to Abyssal
Dream has given 1 3rd Age Cloak to Abyssal
Dream has given 97 Uncut Sapphire to Abyssal
Dream has given 4 Helm Of Neitiznot to Abyssal
Dream has given 1 3rd Age Range Top to Abyssal
Dream has given 22 Pirate'S Hat to Abyssal
Dream has given 1 Necklace Of Anguish to Abyssal
Dream has given 10414677 Coins to Abyssal
Dream has given 2 Navy Cavalier to Abyssal
Dream has given 1 Abyssal Tentacle to Abyssal
Dream has given 2 Onyx to Abyssal
Dream has given 1 Dark Infinity Colour Kit to Abyssal
Dream has given 1 Dharok'S Platebody to Abyssal
Dream has given 1 Eternal Boots to Abyssal
Dream has given 1 Pegasian Boots to Abyssal
Dream has given 1 Armadyl Chainskirt to Abyssal
Dream has given 2 Dragon Platelegs to Abyssal
Dream has given 129967 Blood Money to Abyssal

---2017/04/25 07:30:47---
Dream has given 1 Rune Warhammer to Abyssal
Dream has given 1 Samurai Kasa to Abyssal
Dream has given 42 Super Attack(4) to Abyssal
Dream has given 1 Samurai Shirt to Abyssal
Dream has given 50 Super Strength(4) to Abyssal
Dream has given 1 Elemental Shield to Abyssal
Dream has given 47 Super Defence(4) to Abyssal
Dream has given 106 Rune Full Helm to Abyssal
Dream has given 30 Black Beret to Abyssal
Dream has given 1 Samurai Greaves to Abyssal
Dream has given 64 Dragonstone to Abyssal
Dream has given 44 Uncut Emerald to Abyssal
Dream has given 1 Blue D'Hide Chaps (G) to Abyssal
Dream has given 1 Zamorak Plateskirt to Abyssal
Dream has given 1 Ancestral Hat to Abyssal
Dream has given 6 Zamorak Full Helm to Abyssal
Dream has given 2 Pith Helmet to Abyssal
Dream has given 21 Rune Platebody to Abyssal
Dream has given 12 Saradomin Full Helm to Abyssal
Dream has given 6 Guthix Platebody to Abyssal
Dream has given 5 Guthix Full Helm to Abyssal
Dream has given 509 Flax to Abyssal
Dream has given 1 Guthan'S Warspear to Abyssal
Dream has given 1 Primordial Boots to Abyssal
Dream has given 25 Adamantite Bar to Abyssal
Dream has given 42 Rune Arrow to Abyssal
Dream has given 1 Gnome Scarf to Abyssal

---2017/04/25 07:33:43---
Dream has given 325 Dragon Dart Tip to Abyssal
Dream has given 2 Hood Of Darkness to Abyssal
Dream has given 3696 Bolt Rack to Abyssal
Dream has given 10 Robe Top Of Darkness to Abyssal
Dream has given 10272 Dragon Arrowtips to Abyssal
Dream has given 2 Zamorak Chaps to Abyssal
Dream has given 1 Ahrim'S Staff to Abyssal
Dream has given 7 Gloves Of Darkness to Abyssal
Dream has given 96 Magic Logs to Abyssal
Dream has given 5 Robe Bottom Of Darkness to Abyssal
Dream has given 5 Boots Of Darkness to Abyssal
Dream has given 1 Dharok'S Greataxe to Abyssal
Dream has given 2233 Feather to Abyssal
Dream has given 6 Zamorak Platebody to Abyssal

---2017/04/25 07:37:53---
Dream has given 58 Runite Ore to Abyssal
Dream has given 7 Ancient Staff to Abyssal
Dream has given 28 Magic Seed to Abyssal
Dream has given 327 Coal to Abyssal
Dream has given 1 Black D'Hide Body to Abyssal
Dream has given 9899 Dragon Arrow to Abyssal
Dream has given 5 Ancient D'Hide to Abyssal
Dream has given 1 Gardening Trowel to Abyssal
Dream has given 1 Statius Platebody to Abyssal
Dream has given 1273 Dragon Bolts (E) to Abyssal
Dream has given 1918 Dragon Dart to Abyssal
Dream has given 1 Rake to Abyssal
Dream has given 1 Seed Dibber to Abyssal
Dream has given 1 Black Platebody to Abyssal
Dream has given 86 Crushed Nest to Abyssal
Dream has given 9 Saradomin Platebody to Abyssal
Dream has given 8 Saradomin Platelegs to Abyssal
Dream has given 1 Pestle And Mortar to Abyssal
Dream has given 25 Purple Sweets to Abyssal
Dream has given 1 Bandos Stole to Abyssal
Dream has given 1 3rd Age Pickaxe to Abyssal
Dream has given 6 Guthix Platelegs to Abyssal
Dream has given 117 Lantadyme to Abyssal
Dream has given 1 Fire Battlestaff to Abyssal
Dream has given 1 Black Platelegs to Abyssal
Dream has given 10 Rune Platelegs to Abyssal
Dream has given 1 Team Cape I to Abyssal
Dream has given 4 Runite Bar to Abyssal

---2017/04/25 07:40:32---
Dream has given 6 Zamorak D'Hide to Abyssal
Dream has given 5 Zamorak Coif to Abyssal
Dream has given 8 Onion Seed to Abyssal
Dream has given 2 Guthix Bracers to Abyssal
Dream has given 5 Guthix Dragonhide to Abyssal
Dream has given 12 Cabbage Seed to Abyssal
Dream has given 6 Guthix Chaps to Abyssal
Dream has given 5 Guthix Coif to Abyssal
Dream has given 1 Blue D'Hide Body (T) to Abyssal
Dream has given 3 Bandos Bracers to Abyssal
Dream has given 4 Saradomin Chaps to Abyssal
Dream has given 4 Bandos D'Hide to Abyssal
Dream has given 10 Bandos Chaps to Abyssal
Dream has given 1 Red Boots to Abyssal
Dream has given 5 Bandos Coif to Abyssal
Dream has given 10 Armadyl D'Hide to Abyssal
Dream has given 8 Armadyl Chaps to Abyssal
Dream has given 6 Armadyl Coif to Abyssal
Dream has given 198 Guam Seed to Abyssal
Dream has given 196 Marrentill Seed to Abyssal
Dream has given 323 Ranarr Seed to Abyssal
Dream has given 266 Toadflax Seed to Abyssal
Dream has given 319 Irit Seed to Abyssal
Dream has given 297 Kwuarm Seed to Abyssal
Dream has given 341 Snapdragon Seed to Abyssal
Dream has given 8 Rune Platelegs to Abyssal
Dream has given 453 Torstol Seed to Abyssal
Dream has given 1 Snakeskin Boots to Abyssal

---2017/04/25 07:48:06---
Dream has given 3661 Pure Essence to Abyssal
Dream has given 2147 Shark to Abyssal
Dream has given 203 Prayer Potion(4) to Abyssal
Dream has given 208 Ranging Potion(4) to Abyssal
Dream has given 9 Super Restore(4) to Abyssal
Dream has given 1470 Antifire Potion(4) to Abyssal
Dream has given 10 Plant Cure to Abyssal
Dream has given 288 Super Combat Potion(4) to Abyssal
Dream has given 482 Rune Essence to Abyssal
Dream has given 47 Super Strength(3) to Abyssal
Dream has given 10 Magic Potion(4) to Abyssal
Dream has given 924 Vial Of Water to Abyssal
Dream has given 6 Ancient Cloak to Abyssal
Dream has given 700 Fire Rune to Abyssal
Dream has given 2311 Water Rune to Abyssal
Dream has given 1854 Air Rune to Abyssal
Dream has given 3146 Earth Rune to Abyssal
Dream has given 275 Mind Rune to Abyssal
Dream has given 45 Body Rune to Abyssal
Dream has given 5155 Death Rune to Abyssal
Dream has given 3250 Nature Rune to Abyssal
Dream has given 590 Chaos Rune to Abyssal
Dream has given 1 Strength Potion(4) to Abyssal
Dream has given 7055 Astral Rune to Abyssal
Dream has given 788 Law Rune to Abyssal
Dream has given 454 Cosmic Rune to Abyssal
Dream has given 12387 Blood Rune to Abyssal
Dream has given 1206 Soul Rune to Abyssal

---2017/04/25 07:53:24---
Dream has given 58 Harralander to Abyssal
Dream has given 1 Gilded Hasta to Abyssal
Dream has given 173 Irit Leaf to Abyssal
Dream has given 360 Avantoe to Abyssal
Dream has given 266 Grimy Guam Leaf to Abyssal
Dream has given 88 Kwuarm to Abyssal
Dream has given 3 Zamorak Crozier to Abyssal
Dream has given 486 Grimy Harralander to Abyssal
Dream has given 136 Grimy Irit Leaf to Abyssal
Dream has given 158 Grimy Cadantine to Abyssal
Dream has given 182 Grimy Dwarf Weed to Abyssal
Dream has given 8 Zamorak Platelegs to Abyssal
Dream has given 1 Zamorak Kiteshield to Abyssal
Dream has given 14 Weeds to Abyssal
Dream has given 3 Ancient Crozier to Abyssal
Dream has given 1 Guthix Stole to Abyssal
Dream has given 1 Grimy Toadflax to Abyssal
Dream has given 3 Diamond Ring to Abyssal
Dream has given 2 Lobster Pot to Abyssal
Dream has given 303 Avantoe Seed to Abyssal
Dream has given 3 Rune Kiteshield to Abyssal
Dream has given 1 Shayzien House Scarf to Abyssal
Dream has given 239 Lantadyme Seed to Abyssal
Dream has given 248 Toadflax to Abyssal
Dream has given 81 Guam Leaf to Abyssal
Dream has given 56 Marrentill to Abyssal
Dream has given 8 Tarromin to Abyssal
Dream has given 3 Blue D'Hide Chaps to Abyssal

---2017/04/25 07:56:33---
Dream has given 7 Zamorak Bracers to Abyssal
Dream has given 1 Dragon Halberd to Abyssal
Dream has given 1 Mystic Robe Top (Dark) to Abyssal
Dream has given 1 Mystic Robe Bottom (Dark) to Abyssal
Dream has given 3 Ancient Bracers to Abyssal
Dream has given 2 Black Full Helm to Abyssal
Dream has given 3 Ancient Chaps to Abyssal
Dream has given 3 Rune Axe to Abyssal
Dream has given 5 Ancient Coif to Abyssal
Dream has given 158 Grimy Avantoe to Abyssal
Dream has given 14 Watering Can to Abyssal
Dream has given 7 Saradomin Coif to Abyssal
Dream has given 3 Armadyl Bracers to Abyssal
Dream has given 1 Steel Platebody to Abyssal
Dream has given 2 Black Elegant Shirt to Abyssal
Dream has given 2 Rune Crossbow to Abyssal
Dream has given 1 Dragon Spear to Abyssal
Dream has given 1 Staff Of Earth to Abyssal
Dream has given 1 3rd Age Axe to Abyssal
Dream has given 1 Steel Platelegs to Abyssal
Dream has given 2 Small Fishing Net to Abyssal
Dream has given 1 Knife to Abyssal
Dream has given 317 Grimy Lantadyme to Abyssal
Dream has given 2 Harpoon to Abyssal
Dream has given 29 Snapdragon to Abyssal
Dream has given 2 Spade to Abyssal
Dream has given 1 Black D'Hide Vamb to Abyssal

---2017/04/25 07:58:37---
Dream has given 10 Saradomin Bracers to Abyssal
Dream has given 6 Saradomin D'Hide to Abyssal
Dream has given 2 Amulet Of Power to Abyssal

---2017/04/25 08:01:03---
Dream has received 20863623 Coins from Abyssal

---2017/04/25 08:32:43---
Dream has received 1 Samurai Kasa from Abyssal
Dream has received 1 Abyssal Tentacle from Abyssal
Dream has received 1 Samurai Shirt from Abyssal
Dream has received 1 Vesta'S Platebody from Abyssal
Dream has received 1 Vesta'S Chainskirt from Abyssal
Dream has received 1 Samurai Greaves from Abyssal
Dream has received 1 Dharok'S Platebody from Abyssal
Dream has received 1 Statius Fullhelm from Abyssal
Dream has received 1 Eternal Boots from Abyssal
Dream has received 1 Dragonfire Shield from Abyssal
Dream has received 1 Pegasian Boots from Abyssal
Dream has received 1 Primordial Boots from Abyssal
Dream has received 129967 Blood Money from Abyssal
Dream has received 1 Necklace Of Anguish from Abyssal

---2017/04/25 08:55:00---
Dream has received 1 Guthan'S Warspear from Abyssal
Dream has received 1 Dharok'S Greataxe from Abyssal

---2017/04/26 03:16:21---
Dream has received 1 Team Cape I from Abyssal

---2017/04/26 04:15:30---
Dream has received 1 Black D'Hide Chaps from Not Kenny

---2017/04/26 04:49:19---
Dream has received 1 Black D'Hide Body from Abyssal
Dream has received 19308 Blood Money from Abyssal
Dream has received 9 Crystal Key from Abyssal

---2017/04/26 04:54:35---
Dream has received 2 Spade from Abyssal

---2017/04/26 04:57:35---
Dream has received 251 Prayer Potion(4) from Abyssal
Dream has received 1470 Antifire Potion(4) from Abyssal
Dream has received 1 Armadyl Chainskirt from Abyssal
Dream has received 288 Super Combat Potion(4) from Abyssal
Dream has received 1 3rd Age Range Top from Abyssal

---2017/04/26 05:02:18---
Dream has received 17 Crystal Key from Abyssal

---2017/04/26 05:08:40---
Dream has received 2843 Shark from Abyssal
Dream has received 1 Dragon Chainbody from Abyssal
Dream has received 1 Dragon Full Helm from Abyssal
Dream has received 2 Dragon Platelegs from Abyssal
Dream has received 266 Ranging Potion(4) from Abyssal

---2017/04/26 05:33:53---
Dream has given 1 Ahrim'S Robetop to Abyssal
Dream has given 1 Torag'S Helm to Abyssal
Dream has given 1 Guthan'S Chainskirt to Abyssal

---2017/04/26 05:51:08---
Dream has received 3 Helm Of Neitiznot from Abyssal

---2017/04/26 05:56:20---
Dream has received 1 Black Platebody from Abyssal
Dream has received 1 Black Platelegs from Abyssal

---2017/04/26 05:57:11---
Dream has received 1 Dragon Halberd from Abyssal
