
---2017/04/06 02:53:22---
Fallen has given 1 Loop Half Of Key to Not Kenny

---2017/04/06 04:39:54---
Fallen has received 500 Dragon Dart from Bad Rng

---2017/04/06 07:47:41---
Fallen has received 1 Kraken Tentacle from Dottel

---2017/04/06 08:18:37---
Fallen has received 1 Vesta'S Longsword from Viro

---2017/04/06 08:19:02---
Fallen has received 1 Bandos Godsword from Viro

---2017/04/06 08:19:17---
Fallen has received 10881043 Coins from Viro

---2017/04/06 08:19:37---
Fallen has received 1 Hood Of Darkness from Viro

---2017/04/06 08:20:59---
Fallen has received 1 Vesta'S Spear from Viro

---2017/04/06 08:21:56---
Fallen has received 1 Verac'S Flail from Viro

---2017/04/06 08:29:14---
Fallen has given 1 Vesta'S Longsword to Ivan
Fallen has given 1 Vesta'S Spear to Ivan

---2017/04/06 18:00:53---
Fallen has given 315 Dragon Dart to Not Kenny

---2017/04/06 19:34:45---
Fallen has given 10000000 Coins to Not Kenny

---2017/04/06 19:34:45---
Fallen has received 1 Ranger Boots from Not Kenny

---2017/04/06 22:34:59---
Fallen has received 1 Ring Of Wealth from Not Kenny

---2017/04/07 17:08:09---
Fallen has given 1 Ancestral Robe Bottom to Spongebob

---2017/04/07 17:08:09---
Fallen has received 20000000 Coins from Spongebob
Fallen has received 1 Armadyl Chainskirt from Spongebob

---2017/04/07 19:20:12---
Fallen has received 1 Draconic Visage from Dottel

---2017/04/07 19:21:12---
Fallen has received 1 Serpentine Helm (Uncharged) from Dottel

---2017/04/07 21:27:16---
Fallen has received 1 Pegasian Boots from Mod Dottel
Fallen has received 1 Amulet Of Fury from Mod Dottel

---2017/04/09 19:52:59---
Fallen has given 1500 Pure Essence to Maxed

---2017/04/11 04:13:47---
Fallen has given 1009 Dragon Bones to Not Kenny

---2017/04/11 04:36:19---
Fallen has given 1 Ring Of Suffering to Not Kenny
Fallen has given 800 Dragon Dart to Not Kenny

---2017/04/11 04:44:55---
Fallen has given 1 Dragon Bolts (E) to Not Kenny

---2017/04/11 05:25:43---
Fallen has given 3 Shark to Not Kenny
Fallen has given 1 Manta Ray to Not Kenny

---2017/04/11 05:56:35---
Fallen has received 1 Ring Of Suffering from Not Kenny

---2017/04/11 22:30:06---
Fallen has given 487 Dragon Bones to Dream

---2017/04/12 06:57:40---
Fallen has received 1 Bandos Upgrade Scroll from Not Kenny

---2017/04/12 06:57:40---
Fallen has given 1 Ranger Boots to Not Kenny

---2017/04/12 07:01:57---
Fallen has given 10000 Zulrah'S Scales to Not Kenny

---2017/04/12 18:32:00---
Fallen has given 1 Ring Of Wealth to Noobie X

---2017/04/13 04:42:25---
Fallen has received 940 Dragon Dart Tip from Not Kenny

---2017/04/13 05:05:33---
Fallen has received 1 Statius Warhammer from Not Kenny

---2017/04/13 05:10:19---
Fallen has given 1 Statius Warhammer to Not Kenny

---2017/04/13 05:24:15---
Fallen has given 1 Dragon Dagger(P++) to Not Kenny
Fallen has given 1 Dragonfire Shield to Not Kenny
Fallen has given 1 Helm Of Neitiznot to Not Kenny

---2017/04/13 05:29:14---
Fallen has given 1 Dragon Dagger(P++) to Not Kenny
Fallen has given 1 Dragonfire Shield to Not Kenny
Fallen has given 1 Helm Of Neitiznot to Not Kenny

---2017/04/13 05:30:52---
Fallen has given 1 Dragon Dagger(P++) to Not Kenny
Fallen has given 1 Dragonfire Shield to Not Kenny
Fallen has given 1 Helm Of Neitiznot to Not Kenny

---2017/04/13 05:32:58---
Fallen has received 1 Amulet Of Torture from Not Kenny
Fallen has received 1 Serpentine Helm from Not Kenny
Fallen has received 1 Dragonfire Shield from Not Kenny
Fallen has received 1 Bandos Tassets (I) from Not Kenny
Fallen has received 1 Abyssal Tentacle from Not Kenny
Fallen has received 1 Primordial Boots from Not Kenny
Fallen has received 1 Armadyl Godsword from Not Kenny

---2017/04/13 05:43:49---
Fallen has received 1 Amulet Of Torture from Not Kenny
Fallen has received 1 Pegasian Boots from Not Kenny
Fallen has received 1 Toxic Blowpipe from Not Kenny

---2017/04/13 05:44:19---
Fallen has received 1 Ring Of Wealth (I) from Not Kenny

---2017/04/13 18:56:54---
Fallen has given 10000000 Coins to Dakotaw32

---2017/04/13 19:04:13---
Fallen has given 1 Amulet Of Torture to Dakotaw32
Fallen has given 1 Tormented Bracelet to Dakotaw32

---2017/04/13 19:06:23---
Fallen has given 1 Statius Fullhelm to Dakotaw32
Fallen has given 1 Dragon Sq Shield to Dakotaw32
Fallen has given 1 Dragon Platelegs to Dakotaw32
Fallen has given 1 Abyssal Whip to Dakotaw32
Fallen has given 1 Torag'S Platebody to Dakotaw32

---2017/04/13 19:07:54---
Fallen has given 964 Dragon Bones to Dakotaw32

---2017/04/14 00:29:54---
Fallen has given 1 Butterfly Net to Dakotaw32

---2017/04/14 00:33:57---
Fallen has given 1 Archer Helm to Dakotaw32

---2017/04/17 22:24:13---
Fallen has given 1 Twisted Bow to Rsps Chaos

---2017/04/17 22:24:54---
Fallen has given 8160 Dragon Arrow to Rsps Chaos

---2017/04/17 22:40:35---
Fallen has received 1 Dinh'S Bulwark from Dream

---2017/04/17 22:40:35---
Fallen has given 70000000 Coins to Dream

---2017/05/13 06:40:21---
Fallen has given 1 Dragon Platelegs to Steez
Fallen has given 1 Tormented Bracelet to Steez
Fallen has given 1 Amulet Of Fury to Steez
Fallen has given 109121 Blood Money to Steez
Fallen has given 1 Bandos Godsword to Steez

---2017/05/13 06:50:57---
Fallen has given 1209 Dragon Dart to Steez

---2017/05/13 06:57:42---
Fallen has given 10000000 Coins to Steez

---2017/05/13 07:05:50---
Fallen has given 1 Ruby Bolts (E) to Steez

---2017/05/13 07:07:29---
Fallen has given 100 Zul-Andra Teleport to Steez

---2017/05/13 07:19:15---
Fallen has given 1 Toxic Blowpipe to Steez

---2017/05/13 07:20:22---
Fallen has given 22684 Zulrah'S Scales to Steez

---2017/05/13 07:20:36---
Fallen has received 7328 Zulrah'S Scales from Steez

---2017/05/13 07:41:33---
Fallen has received 1 Toxic Blowpipe from Steez

---2017/05/13 18:37:10---
Fallen has given 1 Light Ballista to Daggx
Fallen has given 1 Heavy Ballista to Daggx

---2017/05/13 18:42:17---
Fallen has received 1 Light Ballista from Daggx
Fallen has received 1 Heavy Ballista from Daggx
