
---2017/03/15 20:02:13---
Flux has given 2000000 Coins to Eyebuilder

---2017/03/15 20:11:00---
Flux has given 38 Mackerel to Eyebuilder
Flux has given 12 Cod to Eyebuilder
Flux has given 130 Tuna to Eyebuilder

---2017/03/15 20:11:27---
Flux has given 1 Spirit Shield to Eyebuilder

---2017/03/15 20:55:59---
Flux has received 1 Magic Box from Eyebuilder
Flux has received 2 Crystal Key from Eyebuilder

---2017/03/15 20:58:23---
Flux has given 5 Big Bones to Eyebuilder
Flux has given 150 Big Bones to Eyebuilder

---2017/03/15 22:00:15---
Flux has given 33 Big Bones to Eyebuilder
Flux has given 1 Black Mask to Eyebuilder

---2017/03/20 02:00:47---
Flux has received 200 Dragon Bones from Bad Rng

---2017/03/20 02:11:58---
Flux has given 1 Dragon Boots to Luke

---2017/03/26 22:07:34---
Flux has given 38 Coal to Dhar

---2017/03/28 19:02:06---
Flux has received 1 Statius Fullhelm from Clemens
Flux has received 1 Vesta'S Platebody from Clemens
