
---2017/04/06 23:41:06---
Foxly has received 1 Crystal Key from Dottel

---2017/04/06 23:44:22---
Foxly has received 5 Crystal Key from Bad Rng

---2017/04/06 23:45:37---
Foxly has received 1 Dragon Scimitar Ornament Kit from Bad Rng
Foxly has received 1 Dragon Sq Shield Ornament Kit from Bad Rng
Foxly has received 1 Dragon Chainbody Ornament Kit from Bad Rng

---2017/04/07 00:20:25---
Foxly has given 3138 Blood Money to Spongebob

---2017/04/07 00:20:25---
Foxly has received 1000000 Coins from Spongebob

---2017/04/09 17:56:46---
Foxly has received 1 Amulet Of Fury from Sunny

---2017/04/09 17:56:46---
Foxly has given 2316613 Coins to Sunny

---2017/04/09 18:15:31---
Foxly has received 1 Statius Platebody from Spongebob
Foxly has received 1 Statius Platelegs from Spongebob

---2017/04/10 21:20:41---
Foxly has received 1445 Babydragon Bones from Strawberry
Foxly has received 500 Dragon Dart from Strawberry

---2017/04/10 21:21:36---
Foxly has received 264 Dragon Bones from Strawberry

---2017/04/10 21:32:22---
Foxly has received 1 Abyssal Whip from Spongebob

---2017/04/11 11:17:01---
Foxly has given 1 Bandos Chestplate to Nxi

---2017/04/11 11:17:01---
Foxly has received 1 Vesta'S Spear from Nxi

---2017/04/11 11:18:53---
Foxly has given 3000000 Coins to Nxi

---2017/04/11 11:18:53---
Foxly has received 1 Volcanic Whip Mix from Nxi

---2017/04/11 12:10:42---
Foxly has given 1445 Babydragon Bones to Justincase
Foxly has given 229 Dragon Bones to Justincase

---2017/04/11 12:11:25---
Foxly has given 1 Dust Battlestaff to Justincase
Foxly has given 1 Dragon Sq Shield Ornament Kit to Justincase
Foxly has given 1 Armadyl D'Hide to Justincase

---2017/04/11 22:33:07---
Foxly has given 1 Pegasian Crystal to Dottel

---2017/04/11 22:33:07---
Foxly has received 1 Ring Of Wealth Scroll from Dottel

---2017/04/11 23:04:35---
Foxly has received 7000000 Coins from Skrimisk

---2017/04/11 23:04:35---
Foxly has given 1 Volcanic Abyssal Whip to Skrimisk

---2017/04/11 23:17:25---
Foxly has given 8000000 Coins to Spongebob

---2017/04/11 23:17:25---
Foxly has received 1 Vesta'S Longsword from Spongebob

---2017/04/11 23:29:35---
Foxly has given 1 Dharok'S Platelegs to Skrimisk

---2017/04/12 22:26:46---
Foxly has received 1 Serpentine Helm from Dakuna
Foxly has received 100000 Blood Money from Dakuna

---2017/04/12 22:26:46---
Foxly has given 1 Ring Of Suffering to Dakuna

---2017/04/13 23:48:07---
Foxly has given 1 Serpentine Helm to Dakuna
Foxly has given 1  to Dakuna
Foxly has given 1 Pegasian Crystal to Dakuna

---2017/04/13 23:48:42---
Foxly has received 1 Serpentine Helm from Dakuna
Foxly has received 1 Armadyl Chainskirt from Dakuna
Foxly has received 2  from Dakuna
Foxly has received 1 Eternal Crystal from Dakuna
Foxly has received 1 Pegasian Crystal from Dakuna

---2017/04/13 23:52:47---
Foxly has given 1 Serpentine Helm to Dakuna

---2017/04/13 23:53:33---
Foxly has received 5000000 Coins from Dakuna
Foxly has received 1 Serpentine Helm from Dakuna
Foxly has received 1 Vesta'S Chainskirt from Dakuna

---2017/04/13 23:57:37---
Foxly has received 1 Eternal Boots from Nxi

---2017/04/13 23:57:37---
Foxly has given 1 Serpentine Helm to Nxi
Foxly has given 1 Eternal Crystal to Nxi
Foxly has given 50000 Blood Money to Nxi

---2017/04/14 00:01:22---
Foxly has received 1 Necklace Of Anguish from Kev

---2017/04/14 00:01:22---
Foxly has given 2  to Kev
Foxly has given 1 Vesta'S Chainskirt to Kev
Foxly has given 25000 Blood Money to Kev
Foxly has given 1 Pegasian Crystal to Kev

---2017/04/14 12:29:27---
Foxly has received 1 Armadyl Chestplate from Spongebob

---2017/04/14 12:29:27---
Foxly has given 1 Vesta'S Platebody to Spongebob

---2017/04/14 12:33:12---
Foxly has received 1 Pegasian Boots from Dishonest

---2017/04/14 12:33:12---
Foxly has given 1 Eternal Boots to Dishonest
Foxly has given 5000000 Coins to Dishonest
Foxly has given 1 Vesta'S Longsword to Dishonest
Foxly has given 8838 Blood Money to Dishonest

---2017/04/15 00:29:31---
Foxly has given 1 Amulet Of Fury to Nxi
Foxly has given 500 Dragon Dart to Nxi

---2017/04/15 00:29:31---
Foxly has received 1 Black Mask from Nxi

---2017/04/15 01:37:32---
Foxly has received 43 Dragon Bones from Dottel

---2017/04/15 01:38:05---
Foxly has received 1700 Babydragon Bones from Nxi

---2017/04/15 03:47:03---
Foxly has given 15 Adamantite Ore to Ivan
Foxly has given 17 Runite Ore to Ivan
Foxly has given 742 Coal to Ivan
Foxly has given 27 Grimy Guam Leaf to Ivan
Foxly has given 150 Yew Logs to Ivan
Foxly has given 54 Maple Logs to Ivan
Foxly has given 32 Grimy Harralander to Ivan
Foxly has given 218 Uncut Diamond to Ivan
Foxly has given 19 Grimy Irit Leaf to Ivan
Foxly has given 88 Uncut Ruby to Ivan
Foxly has given 46 Grimy Avantoe to Ivan
Foxly has given 72 Uncut Emerald to Ivan
Foxly has given 158 Uncut Sapphire to Ivan
Foxly has given 22 Grimy Dwarf Weed to Ivan
Foxly has given 100 Silver Ore to Ivan
Foxly has given 2 Grimy Torstol to Ivan

---2017/04/15 03:47:03---
Foxly has received 9 Shark from Ivan
Foxly has received 2500000 Coins from Ivan

---2017/04/16 08:40:13---
Foxly has given 1 Primordial Boots to Strawberry

---2017/04/16 08:40:13---
Foxly has received 20000000 Coins from Strawberry

---2017/04/16 19:11:13---
Foxly has received 1 Saradomin Platebody from Clemens
Foxly has received 6684 Blood Money from Clemens
Foxly has received 1 Vesta'S Spear from Clemens

---2017/04/16 19:21:48---
Foxly has given 1 Rune Boots to Spongebob

---2017/04/16 19:29:56---
Foxly has received 1 Toxic Blowpipe (Empty) from Spongebob

---2017/04/16 19:29:56---
Foxly has given 1 Gilded Kiteshield to Spongebob
Foxly has given 2 Amulet Of Torture to Spongebob
Foxly has given 24879100 Coins to Spongebob
Foxly has given 1 Kraken Tentacle to Spongebob
Foxly has given 2 Uncharged Trident to Spongebob
Foxly has given 1 Odium Ward to Spongebob
Foxly has given 1 Gilded Boots to Spongebob
Foxly has given 2 Vesta'S Spear to Spongebob
Foxly has given 1 Ring Of Wealth to Spongebob
Foxly has given 1 Statius Platebody to Spongebob
Foxly has given 1 Dragon Pickaxe to Spongebob
Foxly has given 1 Ranger Boots to Spongebob
Foxly has given 1 Statius Platelegs to Spongebob
Foxly has given 1 Statius Warhammer to Spongebob
Foxly has given 1 Armadyl Chestplate to Spongebob
Foxly has given 1 Pegasian Boots to Spongebob
Foxly has given 1 Armadyl Chainskirt to Spongebob
Foxly has given 1 Abyssal Whip to Spongebob
Foxly has given 1 Gilded Platebody to Spongebob
Foxly has given 1 Gilded Platelegs to Spongebob
Foxly has given 132695 Blood Money to Spongebob

---2017/04/17 00:18:55---
Foxly has given 695 Dragon Dart Tip to Dottel
Foxly has given 695 Feather to Dottel

---2017/04/17 00:20:47---
Foxly has received 5 Dragon Dart Tip from Dottel
Foxly has received 5 Feather from Dottel
Foxly has received 690 Dragon Dart from Dottel

---2017/04/17 00:40:50---
Foxly has received 1 Babydragon Bones from Dream

---2017/04/17 00:40:50---
Foxly has given 2789 Babydragon Bones to Dream
Foxly has given 516 Dragon Bones to Dream

---2017/04/17 00:53:19---
Foxly has received 1 Tanzanite Fang from Nxi

---2017/04/17 00:53:19---
Foxly has given 1 Toxic Blowpipe (Empty) to Nxi

---2017/04/17 00:55:31---
Foxly has received 1 Barrel from Strawberry
Foxly has received 18000000 Coins from Strawberry
Foxly has received 1 Serpentine Helm from Strawberry
Foxly has received 1266 Babydragon Bones from Strawberry
Foxly has received 1 Dragon Warhammer from Strawberry

---2017/04/17 00:55:31---
Foxly has given 1 Toxic Blowpipe (Empty) to Strawberry

---2017/04/17 01:42:58---
Foxly has given 3240 Babydragon Bones to Dream
Foxly has given 224 Dragon Bones to Dream

---2017/04/17 01:48:15---
Foxly has received 1243 Zulrah'S Scales from Dream

---2017/04/17 20:24:15---
Foxly has given 3833 Dragon Dart Tip to Kev
Foxly has given 3 Smouldering Stone to Kev
Foxly has given 30000000 Coins to Kev
Foxly has given 1 Dragon Warhammer to Kev

---2017/04/17 20:24:15---
Foxly has received 1 Twisted Bow from Kev

---2017/04/18 14:45:38---
Foxly has received 1 Dragon Javelin from Smokey

---2017/04/18 21:27:06---
Foxly has given 1 Twisted Bow to Dream

---2017/04/18 21:27:06---
Foxly has received 50000000 Coins from Dream
Foxly has received 50000 Blood Money from Dream

---2017/04/19 16:22:53---
Foxly has received 1 Statius Platebody from Spongebob
Foxly has received 1 Statius Platelegs from Spongebob

---2017/04/19 16:22:53---
Foxly has given 15000000 Coins to Spongebob

---2017/04/19 16:27:25---
Foxly has received 271000 Blood Money from Spongebob

---2017/04/19 16:27:25---
Foxly has given 37000000 Coins to Spongebob

---2017/04/19 17:14:16---
Foxly has received 10 Loop Half Of Key from Spongebob

---2017/04/19 17:14:16---
Foxly has given 1 Uncharged Trident to Spongebob

---2017/04/19 17:16:43---
Foxly has received 13 Crystal Key from Spongebob

---2017/04/19 17:19:09---
Foxly has received 35 Crystal Key from Spongebob

---2017/04/19 17:24:03---
Foxly has given 488 Dragon Bones to Aaron

---2017/04/19 17:27:15---
Foxly has received 150000 Blood Money from Aaron

---2017/04/19 17:27:15---
Foxly has given 1 Armadyl Helmet to Aaron
Foxly has given 1 Armadyl Chestplate to Aaron
Foxly has given 1 Armadyl Chainskirt to Aaron

---2017/04/19 17:34:23---
Foxly has received 52000 Blood Money from Aaron

---2017/04/19 17:34:23---
Foxly has given 1 Serpentine Helm to Aaron
Foxly has given 10000000 Coins to Aaron

---2017/04/19 19:54:08---
Foxly has given 1 Statius Platebody to Spongebob
Foxly has given 1 Statius Platelegs to Spongebob
Foxly has given 56 Runite Ore to Spongebob
Foxly has given 669 Coal to Spongebob
Foxly has given 632 Magic Logs to Spongebob

---2017/04/19 19:54:08---
Foxly has received 50000 Blood Money from Spongebob

---2017/04/19 20:21:50---
Foxly has received 7348 Zulrah'S Scales from Spongebob

---2017/04/20 16:07:15---
Foxly has given 1 Dragon Scimitar Ornament Kit to Daggx

---2017/04/21 21:40:14---
Foxly has given 245128 Blood Money to Spongebob
Foxly has given 1 Spirit Shield to Spongebob

---2017/04/21 21:40:14---
Foxly has received 1 Eternal Crystal from Spongebob

---2017/04/23 17:44:07---
Foxly has given 3000 Dragon Dart to Ak47

---2017/04/24 14:19:44---
Foxly has given 1 Vesta'S Longsword to Hunned

---2017/04/26 14:37:58---
Foxly has received 1 Statius Platebody from 700os
Foxly has received 1 Dragon Boots from 700os
Foxly has received 1 Statius Platelegs from 700os
Foxly has received 1 Statius Fullhelm from 700os
Foxly has received 1 Ahrim'S Hood from 700os
Foxly has received 1 Armadyl Chainskirt from 700os
Foxly has received 1 Abyssal Whip from 700os
Foxly has received 1 Amulet Of Fury from 700os
Foxly has received 1 3rd Age Range Top from 700os
Foxly has received 1 Torag'S Hammers from 700os
Foxly has received 1 Saradomin Sword from 700os
Foxly has received 1 Onyx Ring from 700os

---2017/04/26 14:47:41---
Foxly has received 1 Right Eye Patch from 700os
Foxly has received 2 Wooden Shield (G) from 700os
Foxly has received 1 Ancient Mitre from 700os
Foxly has received 2 Black Beret from 700os
Foxly has received 1 Torag'S Hammers from 700os
Foxly has received 1 Jade Machete from 700os
Foxly has received 1 Ancient D'Hide from 700os
Foxly has received 2 Monkey Nuts from 700os
Foxly has received 1 Torag'S Platelegs from 700os
Foxly has received 1 Zamorak Cloak from 700os
Foxly has received 3 Black Cavalier from 700os
Foxly has received 1 Bandos D'Hide from 700os
Foxly has received 1 Saradomin Coif from 700os
Foxly has received 1 Dragon Mace from 700os
Foxly has received 1 Armadyl D'Hide from 700os

---2017/04/26 15:06:15---
Foxly has received 40000000 Coins from Jasper10

---2017/04/26 15:06:47---
Foxly has given 40000000 Coins to Spongebob

---2017/04/30 13:21:54---
Foxly has given 590 Dragon Bones to Helz

---2017/06/21 00:20:30---
Foxly has received 5000000 Coins from Patrick
Foxly has received 2000 Dragon Dart from Patrick
