
---2018/08/03 11:37:53---
Half Ghoul has given 7 Shark to Risharu

---2018/08/03 11:37:53---
Half Ghoul has received 1 Rune Boots from Risharu
Half Ghoul has received 1 Verac'S Brassard from Risharu
Half Ghoul has received 1 Rune Scimitar from Risharu
Half Ghoul has received 1 Rune 2h Sword from Risharu
Half Ghoul has received 1 Dragon Plateskirt from Risharu
Half Ghoul has received 1 Torag'S Helm from Risharu
Half Ghoul has received 1 Dragon Scimitar from Risharu

---2018/08/03 18:21:12---
Half Ghoul has received 998742 Coins from Burgz
Half Ghoul has received 500 Ruby Bolts (E) from Burgz

---2018/08/03 18:34:03---
Half Ghoul has received 3000 Dragon Bones from Brandon

---2018/08/03 18:34:03---
Half Ghoul has given 1 Shark to Brandon

---2018/08/03 18:37:36---
Half Ghoul has given 5 Shark to Brandon

---2018/08/03 18:37:36---
Half Ghoul has received 1 Statius Platebody from Brandon
Half Ghoul has received 1 Statius Platelegs from Brandon
Half Ghoul has received 1 Ring Of Wealth (I) from Brandon
Half Ghoul has received 1 Dragon Boots from Brandon
Half Ghoul has received 1 Amulet Of Fury from Brandon

---2018/08/03 20:50:19---
Half Ghoul has received 1 Bandos D'Hide from Brandon
Half Ghoul has received 1 Bandos Chaps from Brandon

---2018/08/03 21:48:10---
Half Ghoul has received 100 Tuna Potato from Brandon

---2018/08/03 22:15:50---
Half Ghoul has received 100000 Coins from Brandon

---2018/08/04 01:17:46---
Half Ghoul has given 1 Tuna Potato to Burgz

---2018/08/04 01:17:46---
Half Ghoul has received 108 Morrigans Javelin from Burgz

---2018/08/04 05:56:22---
Half Ghoul has received 135000 Blood Money from Burgz

---2018/08/04 11:26:33---
Half Ghoul has received 1 Odium Ward from Burgz

---2018/08/05 13:18:15---
Half Ghoul has received 1 Dharok'S Platebody from Banks
Half Ghoul has received 1 Dharok'S Platelegs from Banks
Half Ghoul has received 1 Dharok'S Helm from Banks
Half Ghoul has received 1 Dharok'S Greataxe from Banks
Half Ghoul has received 1 Saradomin Godsword from Banks

---2018/08/10 20:40:38---
Half Ghoul has given 155 Coal to Michael Scot

---2018/08/10 20:40:38---
Half Ghoul has received 500000 Coins from Michael Scot
