
---2017/02/26 03:37:03---
Itchi has received 1 Abyssal Whip from Kz
Itchi has received 20 Dragon Bones from Kz

---2017/02/26 09:40:08---
Itchi has given 1 Abyssal Whip to Kz

---2017/02/26 09:40:08---
Itchi has received 1 Dragon Scimitar from Kz

---2017/02/26 12:43:00---
Itchi has received 1 Rune Kiteshield from Kz
Itchi has received 25 Dragon Bones from Kz
Itchi has received 1 Guthix Platebody from Kz
