
---2017/04/08 05:11:02---
Kev has received 4800000 Coins from Ivan

---2017/04/08 05:11:02---
Kev has given 32293 Blood Money to Ivan

---2017/04/10 05:00:12---
Kev has given 4000000 Coins to Nexi
Kev has given 10000 Blood Money to Nexi

---2017/04/10 05:00:12---
Kev has received 1 Verac'S Plateskirt from Nexi

---2017/04/12 23:38:01---
Kev has received 342 Dragon Bones from Strawberry

---2017/04/13 02:23:50---
Kev has received 1 Guthan'S Helm from Nxi

---2017/04/13 02:23:50---
Kev has given 6000000 Coins to Nxi

---2017/04/13 07:10:33---
Kev has given 10000000 Coins to Nxi

---2017/04/13 07:10:33---
Kev has received 50000 Blood Money from Nxi

---2017/04/14 00:01:22---
Kev has given 1 Necklace Of Anguish to Foxly

---2017/04/14 00:01:22---
Kev has received 2  from Foxly
Kev has received 1 Vesta'S Chainskirt from Foxly
Kev has received 25000 Blood Money from Foxly
Kev has received 1 Pegasian Crystal from Foxly

---2017/04/14 01:28:28---
Kev has received 1 Ring Of Wealth from Nxi

---2017/04/14 01:28:28---
Kev has given 5432842 Coins to Nxi
Kev has given 1 Saradomin'S Tear to Nxi
Kev has given 1 Odium Ward to Nxi
Kev has given 44549 Blood Money to Nxi

---2017/04/17 20:24:15---
Kev has received 3833 Dragon Dart Tip from Foxly
Kev has received 3 Smouldering Stone from Foxly
Kev has received 30000000 Coins from Foxly
Kev has received 1 Dragon Warhammer from Foxly

---2017/04/17 20:24:15---
Kev has given 1 Twisted Bow to Foxly

---2017/04/18 22:21:32---
Kev has received 185000 Blood Money from Nxi

---2017/04/18 22:21:32---
Kev has given 27000000 Coins to Nxi

---2017/04/24 00:12:00---
Kev has given 1 Archer Helm to Kevv

---2017/04/24 00:12:37---
Kev has given 30 Big Bones to Kevv
