
---2017/02/27 07:52:27---
Leo has given 1 Verac'S Helm to Vape
Leo has given 5000000 Coins to Vape
Leo has given 1 Verac'S Brassard to Vape
Leo has given 1 Verac'S Plateskirt to Vape

---2017/02/27 07:52:27---
Leo has received 1 Armadyl Chestplate from Vape

---2017/02/27 07:53:41---
Leo has given 1 Verac'S Flail to Vape

---2017/02/27 07:58:00---
Leo has received 2 Tooth Half Of Key from Vape

---2017/02/27 07:58:00---
Leo has given 2 Loop Half Of Key to Vape

---2017/02/27 17:29:23---
Leo has received 1 Tooth Half Of Key from Evol

---2017/02/27 17:29:23---
Leo has given 1 Loop Half Of Key to Evol

---2017/02/27 19:16:56---
Leo has received 9 Crystal Key from Squidward

---2017/02/27 19:17:42---
Leo has received 10 Crystal Key from Spongebob

---2017/02/27 19:49:58---
Leo has given 500000 Coins to Squidward

---2017/02/28 16:33:19---
Leo has given 1 Rune Kiteshield to Zeus
Leo has given 1 Dragon Sq Shield to Zeus
Leo has given 300 Tuna Potato to Zeus
Leo has given 1 Rune Scimitar to Zeus
Leo has given 1 Dragon Platelegs to Zeus
Leo has given 1 Rune Platelegs to Zeus
Leo has given 1 Rune Platebody to Zeus
Leo has given 1 Dragon Scimitar to Zeus
Leo has given 1 Rune Full Helm to Zeus
Leo has given 1 Dragon Med Helm to Zeus
Leo has given 1 Zamorak Platebody to Zeus

---2017/02/28 18:55:59---
Leo has given 3 Loop Half Of Key to Zeus

---2017/03/02 17:17:45---
Leo has received 1 Manta Ray from Dottel

---2017/03/02 17:17:45---
Leo has given 8 Loop Half Of Key to Dottel

---2017/03/03 18:08:14---
Leo has received 400 Babydragon Bones from Virus
Leo has received 1 Vesta'S Longsword from Virus

---2017/03/03 18:08:14---
Leo has given 1 Draconic Visage to Virus

---2017/03/04 18:26:17---
Leo has received 1 Bandos Boots from Limpovic

---2017/03/04 18:26:58---
Leo has received 5000000 Coins from Limpovic

---2017/03/04 18:27:30---
Leo has received 1 Gilded Hasta from Squidward
Leo has received 1 Amulet Of Fury from Squidward

---2017/03/04 18:29:02---
Leo has received 1 Ballista Limbs from Limpovic
Leo has received 1 Torag'S Hammers from Limpovic

---2017/03/04 18:29:49---
Leo has received 1 Statius Warhammer from Squidward
Leo has received 1 Vesta'S Longsword from Squidward

---2017/03/04 18:31:13---
Leo has received 64520 Blood Money from Limpovic

---2017/03/04 18:32:00---
Leo has given 19356000 Coins to Limpovic
Leo has given 64250 Blood Money to Limpovic

---2017/03/04 18:32:13---
Leo has received 64250 Blood Money from Limpovic

---2017/03/04 18:33:34---
Leo has given 5000000 Coins to Limpovic
Leo has given 114250 Blood Money to Limpovic

---2017/03/04 19:50:26---
Leo has given 1500000 Coins to Dottel

---2017/03/04 19:50:26---
Leo has received 152 Dragon Bones from Dottel

---2017/03/04 19:57:50---
Leo has given 1 Iron Full Helm to Sharingan
Leo has given 1 Climbing Boots to Sharingan
Leo has given 1 Anti-Dragon Shield to Sharingan
Leo has given 1 Ring Of Recoil to Sharingan
Leo has given 1 Iron Kiteshield to Sharingan
Leo has given 1 Iron Platelegs to Sharingan
Leo has given 1 Dragon Scimitar to Sharingan
Leo has given 1 Iron Scimitar to Sharingan
Leo has given 1 Iron Platebody to Sharingan
Leo has given 1 Combat Bracelet(4) to Sharingan

---2017/03/04 20:14:40---
Leo has given 1 Rune Crossbow to Emperor
Leo has given 300 Diamond Bolts (E) to Emperor

---2017/03/04 21:33:23---
Leo has received 30 Dragon Bones from Dottel

---2017/03/04 21:33:23---
Leo has given 1 Zamorak Bracers to Dottel

---2017/03/04 23:03:29---
Leo has given 6666 Pure Essence to Bink

---2017/03/04 23:03:29---
Leo has received 10000000 Coins from Bink

---2017/03/04 23:11:41---
Leo has received 2 Saradomin Bracers from Hidenskills
Leo has received 1 Zamorak Bracers from Hidenskills
Leo has received 1 Saradomin Chaps from Hidenskills
Leo has received 1 Armadyl Bracers from Hidenskills
Leo has received 1 Ancient D'Hide from Hidenskills

---2017/03/04 23:11:53---
Leo has given 1 Zamorak Bracers to Dottel
Leo has given 2 Saradomin Bracers to Dottel
Leo has given 1 Saradomin Chaps to Dottel
Leo has given 1 Armadyl Bracers to Dottel
Leo has given 1 Ancient D'Hide to Dottel

---2017/03/05 01:07:10---
Leo has received 2 Dragon Dagger(P++) from Anony Mous
Leo has received 3959 Dragon Arrowtips from Anony Mous
Leo has received 1 Dragon Halberd from Anony Mous
Leo has received 2006 Babydragon Bones from Anony Mous
Leo has received 888 Dragon Bones from Anony Mous
Leo has received 30 Amulet Of Glory from Anony Mous
Leo has received 16 Dragon Longsword from Anony Mous
Leo has received 13274 Blood Money from Anony Mous
Leo has received 2253 Dragon Arrow from Anony Mous
Leo has received 190 Dragon Bolts from Anony Mous
Leo has received 5 Crystal Key from Anony Mous
Leo has received 1344 Dragon Dart from Anony Mous

---2017/03/05 03:01:54---
Leo has received 4218 Dragon Dart Tip from Dottel
Leo has received 74 Dragon Dagger from Dottel
Leo has received 150 Raw Shark from Dottel
Leo has received 3 Dragon Dagger(P++) from Dottel
Leo has received 5071 Dragon Arrowtips from Dottel
Leo has received 4 Dragon Halberd from Dottel
Leo has received 26 Amulet Of Glory from Dottel
Leo has received 971 Dragon Bolt Tips from Dottel
Leo has received 353 Magic Logs from Dottel
Leo has received 4564 Dragon Arrow from Dottel
Leo has received 159 Dragonstone from Dottel
Leo has received 320 Raw Swordfish from Dottel
Leo has received 3705 Babydragon Bones from Dottel
Leo has received 1218 Dragon Bones from Dottel
Leo has received 10 Dragon Longsword from Dottel
Leo has received 10286 Blood Money from Dottel
Leo has received 220 Dragon Bolts from Dottel
Leo has received 2467 Dragon Dart from Dottel
Leo has received 3 Crystal Key from Dottel
Leo has received 27 Mystic Robe Bottom from Dottel

---2017/03/05 03:46:28---
Leo has received 1 Bronze Partyhat from Gunny19

---2017/03/05 03:46:28---
Leo has given 1 Vesta'S Longsword to Gunny19

---2017/03/05 05:38:20---
Leo has received 1 Bronze Partyhat from Greedo
Leo has received 1 Bandos Godsword from Greedo
Leo has received 1 3rd Age Pickaxe from Greedo

---2017/03/05 05:41:09---
Leo has received 1 Statius Warhammer from Young Dolph
Leo has received 1 Vesta'S Chainskirt from Young Dolph

---2017/03/05 05:41:36---
Leo has given 2 Statius Warhammer to Young Dolph
Leo has given 1 Vesta'S Chainskirt to Young Dolph
Leo has given 1 Bronze Partyhat to Young Dolph

---2017/03/05 17:30:14---
Leo has received 15000000 Coins from Bink

---2017/03/05 17:30:14---
Leo has given 699 Dragon Bones to Bink

---2017/03/06 01:07:50---
Leo has received 60 Super Combat Potion(4) from Spongebob

---2017/03/06 06:33:52---
Leo has received 1000000 Coins from Dream

---2017/03/06 06:33:52---
Leo has given 1 Black D'Hide Chaps (G) to Dream

---2017/03/06 17:58:30---
Leo has given 750 Dragon Dart to Beroca

---2017/03/06 17:58:30---
Leo has received 750000 Coins from Beroca

---2017/03/06 19:17:47---
Leo has given 20 Castle Wars Ticket to Limpovic

---2017/03/08 05:21:31---
Leo has given 1 Vesta'S Longsword to Dottel

---2017/03/08 05:21:31---
Leo has received 1 Dragon Scimitar Ornament Kit from Dottel

---2017/03/08 06:36:29---
Leo has received 1 Vesta'S Chainskirt from Dalby

---2017/03/08 06:37:07---
Leo has given 1 Dragonfire Shield to Dalby
Leo has given 1 Vesta'S Chainskirt to Dalby
Leo has given 1 Vesta'S Longsword to Dalby

---2017/03/08 06:37:39---
Leo has received 1 Vesta'S Longsword from Dalby

---2017/03/08 06:38:03---
Leo has given 1 Dragonfire Shield to Dalby
Leo has given 5000000 Coins to Dalby
Leo has given 1 Vesta'S Longsword to Dalby

---2017/03/08 06:38:25---
Leo has received 1 Pegasian Crystal from Antirag

---2017/03/08 06:38:47---
Leo has given 2 Pegasian Crystal to Antirag

---2017/03/08 06:38:57---
Leo has received 1 Pegasian Crystal from Antirag

---2017/03/08 06:40:36---
Leo has received 1 Vesta'S Longsword from Dalby

---2017/03/08 06:41:15---
Leo has given 15000000 Coins to Dalby
Leo has given 1 Amulet Of Fury to Dalby
Leo has given 1 Vesta'S Longsword to Dalby

---2017/03/08 06:42:12---
Leo has received 1 Pegasian Crystal from Antirag

---2017/03/08 06:42:47---
Leo has received 25000 Blood Money from Antirag

---2017/03/08 06:43:25---
Leo has received 1 Vesta'S Longsword from Dalby

---2017/03/08 07:01:32---
Leo has received 1 3rd Age Kiteshield from Greedo

---2017/03/08 07:01:49---
Leo has given 1 3rd Age Kiteshield to Greedo
Leo has given 1 3rd Age Robe to Greedo
Leo has given 1 3rd Age Bow to Greedo

---2017/03/08 07:04:18---
Leo has received 1 Dragonfire Shield from Dalby

---2017/03/08 07:04:56---
Leo has given 1 Dragonfire Shield to Dalby
Leo has given 1 Vesta'S Longsword to Dalby

---2017/03/08 07:07:01---
Leo has received 1 Gilded Plateskirt from Greedo
Leo has received 2 Gilded Full Helm from Greedo

---2017/03/08 07:07:26---
Leo has received 1 Dragonfire Shield from Dalby

---2017/03/08 07:08:13---
Leo has given 1 Dragonfire Shield to Dalby
Leo has given 1 Bronze Partyhat to Dalby

---2017/03/08 07:10:30---
Leo has received 1 Dragonfire Shield from Dalby
Leo has received 1468 Blood Money from Dalby

---2017/03/08 07:11:36---
Leo has received 32000 Blood Money from Dottel

---2017/03/08 07:12:03---
Leo has given 64000 Blood Money to Dottel

---2017/03/08 07:12:25---
Leo has received 32000 Blood Money from Dottel

---2017/03/08 07:12:49---
Leo has received 1 Dragonfire Shield from Dalby
Leo has received 1 Vesta'S Longsword from Dalby

---2017/03/08 07:13:20---
Leo has given 2 Dragonfire Shield to Dalby
Leo has given 1 Vesta'S Longsword to Dalby
Leo has given 1 Pegasian Crystal to Dalby

---2017/03/08 07:13:49---
Leo has received 32000 Blood Money from Dottel

---2017/03/08 07:14:08---
Leo has given 64000 Blood Money to Dottel

---2017/03/08 07:14:42---
Leo has received 32000 Blood Money from Dottel

---2017/03/08 07:15:06---
Leo has received 32000 Blood Money from Dottel

---2017/03/08 07:15:43---
Leo has received 1 Dragonfire Shield from Dalby
Leo has received 1 Pegasian Crystal from Dalby

---2017/03/08 07:20:05---
Leo has received 1 Vesta'S Longsword from Dalby

---2017/03/08 07:27:03---
Leo has received 1 Berserker Ring from Greedo

---2017/03/08 07:28:36---
Leo has received 1 Dragonfire Shield from Dalby
Leo has received 23094831 Coins from Dalby
Leo has received 1 Vesta'S Chainskirt from Dalby
Leo has received 1 Bronze Partyhat from Dalby
Leo has received 1 Vesta'S Longsword from Dalby

---2017/03/08 07:30:54---
Leo has given 23094831 Coins to Dalby
Leo has given 1 Dragonfire Shield to Dalby
Leo has given 1 Vesta'S Chainskirt to Dalby
Leo has given 1 Vesta'S Longsword to Dalby
Leo has given 1 Bronze Partyhat to Dalby
Leo has given 1 3rd Age Range Top to Dalby
Leo has given 1 3rd Age Pickaxe to Dalby

---2017/03/08 07:32:22---
Leo has received 1 Dragonfire Shield from Dalby
Leo has received 1 Bronze Partyhat from Dalby

---2017/03/08 07:33:38---
Leo has given 2 Dragonfire Shield to Dalby
Leo has given 1 Statius Warhammer to Dalby
Leo has given 1 Bronze Partyhat to Dalby

---2017/03/08 18:37:33---
Leo has received 100000 Blood Money from Dottel

---2017/03/08 18:37:33---
Leo has given 3000000 Coins to Dottel

---2017/03/08 18:55:05---
Leo has received 8000000 Coins from Toodenchh

---2017/03/08 18:55:05---
Leo has given 1 Ring Of Wealth to Toodenchh

---2017/03/08 21:51:23---
Leo has received 10 Dragon Dagger from Anony Mous
Leo has received 217 Raw Shark from Anony Mous
Leo has received 60 Adamantite Ore from Anony Mous
Leo has received 7 Mystic Boots from Anony Mous
Leo has received 3 Dragon Dagger(P++) from Anony Mous
Leo has received 3 Rune Warhammer from Anony Mous
Leo has received 3 Dragon Halberd from Anony Mous
Leo has received 3529 Dragon Arrow from Anony Mous
Leo has received 1 Rune Full Helm from Anony Mous
Leo has received 34 Dragonstone from Anony Mous
Leo has received 57 Black Dragonhide from Anony Mous
Leo has received 2753 Babydragon Bones from Anony Mous
Leo has received 577 Dragon Bones from Anony Mous
Leo has received 12 Dragon Longsword from Anony Mous
Leo has received 1 Loop Half Of Key from Anony Mous
Leo has received 9 Crystal Key from Anony Mous
Leo has received 3419 Dragon Dart from Anony Mous
Leo has received 1678 Dragon Dart Tip from Anony Mous
Leo has received 5376980 Coins from Anony Mous
Leo has received 2911 Dragon Arrowtips from Anony Mous
Leo has received 677 Raw Tuna from Anony Mous
Leo has received 31 Amulet Of Glory from Anony Mous
Leo has received 111 Magic Logs from Anony Mous
Leo has received 12 Weapon Poison(+) from Anony Mous
Leo has received 205 Raw Swordfish from Anony Mous
Leo has received 4 Rune Scimitar from Anony Mous
Leo has received 20 Gold Bar from Anony Mous
Leo has received 14366 Blood Money from Anony Mous

---2017/03/08 22:00:11---
Leo has received 1 Primordial Crystal from Squidward

---2017/03/08 22:00:28---
Leo has given 1 Dragon Boots to Spongebob
Leo has given 1 Primordial Crystal to Spongebob

---2017/03/08 22:00:47---
Leo has given 12500000 Coins to Spongebob

---2017/03/08 22:00:47---
Leo has received 1 Primordial Boots from Spongebob

---2017/03/08 23:29:10---
Leo has received 1 Vesta'S Longsword from Nig Nog
Leo has received 1 Bronze Partyhat from Nig Nog

---2017/03/08 23:30:29---
Leo has given 1 Bronze Partyhat to Nig Nog
Leo has given 1 Vesta'S Longsword to Nig Nog

---2017/03/09 03:20:28---
Leo has received 2500000 Coins from Dalby

---2017/03/09 03:20:28---
Leo has given 5000 Bolt Rack to Dalby

---2017/03/09 03:35:35---
Leo has given 1 Vesta'S Longsword to Dalby
Leo has given 1 3rd Age Pickaxe to Dalby

---2017/03/09 06:40:10---
Leo has given 2 Loop Half Of Key to Simulation

---2017/03/09 06:50:25---
Leo has given 18 Tuna Potato to Simulation
Leo has given 1000 Tuna Potato to Simulation

---2017/03/09 07:06:54---
Leo has received 1 Verac'S Plateskirt from Simulation

---2017/03/09 07:06:54---
Leo has given 20 Castle Wars Ticket to Simulation

---2017/03/09 07:16:59---
Leo has given 1 Pegasian Crystal to Katana

---2017/03/09 18:42:27---
Leo has given 100000 Blood Money to Vape

---2017/03/09 18:43:09---
Leo has received 35631 Blood Money from Vape

---2017/03/09 18:50:54---
Leo has given 1 Kraken Tentacle to Vape

---2017/03/09 18:56:50---
Leo has given 1 Kraken Tentacle to Bink

---2017/03/09 18:57:50---
Leo has received 8000000 Coins from Vape

---2017/03/09 18:57:50---
Leo has given 1 Abyssal Whip to Vape

---2017/03/09 20:06:07---
Leo has received 25000 Blood Money from Antirag

---2017/03/09 20:06:49---
Leo has given 50000 Blood Money to Antirag

---2017/03/09 20:07:05---
Leo has received 40000 Blood Money from Antirag

---2017/03/09 20:08:07---
Leo has given 80000 Blood Money to Antirag

---2017/03/09 20:08:46---
Leo has received 1 Eternal Boots from Vape

---2017/03/09 20:09:16---
Leo has given 1 Eternal Boots to Vape
Leo has given 10000000 Coins to Vape

---2017/03/09 20:09:29---
Leo has received 50000 Blood Money from Antirag

---2017/03/09 20:10:24---
Leo has given 100000 Blood Money to Antirag

---2017/03/09 20:10:35---
Leo has received 1 Eternal Boots from Vape

---2017/03/09 20:11:09---
Leo has given 1 Eternal Boots to Vape
Leo has given 10000000 Coins to Vape

---2017/03/09 20:11:57---
Leo has received 1 Eternal Boots from Vape

---2017/03/09 20:12:25---
Leo has given 1 Eternal Boots to Vape
Leo has given 10000000 Coins to Vape

---2017/03/09 20:13:19---
Leo has received 100000 Blood Money from Antirag

---2017/03/09 20:14:14---
Leo has received 80000 Blood Money from Antirag

---2017/03/09 20:15:29---
Leo has received 1 Abyssal Tentacle from Antirag

---2017/03/09 22:14:52---
Leo has received 5000000 Coins from Vape

---2017/03/09 22:14:52---
Leo has given 10 Tooth Half Of Key to Vape

---2017/03/10 17:28:41---
Leo has received 1 Statius Warhammer from Antirag

---2017/03/10 17:30:38---
Leo has given 1 Statius Warhammer to Antirag
Leo has given 40 Castle Wars Ticket to Antirag
Leo has given 30000 Blood Money to Antirag

---2017/03/10 17:31:15---
Leo has received 50000 Blood Money from Antirag

---2017/03/10 17:32:11---
Leo has given 100000 Blood Money to Antirag

---2017/03/10 17:32:23---
Leo has received 1 Statius Warhammer from Antirag

---2017/03/10 17:33:12---
Leo has received 100000 Blood Money from Antirag

---2017/03/10 17:34:31---
Leo has received 40 Castle Wars Ticket from Antirag
Leo has received 12000 Blood Money from Antirag

---2017/03/10 17:35:15---
Leo has received 1000000 Coins from Felniheim
Leo has received 500 Blood Money from Felniheim

---2017/03/10 17:37:00---
Leo has received 1000000 Coins from Pvm Doop

---2017/03/10 17:37:36---
Leo has given 2000000 Coins to Pvm Doop

---2017/03/10 17:38:57---
Leo has received 3 Verac'S Helm from Antirag
Leo has received 1 Dharok'S Platelegs from Antirag
Leo has received 1 Verac'S Flail from Antirag
Leo has received 1 Verac'S Brassard from Antirag
Leo has received 2 Verac'S Plateskirt from Antirag
Leo has received 1 Guthan'S Platebody from Antirag
Leo has received 106 Dragon Bones from Antirag
Leo has received 1 Torag'S Helm from Antirag
Leo has received 2 Torag'S Hammers from Antirag
Leo has received 1 Dharok'S Greataxe from Antirag
Leo has received 1 Karil'S Crossbow from Antirag

---2017/03/10 17:39:34---
Leo has received 400 Blood Money from Felniheim

---2017/03/10 17:40:54---
Leo has received 6000000 Coins from Pvm Doop

---2017/03/10 17:47:27---
Leo has received 1 Statius Platebody from Nub

---2017/03/10 17:47:27---
Leo has given 1 Abyssal Tentacle to Nub

---2017/03/10 17:48:56---
Leo has given 1 Dragon Boots to Nub
Leo has given 1 Berserker Ring to Nub
Leo has given 1 Amulet Of Fury to Nub
Leo has given 1 Bandos Godsword to Nub

---2017/03/10 23:01:49---
Leo has received 2 Smouldering Stone from Beroca
Leo has received 1 Bandos Godsword from Beroca

---2017/03/10 23:01:49---
Leo has given 1 Armadyl Chainskirt to Beroca

---2017/03/10 23:03:48---
Leo has received 500000 Coins from Spongebob

---2017/03/10 23:03:48---
Leo has given 2382 Pure Essence to Spongebob

---2017/03/10 23:04:18---
Leo has received 1 Dragonfire Shield from Antirag
Leo has received 1 Bandos Godsword from Antirag

---2017/03/10 23:06:39---
Leo has received 73000 Blood Money from Antirag

---2017/03/10 23:07:43---
Leo has given 146000 Blood Money to Antirag

---2017/03/10 23:07:56---
Leo has received 100000 Blood Money from Antirag

---2017/03/10 23:08:48---
Leo has received 65000 Blood Money from Nub

---2017/03/10 23:09:26---
Leo has given 130000 Blood Money to Nub

---2017/03/10 23:09:55---
Leo has received 50000 Blood Money from Beroca

---2017/03/10 23:10:27---
Leo has received 30000 Blood Money from Nub

---2017/03/10 23:12:32---
Leo has given 100000 Blood Money to Nub

---2017/03/10 23:12:48---
Leo has received 2000000 Coins from Beroca

---2017/03/10 23:13:27---
Leo has received 2000000 Coins from Beroca

---2017/03/10 23:13:53---
Leo has given 4000000 Coins to Beroca

---2017/03/10 23:14:08---
Leo has received 2000000 Coins from Beroca

---2017/03/10 23:46:46---
Leo has received 1 Statius Platelegs from Dottel

---2017/03/10 23:46:46---
Leo has given 20000000 Coins to Dottel

---2017/03/11 00:53:45---
Leo has given 1 Challenge Scroll (Medium) to King Of Pets

---2017/03/11 00:53:59---
Leo has received 1 Statius Fullhelm from Spongebob

---2017/03/11 00:53:59---
Leo has given 175000 Blood Money to Spongebob

---2017/03/11 01:20:23---
Leo has received 1 Abyssal Whip from King Of Pets
Leo has received 1 Primordial Boots from King Of Pets
Leo has received 1 Challenge Scroll (Medium) from King Of Pets

---2017/03/11 01:25:59---
Leo has given 80000 Blood Money to King Of Pets

---2017/03/11 01:26:36---
Leo has received 40000 Blood Money from King Of Pets

---2017/03/11 01:27:50---
Leo has received 1 Manta Ray from King Of Pets
Leo has received 50000 Blood Money from King Of Pets

---2017/03/11 01:28:41---
Leo has given 33000 Blood Money to King Of Pets

---2017/03/11 01:30:03---
Leo has given 66000 Blood Money to King Of Pets

---2017/03/11 08:20:39---
Leo has received 1 Eternal Boots from Antirag

---2017/03/11 08:22:13---
Leo has given 1 Eternal Boots to Antirag
Leo has given 1 Primordial Boots to Antirag

---2017/03/11 08:23:40---
Leo has received 1 Dragon Boots from Vape
Leo has received 1 Smouldering Stone from Vape
Leo has received 1 Armadyl Chainskirt from Vape
Leo has received 1 Eternal Crystal from Vape
Leo has received 2 Gilded Plateskirt from Vape

---2017/03/11 08:24:33---
Leo has given 1 Dragon Boots to Vape
Leo has given 1 Smouldering Stone to Vape
Leo has given 1 3rd Age Cloak to Vape
Leo has given 2 Armadyl Chainskirt to Vape
Leo has given 1 Eternal Crystal to Vape
Leo has given 15000 Blood Money to Vape
Leo has given 2 Gilded Plateskirt to Vape

---2017/03/11 08:25:48---
Leo has received 1 Eternal Boots from Antirag

---2017/03/11 08:26:40---
Leo has given 1 Eternal Boots to Antirag
Leo has given 1 Primordial Boots to Antirag

---2017/03/11 08:27:59---
Leo has received 1 Smouldering Stone from Antirag
Leo has received 1 Armadyl Chainskirt from Antirag
Leo has received 1 Eternal Crystal from Antirag

---2017/03/11 08:29:27---
Leo has received 1 Eternal Boots from Antirag

---2017/03/12 00:08:31---
Leo has given 35 Dragon Bones to Spongebob

---2017/03/12 02:24:29---
Leo has received 1 Bandos Godsword from Felniheim

---2017/03/12 02:25:37---
Leo has given 5000000 Coins to Felniheim
Leo has given 1 Bandos Godsword to Felniheim

---2017/03/12 18:17:30---
Leo has given 1 Tooth Half Of Key to Pablo

---2017/03/12 18:20:08---
Leo has received 1 Challenge Scroll (Medium) from Antirag

---2017/03/12 18:21:19---
Leo has given 2 Challenge Scroll (Medium) to Antirag

---2017/03/12 18:21:36---
Leo has received 1 Challenge Scroll (Medium) from Antirag

---2017/03/12 18:22:55---
Leo has given 1 Smouldering Stone to Antirag
Leo has given 1 Dragonfire Shield to Antirag
Leo has given 1 Challenge Scroll (Medium) to Antirag

---2017/03/12 18:23:08---
Leo has received 1 Challenge Scroll (Medium) from Antirag

---2017/03/12 18:23:41---
Leo has received 1 Challenge Scroll (Medium) from Antirag

---2017/03/12 18:25:56---
Leo has received 1 Challenge Scroll (Medium) from Limpovic

---2017/03/12 18:27:42---
Leo has received 1 Smouldering Stone from Antirag
Leo has received 4000000 Coins from Antirag
Leo has received 1 Dragonfire Shield from Antirag
Leo has received 20000 Blood Money from Antirag

---2017/03/12 18:27:42---
Leo has given 1 Shark to Antirag

---2017/03/12 18:28:55---
Leo has received 1 Statius Platebody from Antirag
Leo has received 1 Statius Platelegs from Antirag
Leo has received 1 Statius Fullhelm from Antirag
Leo has received 1 Abyssal Tentacle from Antirag
Leo has received 1 Primordial Boots from Antirag
Leo has received 1 Amulet Of Fury from Antirag

---2017/03/12 18:55:55---
Leo has given 10 Loop Half Of Key to Antirag

---2017/03/12 18:58:52---
Leo has given 250 Dragon Bones to Kaii

---2017/03/12 19:01:30---
Leo has received 1 3rd Age Axe from Limpovic
Leo has received 1 3rd Age Pickaxe from Limpovic

---2017/03/12 19:03:47---
Leo has received 1  from Limpovic
Leo has received 1 Challenge Scroll (Medium) from Limpovic

---2017/03/12 19:08:57---
Leo has received 2 Dragon Boots from Limpovic
Leo has received 3 Verac'S Plateskirt from Limpovic
Leo has received 1 Guthan'S Chainskirt from Limpovic
Leo has received 1 Torag'S Platebody from Limpovic

---2017/03/12 19:13:55---
Leo has given 2 Dragon Boots to Limpovic
Leo has given 2 Torag'S Helm to Limpovic
Leo has given 4 Torag'S Hammers to Limpovic
Leo has given 1 Torag'S Platebody to Limpovic
Leo has given 2 Torag'S Platebody to Limpovic
Leo has given 1 Dharok'S Platebody to Limpovic
Leo has given 2 Verac'S Helm to Limpovic
Leo has given 1 Dharok'S Platelegs to Limpovic
Leo has given 2 Verac'S Flail to Limpovic
Leo has given 4 Verac'S Brassard to Limpovic
Leo has given 3 Verac'S Plateskirt to Limpovic
Leo has given 5 Verac'S Plateskirt to Limpovic
Leo has given 1 Guthan'S Chainskirt to Limpovic

---2017/03/13 23:20:07---
Leo has received 1 Ahrim'S Robetop from Bad Rng
Leo has received 1 Ahrim'S Robeskirt from Bad Rng

---2017/03/14 03:14:10---
Leo has received 1000000 Coins from Optic R Tard

---2017/03/14 03:14:10---
Leo has given 1 Karil'S Crossbow to Optic R Tard

---2017/03/15 15:28:56---
Leo has given 1 Amulet Of Fury to Chaos Jr
Leo has given 1 Fury Ornament Kit to Chaos Jr

---2017/03/15 15:29:43---
Leo has given 1 Ring Of Wealth to Chaos Jr

---2017/03/15 15:35:56---
Leo has received 1 Dharok'S Platelegs from Dottel
Leo has received 1 Karil'S Leatherskirt from Dottel
Leo has received 1 Dragon Chainbody from Dottel
Leo has received 1 Kraken Tentacle from Dottel
Leo has received 1 3rd Age Cloak from Dottel
Leo has received 1 Dharok'S Greataxe from Dottel
Leo has received 1 Onyx Ring from Dottel

---2017/03/15 15:37:48---
Leo has given 20000000 Coins to Dottel
Leo has given 1 Abyssal Tentacle to Dottel
Leo has given 1 Challenge Scroll (Medium) to Dottel

---2017/03/15 15:40:07---
Leo has received 1 Amulet Of Fury from Dottel
Leo has received 1 Fury Ornament Kit from Dottel

---2017/03/15 15:42:42---
Leo has given 1 3rd Age Axe to Jinx

---2017/03/15 15:43:12---
Leo has given 1 Statius Fullhelm to Chaos Jr

---2017/03/15 15:43:55---
Leo has given 1 Abyssal Tentacle to Jewcy

---2017/03/15 15:45:00---
Leo has given 1 Smouldering Stone to Jinx

---2017/03/15 15:45:31---
Leo has given 1 Ring Of Wealth to Chaos Jr

---2017/03/15 15:46:04---
Leo has given 1 3rd Age Cloak to Jewcy

---2017/03/15 15:47:01---
Leo has given 1 Dharok'S Platelegs to Jinx

---2017/03/15 15:47:51---
Leo has given 1 Challenge Scroll (Medium) to Chaos Jr

---2017/03/15 15:48:24---
Leo has given 1 Kraken Tentacle to Jewcy

---2017/03/15 15:48:59---
Leo has given 1 Onyx Ring to Jinx

---2017/03/15 15:49:26---
Leo has received 10000000 Coins from Dottel

---2017/03/15 15:49:57---
Leo has given 1 Fury Ornament Kit to Chaos Jr

---2017/03/15 15:50:34---
Leo has given 1 Dragonfire Shield to Jewcy

---2017/03/15 15:54:13---
Leo has given 100000 Blood Money to Chaos Jr

---2017/03/15 15:55:58---
Leo has received 1 Torag'S Helm from Dottel
Leo has received 1 Amulet Of Fury from Dottel
Leo has received 1 Torag'S Hammers from Dottel
Leo has received 1 Torag'S Platebody from Dottel
Leo has received 1 Torag'S Platelegs from Dottel

---2017/03/15 15:58:01---
Leo has received 50000 Blood Money from Dottel

---2017/03/15 17:03:25---
Leo has received 1 Super Combat Potion(4) from Dottel

---2017/03/15 18:00:18---
Leo has received 1 Dragon Dagger(P++) from Dottel

---2017/03/15 18:59:14---
Leo has given 1 Ring Of Wealth to Isa

---2017/03/15 22:34:54---
Leo has received 1 Blood Money from E

---2017/03/15 22:34:54---
Leo has given 400 Dragon Bones to E

---2017/03/15 22:36:59---
Leo has received 1 Serpentine Helm (Uncharged) from Dottel

---2017/03/15 22:37:52---
Leo has received 8008 Zulrah'S Scales from Dottel

---2017/03/15 22:39:53---
Leo has given 500 Dragon Dart to Hevi

---2017/03/15 22:43:58---
Leo has received 6 Dragon Dagger from Anony Mous
Leo has received 3 Clue Box from Anony Mous
Leo has received 1072 Babydragon Bones from Anony Mous
Leo has received 15 Amulet Of Glory from Anony Mous
Leo has received 264 Dragon Bones from Anony Mous
Leo has received 5 Dragon Longsword from Anony Mous
Leo has received 1577 Blood Money from Anony Mous
Leo has received 1252 Dragon Arrow from Anony Mous
Leo has received 514 Dragon Dart from Anony Mous
Leo has received 2 Mystic Robe Bottom from Anony Mous

---2017/03/16 21:16:35---
Leo has given 1 Vesta'S Platebody to Dottel

---2017/03/16 21:58:49---
Leo has received 1 Gilded Hasta from Dottel
Leo has received 1 Onyx Necklace from Dottel
Leo has received 2 Dragon Scimitar Ornament Kit from Dottel
Leo has received 1 Light Infinity Colour Kit from Dottel
Leo has received 1 Guthan'S Helm from Dottel
Leo has received 1 Verac'S Brassard from Dottel
Leo has received 1 Verac'S Plateskirt from Dottel
Leo has received 1 Bandos Godsword from Dottel

---2017/03/16 21:58:49---
Leo has given 6 Tuna Potato to Dottel

---2017/03/16 22:05:48---
Leo has received 1 Dragon Platelegs from Dottel

---2017/03/16 22:26:38---
Leo has given 500 Dragon Dart to Master Taro
