
---2017/04/17 22:13:18---
Lv3 has given 1 Dragon Thrownaxe to Mizery
Lv3 has given 3181136 Coins to Mizery
Lv3 has given 1 Wooden Shield (G) to Mizery
Lv3 has given 22725 Blood Money to Mizery
Lv3 has given 1 Runite Bar to Mizery
