
---2017/04/09 19:21:54---
Matheus has received 1 Statius Warhammer from Beroca

---2017/04/09 19:37:29---
Matheus has received 1 Dragon Boots from Spongebob

---2017/04/10 05:40:05---
Matheus has received 1 Amulet Of Fury from Dottel

---2017/04/10 16:55:02---
Matheus has received 12654204 Coins from Spongebob

---2017/04/10 16:55:02---
Matheus has given 84042 Blood Money to Spongebob
