
---2017/04/11 20:16:28---
Noobie X has received 250000 Coins from Nieve

---2017/04/12 12:00:16---
Noobie X has received 1 Saradomin Bracers from Noobie
Noobie X has received 29 Castle Wars Ticket from Noobie
Noobie X has received 1225 Blood Money from Noobie

---2017/04/12 12:00:49---
Noobie X has received 1 Verac'S Plateskirt from Noobie
Noobie X has received 3 Loop Half Of Key from Noobie
Noobie X has received 1 Shield Left Half from Noobie

---2017/04/12 18:32:00---
Noobie X has received 1 Ring Of Wealth from Fallen
