
---2017/06/17 06:32:16---
Plague has received 839 Babydragon Bones from Nxi
Plague has received 368 Dragon Bones from Nxi

---2017/06/17 06:32:16---
Plague has given 2 Magic Stone to Nxi

---2017/06/19 05:53:01---
Plague has given 2000000 Coins to Vape

---2017/06/20 04:50:46---
Plague has received 2000000 Coins from Vape

---2017/06/22 03:37:25---
Plague has given 1 Draconic Visage to Nxi

---2017/06/22 03:55:03---
Plague has received 15000000 Coins from Nxi

---2017/06/22 03:55:03---
Plague has given 1 Tuna Potato to Nxi

---2017/06/24 07:47:41---
Plague has given 1 Abyssal Whip to Nxi

---2017/06/24 07:48:12---
Plague has received 1 Kraken Tentacle from Nxi

---2017/06/24 08:07:28---
Plague has received 1 Tuna Potato from Nxi

---2017/06/24 08:07:28---
Plague has given 1 Manta Ray to Nxi

---2017/06/25 04:36:56---
Plague has given 1 Black D'Hide Body to Bbqstorm27
Plague has given 655 Rune Dart to Bbqstorm27

---2017/06/25 04:40:50---
Plague has given 1 Boots Of Darkness to Bbqstorm27

---2017/06/25 08:20:30---
Plague has given 5000000 Coins to Tameer000

---2017/06/25 08:20:30---
Plague has received 21000 Blood Money from Tameer000

---2017/06/25 20:12:24---
Plague has given 1 Infinity Boots to Spongebob
Plague has given 1 Eternal Crystal to Spongebob

---2017/06/25 20:12:34---
Plague has received 1 Eternal Boots from Spongebob

---2017/06/26 00:16:17---
Plague has given 1 Vesta'S Platebody to Nxi

---2017/06/26 02:06:35---
Plague has given 1 Ranger Boots to Nxi
Plague has given 1 Pegasian Crystal to Nxi

---2017/06/26 02:06:46---
Plague has received 1 Pegasian Boots from Nxi

---2017/06/27 02:40:55---
Plague has given 6 Tuna Potato to Nxi

---2017/06/27 02:40:55---
Plague has received 1 Armadyl Helmet from Nxi
Plague has received 1 Dragonfire Shield from Nxi
Plague has received 3 Tuna Potato from Nxi
Plague has received 2656 Dragon Bolts (E) from Nxi

---2017/06/27 02:44:26---
Plague has given 1 Armadyl Godsword to Nxi

---2017/06/27 02:44:26---
Plague has received 1 Toxic Blowpipe (Empty) from Nxi

---2017/06/27 03:02:31---
Plague has received 1 Abyssal Dagger (P++) from Nxi

---2017/06/27 03:03:04---
Plague has given 1 Fury Ornament Kit to Nxi

---2017/06/27 03:03:33---
Plague has given 1 Amulet Of Fury to Nxi

---2018/06/05 22:16:16---
Plague has received 1 Zamorak D'Hide from Ely

---2018/06/05 22:16:31---
Plague has given 1 Zamorak D'Hide to Ely

---2018/06/06 22:03:44---
Plague has given 1 Amulet Of Fury to Ely

---2018/06/07 15:51:50---
Plague has given 1 Bandos Coif to Cain
Plague has given 1 Guthix Dragonhide to Cain
Plague has given 1 Guthix Chaps to Cain

---2018/06/08 00:11:11---
Plague has received 1 Statius Platebody from Cain
Plague has received 1 Onyx Necklace from Cain
Plague has received 5 Onyx Amulet from Cain
Plague has received 42703 Blood Money from Cain

---2018/06/08 20:45:23---
Plague has received 1 Dragon Platelegs from Cain
Plague has received 275 Ruby Bolts (E) from Cain
Plague has received 330 Diamond Bolts (E) from Cain
Plague has received 75 Dragon Bolts (E) from Cain
Plague has received 105 Onyx Bolts (E) from Cain

---2018/06/09 13:37:42---
Plague has received 1 Onyx Ring from Plaguer
Plague has received 8 Onyx Amulet from Plaguer
Plague has received 33961 Blood Money from Plaguer
Plague has received 1 Onyx Ring from Plaguer

---2018/06/10 13:51:58---
Plague has given 1 Dragon Boots to Saint Plague
Plague has given 598 Shark to Saint Plague
Plague has given 292 Super Attack(4) to Saint Plague
Plague has given 292 Super Strength(4) to Saint Plague
Plague has given 303 Super Defence(4) to Saint Plague
Plague has given 282 Ranging Potion(4) to Saint Plague
Plague has given 1 Statius Platebody to Saint Plague
Plague has given 531 Super Restore(4) to Saint Plague
Plague has given 7 Antifire Potion(4) to Saint Plague
Plague has given 2 Godsword Blade to Saint Plague
Plague has given 4 Dragon Bones to Saint Plague
Plague has given 2260 Ruby Bolts (E) to Saint Plague
Plague has given 2 Loop Half Of Key to Saint Plague
Plague has given 1091 Dragon Bolts (E) to Saint Plague
Plague has given 17 Crystal Key to Saint Plague
Plague has given 589 Saradomin Brew(4) to Saint Plague
Plague has given 10 Magic Potion(4) to Saint Plague
Plague has given 1 Ancestral Robe Bottom to Saint Plague
Plague has given 7228164 Coins to Saint Plague
Plague has given 1 Gloves Of Darkness to Saint Plague
Plague has given 14102 Water Rune to Saint Plague
Plague has given 2 Onyx Ring to Saint Plague
Plague has given 8263 Death Rune to Saint Plague
Plague has given 9616 Blood Rune to Saint Plague
Plague has given 13 Onyx Amulet to Saint Plague
Plague has given 1 Berserker Necklace to Saint Plague
Plague has given 1 Amulet Of Fury to Saint Plague
Plague has given 532772 Blood Money to Saint Plague

---2018/06/10 13:53:30---
Plague has given 6 Rune Crossbow to Saint Plague
Plague has given 1 Zamorak D'Hide to Saint Plague
Plague has given 4 Dragon Dagger(P++) to Saint Plague
Plague has given 2 Zamorak Chaps to Saint Plague
Plague has given 2 Zamorak Coif to Saint Plague
Plague has given 1 Dragon Platelegs to Saint Plague
Plague has given 4 Helm Of Neitiznot to Saint Plague
Plague has given 4 Dragon Scimitar to Saint Plague

---2018/06/10 13:55:54---
Plague has given 1 Dust Battlestaff to Saint Plague
Plague has given 2 Smouldering Stone to Saint Plague
Plague has given 597 Chaos Rune to Saint Plague
Plague has given 19000000 Coins to Saint Plague
Plague has given 10002 Astral Rune to Saint Plague
Plague has given 1 Robe Bottom Of Darkness to Saint Plague
Plague has given 5 Tooth Half Of Key to Saint Plague
Plague has given 2 Mist Battlestaff to Saint Plague
Plague has given 962 Diamond Bolts (E) to Saint Plague
Plague has given 2 Pegasian Crystal to Saint Plague
Plague has given 880 Mind Rune to Saint Plague
Plague has given 1 Godsword Shard 3 to Saint Plague

---2018/06/10 15:12:10---
Plague has given 119 Babydragon Bones to Saint Plague
Plague has given 54 Dragon Bones to Saint Plague

---2018/06/10 15:24:42---
Plague has given 886 Babydragon Bones to Saint Plague
Plague has given 255 Dragon Bones to Saint Plague

---2018/06/10 15:42:53---
Plague has given 1161 Babydragon Bones to Saint Plague
Plague has given 341 Dragon Bones to Saint Plague

---2018/06/10 16:08:44---
Plague has given 725 Babydragon Bones to Saint Plague
Plague has given 123 Dragon Bones to Saint Plague
Plague has given 63640 Blood Money to Saint Plague

---2018/06/10 16:35:48---
Plague has given 392 Dragon Bones to Saint Plague

---2018/06/10 17:15:32---
Plague has given 766 Babydragon Bones to Saint Plague
Plague has given 659 Dragon Bones to Saint Plague

---2018/06/10 17:16:04---
Plague has given 13 Clue Box to Saint Plague

---2018/06/10 17:16:56---
Plague has given 537 Dragon Dart Tip to Saint Plague
Plague has given 108 Summer Pie to Saint Plague
Plague has given 630 Dragon Arrowtips to Saint Plague
Plague has given 579 Dragon Bolt Tips to Saint Plague
Plague has given 16 Dragon Longsword to Saint Plague
Plague has given 8335 Blood Money to Saint Plague
Plague has given 5862 Dragon Arrow to Saint Plague
Plague has given 461 Dragon Bolts to Saint Plague
Plague has given 325 Dragon Dart to Saint Plague

---2018/06/10 18:02:31---
Plague has given 1780 Babydragon Bones to Saint Plague
Plague has given 964 Dragon Bones to Saint Plague

---2018/06/10 18:03:27---
Plague has given 1 Archers Ring to Saint Plague

---2018/06/10 19:20:25---
Plague has given 598 Shark to Saint Plague
Plague has given 3 Dragon Dagger(P++) to Saint Plague
Plague has given 1 Zamorak D'Hide to Saint Plague
Plague has given 292 Super Attack(4) to Saint Plague
Plague has given 2 Zamorak Chaps to Saint Plague
Plague has given 2 Zamorak Coif to Saint Plague
Plague has given 292 Super Strength(4) to Saint Plague
Plague has given 303 Super Defence(4) to Saint Plague
Plague has given 282 Ranging Potion(4) to Saint Plague
Plague has given 1 Statius Platebody to Saint Plague
Plague has given 531 Super Restore(4) to Saint Plague
Plague has given 7 Antifire Potion(4) to Saint Plague
Plague has given 2110 Ruby Bolts (E) to Saint Plague
Plague has given 4 Helm Of Neitiznot to Saint Plague
Plague has given 1091 Dragon Bolts (E) to Saint Plague
Plague has given 589 Saradomin Brew(4) to Saint Plague
Plague has given 10 Magic Potion(4) to Saint Plague
Plague has given 1 Ancestral Robe Bottom to Saint Plague
Plague has given 5 Rune Crossbow to Saint Plague
Plague has given 14102 Water Rune to Saint Plague
Plague has given 3 Dragon Scimitar to Saint Plague
Plague has given 8263 Death Rune to Saint Plague
Plague has given 523 Nature Rune to Saint Plague
Plague has given 9616 Blood Rune to Saint Plague
Plague has given 1 Dragon Platelegs to Saint Plague
Plague has given 1 Snakeskin Boots to Saint Plague
Plague has given 1 Amulet Of Fury to Saint Plague
Plague has given 532772 Blood Money to Saint Plague

---2018/06/10 19:23:53---
Plague has given 1 Dust Battlestaff to Saint Plague
Plague has given 1 Zamorak Bracers to Saint Plague
Plague has given 26228164 Coins to Saint Plague
Plague has given 1491 Bolt Rack to Saint Plague
Plague has given 1 Uncut Onyx to Saint Plague
Plague has given 2 Pegasian Crystal to Saint Plague
Plague has given 1 Godsword Shard 3 to Saint Plague
Plague has given 2 Onyx Ring to Saint Plague
Plague has given 2 Smouldering Stone to Saint Plague
Plague has given 13 Onyx Amulet to Saint Plague
Plague has given 2 Godsword Blade to Saint Plague
Plague has given 1 Berserker Necklace to Saint Plague
Plague has given 5 Tooth Half Of Key to Saint Plague
Plague has given 962 Diamond Bolts (E) to Saint Plague
Plague has given 2 Mist Battlestaff to Saint Plague
Plague has given 2 Loop Half Of Key to Saint Plague
Plague has given 17 Crystal Key to Saint Plague

---2018/06/10 19:25:49---
Plague has given 1 Dragon Boots to Saint Plague
Plague has given 597 Chaos Rune to Saint Plague
Plague has given 10002 Astral Rune to Saint Plague
Plague has given 727 Soul Rune to Saint Plague
Plague has given 2340 Fire Rune to Saint Plague
Plague has given 80 Lava Rune to Saint Plague
Plague has given 13995 Earth Rune to Saint Plague
Plague has given 147 Onyx Bolts (E) to Saint Plague
Plague has given 880 Mind Rune to Saint Plague

---2018/06/10 22:18:50---
Plague has given 5 Harralander to Saint Plague
Plague has given 134 Raw Shark to Saint Plague
Plague has given 10 Magic Seed to Saint Plague
Plague has given 4402 Dragon Arrow to Saint Plague
Plague has given 1 Spottier Cape to Saint Plague
Plague has given 2761 Babydragon Bones to Saint Plague
Plague has given 675 Dragon Bones to Saint Plague
Plague has given 1 Gloves Of Silence to Saint Plague
Plague has given 3 Loop Half Of Key to Saint Plague
Plague has given 5 Crystal Key to Saint Plague
Plague has given 243 Dragon Dart to Saint Plague
Plague has given 179 Dragon Dart Tip to Saint Plague
Plague has given 10952715 Coins to Saint Plague
Plague has given 99 Dragon Arrowtips to Saint Plague
Plague has given 1 Gloves Of Darkness to Saint Plague
Plague has given 213 Raw Tuna to Saint Plague
Plague has given 37 Amulet Of Glory to Saint Plague
Plague has given 246 Dragon Bolt Tips to Saint Plague
Plague has given 96 Magic Logs to Saint Plague
Plague has given 37 Purple Sweets to Saint Plague
Plague has given 2 Dragonstone Ring to Saint Plague
Plague has given 108 Summer Pie to Saint Plague
Plague has given 69 Snapdragon Seed to Saint Plague
Plague has given 13 Clue Box to Saint Plague
Plague has given 14297 Blood Money to Saint Plague
Plague has given 120 Dragon Bolts to Saint Plague

---2018/06/10 22:21:18---
Plague has given 1824 Pure Essence to Saint Plague
Plague has given 5 Irit Leaf to Saint Plague
Plague has given 4 Avantoe to Saint Plague
Plague has given 1329 Coal to Saint Plague
Plague has given 38 Grimy Guam Leaf to Saint Plague
Plague has given 3 Tzhaar-Ket-Em to Saint Plague
Plague has given 3 Raw Sea Turtle to Saint Plague
Plague has given 62 Grimy Harralander to Saint Plague
Plague has given 82 Grimy Irit Leaf to Saint Plague
Plague has given 68 Black Dragonhide to Saint Plague
Plague has given 118 Uncut Ruby to Saint Plague
Plague has given 52 Grimy Avantoe to Saint Plague
Plague has given 13 Grimy Kwuarm to Saint Plague
Plague has given 21 Uncut Emerald to Saint Plague
Plague has given 31 Uncut Sapphire to Saint Plague
Plague has given 82 Grimy Cadantine to Saint Plague
Plague has given 27 Lava Scale to Saint Plague
Plague has given 56 Grimy Dwarf Weed to Saint Plague
Plague has given 8 Grimy Toadflax to Saint Plague
Plague has given 345 Yew Logs to Saint Plague
Plague has given 257 Maple Logs to Saint Plague
Plague has given 422 Raw Swordfish to Saint Plague
Plague has given 24 Lantadyme Seed to Saint Plague
Plague has given 5 Guam Leaf to Saint Plague
Plague has given 2 Marrentill to Saint Plague
Plague has given 31 Runite Bar to Saint Plague
Plague has given 5 Tarromin to Saint Plague

---2018/06/10 22:22:31---
Plague has given 10 Ranarr Weed to Saint Plague
Plague has given 28 Lantadyme to Saint Plague
Plague has given 35 Cosmic Rune to Saint Plague
Plague has given 500 Tuna Potato to Saint Plague
Plague has given 1 Kwuarm to Saint Plague

---2018/06/15 18:30:14---
Plague has given 1 Zamorakian Spear to Saint Plague
Plague has given 10 Cannonball to Saint Plague
Plague has given 1 Earmuffs to Saint Plague
Plague has given 1 Cannon Base to Saint Plague
Plague has given 1 Spiny Helmet to Saint Plague
Plague has given 1 Nose Peg to Saint Plague

---2018/06/15 18:30:15---
Plague has received 5 Shark from Saint Plague

---2018/07/10 16:28:51---
Plague has received 1 Ancestral Robe Bottom from Saint Plague
Plague has received 1 Karil'S Leathertop from Saint Plague
Plague has received 1 Ancient Staff from Saint Plague
Plague has received 1 Vesta'S Longsword from Saint Plague
Plague has received 1903 Water Rune from Saint Plague
Plague has received 1 Statius Platebody from Saint Plague
Plague has received 29990 Death Rune from Saint Plague
Plague has received 1 Statius Platelegs from Saint Plague
Plague has received 29990 Blood Rune from Saint Plague
Plague has received 1 Amulet Of Fury from Saint Plague
Plague has received 1 Lava Spirit Shield from Saint Plague
Plague has received 1 Ancestral Robe Top from Saint Plague
Plague has received 359 Dragon Dart from Saint Plague

---2018/07/10 17:44:16---
Plague has given 1 Karil'S Leathertop to Saint Plague
Plague has given 1 Statius Platebody to Saint Plague
Plague has given 29990 Death Rune to Saint Plague
Plague has given 1 Statius Platelegs to Saint Plague
Plague has given 1 Ancient Staff to Saint Plague
Plague has given 1 Rune Plateskirt (T) to Saint Plague
Plague has given 29990 Blood Rune to Saint Plague
Plague has given 1 Black D'Hide Body to Saint Plague
Plague has given 1 Amulet Of Fury to Saint Plague
Plague has given 1 Lava Spirit Shield to Saint Plague
Plague has given 1 Vesta'S Longsword to Saint Plague
Plague has given 1903 Water Rune to Saint Plague

---2018/07/10 17:51:40---
Plague has given 1 Ancestral Robe Bottom to Saint Plague
Plague has given 1 Ancestral Robe Top to Saint Plague

---2018/07/11 16:14:02---
Plague has received 1 Ancestral Robe Bottom from Saint Plague
Plague has received 99467 Death Rune from Saint Plague
Plague has received 1 Dragon Dagger(P++) from Saint Plague
Plague has received 1 Bandos D'Hide from Saint Plague
Plague has received 99037 Blood Rune from Saint Plague
Plague has received 1701 Water Rune from Saint Plague
Plague has received 1 Ancestral Robe Top from Saint Plague
Plague has received 195 Dragon Dart from Saint Plague
Plague has received 1 Staff Of The Dead from Saint Plague

---2018/07/11 16:14:27---
Plague has received 1 Statius Platebody from Saint Plague
Plague has received 1 Dragon Boots from Saint Plague
Plague has received 1 Statius Platelegs from Saint Plague
Plague has received 1 Ring Of Wealth (I) from Saint Plague
Plague has received 1 Amulet Of Fury from Saint Plague
Plague has received 1 Vesta'S Longsword from Saint Plague
Plague has received 1 Lava Spirit Shield from Saint Plague

---2018/07/11 16:16:15---
Plague has received 1 Dragon Boots from Saint Plague
Plague has received 592 Super Attack(4) from Saint Plague
Plague has received 1 Rapier from Saint Plague
Plague has received 1 Twisted Bow from Saint Plague
Plague has received 1 Dragon Warhammer from Saint Plague
Plague has received 1 Vesta'S Spear from Saint Plague
Plague has received 587 Ranging Potion(4) from Saint Plague
Plague has received 1087 Super Restore(4) from Saint Plague
Plague has received 1 Zamorakian Spear from Saint Plague
Plague has received 1 Statius Fullhelm from Saint Plague
Plague has received 1 Torva Platebody from Saint Plague
Plague has received 2 Godsword Blade from Saint Plague
Plague has received 1 Ancestral Hat from Saint Plague
Plague has received 180624 Blood Money from Saint Plague
Plague has received 581 Saradomin Brew(4) from Saint Plague
Plague has received 8356 Dragon Dart from Saint Plague

---2018/07/11 16:16:35---
Plague has received 52450983 Coins from Saint Plague

---2018/07/12 16:39:59---
Plague has received 1 Armadyl Godsword from Saint Plague

---2018/07/12 16:50:47---
Plague has received 1 Abyssal Tentacle from Saint Plague

---2018/07/12 16:58:29---
Plague has received 1 Dragon Claws from Saint Plague

---2018/07/12 17:35:27---
Plague has given 1 Twisted Bow to Tom

---2018/07/12 17:35:58---
Plague has received 1 Twisted Bow from Tom

---2018/07/13 20:33:36---
Plague has received 1 Armadyl Crossbow from Saint Plague

---2018/07/13 22:03:30---
Plague has received 10462 Dragon Arrow from Saint Plague

---2018/07/13 22:07:01---
Plague has given 300 Dragon Arrow to Diablo

---2018/07/14 22:25:51---
Plague has received 1 Zuriels Robetop from Polaris

---2018/07/14 22:25:51---
Plague has given 76000 Blood Money to Polaris

---2018/07/15 20:04:31---
Plague has given 100000 Blood Money to Tom

---2018/07/15 20:04:31---
Plague has received 1 Zuriels Hood from Tom
Plague has received 1 Zuriels Robetop from Tom
Plague has received 1 Karil'S Crossbow from Tom

---2018/07/15 21:25:46---
Plague has received 2 Shark from Fat Ghost

---2018/07/15 21:25:46---
Plague has given 1 Zuriels Hood to Fat Ghost
Plague has given 1 Zuriels Robetop to Fat Ghost

---2018/07/16 00:31:15---
Plague has received 180000 Blood Money from Saint Plague

---2018/07/16 14:10:51---
Plague has given 1 Super Restore(4) to Cain
Plague has given 1 Super Restore(3) to Cain
Plague has given 12 Manta Ray to Cain
Plague has given 1 Saradomin Brew(4) to Cain
Plague has given 120 Dragon Dart to Cain
Plague has given 1 Saradomin Brew(3) to Cain

---2018/07/17 14:46:52---
Plague has given 2 Dragon Boots to Brandon
Plague has given 584 Super Attack(4) to Brandon
Plague has given 1 Twisted Bow to Brandon
Plague has given 1 Dragon Warhammer to Brandon
Plague has given 14 Super Strength(4) to Brandon
Plague has given 1 Armadyl Crossbow to Brandon
Plague has given 1 Vesta'S Longsword to Brandon
Plague has given 1 Vesta'S Spear to Brandon
Plague has given 10092 Dragon Arrow to Brandon
Plague has given 579 Ranging Potion(4) to Brandon
Plague has given 1056 Super Restore(4) to Brandon
Plague has given 1 Torva Platebody to Brandon
Plague has given 1 Armadyl Godsword to Brandon
Plague has given 1 Bone Club to Brandon
Plague has given 1 Ancestral Hat to Brandon
Plague has given 8672 Dragon Dart to Brandon
Plague has given 1 Ancestral Robe Top to Brandon
Plague has given 572 Saradomin Brew(4) to Brandon
Plague has given 1 Ancestral Robe Bottom to Brandon
Plague has given 1 Zuriels Robetop to Brandon
Plague has given 1 Rapier to Brandon
Plague has given 730 Air Rune to Brandon
Plague has given 99472 Death Rune to Brandon
Plague has given 1 Zamorakian Spear to Brandon
Plague has given 99035 Blood Rune to Brandon
Plague has given 209666 Blood Money to Brandon
Plague has given 8 Onyx Bolts to Brandon
Plague has given 1 Karil'S Crossbow to Brandon

---2018/07/17 14:48:24---
Plague has given 1 Statius Platebody to Brandon
Plague has given 1 Dragon Boots to Brandon
Plague has given 1 Statius Platelegs to Brandon
Plague has given 1 Ring Of Wealth (I) to Brandon
Plague has given 1 Statius Fullhelm to Brandon
Plague has given 59773877 Coins to Brandon
Plague has given 2 Godsword Blade to Brandon
Plague has given 1 Amulet Of Fury to Brandon
Plague has given 5 Morrigans Throwing Axe to Brandon
Plague has given 2 Onyx Bolts to Brandon
Plague has given 1 Staff Of The Dead to Brandon

---2018/08/06 22:23:07---
Plague has received 13168870 Coins from Dna

---2018/08/07 10:32:31---
Plague has received 3 Tuna Potato from Brandon

---2018/08/07 10:32:31---
Plague has given 20551054 Coins to Brandon
Plague has given 1 Team Cape X to Brandon
Plague has given 1 Amulet Of Fury to Brandon

---2018/08/07 17:28:01---
Plague has received 220 Death Rune from Slayer
Plague has received 221 Blood Rune from Slayer
