
---2018/08/01 15:29:14---
Ragnarok has given 87 Dragon Bones to Frost

---2018/08/04 18:27:03---
Ragnarok has given 1 Statius Fullhelm to Jabrone
Ragnarok has given 1 Zuriels Robeskirt to Jabrone

---2018/08/04 18:27:03---
Ragnarok has received 1 Dragon Dagger(P++) from Jabrone
