
---2017/03/21 20:13:13---
Reallybadrng has given 1038 Raw Shark to Bad Rng
Reallybadrng has given 108502 Blood Money to Bad Rng
Reallybadrng has given 57 Crystal Key to Bad Rng

---2017/03/21 20:16:05---
Reallybadrng has received 200 Dragon Dart from Bad Rng

---2017/03/21 20:25:58---
Reallybadrng has received 200 Babydragon Bones from Bad Rng

---2017/03/21 20:57:51---
Reallybadrng has given 1 3rd Age Axe to Bad Rng
Reallybadrng has given 2 Gilded Plateskirt to Bad Rng
