
---2017/03/24 07:30:47---
Trout has received 1000000 Coins from Chaotical

---2017/03/24 07:36:18---
Trout has received 50 Dragon Bones from Chaotical

---2017/03/24 07:36:34---
Trout has received 78 Dragon Bones from Dream

---2017/03/24 07:53:08---
Trout has received 192 Dragon Dart from Chaotical
