
---2018/07/26 13:15:01---
Villain has given 2 Dragon Spear to Duke
Villain has given 1 Rune Battleaxe to Duke

---2018/07/26 13:15:01---
Villain has received 4 Tooth Half Of Key from Duke
Villain has received 2 Crystal Key from Duke

---2018/07/26 13:17:17---
Villain has received 1 Loop Half Of Key from Duke

---2018/07/26 13:17:17---
Villain has given 19271 Blood Money to Duke

---2018/07/26 14:06:41---
Villain has given 837 Blood Money to Duke

---2018/07/26 14:06:41---
Villain has received 1 Twisted Bow from Duke

---2018/07/26 14:20:39---
Villain has given 1796 Blood Money to Duke
Villain has given 1 Loop Half Of Key to Duke
Villain has given 1 Crystal Key to Duke

---2018/07/26 14:20:39---
Villain has received 1 Black D'Hide Chaps from Duke
Villain has received 1 Black D'Hide Body from Duke
Villain has received 1 Black D'Hide Vamb from Duke

---2018/07/26 14:23:14---
Villain has received 491 Rune Arrow from Duke

---2018/07/26 14:41:43---
Villain has given 1 Dragon Spear to Duke
Villain has given 1 Rune 2h Sword to Duke
Villain has given 1 Tooth Half Of Key to Duke
Villain has given 6713 Blood Money to Duke
Villain has given 1 Loop Half Of Key to Duke

---2018/07/28 09:47:36---
Villain has received 1 Pegasian Boots from Duke

---2018/07/28 11:16:43---
Villain has given 16703 Blood Money to Duke
Villain has given 3 Crystal Key to Duke

---2018/07/28 11:16:43---
Villain has received 1 Statius Fullhelm from Duke
Villain has received 1 Rapier from Duke
Villain has received 1 Vesta'S Chainskirt from Duke

---2018/07/30 11:17:04---
Villain has received 1 Armadyl Chestplate from Duke
Villain has received 1 Abyssal Whip from Duke

---2018/08/01 17:37:58---
Villain has received 1 Necklace Of Anguish from Duke

---2018/08/01 19:53:59---
Villain has given 69 Dragon Bones to Duke
Villain has given 149587 Blood Money to Duke

---2018/08/01 20:09:49---
Villain has given 1 Dragon Boots to Duke
Villain has given 1 Black D'Hide Body to Duke
