
---2017/06/21 14:09:39---
Zakv2 has given 75 Shark to Zak
Zakv2 has given 500000 Coins to Zak

---2017/06/21 14:21:53---
Zakv2 has received 1 Rune Boots from Zak
Zakv2 has received 1 Rune Platebody from Zak
Zakv2 has received 1 Rune Platelegs from Zak
Zakv2 has received 1 Rune Full Helm from Zak
Zakv2 has received 1 Dragon Scimitar from Zak

---2017/06/21 14:22:16---
Zakv2 has received 1 Rune Scimitar from Zak

---2017/06/21 14:46:09---
Zakv2 has received 1 Dragon Boots from Zak
Zakv2 has received 1 Abyssal Whip from Zak
Zakv2 has received 1 Dragon Plateskirt from Zak
Zakv2 has received 1 Warrior Helm from Zak
Zakv2 has received 1 Torag'S Platebody from Zak

---2017/06/21 15:56:07---
Zakv2 has given 54 Dragon Bones to Zak

---2017/06/21 18:33:39---
Zakv2 has given 1 Abyssal Whip to Zak
