
---2017/03/14 13:40:36---
Zam353 has received 7 Tuna from Narcan

---2017/03/14 13:40:36---
Zam353 has given 10 Super Restore(4) to Narcan
Zam353 has given 10 Magic Potion(4) to Narcan
Zam353 has given 75 Shark to Narcan
Zam353 has given 500000 Coins to Narcan
Zam353 has given 10 Super Attack(4) to Narcan
Zam353 has given 1 Magic Box to Narcan
Zam353 has given 10 Super Strength(4) to Narcan
Zam353 has given 10 Super Defence(4) to Narcan
Zam353 has given 2 Crystal Key to Narcan
Zam353 has given 10 Ranging Potion(4) to Narcan
