
---2018/06/30 05:32:26---
Arus has recieved 10 Magic Potion(4) from Rock Crab.

---2018/06/30 05:32:26---
Arus has recieved 75 Shark from Rock Crab.

---2018/06/30 05:32:26---
Arus has recieved 500000 Coins from Rock Crab.

---2018/06/30 05:32:26---
Arus has recieved 10 Super Attack(4) from Rock Crab.

---2018/06/30 05:32:26---
Arus has recieved 10 Super Strength(4) from Rock Crab.

---2018/06/30 05:32:26---
Arus has recieved 250 Fire Rune from Rock Crab.

---2018/06/30 05:32:26---
Arus has recieved 10 Super Defence(4) from Rock Crab.

---2018/06/30 05:32:26---
Arus has recieved 1 White Magic Staff from Rock Crab.

---2018/06/30 05:32:26---
Arus has recieved 250 Water Rune from Rock Crab.

---2018/06/30 05:32:26---
Arus has recieved 250 Air Rune from Rock Crab.

---2018/06/30 05:32:26---
Arus has recieved 7 Ranging Potion(4) from Rock Crab.

---2018/06/30 05:32:26---
Arus has recieved 250 Earth Rune from Rock Crab.

---2018/06/30 05:32:26---
Arus has recieved 250 Mind Rune from Rock Crab.

---2018/06/30 05:32:26---
Arus has recieved 10 Super Restore(4) from Rock Crab.

---2018/06/30 05:32:26---
Arus has recieved 30 Nature Rune from Rock Crab.

---2018/06/30 05:32:26---
Arus has recieved 100 Chaos Rune from Rock Crab.

---2018/06/30 05:32:26---
Arus has recieved 50 Law Rune from Rock Crab.
