
---2018/06/25 22:10:48---
Ben has recieved 5 Super Restore(4) from Enraged General Graador.

---2018/06/25 22:10:48---
Ben has recieved 1 Black D'Hide Chaps from Enraged General Graador.

---2018/06/25 22:10:48---
Ben has recieved 16 Shark from Enraged General Graador.

---2018/06/25 22:10:48---
Ben has recieved 1 Climbing Boots from Enraged General Graador.

---2018/06/25 22:10:48---
Ben has recieved 181 Dragon Bolts (E) from Enraged General Graador.

---2018/06/25 22:10:48---
Ben has recieved 1 Ranging Potion(4) from Enraged General Graador.

---2018/06/25 22:12:47---
Ben has recieved 5 Super Restore(4) from Enraged General Graador.

---2018/06/25 22:12:47---
Ben has recieved 1 Black D'Hide Chaps from Enraged General Graador.

---2018/06/25 22:12:47---
Ben has recieved 15 Shark from Enraged General Graador.

---2018/06/25 22:12:47---
Ben has recieved 1 Climbing Boots from Enraged General Graador.

---2018/06/25 22:12:47---
Ben has recieved 181 Dragon Bolts (E) from Enraged General Graador.

---2018/06/25 22:12:47---
Ben has recieved 1 Ranging Potion(4) from Enraged General Graador.

---2018/06/27 19:26:36---
Ben has recieved 1 Dragon Boots from Karil The Tainted.

---2018/06/27 19:26:36---
Ben has recieved 1 Torag'S Hammers 0 from Karil The Tainted.

---2018/06/27 19:26:36---
Ben has recieved 1 Super Attack(4) from Karil The Tainted.

---2018/06/27 19:26:36---
Ben has recieved 1075 Bolt Rack from Karil The Tainted.

---2018/06/27 19:26:37---
Ben has recieved 2 Vial from Karil The Tainted.

---2018/06/27 19:26:37---
Ben has recieved 1 Super Strength(4) from Karil The Tainted.

---2018/06/27 19:26:37---
Ben has recieved 1 Ring Of Wealth from Karil The Tainted.

---2018/06/27 19:26:37---
Ben has recieved 75 Air Rune from Karil The Tainted.

---2018/06/27 19:26:37---
Ben has recieved 1 Torag'S Platelegs 0 from Karil The Tainted.

---2018/06/27 19:26:37---
Ben has recieved 75 Mind Rune from Karil The Tainted.

---2018/06/27 19:26:37---
Ben has recieved 250 Death Rune from Karil The Tainted.

---2018/06/27 19:26:37---
Ben has recieved 250 Nature Rune from Karil The Tainted.

---2018/06/27 19:26:37---
Ben has recieved 1 Dragonfire Shield from Karil The Tainted.

---2018/06/27 19:26:37---
Ben has recieved 1 Super Attack(2) from Karil The Tainted.

---2018/06/27 19:26:37---
Ben has recieved 300 Big Bones from Karil The Tainted.

---2018/06/27 19:26:37---
Ben has recieved 1 Super Strength(2) from Karil The Tainted.

---2018/06/27 19:49:55---
Ben has recieved 1 Dragon Boots from Demonic Gorilla.

---2018/06/27 19:49:55---
Ben has recieved 2 Super Restore(4) from Demonic Gorilla.

---2018/06/27 19:49:55---
Ben has recieved 1 Rune Crossbow from Demonic Gorilla.

---2018/06/27 19:49:55---
Ben has recieved 22 Shark from Demonic Gorilla.

---2018/06/27 19:49:55---
Ben has recieved 1 Super Restore(3) from Demonic Gorilla.

---2018/06/27 19:49:55---
Ben has recieved 1 Ranging Potion(3) from Demonic Gorilla.

---2018/06/27 19:49:55---
Ben has recieved 1396 Ruby Bolts (E) from Demonic Gorilla.

---2018/06/27 19:49:55---
Ben has recieved 1 Ring Of Wealth from Demonic Gorilla.

---2018/06/27 23:15:28---
Ben has recieved 1 Dragon Boots from Dharok The Wretched.

---2018/06/27 23:15:28---
Ben has recieved 12 Super Restore(4) from Dharok The Wretched.

---2018/06/27 23:15:28---
Ben has recieved 7 Shark from Dharok The Wretched.

---2018/06/27 23:15:28---
Ben has recieved 1 Super Attack(3) from Dharok The Wretched.

---2018/06/27 23:15:28---
Ben has recieved 205 Bolt Rack from Dharok The Wretched.

---2018/06/27 23:15:28---
Ben has recieved 150 Big Bones from Dharok The Wretched.

---2018/06/27 23:15:28---
Ben has recieved 1 Super Restore(1) from Dharok The Wretched.

---2018/06/27 23:15:28---
Ben has recieved 1 Ring Of Wealth from Dharok The Wretched.

---2018/06/27 23:15:28---
Ben has recieved 1 Super Strength(3) from Dharok The Wretched.
