
---2017/04/28 22:13:07---
Charisma has recieved 22 Shark from Callisto.

---2017/04/28 22:13:07---
Charisma has recieved 1 Climbing Boots from Callisto.

---2017/04/28 22:13:07---
Charisma has recieved 470 Blood Rune from Callisto.

---2017/04/28 22:13:07---
Charisma has recieved 1 Dragon Bones from Callisto.

---2017/04/28 22:13:07---
Charisma has recieved 133 Blood Money from Callisto.
