
---2017/03/18 17:39:42---
Clemens has recieved 12 Shark from Dharok The Wretched.

---2017/03/18 17:39:42---
Clemens has recieved 1 Super Attack(3) from Dharok The Wretched.

---2017/03/18 17:39:42---
Clemens has recieved 2 Prayer Potion(4) from Dharok The Wretched.

---2017/03/18 17:39:42---
Clemens has recieved 1 Amulet Of Power from Dharok The Wretched.

---2017/03/18 17:39:42---
Clemens has recieved 1 Super Defence(3) from Dharok The Wretched.

---2017/03/18 17:39:42---
Clemens has recieved 1 Anti-Dragon Shield from Dharok The Wretched.

---2017/03/18 17:39:42---
Clemens has recieved 1 Spade from Dharok The Wretched.

---2017/03/18 17:39:42---
Clemens has recieved 1 Diamond Ring from Dharok The Wretched.

---2017/03/18 17:39:42---
Clemens has recieved 1 Helm Of Neitiznot from Dharok The Wretched.

---2017/03/18 17:39:42---
Clemens has recieved 1 Super Strength(3) from Dharok The Wretched.

---2017/03/18 17:39:42---
Clemens has recieved 1 Prayer Potion(2) from Dharok The Wretched.
