
---2017/03/19 01:29:37---
Dhar has recieved 21 Shark from Cerberus.

---2017/03/19 01:29:37---
Dhar has recieved 1157320 Coins from Cerberus.

---2017/03/19 01:29:37---
Dhar has recieved 1 Twisted Bow from Cerberus.

---2017/03/19 01:29:37---
Dhar has recieved 1 Ranging Potion(3) from Cerberus.

---2017/03/19 01:29:37---
Dhar has recieved 1 Loop Half Of Key from Cerberus.

---2017/03/19 01:29:37---
Dhar has recieved 785 Blood Money from Cerberus.

---2017/03/19 01:29:37---
Dhar has recieved 991 Dragon Arrow from Cerberus.

---2017/04/01 19:23:37---
Dhar has recieved 16 Dark Crab from Corrupt Sorceress.

---2017/04/01 19:23:37---
Dhar has recieved 7 Grimy Ranarr Weed from Corrupt Sorceress.

---2017/04/01 19:23:37---
Dhar has recieved 1 Ring Of Wealth (I) from Corrupt Sorceress.

---2017/04/01 19:23:37---
Dhar has recieved 1 Super Restore(3) from Corrupt Sorceress.

---2017/04/01 19:23:37---
Dhar has recieved 784541 Coins from Corrupt Sorceress.

---2017/04/01 19:23:37---
Dhar has recieved 1 Tuna Potato from Corrupt Sorceress.

---2017/04/01 19:23:37---
Dhar has recieved 1 Pegasian Boots from Corrupt Sorceress.

---2017/04/01 19:23:37---
Dhar has recieved 1 Ranging Potion(2) from Corrupt Sorceress.

---2017/04/01 19:23:37---
Dhar has recieved 9044 Blood Money from Corrupt Sorceress.

---2017/04/01 19:23:37---
Dhar has recieved 412 Dragon Bolts (E) from Corrupt Sorceress.
