
---2018/08/02 10:26:30---
Eloni has recieved 1 Bucket from Ghost.

---2018/08/02 10:26:30---
Eloni has recieved 1 Bronze Axe from Ghost.

---2018/08/02 10:26:30---
Eloni has recieved 6 Water Rune from Ghost.

---2018/08/02 10:26:30---
Eloni has recieved 1 Pot from Ghost.

---2018/08/02 10:26:30---
Eloni has recieved 25 Air Rune from Ghost.

---2018/08/02 10:26:30---
Eloni has recieved 4 Earth Rune from Ghost.

---2018/08/02 10:26:30---
Eloni has recieved 15 Mind Rune from Ghost.

---2018/08/02 10:26:30---
Eloni has recieved 1 Tinderbox from Ghost.

---2018/08/02 10:26:30---
Eloni has recieved 1 Small Fishing Net from Ghost.

---2018/08/02 10:26:30---
Eloni has recieved 2 Body Rune from Ghost.

---2018/08/02 10:26:30---
Eloni has recieved 1 Bronze Pickaxe from Ghost.

---2018/08/02 10:26:30---
Eloni has recieved 19 Bronze Arrow from Ghost.

---2018/08/02 10:26:30---
Eloni has recieved 1 Bronze Dagger from Ghost.

---2018/08/02 10:26:30---
Eloni has recieved 180 Blood Money from Ghost.

---2018/08/02 10:27:36---
Eloni has recieved 1 Bucket from Ghost.

---2018/08/02 10:27:36---
Eloni has recieved 1 Bronze Axe from Ghost.

---2018/08/02 10:27:36---
Eloni has recieved 6 Water Rune from Ghost.

---2018/08/02 10:27:36---
Eloni has recieved 1 Pot from Ghost.

---2018/08/02 10:27:36---
Eloni has recieved 25 Air Rune from Ghost.

---2018/08/02 10:27:36---
Eloni has recieved 4 Earth Rune from Ghost.

---2018/08/02 10:27:36---
Eloni has recieved 15 Mind Rune from Ghost.

---2018/08/02 10:27:36---
Eloni has recieved 1 Tinderbox from Ghost.

---2018/08/02 10:27:36---
Eloni has recieved 1 Small Fishing Net from Ghost.

---2018/08/02 10:27:36---
Eloni has recieved 2 Body Rune from Ghost.

---2018/08/02 10:27:36---
Eloni has recieved 1 Bronze Pickaxe from Ghost.

---2018/08/02 10:27:36---
Eloni has recieved 20 Bronze Arrow from Ghost.

---2018/08/02 10:27:36---
Eloni has recieved 1 Bronze Dagger from Ghost.

---2018/08/02 10:27:36---
Eloni has recieved 180 Blood Money from Ghost.

---2018/08/02 11:02:49---
Eloni has recieved 1 Bronze Pickaxe from Blue Dragon.

---2018/08/02 11:02:49---
Eloni has recieved 15 Bronze Arrow from Blue Dragon.

---2018/08/02 11:02:49---
Eloni has recieved 1 Bronze Axe from Blue Dragon.

---2018/08/02 11:02:49---
Eloni has recieved 13 Uncut Sapphire from Blue Dragon.

---2018/08/02 11:02:49---
Eloni has recieved 3 Grimy Cadantine from Blue Dragon.

---2018/08/02 11:02:49---
Eloni has recieved 2996 Blood Money from Blue Dragon.

---2018/08/02 11:02:49---
Eloni has recieved 25 Air Rune from Blue Dragon.

---2018/08/02 11:02:49---
Eloni has recieved 1 Bronze Sword from Blue Dragon.

---2018/08/02 11:02:49---
Eloni has recieved 15 Mind Rune from Blue Dragon.

---2018/08/02 11:02:49---
Eloni has recieved 1 Tinderbox from Blue Dragon.

---2018/08/02 11:02:49---
Eloni has recieved 1 Small Fishing Net from Blue Dragon.
