
---2017/04/12 17:28:22---
Extreme has recieved 18 Shark from Rock Crab.

---2017/04/12 17:28:22---
Extreme has recieved 1 Super Attack(3) from Rock Crab.

---2017/04/12 17:28:22---
Extreme has recieved 20638 Coins from Rock Crab.

---2017/04/12 17:28:22---
Extreme has recieved 2 Loop Half Of Key from Rock Crab.

---2017/04/12 17:28:22---
Extreme has recieved 441 Blood Money from Rock Crab.

---2017/04/12 17:28:22---
Extreme has recieved 1 Super Strength(3) from Rock Crab.
