
---2018/07/10 11:12:00---
Fury has recieved 1 Black D'Hide Chaps from Dharok The Wretched.

---2018/07/10 11:12:00---
Fury has recieved 94 Rune Knife from Dharok The Wretched.

---2018/07/10 11:12:00---
Fury has recieved 1 Anti-Dragon Shield from Dharok The Wretched.

---2018/07/10 11:12:00---
Fury has recieved 1 Ring Of Recoil from Dharok The Wretched.

---2018/07/10 11:12:00---
Fury has recieved 1 Black D'Hide Body from Dharok The Wretched.

---2018/07/11 06:01:27---
Fury has recieved 4 Super Restore(4) from Verac The Defiled.

---2018/07/11 06:01:27---
Fury has recieved 6 Shark from Verac The Defiled.

---2018/07/11 06:01:27---
Fury has recieved 1 Climbing Boots from Verac The Defiled.

---2018/07/11 06:01:27---
Fury has recieved 1 Amulet Of Glory from Verac The Defiled.

---2018/07/11 06:01:27---
Fury has recieved 1 Helm Of Neitiznot from Verac The Defiled.

---2018/07/11 06:01:27---
Fury has recieved 1 Toktz-Ket-Xil from Verac The Defiled.

---2018/07/11 06:01:27---
Fury has recieved 1 Combat Bracelet(4) from Verac The Defiled.

---2018/07/11 06:23:52---
Fury has recieved 1 Climbing Boots from Baby Dragon.

---2018/07/11 06:23:52---
Fury has recieved 1 Amulet Of Glory from Baby Dragon.

---2018/07/11 06:23:52---
Fury has recieved 1 Helm Of Neitiznot from Baby Dragon.

---2018/07/11 06:23:52---
Fury has recieved 1 Toktz-Ket-Xil from Baby Dragon.

---2018/07/11 06:23:52---
Fury has recieved 1 Combat Bracelet(4) from Baby Dragon.

---2018/07/15 00:48:45---
Fury has recieved 1 Black D'Hide Chaps from Cave Kraken.

---2018/07/15 00:48:45---
Fury has recieved 1 Rune Boots from Cave Kraken.

---2018/07/15 00:48:45---
Fury has recieved 3000 Coins from Cave Kraken.

---2018/07/15 00:48:45---
Fury has recieved 682 Rune Knife from Cave Kraken.

---2018/07/15 00:48:45---
Fury has recieved 1 Anti-Dragon Shield from Cave Kraken.

---2018/07/15 00:48:45---
Fury has recieved 3 Vial from Cave Kraken.

---2018/07/15 00:48:45---
Fury has recieved 1 Black D'Hide Body from Cave Kraken.

---2018/07/15 00:48:45---
Fury has recieved 1 Staff Of Water from Cave Kraken.

---2018/07/15 00:48:45---
Fury has recieved 240 Water Rune from Cave Kraken.

---2018/07/15 00:48:45---
Fury has recieved 1 Super Restore(4) from Cave Kraken.

---2018/07/15 00:48:45---
Fury has recieved 1 Uncut Diamond from Cave Kraken.

---2018/07/15 00:48:45---
Fury has recieved 30 Chaos Rune from Cave Kraken.

---2018/07/15 00:48:45---
Fury has recieved 60 Swamp Tar from Cave Kraken.

---2018/07/15 00:48:45---
Fury has recieved 14 Steam Rune from Cave Kraken.

---2018/07/15 00:48:45---
Fury has recieved 1 Uncut Sapphire from Cave Kraken.

---2018/07/15 00:48:45---
Fury has recieved 1 Tooth Half Of Key from Cave Kraken.

---2018/07/15 00:48:45---
Fury has recieved 1 Guam Leaf from Cave Kraken.

---2018/07/15 00:48:46---
Fury has recieved 3 Raw Lobster from Cave Kraken.

---2018/07/15 00:48:46---
Fury has recieved 1 Marrentill from Cave Kraken.

---2018/07/15 00:48:46---
Fury has recieved 16171 Blood Money from Cave Kraken.

---2018/07/15 00:48:46---
Fury has recieved 20 Adamant Javelin from Cave Kraken.

---2018/07/15 00:48:46---
Fury has recieved 3 Crystal Key from Cave Kraken.

---2018/07/15 00:48:46---
Fury has recieved 1 Tarromin from Cave Kraken.
