
---2018/08/04 04:18:03---
Half Ghoul has recieved 2 Super Restore(4) from Enraged Skotizo.

---2018/08/04 04:18:03---
Half Ghoul has recieved 1 Ring Of Wealth (I) from Enraged Skotizo.

---2018/08/04 04:18:03---
Half Ghoul has recieved 1 Super Restore(3) from Enraged Skotizo.

---2018/08/04 04:18:03---
Half Ghoul has recieved 22 Tuna Potato from Enraged Skotizo.

---2018/08/04 04:18:03---
Half Ghoul has recieved 1 Super Restore(1) from Enraged Skotizo.

---2018/08/04 04:18:03---
Half Ghoul has recieved 1 Red D'Hide Vamb from Enraged Skotizo.

---2018/08/04 04:18:03---
Half Ghoul has recieved 1975 Ruby Bolts (E) from Enraged Skotizo.

---2018/08/04 04:19:27---
Half Ghoul has recieved 2 Super Restore(4) from Enraged Skotizo.

---2018/08/04 04:19:27---
Half Ghoul has recieved 1 Ring Of Wealth (I) from Enraged Skotizo.

---2018/08/04 04:19:27---
Half Ghoul has recieved 1 Super Restore(3) from Enraged Skotizo.

---2018/08/04 04:19:27---
Half Ghoul has recieved 22 Tuna Potato from Enraged Skotizo.

---2018/08/04 04:19:27---
Half Ghoul has recieved 1 Super Restore(1) from Enraged Skotizo.

---2018/08/04 04:19:27---
Half Ghoul has recieved 1 Red D'Hide Vamb from Enraged Skotizo.

---2018/08/04 04:19:27---
Half Ghoul has recieved 1975 Ruby Bolts (E) from Enraged Skotizo.

---2018/08/04 04:20:26---
Half Ghoul has recieved 1975 Ruby Bolts (E) from Enraged Skotizo.

---2018/08/04 04:21:32---
Half Ghoul has recieved 1972 Ruby Bolts (E) from Enraged Skotizo.

---2018/08/04 04:22:41---
Half Ghoul has recieved 1 Ring Of Wealth (I) from Enraged Skotizo.

---2018/08/04 10:23:22---
Half Ghoul has recieved 1 Super Restore(4) from Cain.

---2018/08/04 10:23:22---
Half Ghoul has recieved 21 Tuna Potato from Cain.

---2018/08/04 10:23:22---
Half Ghoul has recieved 1 Super Defence(4) from Cain.

---2018/08/04 10:23:22---
Half Ghoul has recieved 594 Ruby Bolts (E) from Cain.

---2018/08/04 10:23:22---
Half Ghoul has recieved 1 Ranging Potion(4) from Cain.
