
---2017/03/11 17:44:30---
Imextremefam has recieved 510903 Coins from Rock Crab.

---2017/03/11 17:44:30---
Imextremefam has recieved 1 Red Headband from Rock Crab.

---2017/03/11 17:44:30---
Imextremefam has recieved 498 Iron Dart from Rock Crab.

---2017/03/11 17:44:30---
Imextremefam has recieved 259 Blood Money from Rock Crab.

---2017/03/19 22:06:39---
Imextremefam has recieved 3 Super Restore(4) from Corporeal Beast.

---2017/03/19 22:06:39---
Imextremefam has recieved 1 Saradomin Coif from Corporeal Beast.

---2017/03/19 22:06:39---
Imextremefam has recieved 24 Manta Ray from Corporeal Beast.

---2017/03/19 22:06:39---
Imextremefam has recieved 1 Ranging Potion(3) from Corporeal Beast.

---2017/03/19 22:06:39---
Imextremefam has recieved 1 Ring Of Wealth from Corporeal Beast.

---2017/03/19 22:06:39---
Imextremefam has recieved 1 Ancient D'Hide from Corporeal Beast.

---2017/03/19 22:06:39---
Imextremefam has recieved 1 Armadyl Chaps from Corporeal Beast.

---2017/03/19 22:17:37---
Imextremefam has recieved 3 Super Restore(4) from Corporeal Beast.

---2017/03/19 22:17:37---
Imextremefam has recieved 1 Saradomin Coif from Corporeal Beast.

---2017/03/19 22:17:37---
Imextremefam has recieved 20 Manta Ray from Corporeal Beast.

---2017/03/19 22:17:37---
Imextremefam has recieved 1 Ranging Potion(3) from Corporeal Beast.

---2017/03/19 22:17:37---
Imextremefam has recieved 1 Ring Of Wealth from Corporeal Beast.

---2017/03/19 22:17:37---
Imextremefam has recieved 1 Ancient D'Hide from Corporeal Beast.

---2017/03/19 22:17:37---
Imextremefam has recieved 1 Armadyl Chaps from Corporeal Beast.
