
---2017/04/08 07:09:32---
Ironman has recieved 27 Shark from Enraged Cerberus.

---2017/04/08 07:09:32---
Ironman has recieved 1 Ring Of Wealth (I) from Enraged Cerberus.

---2017/04/08 07:09:32---
Ironman has recieved 1 Ranging Potion(2) from Enraged Cerberus.

---2017/04/08 07:09:32---
Ironman has recieved 7570 Dragon Dart from Enraged Cerberus.

---2017/04/11 05:12:26---
Ironman has recieved 24022 Death Rune from Barrelchest.

---2017/04/11 05:12:26---
Ironman has recieved 1 Ring Of Wealth (I) from Barrelchest.

---2017/04/11 05:12:26---
Ironman has recieved 265167 Coins from Barrelchest.

---2017/04/11 05:12:26---
Ironman has recieved 25443 Blood Rune from Barrelchest.

---2017/04/11 05:12:26---
Ironman has recieved 1 Malediction Ward from Barrelchest.

---2017/04/11 05:12:26---
Ironman has recieved 1 Farseer Helm from Barrelchest.

---2017/04/11 05:12:26---
Ironman has recieved 16234 Water Rune from Barrelchest.

---2017/04/11 05:12:26---
Ironman has recieved 89727 Blood Money from Barrelchest.

---2017/04/11 05:12:26---
Ironman has recieved 1 Boots Of Darkness from Barrelchest.

---2017/04/11 05:12:26---
Ironman has recieved 1 Dragon Bolts from Barrelchest.

---2017/04/16 04:29:40---
Ironman has recieved 24 Shark from Enraged Skotizo.

---2017/04/16 04:29:40---
Ironman has recieved 1 Ring Of Wealth (I) from Enraged Skotizo.

---2017/04/16 04:29:40---
Ironman has recieved 1 Odium Ward from Enraged Skotizo.

---2017/04/16 04:29:40---
Ironman has recieved 18446 Dragon Dart from Enraged Skotizo.

---2017/04/16 06:54:17---
Ironman has recieved 2 Shark from Enraged Skotizo.

---2017/04/16 06:54:17---
Ironman has recieved 1 Ring Of Wealth (I) from Enraged Skotizo.

---2017/04/16 06:54:17---
Ironman has recieved 49473 Coins from Enraged Skotizo.

---2017/04/16 06:54:17---
Ironman has recieved 1 Odium Ward from Enraged Skotizo.

---2017/04/16 06:54:17---
Ironman has recieved 19019 Dragon Dart from Enraged Skotizo.
