
---2017/03/14 11:25:34---
Sds has dropped 10 Magic Potion(4) for Sds.

---2017/03/14 11:25:34---
Sds has dropped 10 Super Restore(4) for Sds.

---2017/03/14 11:25:34---
Sds has dropped 10 Super Attack(4) for Sds.

---2017/03/14 11:25:34---
Sds has dropped 10 Super Strength(4) for Sds.

---2017/03/14 11:25:34---
Sds has dropped 10 Super Defence(4) for Sds.

---2017/03/14 11:25:34---
Sds has dropped 1 White Magic Staff for Sds.

---2017/03/14 11:25:34---
Sds has dropped 10 Ranging Potion(4) for Sds.

---2017/03/14 11:26:33---
Sdsdssa has dropped 10 Super Restore(4) for Sdsdssa.

---2017/03/14 11:26:33---
Sdsdssa has dropped 10 Magic Potion(4) for Sdsdssa.

---2017/03/14 11:26:33---
Sdsdssa has dropped 75 Shark for Sdsdssa.

---2017/03/14 11:26:33---
Sdsdssa has dropped 500000 Coins for Sdsdssa.

---2017/03/14 11:26:33---
Sdsdssa has dropped 10 Super Attack(4) for Sdsdssa.

---2017/03/14 11:26:33---
Sdsdssa has dropped 1 Magic Box for Sdsdssa.

---2017/03/14 11:26:33---
Sdsdssa has dropped 10 Super Strength(4) for Sdsdssa.

---2017/03/14 11:26:33---
Sdsdssa has dropped 10 Super Defence(4) for Sdsdssa.

---2017/03/14 11:26:33---
Sdsdssa has dropped 1 White Magic Staff for Sdsdssa.

---2017/03/14 11:26:33---
Sdsdssa has dropped 10 Ranging Potion(4) for Sdsdssa.

---2017/03/14 11:26:33---
Sdsdssa has dropped 2 Crystal Key for Sdsdssa.

---2017/04/06 08:35:53---
Ivan has recieved 5 Super Restore(4) from Enraged Cerberus.

---2017/04/06 08:35:53---
Ivan has recieved 1 Rune Kiteshield from Enraged Cerberus.

---2017/04/06 08:35:53---
Ivan has recieved 20 Shark from Enraged Cerberus.

---2017/04/06 08:35:53---
Ivan has recieved 1 Climbing Boots from Enraged Cerberus.

---2017/04/06 08:35:53---
Ivan has recieved 1 Rune Scimitar from Enraged Cerberus.

---2017/04/06 08:35:53---
Ivan has recieved 1 Strength Potion(1) from Enraged Cerberus.

---2017/04/06 08:35:53---
Ivan has recieved 1 Helm Of Neitiznot from Enraged Cerberus.

---2017/04/06 08:35:53---
Ivan has recieved 1 Combat Bracelet(4) from Enraged Cerberus.

---2017/04/08 00:51:49---
Ivan has recieved 1 Dragon Boots from Black Dragon.

---2017/04/08 00:51:49---
Ivan has recieved 1 Anti-Dragon Shield from Black Dragon.

---2017/04/08 00:51:49---
Ivan has recieved 1 Vesta'S Longsword from Black Dragon.

---2017/04/08 00:51:49---
Ivan has recieved 1 Super Defence(4) from Black Dragon.

---2017/04/08 00:51:49---
Ivan has recieved 1 Helm Of Neitiznot from Black Dragon.

---2017/04/08 00:51:49---
Ivan has recieved 1 Combat Bracelet(4) from Black Dragon.

---2017/04/08 00:51:49---
Ivan has recieved 2 Super Restore(4) from Black Dragon.

---2017/04/08 00:51:49---
Ivan has recieved 1 Super Attack(3) from Black Dragon.

---2017/04/08 00:51:49---
Ivan has recieved 1 Super Restore(3) from Black Dragon.

---2017/04/08 00:51:49---
Ivan has recieved 1 Super Restore(2) from Black Dragon.

---2017/04/08 00:51:49---
Ivan has recieved 6 Dragon Bones from Black Dragon.

---2017/04/08 00:51:49---
Ivan has recieved 1 Loop Half Of Key from Black Dragon.

---2017/04/08 00:51:49---
Ivan has recieved 1 Super Strength(3) from Black Dragon.

---2017/04/08 00:51:49---
Ivan has recieved 1 Crystal Key from Black Dragon.

---2017/04/08 00:51:49---
Ivan has recieved 1 Dragon Dagger from Black Dragon.

---2017/04/08 00:53:09---
Ivan has recieved 1 Super Attack(3) from Black Dragon.

---2017/04/08 00:53:09---
Ivan has recieved 1 Super Restore(3) from Black Dragon.

---2017/04/08 00:53:09---
Ivan has recieved 1 Anti-Dragon Shield from Black Dragon.

---2017/04/08 00:53:09---
Ivan has recieved 1 Super Strength(3) from Black Dragon.

---2017/04/15 05:27:19---
Ivan has recieved 1 Dragon Boots from Enraged Cerberus.

---2017/04/15 05:27:19---
Ivan has recieved 104270 Coins from Enraged Cerberus.

---2017/04/15 05:27:19---
Ivan has recieved 1 Anti-Dragon Shield from Enraged Cerberus.

---2017/04/15 05:27:19---
Ivan has recieved 1 Green D'Hide Chaps from Enraged Cerberus.

---2017/04/15 05:27:19---
Ivan has recieved 452 Rune Dart from Enraged Cerberus.

---2017/04/15 05:27:19---
Ivan has recieved 3812 Blood Money from Enraged Cerberus.

---2017/04/15 05:27:19---
Ivan has recieved 1 Green D'Hide Body from Enraged Cerberus.

---2017/04/15 05:27:19---
Ivan has recieved 1 Small Fishing Net from Enraged Cerberus.
