
---2018/08/01 22:28:46---
Jabrone has recieved 1 Rune Kiteshield from Moss Giant.

---2018/08/01 22:28:46---
Jabrone has recieved 1 Super Attack(3) from Moss Giant.

---2018/08/01 22:28:46---
Jabrone has recieved 1 Super Defence(3) from Moss Giant.

---2018/08/01 22:28:46---
Jabrone has recieved 150 Steel Arrow from Moss Giant.

---2018/08/01 22:28:46---
Jabrone has recieved 1 Loop Half Of Key from Moss Giant.

---2018/08/01 22:28:46---
Jabrone has recieved 1 Helm Of Neitiznot from Moss Giant.

---2018/08/01 22:28:46---
Jabrone has recieved 1 Super Strength(3) from Moss Giant.

---2018/08/01 22:28:46---
Jabrone has recieved 1 Dragon Dagger from Moss Giant.

---2018/08/02 00:42:43---
Jabrone has recieved 1 Dragon Boots from Crystal Dragon.

---2018/08/02 00:42:43---
Jabrone has recieved 1 Black D'Hide Chaps from Crystal Dragon.

---2018/08/02 00:42:43---
Jabrone has recieved 68090 Coins from Crystal Dragon.

---2018/08/02 00:42:43---
Jabrone has recieved 448 Rune Knife from Crystal Dragon.

---2018/08/02 00:42:43---
Jabrone has recieved 1 Black D'Hide Body from Crystal Dragon.

---2018/08/02 00:42:43---
Jabrone has recieved 1 Vesta'S Platebody from Crystal Dragon.

---2018/08/02 00:42:43---
Jabrone has recieved 1 Opal Machete from Crystal Dragon.

---2018/08/02 00:42:43---
Jabrone has recieved 1 Vesta'S Longsword from Crystal Dragon.

---2018/08/02 00:42:43---
Jabrone has recieved 1 Runite Bar from Crystal Dragon.

---2018/08/02 00:42:43---
Jabrone has recieved 1 Black D'Hide Vamb from Crystal Dragon.

---2018/08/02 00:42:43---
Jabrone has recieved 1132 Blood Money from Crystal Dragon.

---2018/08/02 00:42:43---
Jabrone has recieved 1 Helm Of Neitiznot from Crystal Dragon.

---2018/08/04 18:07:32---
Jabrone has recieved 2 Super Restore(4) from Callisto.

---2018/08/04 18:07:32---
Jabrone has recieved 2 Super Restore(3) from Callisto.

---2018/08/04 18:07:32---
Jabrone has recieved 1 Super Defence(3) from Callisto.

---2018/08/04 18:07:32---
Jabrone has recieved 1 Super Attack(2) from Callisto.

---2018/08/04 18:07:32---
Jabrone has recieved 15 Tuna Potato from Callisto.

---2018/08/04 18:07:32---
Jabrone has recieved 1 Super Strength(3) from Callisto.

---2018/08/04 18:07:32---
Jabrone has recieved 3 Saradomin Brew(4) from Callisto.

---2018/08/04 18:07:32---
Jabrone has recieved 1 Saradomin Brew(3) from Callisto.

---2018/08/04 18:08:02---
Jabrone has recieved 2 Super Restore(4) from Callisto.

---2018/08/04 18:08:02---
Jabrone has recieved 1 Black D'Hide Chaps from Callisto.

---2018/08/04 18:08:02---
Jabrone has recieved 2 Super Restore(3) from Callisto.

---2018/08/04 18:08:02---
Jabrone has recieved 1 Super Defence(3) from Callisto.

---2018/08/04 18:08:02---
Jabrone has recieved 1 Super Attack(2) from Callisto.

---2018/08/04 18:08:02---
Jabrone has recieved 9 Tuna Potato from Callisto.

---2018/08/04 18:08:02---
Jabrone has recieved 1 Super Strength(3) from Callisto.

---2018/08/04 18:08:02---
Jabrone has recieved 3 Saradomin Brew(4) from Callisto.

---2018/08/04 18:08:02---
Jabrone has recieved 1 Saradomin Brew(3) from Callisto.

---2018/08/05 01:12:53---
Jabrone has recieved 1 Rune Crossbow from Kree'Arra.

---2018/08/05 01:12:53---
Jabrone has recieved 1 Saradomin Brew(2) from Kree'Arra.

---2018/08/05 01:12:53---
Jabrone has recieved 7 Vial from Kree'Arra.

---2018/08/05 01:12:53---
Jabrone has recieved 1 Black D'Hide Body from Kree'Arra.

---2018/08/05 01:12:53---
Jabrone has recieved 1 Ranging Potion(4) from Kree'Arra.

---2018/08/05 01:12:53---
Jabrone has recieved 1 Archers Ring from Kree'Arra.

---2018/08/05 01:12:53---
Jabrone has recieved 1 Ranging Potion(1) from Kree'Arra.

---2018/08/05 01:12:53---
Jabrone has recieved 4 Super Restore(4) from Kree'Arra.

---2018/08/05 01:12:53---
Jabrone has recieved 1 Armadyl Helmet from Kree'Arra.

---2018/08/05 01:12:53---
Jabrone has recieved 1 Pegasian Boots from Kree'Arra.

---2018/08/05 01:12:53---
Jabrone has recieved 358 Diamond Bolts (E) from Kree'Arra.

---2018/08/05 01:12:53---
Jabrone has recieved 4828 Blood Money from Kree'Arra.

---2018/08/05 01:12:53---
Jabrone has recieved 9 Saradomin Brew(4) from Kree'Arra.

---2018/08/05 16:03:30---
Jabrone has recieved 3 Super Restore(4) from Enraged General Graador.

---2018/08/05 16:03:30---
Jabrone has recieved 1 Rune Crossbow from Enraged General Graador.

---2018/08/05 16:03:30---
Jabrone has recieved 1 Saradomin Brew(1) from Enraged General Graador.

---2018/08/05 16:03:30---
Jabrone has recieved 1 Super Restore(2) from Enraged General Graador.

---2018/08/05 16:03:30---
Jabrone has recieved 14 Tuna Potato from Enraged General Graador.

---2018/08/05 16:03:30---
Jabrone has recieved 1 Pegasian Boots from Enraged General Graador.

---2018/08/05 16:03:30---
Jabrone has recieved 1 Black D'Hide Body from Enraged General Graador.

---2018/08/05 16:03:30---
Jabrone has recieved 7696 Ruby Bolts (E) from Enraged General Graador.

---2018/08/05 16:03:30---
Jabrone has recieved 1 Ranging Potion(2) from Enraged General Graador.

---2018/08/05 16:03:30---
Jabrone has recieved 2 Ranging Potion(4) from Enraged General Graador.

---2018/08/05 16:03:30---
Jabrone has recieved 1 Archers Ring from Enraged General Graador.

---2018/08/05 16:03:30---
Jabrone has recieved 2 Saradomin Brew(4) from Enraged General Graador.

---2018/08/05 16:06:20---
Jabrone has recieved 1 Rune Crossbow from Enraged General Graador.

---2018/08/05 16:06:20---
Jabrone has recieved 1 Saradomin Brew(1) from Enraged General Graador.

---2018/08/05 16:06:20---
Jabrone has recieved 1 Vial from Enraged General Graador.

---2018/08/05 16:06:20---
Jabrone has recieved 1 Black D'Hide Body from Enraged General Graador.

---2018/08/05 16:06:20---
Jabrone has recieved 1 Ranging Potion(2) from Enraged General Graador.

---2018/08/05 16:06:20---
Jabrone has recieved 2 Ranging Potion(4) from Enraged General Graador.

---2018/08/05 16:06:20---
Jabrone has recieved 1 Archers Ring from Enraged General Graador.

---2018/08/05 16:06:20---
Jabrone has recieved 1 Super Restore(4) from Enraged General Graador.

---2018/08/05 16:06:20---
Jabrone has recieved 2 Super Restore(3) from Enraged General Graador.

---2018/08/05 16:06:20---
Jabrone has recieved 1 Super Restore(2) from Enraged General Graador.

---2018/08/05 16:06:20---
Jabrone has recieved 3 Tuna Potato from Enraged General Graador.

---2018/08/05 16:06:20---
Jabrone has recieved 1 Pegasian Boots from Enraged General Graador.

---2018/08/05 16:06:20---
Jabrone has recieved 7695 Ruby Bolts (E) from Enraged General Graador.

---2018/08/05 16:06:20---
Jabrone has recieved 1 Saradomin Brew(3) from Enraged General Graador.

---2018/08/06 16:24:42---
Jabrone has recieved 2 Super Restore(4) from Brandon.

---2018/08/06 16:24:42---
Jabrone has recieved 1 Armadyl Helmet from Brandon.

---2018/08/06 16:24:42---
Jabrone has recieved 12 Tuna Potato from Brandon.

---2018/08/06 16:24:42---
Jabrone has recieved 1 Pegasian Boots from Brandon.

---2018/08/06 16:24:42---
Jabrone has recieved 1 Antifire Potion(3) from Brandon.

---2018/08/06 16:24:42---
Jabrone has recieved 2 Lava Dragon Bones from Brandon.

---2018/08/06 16:24:42---
Jabrone has recieved 1 Ranging Potion(3) from Brandon.

---2018/08/06 16:24:42---
Jabrone has recieved 1 Necklace Of Anguish from Brandon.

---2018/08/06 16:24:42---
Jabrone has recieved 1572 Blood Money from Brandon.

---2018/08/06 16:24:42---
Jabrone has recieved 2 Saradomin Brew(4) from Brandon.

---2018/08/06 16:24:42---
Jabrone has recieved 1 Toxic Blowpipe from Brandon.

---2018/08/07 17:32:26---
Jabrone has recieved 281 Death Rune from Plague.

---2018/08/07 17:32:26---
Jabrone has recieved 1 Mystic Boots from Plague.

---2018/08/07 17:32:26---
Jabrone has recieved 13 Shark from Plague.

---2018/08/07 17:32:26---
Jabrone has recieved 3 Super Restore(3) from Plague.

---2018/08/07 17:32:26---
Jabrone has recieved 289 Blood Rune from Plague.

---2018/08/07 17:32:26---
Jabrone has recieved 1 Enchanted Robe from Plague.

---2018/08/07 17:32:26---
Jabrone has recieved 1 Amulet Of Glory from Plague.

---2018/08/07 17:32:26---
Jabrone has recieved 476 Water Rune from Plague.

---2018/08/07 17:32:26---
Jabrone has recieved 1 Helm Of Neitiznot from Plague.

---2018/08/07 17:32:26---
Jabrone has recieved 1 Ranging Potion(4) from Plague.

---2018/08/07 17:32:26---
Jabrone has recieved 5 Saradomin Brew(3) from Plague.

---2018/08/07 23:42:02---
Jabrone has recieved 4 Super Restore(4) from Commander Zilyana.

---2018/08/07 23:42:02---
Jabrone has recieved 1 Karil'S Leatherskirt from Commander Zilyana.

---2018/08/07 23:42:02---
Jabrone has recieved 1 Saradomin D'Hide from Commander Zilyana.

---2018/08/07 23:42:02---
Jabrone has recieved 1 Saradomin Brew(1) from Commander Zilyana.

---2018/08/07 23:42:02---
Jabrone has recieved 3 Vial from Commander Zilyana.

---2018/08/07 23:42:02---
Jabrone has recieved 1 Super Restore(1) from Commander Zilyana.

---2018/08/07 23:42:02---
Jabrone has recieved 7 Manta Ray from Commander Zilyana.

---2018/08/07 23:42:02---
Jabrone has recieved 1 Ranging Potion(3) from Commander Zilyana.

---2018/08/07 23:42:02---
Jabrone has recieved 273 Blood Money from Commander Zilyana.

---2018/08/07 23:42:02---
Jabrone has recieved 1 Helm Of Neitiznot from Commander Zilyana.

---2018/08/07 23:42:02---
Jabrone has recieved 7 Saradomin Brew(4) from Commander Zilyana.

---2018/08/07 23:42:02---
Jabrone has recieved 1 Unicorn Horn from Commander Zilyana.

---2018/08/09 18:28:16---
Jabrone has recieved 1 Karil'S Leatherskirt from Lizardman Shaman.

---2018/08/09 18:28:16---
Jabrone has recieved 16 Castle Wars Ticket from Lizardman Shaman.

---2018/08/09 18:28:16---
Jabrone has recieved 1045619 Coins from Lizardman Shaman.

---2018/08/09 18:28:16---
Jabrone has recieved 1 Vial from Lizardman Shaman.

---2018/08/09 18:28:16---
Jabrone has recieved 12 Manta Ray from Lizardman Shaman.

---2018/08/09 18:28:16---
Jabrone has recieved 2 Dragon Scimitar from Lizardman Shaman.

---2018/08/09 18:28:16---
Jabrone has recieved 1 Ranging Potion(1) from Lizardman Shaman.

---2018/08/09 18:28:16---
Jabrone has recieved 1 Super Restore(4) from Lizardman Shaman.

---2018/08/09 18:28:16---
Jabrone has recieved 1 Saradomin D'Hide from Lizardman Shaman.

---2018/08/09 18:28:16---
Jabrone has recieved 1 Pegasian Boots from Lizardman Shaman.

---2018/08/09 18:28:16---
Jabrone has recieved 1 Super Restore(1) from Lizardman Shaman.

---2018/08/09 18:28:16---
Jabrone has recieved 1 Necklace Of Anguish from Lizardman Shaman.

---2018/08/09 18:28:16---
Jabrone has recieved 19294 Blood Money from Lizardman Shaman.

---2018/08/09 20:53:54---
Jabrone has recieved 1 Karil'S Leatherskirt from Dust Devil.

---2018/08/09 20:53:54---
Jabrone has recieved 1 Saradomin D'Hide from Dust Devil.

---2018/08/09 20:53:54---
Jabrone has recieved 1 Pegasian Boots from Dust Devil.

---2018/08/09 20:53:54---
Jabrone has recieved 1 Necklace Of Anguish from Dust Devil.
