
---2017/06/18 03:59:52---
Justin has recieved 6 Super Restore(4) from Barbarian.

---2017/06/18 03:59:52---
Justin has recieved 1 Black D'Hide Chaps from Barbarian.

---2017/06/18 03:59:52---
Justin has recieved 186 Runite Bolts from Barbarian.

---2017/06/18 03:59:52---
Justin has recieved 1 Black D'Hide Vamb from Barbarian.

---2017/06/18 03:59:52---
Justin has recieved 8616 Blood Money from Barbarian.

---2017/06/18 06:31:23---
Justin has recieved 1 Black D'Hide Chaps from Enraged General Graador.

---2017/06/18 06:31:23---
Justin has recieved 19 Shark from Enraged General Graador.

---2017/06/18 06:31:23---
Justin has recieved 5 Prayer Potion(4) from Enraged General Graador.

---2017/06/18 06:31:23---
Justin has recieved 65 Runite Bolts from Enraged General Graador.

---2017/06/18 06:31:23---
Justin has recieved 1 Ranging Potion(3) from Enraged General Graador.

---2017/06/18 06:31:23---
Justin has recieved 50 Ruby Bolts (E) from Enraged General Graador.

---2017/06/18 06:36:57---
Justin has recieved 1 Black D'Hide Chaps from Enraged General Graador.

---2017/06/18 06:36:57---
Justin has recieved 7 Shark from Enraged General Graador.

---2017/06/18 06:36:57---
Justin has recieved 5 Prayer Potion(4) from Enraged General Graador.

---2017/06/18 06:36:57---
Justin has recieved 65 Runite Bolts from Enraged General Graador.

---2017/06/18 06:36:57---
Justin has recieved 47 Ruby Bolts (E) from Enraged General Graador.

---2017/06/18 06:36:57---
Justin has recieved 1 Ranging Potion(2) from Enraged General Graador.
