
---2017/04/12 02:25:25---
Kaos has recieved 4 Shark from Enraged Cerberus.

---2017/04/12 02:25:25---
Kaos has recieved 143 Mithril Arrow from Enraged Cerberus.

---2017/04/12 02:25:25---
Kaos has recieved 1 Green D'Hide Vamb from Enraged Cerberus.

---2017/04/12 02:25:25---
Kaos has recieved 1 Magic Shortbow from Enraged Cerberus.

---2017/04/12 02:25:25---
Kaos has recieved 479 Iron Knife from Enraged Cerberus.
