
---2018/06/30 11:14:46---
Link has recieved 18 Bronze Arrow from Enraged Skotizo.

---2018/06/30 11:14:46---
Link has recieved 1 Amulet Of Power from Enraged Skotizo.

---2018/06/30 11:14:46---
Link has recieved 1 Green D'Hide Chaps from Enraged Skotizo.

---2018/06/30 11:14:46---
Link has recieved 27 Lobster from Enraged Skotizo.

---2018/06/30 11:19:35---
Link has recieved 18 Bronze Arrow from Enraged Skotizo.

---2018/06/30 11:19:35---
Link has recieved 1 Amulet Of Power from Enraged Skotizo.

---2018/06/30 11:19:35---
Link has recieved 1 Green D'Hide Chaps from Enraged Skotizo.

---2018/06/30 11:19:35---
Link has recieved 18 Lobster from Enraged Skotizo.

---2018/06/30 14:47:27---
Link has recieved 926 Death Rune from Verac The Defiled.

---2018/06/30 14:47:27---
Link has recieved 17 Bronze Arrow from Verac The Defiled.

---2018/06/30 14:47:27---
Link has recieved 1 Rune Boots from Verac The Defiled.

---2018/06/30 14:47:27---
Link has recieved 1 Amulet Of Power from Verac The Defiled.

---2018/06/30 14:47:27---
Link has recieved 1 Staff Of Air from Verac The Defiled.

---2018/06/30 14:47:27---
Link has recieved 1 Rune Platelegs from Verac The Defiled.

---2018/06/30 14:47:27---
Link has recieved 1 Ahrim'S Robetop from Verac The Defiled.

---2018/06/30 14:47:27---
Link has recieved 1 Adamant Full Helm from Verac The Defiled.

---2018/06/30 14:47:27---
Link has recieved 6 Lobster from Verac The Defiled.

---2018/06/30 14:47:27---
Link has recieved 1 Ring Of Wealth from Verac The Defiled.

---2018/07/02 17:44:45---
Link has recieved 1 Armadyl Chaps from Burgz.

---2018/07/03 17:22:09---
Link has recieved 1 Ranger Boots from Giant Mole.

---2018/07/03 17:22:09---
Link has recieved 1 Black D'Hide Body from Giant Mole.

---2018/07/03 17:22:09---
Link has recieved 2354 Adamant Bolts from Giant Mole.

---2018/07/03 17:22:09---
Link has recieved 1 Karil'S Coif from Giant Mole.

---2018/07/03 17:22:09---
Link has recieved 1 Armadyl Chaps from Giant Mole.

---2018/07/03 17:43:45---
Link has recieved 11 Shark from Enraged General Graador.

---2018/07/03 17:43:45---
Link has recieved 1 Ranger Boots from Enraged General Graador.

---2018/07/03 17:43:45---
Link has recieved 1 Ring Of Wealth (I) from Enraged General Graador.

---2018/07/03 17:43:45---
Link has recieved 1 Black D'Hide Body from Enraged General Graador.

---2018/07/03 17:43:45---
Link has recieved 2332 Adamant Bolts from Enraged General Graador.

---2018/07/03 17:43:45---
Link has recieved 1 Karil'S Coif from Enraged General Graador.

---2018/07/03 17:43:45---
Link has recieved 1 Armadyl Chaps from Enraged General Graador.

---2018/07/04 05:34:04---
Link has recieved 1 Mystic Boots from Dharok The Wretched.

---2018/07/04 05:34:04---
Link has recieved 1 Ring Of Wealth (I) from Dharok The Wretched.

---2018/07/04 05:34:04---
Link has recieved 1 Ahrim'S Hood from Dharok The Wretched.

---2018/07/04 05:34:04---
Link has recieved 1921 Bolt Rack from Dharok The Wretched.

---2018/07/04 05:34:04---
Link has recieved 1 Enchanted Robe from Dharok The Wretched.

---2018/07/04 05:34:04---
Link has recieved 1 Ahrim'S Robetop from Dharok The Wretched.

---2018/07/04 05:34:04---
Link has recieved 1 Amulet Of Fury from Dharok The Wretched.

---2018/07/04 05:34:04---
Link has recieved 75 Fire Rune from Dharok The Wretched.

---2018/07/04 05:34:04---
Link has recieved 1 Karil'S Crossbow from Dharok The Wretched.

---2018/07/04 05:34:04---
Link has recieved 75 Body Rune from Dharok The Wretched.

---2018/07/05 12:06:43---
Link has recieved 1 Ranger Boots from Enraged General Graador.

---2018/07/05 12:06:43---
Link has recieved 1 Ring Of Wealth (I) from Enraged General Graador.

---2018/07/05 12:06:43---
Link has recieved 1 Vial from Enraged General Graador.

---2018/07/05 12:06:43---
Link has recieved 22 Manta Ray from Enraged General Graador.

---2018/07/05 12:06:43---
Link has recieved 1988 Runite Bolts from Enraged General Graador.

---2018/07/05 12:06:43---
Link has recieved 1312 Ruby Bolts (E) from Enraged General Graador.

---2018/07/05 12:06:43---
Link has recieved 10 Rune Dart from Enraged General Graador.

---2018/07/05 12:06:43---
Link has recieved 1 Ranging Potion(2) from Enraged General Graador.

---2018/07/05 12:06:43---
Link has recieved 1 Prayer Potion(3) from Enraged General Graador.

---2018/07/05 12:06:43---
Link has recieved 1 Armadyl D'Hide from Enraged General Graador.

---2018/07/05 12:06:43---
Link has recieved 1 Karil'S Coif from Enraged General Graador.

---2018/07/05 12:06:43---
Link has recieved 1 Armadyl Chaps from Enraged General Graador.

---2018/07/06 18:56:14---
Link has recieved 1 Dharok'S Platebody from Ely.

---2018/07/06 18:56:14---
Link has recieved 1 Serpentine Helm (Uncharged) from Ely.

---2018/07/06 18:56:14---
Link has recieved 1 Verac'S Flail from Ely.

---2018/07/06 18:56:14---
Link has recieved 1 Ahrim'S Hood from Ely.

---2018/07/06 18:56:14---
Link has recieved 1 Gilded Platebody from Ely.

---2018/07/06 18:56:15---
Link has recieved 1 Ranging Potion(2) from Ely.

---2018/07/06 18:56:15---
Link has recieved 1 Dharok'S Helm from Ely.

---2018/07/06 18:56:15---
Link has recieved 1 Karil'S Coif from Ely.

---2018/07/08 22:45:27---
Link has recieved 1 Abyssal Whip from Burgz.

---2018/07/09 01:33:21---
Link has recieved 1 Dragon Boots from Articron.

---2018/07/09 01:33:21---
Link has recieved 1 Ring Of Wealth (I) from Articron.

---2018/07/09 01:33:21---
Link has recieved 1 Saradomin D'Hide from Articron.

---2018/07/09 01:33:21---
Link has recieved 1 Verac'S Flail from Articron.

---2018/07/09 01:33:21---
Link has recieved 1 Ahrim'S Hood from Articron.

---2018/07/09 01:33:21---
Link has recieved 1 Ahrim'S Robetop from Articron.

---2018/07/09 01:33:21---
Link has recieved 1 Amulet Of Fury from Articron.

---2018/07/09 01:33:21---
Link has recieved 3105 Dragon Bones from Articron.

---2018/07/09 01:33:21---
Link has recieved 1 Dharok'S Helm from Articron.

---2018/07/09 01:33:21---
Link has recieved 1 Karil'S Crossbow from Articron.

---2018/07/09 01:33:21---
Link has recieved 1 Armadyl Chaps from Articron.

---2018/07/11 14:53:07---
Link has recieved 1 Ring Of Wealth (I) from Giant Mole.

---2018/07/11 14:53:07---
Link has recieved 1 Super Attack(2) from Giant Mole.

---2018/07/11 14:53:07---
Link has recieved 600000 Coins from Giant Mole.

---2018/07/11 14:53:07---
Link has recieved 15 Blood Rune from Giant Mole.

---2018/07/11 14:53:07---
Link has recieved 10 Ruby Bolts from Giant Mole.

---2018/07/11 14:53:07---
Link has recieved 1 Loop Half Of Key from Giant Mole.

---2018/07/11 14:53:07---
Link has recieved 1832 Blood Money from Giant Mole.

---2018/07/11 14:53:07---
Link has recieved 1 Samurai Boots from Giant Mole.

---2018/07/11 14:53:07---
Link has recieved 1 Super Strength(2) from Giant Mole.

---2018/07/11 14:56:35---
Link has recieved 1 Super Strength(1) from Giant Mole.

---2018/07/11 14:56:35---
Link has recieved 600000 Coins from Giant Mole.

---2018/07/11 14:56:35---
Link has recieved 1 Bones from Giant Mole.

---2018/07/11 14:56:35---
Link has recieved 1 Samurai Boots from Giant Mole.

---2018/07/11 14:56:35---
Link has recieved 1 Ring Of Wealth (I) from Giant Mole.

---2018/07/11 14:56:35---
Link has recieved 1 Big Bones from Giant Mole.

---2018/07/11 14:56:35---
Link has recieved 15 Blood Rune from Giant Mole.

---2018/07/11 14:56:35---
Link has recieved 1 Super Attack(1) from Giant Mole.

---2018/07/11 14:56:35---
Link has recieved 1 Mole Claw from Giant Mole.

---2018/07/11 14:56:35---
Link has recieved 1 Mole Skin from Giant Mole.

---2018/07/11 14:56:35---
Link has recieved 10 Ruby Bolts from Giant Mole.

---2018/07/11 14:56:35---
Link has recieved 2 Loop Half Of Key from Giant Mole.

---2018/07/11 14:56:35---
Link has recieved 2008 Blood Money from Giant Mole.

---2018/07/11 16:29:39---
Link has recieved 8 Dark Crab from Cerberus.

---2018/07/11 16:29:39---
Link has recieved 1 Ring Of Wealth (I) from Cerberus.

---2018/07/11 16:29:39---
Link has recieved 2 Prayer Potion(4) from Cerberus.

---2018/07/11 16:29:39---
Link has recieved 10 Ruby Bolts from Cerberus.

---2018/07/11 16:29:39---
Link has recieved 1 Super Combat Potion(2) from Cerberus.

---2018/07/11 16:29:39---
Link has recieved 1 Samurai Boots from Cerberus.

---2018/07/18 05:40:16---
Link has recieved 1 Dragon Spear from Corrupt Sorceress.

---2018/07/18 05:40:16---
Link has recieved 1 Karil'S Leatherskirt from Corrupt Sorceress.

---2018/07/18 05:40:16---
Link has recieved 1 Prayer Potion(4) from Corrupt Sorceress.

---2018/07/18 05:40:16---
Link has recieved 359 Zulrah'S Scales from Corrupt Sorceress.

---2018/07/18 05:40:16---
Link has recieved 1 Black D'Hide Body from Corrupt Sorceress.

---2018/07/18 05:40:16---
Link has recieved 7 Pie Dish from Corrupt Sorceress.

---2018/07/18 05:40:16---
Link has recieved 2739 Rune Dart from Corrupt Sorceress.

---2018/07/18 05:40:16---
Link has recieved 1 Ranger Boots from Corrupt Sorceress.

---2018/07/18 05:40:16---
Link has recieved 1 Ring Of Wealth (I) from Corrupt Sorceress.

---2018/07/18 05:40:16---
Link has recieved 3 Summer Pie from Corrupt Sorceress.

---2018/07/18 05:40:16---
Link has recieved 10 Ruby Bolts from Corrupt Sorceress.

---2018/07/18 05:40:16---
Link has recieved 1638 Blood Money from Corrupt Sorceress.

---2018/07/18 05:40:16---
Link has recieved 1 Karil'S Coif from Corrupt Sorceress.

---2018/07/19 11:04:50---
Link has recieved 19 Dark Crab from Enraged General Graador.

---2018/07/19 11:04:50---
Link has recieved 1 Ranger Boots from Enraged General Graador.

---2018/07/19 11:04:50---
Link has recieved 1 Ring Of Wealth (I) from Enraged General Graador.

---2018/07/19 11:04:50---
Link has recieved 1 Super Restore(3) from Enraged General Graador.

---2018/07/19 11:04:50---
Link has recieved 5 Monkfish from Enraged General Graador.

---2018/07/19 11:04:50---
Link has recieved 95 Morrigans Throwing Axe from Enraged General Graador.

---2018/07/19 11:04:50---
Link has recieved 1 Ranging Potion(2) from Enraged General Graador.

---2018/07/19 11:04:50---
Link has recieved 10 Ruby Bolts from Enraged General Graador.

---2018/07/19 11:04:50---
Link has recieved 1 Karil'S Coif from Enraged General Graador.

---2018/07/19 11:04:50---
Link has recieved 1 Armadyl D'Hide from Enraged General Graador.

---2018/07/19 11:06:16---
Link has recieved 19 Dark Crab from Enraged General Graador.

---2018/07/19 11:06:16---
Link has recieved 1 Ranger Boots from Enraged General Graador.

---2018/07/19 11:06:16---
Link has recieved 1 Ring Of Wealth (I) from Enraged General Graador.

---2018/07/19 11:06:16---
Link has recieved 1 Super Restore(3) from Enraged General Graador.

---2018/07/19 11:06:16---
Link has recieved 4 Monkfish from Enraged General Graador.

---2018/07/19 11:06:16---
Link has recieved 95 Morrigans Throwing Axe from Enraged General Graador.

---2018/07/19 11:06:16---
Link has recieved 10 Ruby Bolts from Enraged General Graador.

---2018/07/19 11:06:16---
Link has recieved 1 Karil'S Coif from Enraged General Graador.

---2018/07/19 11:06:16---
Link has recieved 1 Armadyl D'Hide from Enraged General Graador.

---2018/07/19 11:06:16---
Link has recieved 1 Ranging Potion(1) from Enraged General Graador.

---2018/07/19 11:57:23---
Link has recieved 26 Dark Crab from Enraged General Graador.

---2018/07/19 11:57:23---
Link has recieved 1 Ranger Boots from Enraged General Graador.

---2018/07/19 11:57:23---
Link has recieved 1 Ring Of Wealth (I) from Enraged General Graador.

---2018/07/19 11:57:23---
Link has recieved 2619 Rune Dart from Enraged General Graador.

---2018/07/19 11:57:23---
Link has recieved 10 Ruby Bolts from Enraged General Graador.

---2018/07/19 11:57:23---
Link has recieved 1 Karil'S Coif from Enraged General Graador.

---2018/07/19 11:57:23---
Link has recieved 1 Armadyl D'Hide from Enraged General Graador.
