
---2017/03/18 15:20:44---
Master Taro has recieved 1 Super Restore(4) from Venenatis.

---2017/03/18 15:20:44---
Master Taro has recieved 1 Armadyl Helmet from Venenatis.

---2017/03/18 15:20:44---
Master Taro has recieved 1 Super Defence(3) from Venenatis.

---2017/03/18 15:20:44---
Master Taro has recieved 1 Super Restore(2) from Venenatis.

---2017/03/18 15:20:44---
Master Taro has recieved 1 Pegasian Boots from Venenatis.

---2017/03/18 15:20:44---
Master Taro has recieved 10 Wine Of Zamorak from Venenatis.

---2017/03/18 15:20:44---
Master Taro has recieved 19 Manta Ray from Venenatis.

---2017/03/18 15:20:44---
Master Taro has recieved 1 Ranging Potion(3) from Venenatis.

---2017/03/18 15:20:44---
Master Taro has recieved 2 Rune Dart from Venenatis.

---2017/03/18 15:20:44---
Master Taro has recieved 311 Blood Money from Venenatis.

---2017/03/18 15:20:44---
Master Taro has recieved 1 Ring Of Wealth from Venenatis.

---2017/03/18 15:20:44---
Master Taro has recieved 1 Dragon Javelin from Venenatis.
