
---2017/04/10 05:37:59---
Matheus has recieved 1 Dust Battlestaff from Cave Abomination.

---2017/04/10 05:37:59---
Matheus has recieved 1 Black D'Hide Chaps from Cave Abomination.

---2017/04/10 05:37:59---
Matheus has recieved 851481 Coins from Cave Abomination.

---2017/04/10 05:37:59---
Matheus has recieved 1 Black D'Hide Body from Cave Abomination.

---2017/04/10 05:37:59---
Matheus has recieved 1 Amulet Of Glory from Cave Abomination.

---2017/04/10 05:37:59---
Matheus has recieved 2 Prayer Potion(3) from Cave Abomination.

---2017/04/10 05:37:59---
Matheus has recieved 1 Ranging Potion(4) from Cave Abomination.

---2017/04/10 05:37:59---
Matheus has recieved 11 Yew Logs from Cave Abomination.

---2017/04/10 05:37:59---
Matheus has recieved 51 Maple Logs from Cave Abomination.

---2017/04/10 05:37:59---
Matheus has recieved 1 Super Restore(4) from Cave Abomination.

---2017/04/10 05:37:59---
Matheus has recieved 1 Super Restore(3) from Cave Abomination.

---2017/04/10 05:37:59---
Matheus has recieved 4345 Blood Money from Cave Abomination.

---2017/04/10 05:37:59---
Matheus has recieved 543 Dragon Dart from Cave Abomination.
