
---2018/08/01 20:53:46---
Michael Scot has recieved 1 Black D'Hide Chaps from Dharok The Wretched.

---2018/08/01 20:53:46---
Michael Scot has recieved 3 Prayer Potion(4) from Dharok The Wretched.

---2018/08/01 20:53:46---
Michael Scot has recieved 1 Zamorak Coif from Dharok The Wretched.

---2018/08/01 20:53:46---
Michael Scot has recieved 1 Black D'Hide Body from Dharok The Wretched.

---2018/08/01 20:53:46---
Michael Scot has recieved 1 Amulet Of Glory from Dharok The Wretched.

---2018/08/01 20:53:46---
Michael Scot has recieved 1 Ranging Potion(3) from Dharok The Wretched.

---2018/08/01 20:53:46---
Michael Scot has recieved 17 Monkfish from Dharok The Wretched.

---2018/08/01 20:53:46---
Michael Scot has recieved 1 Staff Of Fire from Dharok The Wretched.

---2018/08/01 20:53:46---
Michael Scot has recieved 215 Air Rune from Dharok The Wretched.

---2018/08/01 20:53:46---
Michael Scot has recieved 3973 Chaos Rune from Dharok The Wretched.

---2018/08/01 20:53:46---
Michael Scot has recieved 2000 Steel Arrow from Dharok The Wretched.

---2018/08/01 20:53:46---
Michael Scot has recieved 1 Spade from Dharok The Wretched.

---2018/08/01 20:53:46---
Michael Scot has recieved 1 Black D'Hide Vamb from Dharok The Wretched.

---2018/08/01 20:53:46---
Michael Scot has recieved 1 Magic Shortbow from Dharok The Wretched.

---2018/08/05 10:02:49---
Michael Scot has recieved 1 Super Restore(4) from Enraged General Graador.

---2018/08/05 10:02:49---
Michael Scot has recieved 1 Armadyl Helmet from Enraged General Graador.

---2018/08/05 10:02:49---
Michael Scot has recieved 1 Super Restore(3) from Enraged General Graador.

---2018/08/05 10:02:49---
Michael Scot has recieved 1 Pegasian Boots from Enraged General Graador.

---2018/08/05 10:02:49---
Michael Scot has recieved 1 Super Defence(2) from Enraged General Graador.

---2018/08/05 10:02:49---
Michael Scot has recieved 1 Armadyl Chainskirt from Enraged General Graador.

---2018/08/05 10:02:50---
Michael Scot has recieved 6 Manta Ray from Enraged General Graador.

---2018/08/05 10:02:50---
Michael Scot has recieved 1 Necklace Of Anguish from Enraged General Graador.

---2018/08/05 10:02:50---
Michael Scot has recieved 1 Ranging Potion(2) from Enraged General Graador.

---2018/08/05 10:02:50---
Michael Scot has recieved 888 Rune Arrow from Enraged General Graador.
