
---2017/06/15 10:43:16---
Mod Andy has recieved 4 Rusty Scimitar from Enormous Tentacle.

---2017/06/15 10:43:16---
Mod Andy has recieved 19 Shark from Enormous Tentacle.

---2017/06/15 10:43:16---
Mod Andy has recieved 1 Ring Of Recoil from Enormous Tentacle.

---2017/06/15 10:43:16---
Mod Andy has recieved 9977 Runite Bolts from Enormous Tentacle.

---2017/06/15 10:43:16---
Mod Andy has recieved 93 Blood Money from Enormous Tentacle.

---2017/06/15 11:04:14---
Mod Andy has recieved 100 Raw Shark from Kraken.

---2017/06/15 11:04:14---
Mod Andy has recieved 4 Rusty Scimitar from Kraken.

---2017/06/15 11:04:14---
Mod Andy has recieved 7 Shark from Kraken.

---2017/06/15 11:04:14---
Mod Andy has recieved 1 Ring Of Recoil from Kraken.

---2017/06/15 11:04:14---
Mod Andy has recieved 9941 Runite Bolts from Kraken.

---2017/06/15 11:04:14---
Mod Andy has recieved 93 Blood Money from Kraken.

---2017/06/15 11:11:37---
Mod Andy has recieved 99926 Runite Bolts from Kraken.
