
---2017/04/09 07:37:36---
Nexi has recieved 10460 Coins from Demonic Gorilla.

---2017/04/09 07:37:36---
Nexi has recieved 1 Zamorak Chaps from Demonic Gorilla.

---2017/04/09 07:37:36---
Nexi has recieved 1 Vial from Demonic Gorilla.

---2017/04/09 07:37:36---
Nexi has recieved 1 Amulet Of Glory from Demonic Gorilla.

---2017/04/09 07:37:36---
Nexi has recieved 1 Rune Full Helm from Demonic Gorilla.

---2017/04/09 07:37:36---
Nexi has recieved 3414 Rune Dart from Demonic Gorilla.

---2017/04/09 07:37:36---
Nexi has recieved 1 Helm Of Neitiznot from Demonic Gorilla.

---2017/04/09 07:37:36---
Nexi has recieved 1 Ranging Potion(4) from Demonic Gorilla.

---2017/04/09 07:37:36---
Nexi has recieved 10 Super Restore(4) from Demonic Gorilla.

---2017/04/09 07:37:36---
Nexi has recieved 85 Dragon Thrownaxe from Demonic Gorilla.

---2017/04/09 07:37:36---
Nexi has recieved 1 Ranger Boots from Demonic Gorilla.

---2017/04/09 07:37:36---
Nexi has recieved 1 Super Restore(3) from Demonic Gorilla.

---2017/04/09 07:37:36---
Nexi has recieved 1 Bandos D'Hide from Demonic Gorilla.

---2017/04/09 07:37:36---
Nexi has recieved 1 Tuna Potato from Demonic Gorilla.

---2017/04/09 07:37:36---
Nexi has recieved 1 Black D'Hide Vamb from Demonic Gorilla.

---2017/04/09 07:37:36---
Nexi has recieved 653 Blood Money from Demonic Gorilla.

---2017/04/09 07:37:36---
Nexi has recieved 531 Dragon Bolts (E) from Demonic Gorilla.

---2017/04/09 07:37:36---
Nexi has recieved 26 Dragon Dart from Demonic Gorilla.
