
---2017/05/03 01:32:35---
234s has dropped 10 Super Restore(4) for 234s.

---2017/05/03 01:32:35---
234s has dropped 10 Magic Potion(4) for 234s.

---2017/05/03 01:32:35---
234s has dropped 75 Shark for 234s.

---2017/05/03 01:32:35---
234s has dropped 500000 Coins for 234s.

---2017/05/03 01:32:35---
234s has dropped 10 Super Attack(4) for 234s.

---2017/05/03 01:32:35---
234s has dropped 10 Super Strength(4) for 234s.

---2017/05/03 01:32:35---
234s has dropped 10 Super Defence(4) for 234s.

---2017/05/03 01:32:35---
234s has dropped 1 White Magic Staff for 234s.

---2017/05/03 01:32:35---
234s has dropped 8 Ranging Potion(4) for 234s.

---2017/05/03 01:32:35---
234s has dropped 2 Crystal Key for 234s.

---2017/05/03 01:35:52---
Kil Mes2 has dropped 10 Super Restore(4) for Kil Mes2.

---2017/05/03 01:35:52---
Kil Mes2 has dropped 10 Magic Potion(4) for Kil Mes2.

---2017/05/03 01:35:52---
Kil Mes2 has dropped 75 Shark for Kil Mes2.

---2017/05/03 01:35:52---
Kil Mes2 has dropped 500000 Coins for Kil Mes2.

---2017/05/03 01:35:52---
Kil Mes2 has dropped 10 Super Attack(4) for Kil Mes2.

---2017/05/03 01:35:52---
Kil Mes2 has dropped 10 Super Strength(4) for Kil Mes2.

---2017/05/03 01:35:52---
Kil Mes2 has dropped 10 Super Defence(4) for Kil Mes2.

---2017/05/03 01:35:52---
Kil Mes2 has dropped 1 White Magic Staff for Kil Mes2.

---2017/05/03 01:35:52---
Kil Mes2 has dropped 8 Ranging Potion(4) for Kil Mes2.

---2017/05/03 01:35:52---
Kil Mes2 has dropped 2 Crystal Key for Kil Mes2.
