
---2017/04/26 21:37:02---
Osw has recieved 1 Monk'S Robe Top from Moss Giant.

---2017/04/26 21:37:02---
Osw has recieved 1 Black D'Hide Chaps from Moss Giant.

---2017/04/26 21:37:02---
Osw has recieved 7 Shark from Moss Giant.

---2017/04/26 21:37:02---
Osw has recieved 1 Climbing Boots from Moss Giant.

---2017/04/26 21:37:02---
Osw has recieved 2 Big Bones from Moss Giant.

---2017/04/26 21:37:02---
Osw has recieved 1 Super Strength(3) from Moss Giant.

---2017/04/26 21:37:02---
Osw has recieved 1 Shayzien House Hood from Moss Giant.
