
---2017/02/25 17:27:40---
Panjrs has recieved 491 Iron Arrow from Double Agent.

---2017/02/25 17:27:40---
Panjrs has recieved 1 Spade from Double Agent.

---2017/02/25 17:27:40---
Panjrs has recieved 1 Elemental Shield from Double Agent.

---2017/02/25 17:27:40---
Panjrs has recieved 1 Blue D'Hide Chaps from Double Agent.
