
---2018/07/26 15:02:23---
Patrity has recieved 1 Black D'Hide Chaps from Enraged General Graador.

---2018/07/26 15:02:23---
Patrity has recieved 1 Iron Full Helm from Enraged General Graador.

---2018/07/26 15:02:23---
Patrity has recieved 1 Climbing Boots from Enraged General Graador.

---2018/07/26 15:02:23---
Patrity has recieved 1950830 Coins from Enraged General Graador.

---2018/07/26 15:02:23---
Patrity has recieved 1 Black D'Hide Body from Enraged General Graador.

---2018/07/26 15:02:23---
Patrity has recieved 1 Leather Chaps from Enraged General Graador.

---2018/07/26 15:02:23---
Patrity has recieved 1 Leather Body from Enraged General Graador.

---2018/07/26 15:02:23---
Patrity has recieved 1 Rune Scimitar from Enraged General Graador.

---2018/07/26 15:02:23---
Patrity has recieved 494 Mithril Arrow from Enraged General Graador.

---2018/07/26 15:02:23---
Patrity has recieved 2 Tooth Half Of Key from Enraged General Graador.

---2018/07/26 15:02:23---
Patrity has recieved 1 Black D'Hide Vamb from Enraged General Graador.

---2018/07/26 15:02:23---
Patrity has recieved 7911 Blood Money from Enraged General Graador.

---2018/07/26 15:02:23---
Patrity has recieved 3 Crystal Key from Enraged General Graador.

---2018/07/26 15:02:23---
Patrity has recieved 1 Shield Left Half from Enraged General Graador.

---2018/07/26 15:02:23---
Patrity has recieved 475 Iron Knife from Enraged General Graador.

---2018/07/26 15:05:09---
Patrity has recieved 1 Black D'Hide Chaps from Enraged General Graador.

---2018/07/26 15:05:09---
Patrity has recieved 1 Iron Full Helm from Enraged General Graador.

---2018/07/26 15:05:09---
Patrity has recieved 1 Climbing Boots from Enraged General Graador.

---2018/07/26 15:05:09---
Patrity has recieved 1950830 Coins from Enraged General Graador.

---2018/07/26 15:05:09---
Patrity has recieved 1 Black D'Hide Body from Enraged General Graador.

---2018/07/26 15:05:09---
Patrity has recieved 1 Leather Chaps from Enraged General Graador.

---2018/07/26 15:05:09---
Patrity has recieved 1 Leather Body from Enraged General Graador.

---2018/07/26 15:05:09---
Patrity has recieved 1 Rune Scimitar from Enraged General Graador.

---2018/07/26 15:05:09---
Patrity has recieved 491 Mithril Arrow from Enraged General Graador.

---2018/07/26 15:05:09---
Patrity has recieved 2 Tooth Half Of Key from Enraged General Graador.

---2018/07/26 15:05:09---
Patrity has recieved 1 Black D'Hide Vamb from Enraged General Graador.

---2018/07/26 15:05:09---
Patrity has recieved 7911 Blood Money from Enraged General Graador.

---2018/07/26 15:05:09---
Patrity has recieved 3 Crystal Key from Enraged General Graador.

---2018/07/26 15:05:09---
Patrity has recieved 1 Shield Left Half from Enraged General Graador.

---2018/07/26 15:05:09---
Patrity has recieved 475 Iron Knife from Enraged General Graador.

---2018/07/27 06:47:54---
Patrity has recieved 1 Climbing Boots from Demonic Gorilla.

---2018/07/27 06:47:54---
Patrity has recieved 1 Bandos Chestplate (I) from Demonic Gorilla.

---2018/07/27 06:47:54---
Patrity has recieved 1 Bandos Tassets (I) from Demonic Gorilla.

---2018/07/27 06:47:54---
Patrity has recieved 1 Necklace Of Anguish from Demonic Gorilla.

---2018/07/27 06:47:54---
Patrity has recieved 461 Diamond Bolts (E) from Demonic Gorilla.

---2018/07/27 06:47:54---
Patrity has recieved 1 Helm Of Neitiznot from Demonic Gorilla.

---2018/07/27 06:49:08---
Patrity has recieved 1 Climbing Boots from Demonic Gorilla.

---2018/07/27 06:49:08---
Patrity has recieved 13385 Coins from Demonic Gorilla.

---2018/07/27 06:49:08---
Patrity has recieved 1 Bandos Chestplate (I) from Demonic Gorilla.

---2018/07/27 06:49:08---
Patrity has recieved 1 Bandos Tassets (I) from Demonic Gorilla.

---2018/07/27 06:49:08---
Patrity has recieved 1 Necklace Of Anguish from Demonic Gorilla.

---2018/07/27 06:49:08---
Patrity has recieved 461 Diamond Bolts (E) from Demonic Gorilla.

---2018/07/27 06:49:08---
Patrity has recieved 16 Blood Money from Demonic Gorilla.

---2018/07/27 06:49:08---
Patrity has recieved 1 Helm Of Neitiznot from Demonic Gorilla.

---2018/07/27 06:49:08---
Patrity has recieved 1 Bones from Demonic Gorilla.

---2018/07/27 21:00:04---
Patrity has recieved 2 Super Restore(4) from Enraged Skotizo.

---2018/07/27 21:00:04---
Patrity has recieved 1 Karil'S Leatherskirt from Enraged Skotizo.

---2018/07/27 21:00:04---
Patrity has recieved 1 Morrigan'S Coif from Enraged Skotizo.

---2018/07/27 21:00:04---
Patrity has recieved 1 Pegasian Boots from Enraged Skotizo.

---2018/07/27 21:00:04---
Patrity has recieved 22 Manta Ray from Enraged Skotizo.

---2018/07/27 21:00:04---
Patrity has recieved 1 Necklace Of Anguish from Enraged Skotizo.

---2018/07/27 21:00:04---
Patrity has recieved 1388 Rune Arrow from Enraged Skotizo.

---2018/07/27 21:00:04---
Patrity has recieved 1 Ranging Potion(4) from Enraged Skotizo.

---2018/07/27 21:00:04---
Patrity has recieved 1 Super Combat Potion(2) from Enraged Skotizo.

---2018/07/27 21:32:32---
Patrity has recieved 1 Karil'S Leatherskirt from Enraged Skotizo.

---2018/07/27 21:32:32---
Patrity has recieved 1 Morrigan'S Coif from Enraged Skotizo.

---2018/07/27 21:32:32---
Patrity has recieved 1 Pegasian Boots from Enraged Skotizo.

---2018/07/27 21:32:32---
Patrity has recieved 1 Super Restore(1) from Enraged Skotizo.

---2018/07/27 21:32:32---
Patrity has recieved 17 Manta Ray from Enraged Skotizo.

---2018/07/27 21:32:32---
Patrity has recieved 1 Necklace Of Anguish from Enraged Skotizo.

---2018/07/27 21:32:32---
Patrity has recieved 1375 Rune Arrow from Enraged Skotizo.

---2018/07/27 21:32:32---
Patrity has recieved 1 Ranging Potion(1) from Enraged Skotizo.

---2018/07/27 21:33:55---
Patrity has recieved 1 Morrigan'S Coif from Enraged Skotizo.

---2018/07/27 21:33:55---
Patrity has recieved 1 Necklace Of Anguish from Enraged Skotizo.

---2018/07/28 00:03:21---
Patrity has recieved 1 Ring Of Wealth (I) from Demonic Gorilla.

---2018/07/28 00:03:21---
Patrity has recieved 1 Karil'S Leatherskirt from Demonic Gorilla.

---2018/07/28 00:03:21---
Patrity has recieved 360608 Coins from Demonic Gorilla.

---2018/07/28 00:03:21---
Patrity has recieved 1 Pegasian Boots from Demonic Gorilla.

---2018/07/28 00:03:21---
Patrity has recieved 20 Manta Ray from Demonic Gorilla.

---2018/07/28 00:03:21---
Patrity has recieved 1 Necklace Of Anguish from Demonic Gorilla.

---2018/07/28 00:03:21---
Patrity has recieved 1 Ranging Potion(2) from Demonic Gorilla.

---2018/07/28 00:03:21---
Patrity has recieved 1 Prayer Potion(3) from Demonic Gorilla.

---2018/07/28 00:03:21---
Patrity has recieved 16057 Blood Money from Demonic Gorilla.

---2018/07/28 00:03:21---
Patrity has recieved 1293 Rune Arrow from Demonic Gorilla.

---2018/07/28 00:11:37---
Patrity has recieved 1 Ring Of Wealth (I) from Demonic Gorilla.

---2018/07/28 00:11:37---
Patrity has recieved 1 Karil'S Leatherskirt from Demonic Gorilla.

---2018/07/28 00:11:37---
Patrity has recieved 438782 Coins from Demonic Gorilla.

---2018/07/28 00:11:37---
Patrity has recieved 1 Pegasian Boots from Demonic Gorilla.

---2018/07/28 00:11:37---
Patrity has recieved 1 Vial from Demonic Gorilla.

---2018/07/28 00:11:37---
Patrity has recieved 24 Manta Ray from Demonic Gorilla.

---2018/07/28 00:11:37---
Patrity has recieved 1 Necklace Of Anguish from Demonic Gorilla.

---2018/07/28 00:11:37---
Patrity has recieved 17933 Blood Money from Demonic Gorilla.

---2018/07/28 00:11:37---
Patrity has recieved 1284 Rune Arrow from Demonic Gorilla.

---2018/07/28 00:11:37---
Patrity has recieved 1 Prayer Potion(1) from Demonic Gorilla.

---2018/07/28 08:13:12---
Patrity has recieved 1 Ring Of Wealth (I) from Demonic Gorilla.

---2018/07/28 08:13:12---
Patrity has recieved 1 Karil'S Leatherskirt from Demonic Gorilla.

---2018/07/28 08:13:12---
Patrity has recieved 192013 Coins from Demonic Gorilla.

---2018/07/28 08:13:12---
Patrity has recieved 1 Pegasian Boots from Demonic Gorilla.

---2018/07/28 08:13:12---
Patrity has recieved 14 Manta Ray from Demonic Gorilla.

---2018/07/28 08:13:12---
Patrity has recieved 1 Ranging Potion(3) from Demonic Gorilla.

---2018/07/28 08:13:12---
Patrity has recieved 1 Necklace Of Anguish from Demonic Gorilla.

---2018/07/28 08:13:12---
Patrity has recieved 1 Prayer Potion(3) from Demonic Gorilla.

---2018/07/28 08:13:12---
Patrity has recieved 2658 Blood Money from Demonic Gorilla.

---2018/07/28 08:13:12---
Patrity has recieved 1229 Rune Arrow from Demonic Gorilla.

---2018/07/28 08:39:38---
Patrity has recieved 1 Ring Of Wealth (I) from Demonic Gorilla.

---2018/07/28 08:39:38---
Patrity has recieved 1 Karil'S Leatherskirt from Demonic Gorilla.

---2018/07/28 08:39:38---
Patrity has recieved 504171 Coins from Demonic Gorilla.

---2018/07/28 08:39:38---
Patrity has recieved 1 Pegasian Boots from Demonic Gorilla.

---2018/07/28 08:39:38---
Patrity has recieved 24 Manta Ray from Demonic Gorilla.

---2018/07/28 08:39:38---
Patrity has recieved 1 Necklace Of Anguish from Demonic Gorilla.

---2018/07/28 08:39:38---
Patrity has recieved 4714 Blood Money from Demonic Gorilla.

---2018/07/28 08:39:38---
Patrity has recieved 1206 Rune Arrow from Demonic Gorilla.

---2018/07/28 08:39:38---
Patrity has recieved 1 Ranging Potion(1) from Demonic Gorilla.

---2018/07/28 08:39:38---
Patrity has recieved 1 Prayer Potion(2) from Demonic Gorilla.

---2018/07/28 09:14:16---
Patrity has recieved 1 Ring Of Wealth (I) from Demonic Gorilla.

---2018/07/28 09:14:16---
Patrity has recieved 1 Karil'S Leatherskirt from Demonic Gorilla.

---2018/07/28 09:14:16---
Patrity has recieved 788522 Coins from Demonic Gorilla.

---2018/07/28 09:14:16---
Patrity has recieved 1 Pegasian Boots from Demonic Gorilla.

---2018/07/28 09:14:16---
Patrity has recieved 1 Vial from Demonic Gorilla.

---2018/07/28 09:14:16---
Patrity has recieved 20 Manta Ray from Demonic Gorilla.

---2018/07/28 09:14:16---
Patrity has recieved 1 Necklace Of Anguish from Demonic Gorilla.

---2018/07/28 09:14:16---
Patrity has recieved 4929 Blood Money from Demonic Gorilla.

---2018/07/28 09:14:16---
Patrity has recieved 1204 Rune Arrow from Demonic Gorilla.

---2018/07/28 09:14:16---
Patrity has recieved 1 Prayer Potion(2) from Demonic Gorilla.

---2018/07/28 09:18:53---
Patrity has recieved 1 Ring Of Wealth (I) from Demonic Gorilla.

---2018/07/28 09:18:53---
Patrity has recieved 1 Karil'S Leatherskirt from Demonic Gorilla.

---2018/07/28 09:18:53---
Patrity has recieved 1 Prayer Potion(4) from Demonic Gorilla.

---2018/07/28 09:18:53---
Patrity has recieved 801589 Coins from Demonic Gorilla.

---2018/07/28 09:18:53---
Patrity has recieved 1 Pegasian Boots from Demonic Gorilla.

---2018/07/28 09:18:53---
Patrity has recieved 24 Manta Ray from Demonic Gorilla.

---2018/07/28 09:18:53---
Patrity has recieved 1 Ranging Potion(3) from Demonic Gorilla.

---2018/07/28 09:18:53---
Patrity has recieved 1 Necklace Of Anguish from Demonic Gorilla.

---2018/07/28 09:18:53---
Patrity has recieved 5126 Blood Money from Demonic Gorilla.

---2018/07/28 09:18:53---
Patrity has recieved 1202 Rune Arrow from Demonic Gorilla.

---2018/07/28 18:46:20---
Patrity has recieved 1 Ring Of Wealth (I) from Demonic Gorilla.

---2018/07/28 18:46:20---
Patrity has recieved 1 Karil'S Leatherskirt from Demonic Gorilla.

---2018/07/28 18:46:20---
Patrity has recieved 982655 Coins from Demonic Gorilla.

---2018/07/28 18:46:20---
Patrity has recieved 1 Pegasian Boots from Demonic Gorilla.

---2018/07/28 18:46:20---
Patrity has recieved 1 Vial from Demonic Gorilla.

---2018/07/28 18:46:20---
Patrity has recieved 16 Manta Ray from Demonic Gorilla.

---2018/07/28 18:46:20---
Patrity has recieved 1 Ranging Potion(3) from Demonic Gorilla.

---2018/07/28 18:46:20---
Patrity has recieved 1 Necklace Of Anguish from Demonic Gorilla.

---2018/07/28 18:46:20---
Patrity has recieved 17115 Blood Money from Demonic Gorilla.

---2018/07/28 18:46:20---
Patrity has recieved 1063 Rune Arrow from Demonic Gorilla.

---2018/07/28 18:46:20---
Patrity has recieved 14 Dragon Javelin Heads from Demonic Gorilla.

---2018/07/28 18:52:20---
Patrity has recieved 1 Ring Of Wealth (I) from Demonic Gorilla.

---2018/07/28 18:52:20---
Patrity has recieved 1 Karil'S Leatherskirt from Demonic Gorilla.

---2018/07/28 18:52:20---
Patrity has recieved 994065 Coins from Demonic Gorilla.

---2018/07/28 18:52:20---
Patrity has recieved 1 Pegasian Boots from Demonic Gorilla.

---2018/07/28 18:52:20---
Patrity has recieved 21 Manta Ray from Demonic Gorilla.

---2018/07/28 18:52:20---
Patrity has recieved 1 Necklace Of Anguish from Demonic Gorilla.

---2018/07/28 18:52:20---
Patrity has recieved 1 Prayer Potion(3) from Demonic Gorilla.

---2018/07/28 18:52:20---
Patrity has recieved 19176 Blood Money from Demonic Gorilla.

---2018/07/28 18:52:20---
Patrity has recieved 1057 Rune Arrow from Demonic Gorilla.

---2018/07/28 18:52:20---
Patrity has recieved 1 Ranging Potion(1) from Demonic Gorilla.
