
---2017/05/25 19:08:33---
Plankton has recieved 1 Ranger Boots from Enraged General Graador.

---2017/05/25 19:08:33---
Plankton has recieved 1 Super Restore(3) from Enraged General Graador.

---2017/05/25 19:08:33---
Plankton has recieved 23 Manta Ray from Enraged General Graador.

---2017/05/25 19:08:33---
Plankton has recieved 1 Ranging Potion(1) from Enraged General Graador.

---2017/05/25 19:08:33---
Plankton has recieved 477 Dragon Dart from Enraged General Graador.

---2017/05/25 19:14:51---
Plankton has recieved 1 Ranger Boots from Enraged General Graador.

---2017/05/25 19:14:51---
Plankton has recieved 1 Super Restore(3) from Enraged General Graador.

---2017/05/25 19:14:51---
Plankton has recieved 11 Manta Ray from Enraged General Graador.

---2017/05/25 19:14:51---
Plankton has recieved 465 Dragon Dart from Enraged General Graador.
