
---2018/07/23 05:07:20---
Preasepe has recieved 10 Super Restore(4) from Rock Crab.

---2018/07/23 05:07:20---
Preasepe has recieved 10 Magic Potion(4) from Rock Crab.

---2018/07/23 05:07:20---
Preasepe has recieved 75 Shark from Rock Crab.

---2018/07/23 05:07:20---
Preasepe has recieved 1 Iron Pickaxe from Rock Crab.

---2018/07/23 05:07:20---
Preasepe has recieved 496494 Coins from Rock Crab.

---2018/07/23 05:07:20---
Preasepe has recieved 10 Super Attack(4) from Rock Crab.

---2018/07/23 05:07:20---
Preasepe has recieved 10 Super Strength(4) from Rock Crab.

---2018/07/23 05:07:20---
Preasepe has recieved 10 Super Defence(4) from Rock Crab.

---2018/07/23 05:07:20---
Preasepe has recieved 1 White Magic Staff from Rock Crab.

---2018/07/23 05:07:20---
Preasepe has recieved 8 Ranging Potion(4) from Rock Crab.
