
---2017/02/19 19:46:45---
Raziel has recieved 462 Nature Rune from Lava Dragon.

---2017/02/19 19:46:45---
Raziel has recieved 1 Gold Ring from Lava Dragon.

---2017/02/19 19:46:45---
Raziel has recieved 1 Uncut Ruby from Lava Dragon.

---2017/02/19 19:46:45---
Raziel has recieved 12 Black Dragonhide from Lava Dragon.

---2017/02/19 19:46:45---
Raziel has recieved 17087 Coins from Lava Dragon.

---2017/02/19 19:46:45---
Raziel has recieved 427 Blood Rune from Lava Dragon.

---2017/02/19 19:46:45---
Raziel has recieved 2 Lava Scale from Lava Dragon.

---2017/02/19 19:46:45---
Raziel has recieved 2 Tuna from Lava Dragon.

---2017/02/19 19:46:45---
Raziel has recieved 12 Rune Dart from Lava Dragon.

---2017/02/19 19:46:45---
Raziel has recieved 17 Lava Rune from Lava Dragon.

---2017/02/19 19:46:45---
Raziel has recieved 1626 Blood Money from Lava Dragon.

---2017/02/19 19:46:45---
Raziel has recieved 1407 Air Rune from Lava Dragon.

---2017/02/20 04:57:36---
Raziel has recieved 1 Zamorak D'Hide from Demonic Gorilla.

---2017/02/20 04:57:36---
Raziel has recieved 11 Iron Arrow from Demonic Gorilla.

---2017/02/20 04:57:36---
Raziel has recieved 8 Swordfish from Demonic Gorilla.

---2017/02/20 04:57:36---
Raziel has recieved 3 Manta Ray from Demonic Gorilla.

---2017/02/20 04:57:36---
Raziel has recieved 1 Guthix Bracers from Demonic Gorilla.

---2017/02/20 04:57:36---
Raziel has recieved 4 Tuna from Demonic Gorilla.

---2017/02/20 04:57:36---
Raziel has recieved 1 Prayer Potion(3) from Demonic Gorilla.

---2017/02/20 04:57:36---
Raziel has recieved 360 Blood Money from Demonic Gorilla.

---2017/02/20 04:57:36---
Raziel has recieved 1 Ancient Chaps from Demonic Gorilla.

---2017/02/20 09:11:08---
Raziel has recieved 1 Zamorak D'Hide from Dharok The Wretched.

---2017/02/20 09:11:08---
Raziel has recieved 1 Zamorak Chaps from Dharok The Wretched.

---2017/02/20 09:11:08---
Raziel has recieved 4 Swordfish from Dharok The Wretched.

---2017/02/20 09:11:08---
Raziel has recieved 1 Spade from Dharok The Wretched.

---2017/02/20 09:11:08---
Raziel has recieved 12 Tuna from Dharok The Wretched.

---2017/02/23 23:12:18---
Raziel has recieved 1 Dragon Boots from Wingman Skree.

---2017/02/23 23:12:18---
Raziel has recieved 1 Rune Crossbow from Wingman Skree.

---2017/02/23 23:12:18---
Raziel has recieved 16 Shark from Wingman Skree.

---2017/02/23 23:12:18---
Raziel has recieved 1 Amulet Of Fury from Wingman Skree.

---2017/02/23 23:12:18---
Raziel has recieved 1 Ranging Potion(3) from Wingman Skree.

---2017/02/23 23:12:18---
Raziel has recieved 1 Ring Of Life from Wingman Skree.

---2017/02/23 23:12:18---
Raziel has recieved 1 Ranging Potion(2) from Wingman Skree.

---2017/02/23 23:12:18---
Raziel has recieved 8 Prayer Potion(3) from Wingman Skree.

---2017/02/23 23:12:18---
Raziel has recieved 138 Blood Money from Wingman Skree.

---2017/02/23 23:12:18---
Raziel has recieved 92 Dragon Bolts from Wingman Skree.

---2017/02/27 10:27:38---
Raziel has recieved 7 Super Restore(3) from Demonic Gorilla.

---2017/02/27 10:27:38---
Raziel has recieved 1 Super Restore(2) from Demonic Gorilla.

---2017/02/27 10:27:38---
Raziel has recieved 1 Snakeskin Boots from Demonic Gorilla.

---2017/02/27 10:27:38---
Raziel has recieved 1 Amulet Of Fury from Demonic Gorilla.

---2017/02/27 10:27:38---
Raziel has recieved 3 Ranging Potion(3) from Demonic Gorilla.

---2017/02/27 10:27:38---
Raziel has recieved 5 Monkfish from Demonic Gorilla.

---2017/02/27 10:27:38---
Raziel has recieved 216 Ruby Bolts (E) from Demonic Gorilla.

---2017/02/27 10:27:38---
Raziel has recieved 5281 Blood Money from Demonic Gorilla.

---2017/02/27 10:27:38---
Raziel has recieved 1 Ring Of Wealth from Demonic Gorilla.

---2017/02/27 10:27:38---
Raziel has recieved 1 Ranging Potion(1) from Demonic Gorilla.

---2017/02/27 10:27:38---
Raziel has recieved 1521 Dragon Dart from Demonic Gorilla.

---2017/03/06 23:43:02---
Raziel has recieved 1 Dragon Boots from Sergeant Steelwill.

---2017/03/06 23:43:02---
Raziel has recieved 1 Statius Platelegs from Sergeant Steelwill.

---2017/03/06 23:43:02---
Raziel has recieved 1 Super Strength(1) from Sergeant Steelwill.

---2017/03/06 23:43:02---
Raziel has recieved 2 Super Restore(3) from Sergeant Steelwill.

---2017/03/06 23:43:02---
Raziel has recieved 1 Dragonfire Shield from Sergeant Steelwill.

---2017/03/06 23:43:02---
Raziel has recieved 6 Monkfish from Sergeant Steelwill.

---2017/03/06 23:43:02---
Raziel has recieved 871 Blood Money from Sergeant Steelwill.

---2017/03/06 23:43:02---
Raziel has recieved 1 Helm Of Neitiznot from Sergeant Steelwill.

---2017/03/06 23:43:02---
Raziel has recieved 1 Ring Of Wealth from Sergeant Steelwill.

---2017/03/06 23:43:02---
Raziel has recieved 66 Dragon Javelin from Sergeant Steelwill.

---2017/03/06 23:43:02---
Raziel has recieved 1 Super Strength(3) from Sergeant Steelwill.
