
---2018/06/25 14:07:53---
Runner has recieved 7 Shark from Enraged Cerberus.

---2018/06/25 14:07:53---
Runner has recieved 499 Iron Knife from Enraged Cerberus.

---2018/06/25 14:08:58---
Runner has recieved 498 Iron Knife from Enraged Cerberus.

---2018/06/25 14:09:42---
Runner has recieved 496 Iron Knife from Enraged Cerberus.

---2018/06/25 14:11:27---
Runner has recieved 492 Iron Knife from Enraged Cerberus.

---2018/06/25 14:12:45---
Runner has recieved 488 Iron Knife from Enraged Cerberus.
