
---2017/03/13 19:24:11---
Shimomura3 has recieved 3 Super Restore(4) from Demonic Gorilla.

---2017/03/13 19:24:11---
Shimomura3 has recieved 1 Black D'Hide Chaps from Demonic Gorilla.

---2017/03/13 19:24:11---
Shimomura3 has recieved 194 Rune Knife from Demonic Gorilla.

---2017/03/13 19:24:11---
Shimomura3 has recieved 205 Zulrah'S Scales from Demonic Gorilla.

---2017/03/13 19:24:11---
Shimomura3 has recieved 1 Black D'Hide Body from Demonic Gorilla.

---2017/03/13 19:24:11---
Shimomura3 has recieved 8 Zul-Andra Teleport from Demonic Gorilla.

---2017/03/13 19:24:11---
Shimomura3 has recieved 1 Ranging Potion(2) from Demonic Gorilla.

---2017/03/13 19:24:11---
Shimomura3 has recieved 480 Blood Money from Demonic Gorilla.

---2017/03/13 19:24:11---
Shimomura3 has recieved 91 Dragon Bolts (E) from Demonic Gorilla.
