
---2017/03/27 18:39:57---
Slim Mill has recieved 10 Magic Potion(4) from Skeleton Warlock.

---2017/03/27 18:39:57---
Slim Mill has recieved 75 Shark from Skeleton Warlock.

---2017/03/27 18:39:57---
Slim Mill has recieved 500000 Coins from Skeleton Warlock.

---2017/03/27 18:39:57---
Slim Mill has recieved 10 Super Attack(4) from Skeleton Warlock.

---2017/03/27 18:39:57---
Slim Mill has recieved 10 Super Strength(4) from Skeleton Warlock.

---2017/03/27 18:39:57---
Slim Mill has recieved 250 Fire Rune from Skeleton Warlock.

---2017/03/27 18:39:57---
Slim Mill has recieved 10 Super Defence(4) from Skeleton Warlock.

---2017/03/27 18:39:57---
Slim Mill has recieved 1 White Magic Staff from Skeleton Warlock.

---2017/03/27 18:39:57---
Slim Mill has recieved 250 Water Rune from Skeleton Warlock.

---2017/03/27 18:39:57---
Slim Mill has recieved 250 Air Rune from Skeleton Warlock.

---2017/03/27 18:39:57---
Slim Mill has recieved 7 Ranging Potion(4) from Skeleton Warlock.

---2017/03/27 18:39:57---
Slim Mill has recieved 250 Earth Rune from Skeleton Warlock.

---2017/03/27 18:39:57---
Slim Mill has recieved 250 Mind Rune from Skeleton Warlock.

---2017/03/27 18:39:57---
Slim Mill has recieved 10 Super Restore(4) from Skeleton Warlock.

---2017/03/27 18:39:57---
Slim Mill has recieved 30 Nature Rune from Skeleton Warlock.

---2017/03/27 18:39:57---
Slim Mill has recieved 100 Chaos Rune from Skeleton Warlock.

---2017/03/27 18:39:57---
Slim Mill has recieved 50 Law Rune from Skeleton Warlock.

---2017/03/27 18:39:57---
Slim Mill has recieved 2 Crystal Key from Skeleton Warlock.
