
---2017/03/22 02:08:53---
Spongebob has recieved 1 Dragon Boots from Commander Zilyana.

---2017/03/22 02:08:53---
Spongebob has recieved 16 Dark Crab from Commander Zilyana.

---2017/03/22 02:08:53---
Spongebob has recieved 1 Ring Of Wealth (I) from Commander Zilyana.

---2017/03/22 02:08:53---
Spongebob has recieved 1 Super Restore(1) from Commander Zilyana.

---2017/03/22 02:08:53---
Spongebob has recieved 1 Super Combat Potion(3) from Commander Zilyana.

---2017/03/22 02:08:53---
Spongebob has recieved 1 Super Combat Potion(2) from Commander Zilyana.

---2017/03/22 02:08:53---
Spongebob has recieved 591 Blood Money from Commander Zilyana.

---2017/03/22 02:08:53---
Spongebob has recieved 1 Dragon Bolts (E) from Commander Zilyana.

---2017/03/22 02:08:53---
Spongebob has recieved 1 Dragon Dagger from Commander Zilyana.

---2017/04/12 19:09:37---
Spongebob has recieved 1 Dragon Boots from General Graardor.

---2017/04/12 19:09:37---
Spongebob has recieved 14 Dark Crab from General Graardor.

---2017/04/12 19:09:37---
Spongebob has recieved 3 Shark from General Graardor.

---2017/04/12 19:09:37---
Spongebob has recieved 1 Super Restore(3) from General Graardor.

---2017/04/12 19:09:37---
Spongebob has recieved 1 Rune Platelegs from General Graardor.

---2017/04/12 19:09:37---
Spongebob has recieved 1 Abyssal Whip from General Graardor.

---2017/04/12 19:09:37---
Spongebob has recieved 1 Super Combat Potion(3) from General Graardor.

---2017/04/12 19:09:37---
Spongebob has recieved 1 Helm Of Neitiznot from General Graardor.

---2017/04/12 19:09:37---
Spongebob has recieved 1 Dragon Bolts (E) from General Graardor.

---2017/04/12 19:09:37---
Spongebob has recieved 1 Dragon Dagger from General Graardor.

---2017/04/12 19:10:00---
Spongebob has recieved 6 Dark Crab from General Graardor.

---2017/04/12 19:10:00---
Spongebob has recieved 1 Rune 2h Sword from General Graardor.

---2017/04/14 21:47:14---
Spongebob has recieved 25 Dark Crab from Enraged Cerberus.

---2017/04/14 21:47:14---
Spongebob has recieved 1 Ring Of Wealth (I) from Enraged Cerberus.

---2017/04/14 21:47:14---
Spongebob has recieved 1 Super Restore(3) from Enraged Cerberus.

---2017/04/14 21:47:14---
Spongebob has recieved 1 Super Restore(2) from Enraged Cerberus.

---2017/04/14 21:47:14---
Spongebob has recieved 1 Ranging Potion(2) from Enraged Cerberus.

---2017/04/14 21:47:14---
Spongebob has recieved 1 Dragon Bolts (E) from Enraged Cerberus.

---2017/04/16 14:56:30---
Spongebob has recieved 1 Dragon Boots from General Graardor.

---2017/04/16 14:56:30---
Spongebob has recieved 13 Dark Crab from General Graardor.

---2017/04/16 14:56:30---
Spongebob has recieved 1 Ring Of Wealth (I) from General Graardor.

---2017/04/16 14:56:30---
Spongebob has recieved 1 Super Restore(3) from General Graardor.

---2017/04/16 14:56:30---
Spongebob has recieved 1 Kebab from General Graardor.

---2017/04/16 14:56:30---
Spongebob has recieved 2764 Coins from General Graardor.

---2017/04/16 14:56:30---
Spongebob has recieved 1 Super Restore(1) from General Graardor.

---2017/04/16 14:56:30---
Spongebob has recieved 1 Super Combat Potion(2) from General Graardor.

---2017/04/16 14:56:30---
Spongebob has recieved 1 Dragon Bolts (E) from General Graardor.

---2017/05/14 19:39:05---
Spongebob has recieved 20 Dark Crab from Enraged General Graador.

---2017/05/14 19:39:05---
Spongebob has recieved 1 Ring Of Wealth (I) from Enraged General Graador.

---2017/05/14 19:39:05---
Spongebob has recieved 1 Super Restore(3) from Enraged General Graador.

---2017/05/14 19:39:05---
Spongebob has recieved 1 Dragon Bolts from Enraged General Graador.

---2017/05/14 19:39:05---
Spongebob has recieved 1 Ranging Potion(1) from Enraged General Graador.

---2017/05/14 19:43:42---
Spongebob has recieved 22 Dark Crab from Enraged General Graador.

---2017/05/14 19:43:42---
Spongebob has recieved 1 Ring Of Wealth (I) from Enraged General Graador.

---2017/05/14 19:43:42---
Spongebob has recieved 1 Super Restore(3) from Enraged General Graador.

---2017/05/14 19:43:42---
Spongebob has recieved 1 Dragon Bolts from Enraged General Graador.

---2017/05/14 19:51:36---
Spongebob has recieved 9 Dark Crab from Enraged General Graador.

---2017/05/14 19:51:36---
Spongebob has recieved 1 Ring Of Wealth (I) from Enraged General Graador.

---2017/05/14 19:51:36---
Spongebob has recieved 1 Super Restore(2) from Enraged General Graador.

---2017/05/14 19:51:36---
Spongebob has recieved 1 Vial from Enraged General Graador.

---2017/05/14 19:51:36---
Spongebob has recieved 1 Dragon Bolts from Enraged General Graador.

---2017/05/15 19:58:45---
Spongebob has recieved 26 Dark Crab from Enraged General Graador.

---2017/05/15 19:58:45---
Spongebob has recieved 1 Ring Of Wealth (I) from Enraged General Graador.

---2017/05/15 19:58:45---
Spongebob has recieved 1 Super Restore(3) from Enraged General Graador.

---2017/05/15 19:58:45---
Spongebob has recieved 1 Dragon Bolts from Enraged General Graador.

---2017/05/15 19:58:45---
Spongebob has recieved 1 Ranging Potion(1) from Enraged General Graador.

---2017/05/16 15:39:16---
Spongebob has recieved 22 Dark Crab from Enraged Skotizo.

---2017/05/16 15:39:16---
Spongebob has recieved 1 Ring Of Wealth (I) from Enraged Skotizo.

---2017/05/16 15:39:16---
Spongebob has recieved 1 Super Restore(2) from Enraged Skotizo.

---2017/05/16 15:39:16---
Spongebob has recieved 1 Pegasian Boots from Enraged Skotizo.

---2017/05/16 15:39:16---
Spongebob has recieved 1550 Ruby Bolts (E) from Enraged Skotizo.

---2017/05/16 15:39:16---
Spongebob has recieved 1 Ranging Potion(2) from Enraged Skotizo.

---2017/05/16 15:39:54---
Spongebob has recieved 1 Ring Of Wealth (I) from Enraged Skotizo.

---2017/05/16 15:39:54---
Spongebob has recieved 1 Pegasian Boots from Enraged Skotizo.

---2017/05/16 15:39:54---
Spongebob has recieved 1550 Ruby Bolts (E) from Enraged Skotizo.

---2017/05/16 15:45:42---
Spongebob has recieved 26 Dark Crab from Enraged Skotizo.

---2017/05/16 15:45:42---
Spongebob has recieved 1 Ring Of Wealth (I) from Enraged Skotizo.

---2017/05/16 15:45:42---
Spongebob has recieved 1 Pegasian Boots from Enraged Skotizo.

---2017/05/16 15:45:42---
Spongebob has recieved 1 Super Restore(1) from Enraged Skotizo.

---2017/05/16 15:45:42---
Spongebob has recieved 1546 Ruby Bolts (E) from Enraged Skotizo.

---2017/05/16 15:45:42---
Spongebob has recieved 1 Ranging Potion(1) from Enraged Skotizo.

---2017/05/17 16:34:20---
Daggx has dropped 1 Ring Of Wealth (I) for Daggx.

---2017/05/17 16:34:20---
Daggx has dropped 4 Super Restore(3) for Daggx.

---2017/05/17 16:34:20---
Daggx has dropped 1 Dark Bow for Daggx.

---2017/05/17 16:34:20---
Daggx has dropped 1 Pegasian Boots for Daggx.

---2017/05/17 16:34:20---
Daggx has dropped 1 Abyssal Whip for Daggx.

---2017/05/17 16:34:20---
Daggx has dropped 19 Manta Ray for Daggx.

---2017/05/17 16:34:20---
Daggx has dropped 1 Necklace Of Anguish for Daggx.

---2017/05/17 16:34:20---
Daggx has dropped 1 Ranging Potion(2) for Daggx.

---2017/05/17 16:34:20---
Daggx has dropped 1 Super Combat Potion(2) for Daggx.

---2017/05/17 16:34:20---
Daggx has dropped 5225 Dragon Arrow for Daggx.

---2017/05/17 16:34:20---
Daggx has dropped 1 Dragon Dagger for Daggx.

---2017/05/17 16:37:07---
Daggx has dropped 4 Super Restore(3) for Daggx.

---2017/05/17 16:37:07---
Daggx has dropped 1 Dark Bow for Daggx.

---2017/05/17 16:37:07---
Daggx has dropped 1 Super Defence(3) for Daggx.

---2017/05/17 16:37:07---
Daggx has dropped 1 Pegasian Boots for Daggx.

---2017/05/17 16:37:07---
Daggx has dropped 1 Ring Of Recoil for Daggx.

---2017/05/17 16:37:07---
Daggx has dropped 20 Manta Ray for Daggx.

---2017/05/17 16:37:07---
Daggx has dropped 1 Armadyl Godsword for Daggx.

---2017/05/17 16:37:07---
Daggx has dropped 1 Necklace Of Anguish for Daggx.

---2017/05/17 16:37:07---
Daggx has dropped 5225 Dragon Arrow for Daggx.

---2017/05/17 16:37:07---
Daggx has dropped 1 Ranging Potion(1) for Daggx.

---2017/05/17 16:39:18---
Daggx has dropped 4 Super Restore(3) for Daggx.

---2017/05/17 16:39:18---
Daggx has dropped 1 Dark Bow for Daggx.

---2017/05/17 16:39:18---
Daggx has dropped 1 Pegasian Boots for Daggx.

---2017/05/17 16:39:18---
Daggx has dropped 1 Super Defence(2) for Daggx.

---2017/05/17 16:39:18---
Daggx has dropped 1 Vial for Daggx.

---2017/05/17 16:39:18---
Daggx has dropped 15 Manta Ray for Daggx.

---2017/05/17 16:39:18---
Daggx has dropped 1 Armadyl Godsword for Daggx.

---2017/05/17 16:39:18---
Daggx has dropped 1 Necklace Of Anguish for Daggx.

---2017/05/17 16:39:18---
Daggx has dropped 5224 Dragon Arrow for Daggx.

---2017/05/17 16:44:17---
Daggx has dropped 4 Super Restore(3) for Daggx.

---2017/05/17 16:44:17---
Daggx has dropped 1 Pegasian Boots for Daggx.

---2017/05/17 16:44:17---
Daggx has dropped 15 Manta Ray for Daggx.

---2017/05/17 16:44:17---
Daggx has dropped 1 Super Defence(1) for Daggx.

---2017/05/17 16:44:17---
Daggx has dropped 1 Ranging Potion(3) for Daggx.

---2017/05/17 16:44:17---
Daggx has dropped 1 Necklace Of Anguish for Daggx.

---2017/05/17 16:44:17---
Daggx has dropped 498 Rune Arrow for Daggx.

---2017/05/17 16:44:17---
Daggx has dropped 1 Magic Shortbow for Daggx.

---2017/05/17 16:50:16---
Daggx has dropped 2 Super Restore(3) for Daggx.

---2017/05/17 16:50:16---
Daggx has dropped 1 Pegasian Boots for Daggx.

---2017/05/17 16:50:16---
Daggx has dropped 1 Abyssal Whip for Daggx.

---2017/05/17 16:50:16---
Daggx has dropped 1 Granite Maul for Daggx.

---2017/05/17 16:50:16---
Daggx has dropped 1 Ranging Potion(3) for Daggx.

---2017/05/17 16:50:16---
Daggx has dropped 1 Necklace Of Anguish for Daggx.

---2017/05/17 16:50:16---
Daggx has dropped 1 Helm Of Neitiznot for Daggx.

---2017/05/17 16:50:16---
Daggx has dropped 1 Armadyl D'Hide for Daggx.

---2017/05/17 16:50:16---
Daggx has dropped 494 Rune Arrow for Daggx.

---2017/05/17 16:50:16---
Daggx has dropped 1 Magic Shortbow for Daggx.

---2017/05/17 16:50:16---
Daggx has dropped 1 Armadyl Chaps for Daggx.

---2017/05/17 16:50:16---
Daggx has dropped 1 Antipoison(3) for Daggx.

---2017/05/17 16:55:00---
Spongebob has recieved 1 Dragon Boots from Daggx.

---2017/05/17 16:55:00---
Spongebob has recieved 1 Rune Crossbow from Daggx.

---2017/05/17 16:55:00---
Spongebob has recieved 1 Black D'Hide Chaps from Daggx.

---2017/05/17 16:55:00---
Spongebob has recieved 1 Serpentine Helm from Daggx.

---2017/05/17 16:55:00---
Spongebob has recieved 1 Black D'Hide Body from Daggx.

---2017/05/17 16:55:00---
Spongebob has recieved 1 Ranging Potion(1) from Daggx.

---2017/05/17 16:55:00---
Spongebob has recieved 140 Earth Rune from Daggx.

---2017/05/17 16:55:00---
Spongebob has recieved 188 Death Rune from Daggx.

---2017/05/17 16:55:00---
Spongebob has recieved 1 Super Restore(3) from Daggx.

---2017/05/17 16:55:00---
Spongebob has recieved 176 Astral Rune from Daggx.

---2017/05/17 16:55:00---
Spongebob has recieved 1 Amulet Of Fury from Daggx.

---2017/05/17 16:55:00---
Spongebob has recieved 1 Granite Maul from Daggx.

---2017/05/17 16:55:00---
Spongebob has recieved 1 Super Combat Potion(2) from Daggx.

---2017/05/17 16:55:00---
Spongebob has recieved 21 Dragon Bolts (E) from Daggx.

---2017/05/17 16:55:00---
Spongebob has recieved 490 Rune Arrow from Daggx.

---2017/05/17 16:55:00---
Spongebob has recieved 1 Magic Shortbow from Daggx.

---2017/05/17 16:59:36---
Daggx has dropped 18 Manta Ray for Daggx.

---2017/05/17 16:59:36---
Daggx has dropped 1 Ranging Potion(2) for Daggx.

---2017/05/17 16:59:36---
Daggx has dropped 1 Helm Of Neitiznot for Daggx.

---2017/05/17 16:59:36---
Daggx has dropped 1 Super Restore(3) for Daggx.

---2017/05/17 16:59:36---
Daggx has dropped 1 Pegasian Boots for Daggx.

---2017/05/17 16:59:36---
Daggx has dropped 1 Ring Of Recoil for Daggx.

---2017/05/17 16:59:36---
Daggx has dropped 1 Elder Maul for Daggx.

---2017/05/17 16:59:36---
Daggx has dropped 1 Necklace Of Anguish for Daggx.

---2017/05/17 16:59:36---
Daggx has dropped 1 Super Combat Potion(2) for Daggx.

---2017/05/17 16:59:36---
Daggx has dropped 1 Armadyl D'Hide for Daggx.

---2017/05/17 16:59:36---
Daggx has dropped 493 Rune Arrow for Daggx.

---2017/05/17 16:59:36---
Daggx has dropped 1 Magic Shortbow for Daggx.

---2017/05/17 16:59:36---
Daggx has dropped 1 Armadyl Chaps for Daggx.

---2017/05/17 16:59:36---
Daggx has dropped 1 Dragon Dagger for Daggx.

---2017/05/17 17:03:20---
Spongebob has recieved 1 Dragon Boots from Daggx.

---2017/05/17 17:03:20---
Spongebob has recieved 11 Dark Crab from Daggx.

---2017/05/17 17:03:20---
Spongebob has recieved 1 Black D'Hide Chaps from Daggx.

---2017/05/17 17:03:20---
Spongebob has recieved 1 Black D'Hide Body from Daggx.

---2017/05/17 17:03:20---
Spongebob has recieved 1 Ranging Potion(1) from Daggx.

---2017/05/17 17:03:20---
Spongebob has recieved 170 Earth Rune from Daggx.

---2017/05/17 17:03:20---
Spongebob has recieved 194 Death Rune from Daggx.

---2017/05/17 17:03:20---
Spongebob has recieved 1 Super Restore(3) from Daggx.

---2017/05/17 17:03:20---
Spongebob has recieved 188 Astral Rune from Daggx.

---2017/05/17 17:03:20---
Spongebob has recieved 1 Elder Maul from Daggx.

---2017/05/17 17:03:20---
Spongebob has recieved 1 Super Combat Potion(2) from Daggx.

---2017/05/17 17:03:20---
Spongebob has recieved 486 Rune Arrow from Daggx.

---2017/05/17 17:03:20---
Spongebob has recieved 1 Magic Shortbow from Daggx.

---2017/05/17 17:10:17---
Daggx has dropped 3 Dark Crab for Daggx.

---2017/05/17 17:10:17---
Daggx has dropped 1 Vial for Daggx.

---2017/05/17 17:10:17---
Daggx has dropped 17 Manta Ray for Daggx.

---2017/05/17 17:10:17---
Daggx has dropped 1 Helm Of Neitiznot for Daggx.

---2017/05/17 17:10:17---
Daggx has dropped 1 Super Restore(3) for Daggx.

---2017/05/17 17:10:17---
Daggx has dropped 1 Pegasian Boots for Daggx.

---2017/05/17 17:10:17---
Daggx has dropped 1 Elder Maul for Daggx.

---2017/05/17 17:10:17---
Daggx has dropped 1 Necklace Of Anguish for Daggx.

---2017/05/17 17:10:17---
Daggx has dropped 1 Armadyl D'Hide for Daggx.

---2017/05/17 17:10:17---
Daggx has dropped 488 Rune Arrow for Daggx.

---2017/05/17 17:10:17---
Daggx has dropped 1 Magic Shortbow for Daggx.

---2017/05/17 17:10:17---
Daggx has dropped 1 Super Combat Potion(1) for Daggx.

---2017/05/17 17:10:17---
Daggx has dropped 1 Armadyl Chaps for Daggx.

---2017/05/17 17:10:17---
Daggx has dropped 1 Dragon Dagger for Daggx.

---2017/05/17 17:13:45---
Spongebob has recieved 1 Dragon Boots from Daggx.

---2017/05/17 17:13:45---
Spongebob has recieved 19 Dark Crab from Daggx.

---2017/05/17 17:13:45---
Spongebob has recieved 1 Black D'Hide Chaps from Daggx.

---2017/05/17 17:13:45---
Spongebob has recieved 1 Super Restore(3) from Daggx.

---2017/05/17 17:13:45---
Spongebob has recieved 1 Black D'Hide Body from Daggx.

---2017/05/17 17:13:45---
Spongebob has recieved 1 Super Combat Potion(2) from Daggx.

---2017/05/17 17:13:45---
Spongebob has recieved 482 Rune Arrow from Daggx.

---2017/05/17 17:13:45---
Spongebob has recieved 1 Magic Shortbow from Daggx.

---2017/05/17 17:13:45---
Spongebob has recieved 1 Ranging Potion(1) from Daggx.

---2017/05/17 17:16:31---
Spongebob has recieved 1 Dragon Boots from Daggx.

---2017/05/17 17:16:31---
Spongebob has recieved 14 Dark Crab from Daggx.

---2017/05/17 17:16:31---
Spongebob has recieved 1 Black D'Hide Chaps from Daggx.

---2017/05/17 17:16:31---
Spongebob has recieved 1 Super Restore(3) from Daggx.

---2017/05/17 17:16:31---
Spongebob has recieved 1 Black D'Hide Body from Daggx.

---2017/05/17 17:16:31---
Spongebob has recieved 481 Rune Arrow from Daggx.

---2017/05/17 17:16:31---
Spongebob has recieved 1 Magic Shortbow from Daggx.

---2017/05/17 17:19:03---
Daggx has dropped 1 Super Restore(3) for Daggx.

---2017/05/17 17:19:03---
Daggx has dropped 1 Vial for Daggx.

---2017/05/17 17:19:03---
Daggx has dropped 19 Manta Ray for Daggx.

---2017/05/17 17:19:03---
Daggx has dropped 1 Elder Maul for Daggx.

---2017/05/17 17:19:03---
Daggx has dropped 1 Helm Of Neitiznot for Daggx.

---2017/05/17 17:19:03---
Daggx has dropped 1 Armadyl D'Hide for Daggx.

---2017/05/17 17:19:03---
Daggx has dropped 480 Rune Arrow for Daggx.

---2017/05/17 17:19:03---
Daggx has dropped 1 Magic Shortbow for Daggx.

---2017/05/17 17:19:03---
Daggx has dropped 1 Ranging Potion(1) for Daggx.

---2017/05/17 17:19:03---
Daggx has dropped 1 Armadyl Chaps for Daggx.

---2017/05/17 17:19:03---
Daggx has dropped 1 Dragon Dagger for Daggx.

---2017/05/17 17:23:18---
Daggx has dropped 1 Super Restore(3) for Daggx.

---2017/05/17 17:23:18---
Daggx has dropped 1 Vial for Daggx.

---2017/05/17 17:23:18---
Daggx has dropped 8 Manta Ray for Daggx.

---2017/05/17 17:23:18---
Daggx has dropped 1 Granite Maul for Daggx.

---2017/05/17 17:23:18---
Daggx has dropped 1 Elder Maul for Daggx.

---2017/05/17 17:23:18---
Daggx has dropped 1 Helm Of Neitiznot for Daggx.

---2017/05/17 17:23:18---
Daggx has dropped 1 Armadyl D'Hide for Daggx.

---2017/05/17 17:23:18---
Daggx has dropped 104 Dragon Arrow for Daggx.

---2017/05/17 17:23:18---
Daggx has dropped 481 Rune Arrow for Daggx.

---2017/05/17 17:23:18---
Daggx has dropped 1 Armadyl Chaps for Daggx.

---2017/05/17 17:23:18---
Daggx has dropped 1 Dragon Dagger for Daggx.

---2017/05/17 17:23:18---
Daggx has dropped 1 Antipoison(3) for Daggx.

---2017/05/17 17:27:30---
Daggx has dropped 1 Antipoison(2) for Daggx.

---2017/05/17 17:27:30---
Daggx has dropped 1 Super Restore(3) for Daggx.

---2017/05/17 17:27:30---
Daggx has dropped 5000000 Coins for Daggx.

---2017/05/17 17:27:30---
Daggx has dropped 13 Manta Ray for Daggx.

---2017/05/17 17:27:30---
Daggx has dropped 1 Granite Maul for Daggx.

---2017/05/17 17:27:30---
Daggx has dropped 1 Ranging Potion(3) for Daggx.

---2017/05/17 17:27:30---
Daggx has dropped 1 Elder Maul for Daggx.

---2017/05/17 17:27:30---
Daggx has dropped 1 Helm Of Neitiznot for Daggx.

---2017/05/17 17:27:30---
Daggx has dropped 1 Armadyl D'Hide for Daggx.

---2017/05/17 17:27:30---
Daggx has dropped 98 Dragon Arrow for Daggx.

---2017/05/17 17:27:30---
Daggx has dropped 1 Armadyl Chaps for Daggx.

---2017/05/17 17:27:30---
Daggx has dropped 1 Dragon Dagger for Daggx.

---2017/05/17 17:30:23---
Daggx has dropped 1 Dark Bow for Daggx.

---2017/05/17 17:30:23---
Daggx has dropped 5128701 Coins for Daggx.

---2017/05/17 17:30:23---
Daggx has dropped 16 Manta Ray for Daggx.

---2017/05/17 17:30:23---
Daggx has dropped 1 Ranging Potion(3) for Daggx.

---2017/05/17 17:30:23---
Daggx has dropped 1 Helm Of Neitiznot for Daggx.

---2017/05/17 17:30:23---
Daggx has dropped 98 Dragon Arrow for Daggx.

---2017/05/17 17:30:23---
Daggx has dropped 1 Antipoison(3) for Daggx.

---2017/05/17 17:30:23---
Daggx has dropped 1 Pegasian Boots for Daggx.

---2017/05/17 17:30:23---
Daggx has dropped 1 Granite Maul for Daggx.

---2017/05/17 17:30:23---
Daggx has dropped 1 Elder Maul for Daggx.

---2017/05/17 17:30:23---
Daggx has dropped 1 Necklace Of Anguish for Daggx.

---2017/05/17 17:30:23---
Daggx has dropped 288 Blood Money for Daggx.

---2017/05/17 17:30:23---
Daggx has dropped 1 Armadyl D'Hide for Daggx.

---2017/05/17 17:30:23---
Daggx has dropped 1 Rune Arrow for Daggx.

---2017/05/17 17:30:23---
Daggx has dropped 1 Armadyl Chaps for Daggx.

---2017/05/17 17:30:23---
Daggx has dropped 1 Dragon Dagger for Daggx.

---2017/05/17 17:32:24---
Spongebob has recieved 22 Dark Crab from Daggx.

---2017/05/17 17:32:24---
Spongebob has recieved 1 Black D'Hide Chaps from Daggx.

---2017/05/17 17:32:24---
Spongebob has recieved 1 Super Restore(3) from Daggx.

---2017/05/17 17:32:24---
Spongebob has recieved 5000000 Coins from Daggx.

---2017/05/17 17:32:24---
Spongebob has recieved 1 Black D'Hide Body from Daggx.

---2017/05/17 17:32:24---
Spongebob has recieved 1 Elder Maul from Daggx.

---2017/05/17 17:32:24---
Spongebob has recieved 870 Rune Arrow from Daggx.

---2017/05/17 17:32:24---
Spongebob has recieved 1 Magic Shortbow from Daggx.

---2017/05/17 17:32:24---
Spongebob has recieved 1 Super Combat Potion(1) from Daggx.

---2017/05/17 17:34:55---
Daggx has dropped 1 Dark Bow for Daggx.

---2017/05/17 17:34:55---
Daggx has dropped 10000000 Coins for Daggx.

---2017/05/17 17:34:55---
Daggx has dropped 16 Manta Ray for Daggx.

---2017/05/17 17:34:55---
Daggx has dropped 1 Ranging Potion(2) for Daggx.

---2017/05/17 17:34:55---
Daggx has dropped 1 Helm Of Neitiznot for Daggx.

---2017/05/17 17:34:55---
Daggx has dropped 96 Dragon Arrow for Daggx.

---2017/05/17 17:34:55---
Daggx has dropped 1 Pegasian Boots for Daggx.

---2017/05/17 17:34:55---
Daggx has dropped 1 Granite Maul for Daggx.

---2017/05/17 17:34:55---
Daggx has dropped 1 Super Combat Potion(3) for Daggx.

---2017/05/17 17:34:55---
Daggx has dropped 1 Elder Maul for Daggx.

---2017/05/17 17:34:55---
Daggx has dropped 1 Necklace Of Anguish for Daggx.

---2017/05/17 17:34:55---
Daggx has dropped 1 Armadyl D'Hide for Daggx.

---2017/05/17 17:34:55---
Daggx has dropped 3 Rune Arrow for Daggx.

---2017/05/17 17:34:55---
Daggx has dropped 1 Armadyl Chaps for Daggx.

---2017/05/17 17:34:55---
Daggx has dropped 1 Dragon Dagger for Daggx.

---2017/05/17 17:37:08---
Daggx has dropped 10000000 Coins for Daggx.

---2017/05/17 17:37:08---
Daggx has dropped 20 Manta Ray for Daggx.

---2017/05/17 17:37:08---
Daggx has dropped 1 Granite Maul for Daggx.

---2017/05/17 17:37:08---
Daggx has dropped 1 Elder Maul for Daggx.

---2017/05/17 17:37:08---
Daggx has dropped 1 Super Combat Potion(2) for Daggx.

---2017/05/17 17:37:08---
Daggx has dropped 1 Helm Of Neitiznot for Daggx.

---2017/05/17 17:37:08---
Daggx has dropped 1 Armadyl D'Hide for Daggx.

---2017/05/17 17:37:08---
Daggx has dropped 95 Dragon Arrow for Daggx.

---2017/05/17 17:37:08---
Daggx has dropped 1 Ranging Potion(1) for Daggx.

---2017/05/17 17:37:08---
Daggx has dropped 1 Armadyl Chaps for Daggx.

---2017/05/17 17:37:08---
Daggx has dropped 1 Dragon Dagger for Daggx.

---2017/05/17 17:41:10---
Daggx has dropped 10000010 Coins for Daggx.

---2017/05/17 17:41:10---
Daggx has dropped 1 Vial for Daggx.

---2017/05/17 17:41:10---
Daggx has dropped 10 Manta Ray for Daggx.

---2017/05/17 17:41:10---
Daggx has dropped 1 Granite Maul for Daggx.

---2017/05/17 17:41:10---
Daggx has dropped 1 Elder Maul for Daggx.

---2017/05/17 17:41:10---
Daggx has dropped 1 Super Combat Potion(2) for Daggx.

---2017/05/17 17:41:10---
Daggx has dropped 1 Helm Of Neitiznot for Daggx.

---2017/05/17 17:41:10---
Daggx has dropped 1 Armadyl D'Hide for Daggx.

---2017/05/17 17:41:10---
Daggx has dropped 95 Dragon Arrow for Daggx.

---2017/05/17 17:41:10---
Daggx has dropped 1 Super Combat Potion(1) for Daggx.

---2017/05/17 17:41:10---
Daggx has dropped 1 Armadyl Chaps for Daggx.

---2017/05/17 17:41:10---
Daggx has dropped 1 Dragon Dagger for Daggx.

---2017/05/17 17:45:46---
Spongebob has recieved 1 Dragon Boots from Daggx.

---2017/05/17 17:45:46---
Spongebob has recieved 21 Dark Crab from Daggx.

---2017/05/17 17:45:46---
Spongebob has recieved 1 Black D'Hide Chaps from Daggx.

---2017/05/17 17:45:46---
Spongebob has recieved 1 Serpentine Helm from Daggx.

---2017/05/17 17:45:46---
Spongebob has recieved 5000000 Coins from Daggx.

---2017/05/17 17:45:46---
Spongebob has recieved 1 Black D'Hide Body from Daggx.

---2017/05/17 17:45:46---
Spongebob has recieved 1 Ranging Potion(2) from Daggx.

---2017/05/17 17:45:46---
Spongebob has recieved 1 Super Restore(3) from Daggx.

---2017/05/17 17:45:46---
Spongebob has recieved 1 Amulet Of Fury from Daggx.

---2017/05/17 17:45:46---
Spongebob has recieved 1 Granite Maul from Daggx.

---2017/05/17 17:45:46---
Spongebob has recieved 1 Super Combat Potion(2) from Daggx.

---2017/05/17 17:45:46---
Spongebob has recieved 822 Rune Arrow from Daggx.

---2017/05/17 17:45:46---
Spongebob has recieved 1 Magic Shortbow from Daggx.

---2017/05/23 18:47:04---
Daggx has dropped 2 Super Restore(4) for Daggx.

---2017/05/23 18:47:04---
Daggx has dropped 1 Super Defence(3) for Daggx.

---2017/05/23 18:47:04---
Daggx has dropped 1 Bandos D'Hide for Daggx.

---2017/05/23 18:47:04---
Daggx has dropped 1 Pegasian Boots for Daggx.

---2017/05/23 18:47:04---
Daggx has dropped 1 Bandos Chaps for Daggx.

---2017/05/23 18:47:04---
Daggx has dropped 12 Manta Ray for Daggx.

---2017/05/23 18:47:04---
Daggx has dropped 1 Ranging Potion(3) for Daggx.

---2017/05/23 18:47:04---
Daggx has dropped 1 Armadyl Godsword for Daggx.

---2017/05/23 18:47:04---
Daggx has dropped 1 Necklace Of Anguish for Daggx.

---2017/05/23 18:47:04---
Daggx has dropped 1 Helm Of Neitiznot for Daggx.

---2017/05/23 18:47:04---
Daggx has dropped 495 Rune Arrow for Daggx.

---2017/05/23 18:47:04---
Daggx has dropped 1 Magic Shortbow for Daggx.

---2017/05/23 18:49:05---
Daggx has dropped 2 Super Restore(4) for Daggx.

---2017/05/23 18:49:05---
Daggx has dropped 5000000 Coins for Daggx.

---2017/05/23 18:49:05---
Daggx has dropped 1 Bandos D'Hide for Daggx.

---2017/05/23 18:49:05---
Daggx has dropped 1 Super Defence(2) for Daggx.

---2017/05/23 18:49:05---
Daggx has dropped 1 Bandos Chaps for Daggx.

---2017/05/23 18:49:05---
Daggx has dropped 21 Manta Ray for Daggx.

---2017/05/23 18:49:05---
Daggx has dropped 1 Ranging Potion(2) for Daggx.

---2017/05/23 18:49:05---
Daggx has dropped 1 Helm Of Neitiznot for Daggx.

---2017/05/23 18:49:05---
Daggx has dropped 495 Rune Arrow for Daggx.

---2017/05/23 18:49:05---
Daggx has dropped 1 Magic Shortbow for Daggx.

---2017/05/23 18:49:05---
Daggx has dropped 1 Dragon Dagger for Daggx.

---2017/05/23 18:54:02---
Daggx has dropped 5000000 Coins for Daggx.

---2017/05/23 18:54:02---
Daggx has dropped 21 Manta Ray for Daggx.

---2017/05/23 18:54:02---
Daggx has dropped 1 Super Defence(1) for Daggx.

---2017/05/23 18:54:02---
Daggx has dropped 1 Helm Of Neitiznot for Daggx.

---2017/05/23 18:54:02---
Daggx has dropped 1 Ranging Potion(1) for Daggx.

---2017/05/23 18:54:02---
Daggx has dropped 2 Super Restore(4) for Daggx.

---2017/05/23 18:54:02---
Daggx has dropped 1 Bandos D'Hide for Daggx.

---2017/05/23 18:54:02---
Daggx has dropped 1 Pegasian Boots for Daggx.

---2017/05/23 18:54:02---
Daggx has dropped 1 Bandos Chaps for Daggx.

---2017/05/23 18:54:02---
Daggx has dropped 1 Armadyl Godsword for Daggx.

---2017/05/23 18:54:02---
Daggx has dropped 1 Necklace Of Anguish for Daggx.

---2017/05/23 18:54:02---
Daggx has dropped 495 Rune Arrow for Daggx.

---2017/05/23 18:54:02---
Daggx has dropped 1 Magic Shortbow for Daggx.

---2017/05/23 18:54:02---
Daggx has dropped 1 Dragon Dagger for Daggx.

---2017/05/23 18:56:49---
Spongebob has recieved 19 Dark Crab from Daggx.

---2017/05/23 18:56:49---
Spongebob has recieved 1 Black D'Hide Chaps from Daggx.

---2017/05/23 18:56:49---
Spongebob has recieved 5000000 Coins from Daggx.

---2017/05/23 18:56:49---
Spongebob has recieved 1 Black D'Hide Body from Daggx.

---2017/05/23 18:56:49---
Spongebob has recieved 1 Elder Maul from Daggx.

---2017/05/23 18:56:49---
Spongebob has recieved 1 Super Combat Potion(2) from Daggx.

---2017/05/23 18:56:49---
Spongebob has recieved 248 Rune Arrow from Daggx.

---2017/05/23 18:56:49---
Spongebob has recieved 1 Magic Shortbow from Daggx.

---2017/05/23 18:59:37---
Daggx has dropped 1 Super Defence(3) for Daggx.

---2017/05/23 18:59:37---
Daggx has dropped 5000000 Coins for Daggx.

---2017/05/23 18:59:37---
Daggx has dropped 10 Manta Ray for Daggx.

---2017/05/23 18:59:37---
Daggx has dropped 1 Ranging Potion(3) for Daggx.

---2017/05/23 18:59:37---
Daggx has dropped 1 Helm Of Neitiznot for Daggx.

---2017/05/23 18:59:37---
Daggx has dropped 2 Super Restore(4) for Daggx.

---2017/05/23 18:59:37---
Daggx has dropped 1 Bandos D'Hide for Daggx.

---2017/05/23 18:59:37---
Daggx has dropped 1 Pegasian Boots for Daggx.

---2017/05/23 18:59:37---
Daggx has dropped 1 Bandos Chaps for Daggx.

---2017/05/23 18:59:37---
Daggx has dropped 1 Armadyl Godsword for Daggx.

---2017/05/23 18:59:37---
Daggx has dropped 1 Necklace Of Anguish for Daggx.

---2017/05/23 18:59:37---
Daggx has dropped 498 Rune Arrow for Daggx.

---2017/05/23 18:59:37---
Daggx has dropped 1 Magic Shortbow for Daggx.

---2017/05/23 18:59:37---
Daggx has dropped 1 Dragon Dagger for Daggx.

---2017/05/23 19:02:18---
Daggx has dropped 5000000 Coins for Daggx.

---2017/05/23 19:02:18---
Daggx has dropped 1 Super Defence(2) for Daggx.

---2017/05/23 19:02:18---
Daggx has dropped 18 Manta Ray for Daggx.

---2017/05/23 19:02:18---
Daggx has dropped 1 Ranging Potion(2) for Daggx.

---2017/05/23 19:02:18---
Daggx has dropped 1 Helm Of Neitiznot for Daggx.

---2017/05/23 19:02:18---
Daggx has dropped 2 Super Restore(4) for Daggx.

---2017/05/23 19:02:18---
Daggx has dropped 1 Bandos D'Hide for Daggx.

---2017/05/23 19:02:18---
Daggx has dropped 1 Pegasian Boots for Daggx.

---2017/05/23 19:02:18---
Daggx has dropped 1 Bandos Chaps for Daggx.

---2017/05/23 19:02:18---
Daggx has dropped 1 Armadyl Godsword for Daggx.

---2017/05/23 19:02:18---
Daggx has dropped 1 Necklace Of Anguish for Daggx.

---2017/05/23 19:02:18---
Daggx has dropped 498 Rune Arrow for Daggx.

---2017/05/23 19:02:18---
Daggx has dropped 1 Magic Shortbow for Daggx.

---2017/05/23 19:02:18---
Daggx has dropped 1 Dragon Dagger for Daggx.

---2017/05/23 19:06:45---
Daggx has dropped 2 Super Restore(4) for Daggx.

---2017/05/23 19:06:45---
Daggx has dropped 1 Amulet Of Power for Daggx.

---2017/05/23 19:06:45---
Daggx has dropped 1 Abyssal Tentacle for Daggx.

---2017/05/23 19:06:45---
Daggx has dropped 1 Primordial Boots for Daggx.

---2017/05/23 19:06:45---
Daggx has dropped 1 Rune Platelegs for Daggx.

---2017/05/23 19:06:45---
Daggx has dropped 20 Manta Ray for Daggx.

---2017/05/23 19:06:45---
Daggx has dropped 1 Super Combat Potion(3) for Daggx.

---2017/05/23 19:06:45---
Daggx has dropped 1 Armadyl Godsword for Daggx.

---2017/05/23 19:06:45---
Daggx has dropped 1 Helm Of Neitiznot for Daggx.

---2017/05/23 19:06:45---
Daggx has dropped 1 Dragon Dagger for Daggx.

---2017/05/23 19:13:26---
Daggx has dropped 2 Super Restore(4) for Daggx.

---2017/05/23 19:13:26---
Daggx has dropped 1 Amulet Of Power for Daggx.

---2017/05/23 19:13:26---
Daggx has dropped 5000000 Coins for Daggx.

---2017/05/23 19:13:26---
Daggx has dropped 1 Vial for Daggx.

---2017/05/23 19:13:26---
Daggx has dropped 1 Abyssal Tentacle for Daggx.

---2017/05/23 19:13:26---
Daggx has dropped 1 Primordial Boots for Daggx.

---2017/05/23 19:13:26---
Daggx has dropped 1 Rune Platelegs for Daggx.

---2017/05/23 19:13:26---
Daggx has dropped 1 Armadyl Godsword for Daggx.

---2017/05/23 19:13:26---
Daggx has dropped 1 Super Combat Potion(2) for Daggx.

---2017/05/23 19:13:26---
Daggx has dropped 1 Helm Of Neitiznot for Daggx.

---2017/05/23 19:13:26---
Daggx has dropped 1 Dragon Dagger for Daggx.

---2017/05/23 19:16:20---
Spongebob has recieved 1 Dragon Boots from Daggx.

---2017/05/23 19:16:20---
Spongebob has recieved 15 Dark Crab from Daggx.

---2017/05/23 19:16:20---
Spongebob has recieved 1 Super Restore(3) from Daggx.

---2017/05/23 19:16:20---
Spongebob has recieved 1 Serpentine Helm from Daggx.

---2017/05/23 19:16:20---
Spongebob has recieved 5000000 Coins from Daggx.

---2017/05/23 19:16:20---
Spongebob has recieved 1 Super Combat Potion(3) from Daggx.

---2017/05/23 19:16:20---
Spongebob has recieved 226 Rune Arrow from Daggx.

---2017/05/23 19:16:20---
Spongebob has recieved 1 Dragon Dagger from Daggx.

---2017/05/23 19:21:21---
Spongebob has recieved 1 Dragon Boots from Daggx.

---2017/05/23 19:21:21---
Spongebob has recieved 1 Serpentine Helm from Daggx.

---2017/05/23 19:21:21---
Spongebob has recieved 5000000 Coins from Daggx.

---2017/05/23 19:21:21---
Spongebob has recieved 1 Super Restore(2) from Daggx.

---2017/05/23 19:21:21---
Spongebob has recieved 226 Rune Arrow from Daggx.

---2017/05/23 19:21:21---
Spongebob has recieved 1 Super Combat Potion(1) from Daggx.

---2017/05/23 19:21:21---
Spongebob has recieved 1 Dragon Dagger from Daggx.

---2017/05/23 19:25:51---
Daggx has dropped 2 Super Restore(4) for Daggx.

---2017/05/23 19:25:51---
Daggx has dropped 1 Amulet Of Power for Daggx.

---2017/05/23 19:25:51---
Daggx has dropped 5000000 Coins for Daggx.

---2017/05/23 19:25:51---
Daggx has dropped 1 Vial for Daggx.

---2017/05/23 19:25:51---
Daggx has dropped 1 Abyssal Tentacle for Daggx.

---2017/05/23 19:25:51---
Daggx has dropped 1 Primordial Boots for Daggx.

---2017/05/23 19:25:51---
Daggx has dropped 6 Manta Ray for Daggx.

---2017/05/23 19:25:51---
Daggx has dropped 1 Armadyl Godsword for Daggx.

---2017/05/23 19:25:51---
Daggx has dropped 1 Helm Of Neitiznot for Daggx.

---2017/05/23 19:25:51---
Daggx has dropped 1 Torag'S Platelegs for Daggx.

---2017/05/23 19:25:51---
Daggx has dropped 1 Dragon Dagger for Daggx.

---2017/05/23 19:27:57---
Daggx has dropped 1 Super Restore(4) for Daggx.

---2017/05/23 19:27:57---
Daggx has dropped 1 Amulet Of Power for Daggx.

---2017/05/23 19:27:57---
Daggx has dropped 1 Abyssal Tentacle for Daggx.

---2017/05/23 19:27:57---
Daggx has dropped 1 Primordial Boots for Daggx.

---2017/05/23 19:27:57---
Daggx has dropped 22 Manta Ray for Daggx.

---2017/05/23 19:27:57---
Daggx has dropped 1 Super Combat Potion(3) for Daggx.

---2017/05/23 19:27:57---
Daggx has dropped 1 Armadyl Godsword for Daggx.

---2017/05/23 19:27:57---
Daggx has dropped 1 Helm Of Neitiznot for Daggx.

---2017/05/23 19:27:57---
Daggx has dropped 1 Torag'S Platelegs for Daggx.

---2017/05/23 19:27:57---
Daggx has dropped 1 Dragon Dagger for Daggx.

---2017/05/23 19:38:17---
Spongebob has recieved 25 Dark Crab from Enraged General Graador.

---2017/05/23 19:38:17---
Spongebob has recieved 1 Ring Of Wealth (I) from Enraged General Graador.

---2017/05/23 19:38:17---
Spongebob has recieved 1 Super Restore(3) from Enraged General Graador.

---2017/05/23 19:38:17---
Spongebob has recieved 1 Pegasian Boots from Enraged General Graador.

---2017/05/23 19:38:17---
Spongebob has recieved 1 Ranging Potion(3) from Enraged General Graador.

---2017/05/23 19:38:17---
Spongebob has recieved 1497 Ruby Bolts (E) from Enraged General Graador.

---2017/05/25 19:00:43---
Spongebob has recieved 19 Dark Crab from Enraged General Graador.

---2017/05/25 19:00:43---
Spongebob has recieved 1 Ring Of Wealth (I) from Enraged General Graador.

---2017/05/25 19:00:43---
Spongebob has recieved 1 Super Restore(2) from Enraged General Graador.

---2017/05/25 19:00:43---
Spongebob has recieved 1 Dragon Bolts (E) from Enraged General Graador.

---2017/05/25 19:00:43---
Spongebob has recieved 1 Ranging Potion(1) from Enraged General Graador.

---2018/06/03 11:12:23---
Spongebob has recieved 20183 Coins from Barbarian.

---2018/06/03 11:12:58---
Spongebob has recieved 20183 Coins from Barbarian.

---2018/06/03 11:14:05---
Spongebob has recieved 7 Shark from Barbarian.

---2018/06/03 11:14:05---
Spongebob has recieved 20185 Coins from Barbarian.

---2018/06/03 15:42:31---
Spongebob has recieved 145781 Coins from Barbarian.

---2018/06/03 15:43:01---
Spongebob has recieved 145780 Coins from Barbarian.
