
---2017/02/08 23:01:04---
Trebbledc has recieved 10 Super Restore(4) from Sand Crab.

---2017/02/08 23:01:04---
Trebbledc has recieved 10 Magic Potion(4) from Sand Crab.

---2017/02/08 23:01:04---
Trebbledc has recieved 75 Shark from Sand Crab.

---2017/02/08 23:01:04---
Trebbledc has recieved 500000 Coins from Sand Crab.

---2017/02/08 23:01:04---
Trebbledc has recieved 10 Super Attack(4) from Sand Crab.

---2017/02/08 23:01:04---
Trebbledc has recieved 10 Super Strength(4) from Sand Crab.

---2017/02/08 23:01:04---
Trebbledc has recieved 10 Super Defence(4) from Sand Crab.

---2017/02/08 23:01:04---
Trebbledc has recieved 1 White Magic Staff from Sand Crab.

---2017/02/08 23:01:04---
Trebbledc has recieved 8 Ranging Potion(4) from Sand Crab.
