
---2018/06/29 10:32:45---
Vorsh has recieved 2 Super Restore(4) from King Black Dragon.

---2018/06/29 10:32:45---
Vorsh has recieved 1 Super Restore(3) from King Black Dragon.

---2018/06/29 10:32:45---
Vorsh has recieved 1 Antifire Potion(4) from King Black Dragon.

---2018/06/29 10:32:45---
Vorsh has recieved 16 Tuna Potato from King Black Dragon.

---2018/06/29 10:32:45---
Vorsh has recieved 1 Anti-Dragon Shield from King Black Dragon.

---2018/06/29 10:32:45---
Vorsh has recieved 1 Antifire Potion(2) from King Black Dragon.

---2018/06/29 10:32:45---
Vorsh has recieved 1 Ranging Potion(3) from King Black Dragon.

---2018/06/29 10:32:45---
Vorsh has recieved 1 Tooth Half Of Key from King Black Dragon.

---2018/06/29 10:32:45---
Vorsh has recieved 620 Blood Money from King Black Dragon.

---2018/06/29 10:32:45---
Vorsh has recieved 1932 Dragon Bolts (E) from King Black Dragon.

---2018/06/29 10:32:45---
Vorsh has recieved 1 Ranging Potion(4) from King Black Dragon.

---2018/06/29 10:35:11---
Vorsh has recieved 1 Super Restore(4) from King Black Dragon.

---2018/06/29 10:35:11---
Vorsh has recieved 2 Super Restore(3) from King Black Dragon.

---2018/06/29 10:35:11---
Vorsh has recieved 2 Black Dragonhide from King Black Dragon.

---2018/06/29 10:35:11---
Vorsh has recieved 14 Tuna Potato from King Black Dragon.

---2018/06/29 10:35:11---
Vorsh has recieved 1 Anti-Dragon Shield from King Black Dragon.

---2018/06/29 10:35:11---
Vorsh has recieved 1 Vial from King Black Dragon.

---2018/06/29 10:35:11---
Vorsh has recieved 1 Antifire Potion(2) from King Black Dragon.

---2018/06/29 10:35:11---
Vorsh has recieved 1 Tooth Half Of Key from King Black Dragon.

---2018/06/29 10:35:11---
Vorsh has recieved 1 Ranging Potion(2) from King Black Dragon.

---2018/06/29 10:35:11---
Vorsh has recieved 620 Blood Money from King Black Dragon.

---2018/06/29 10:35:11---
Vorsh has recieved 1932 Dragon Bolts (E) from King Black Dragon.

---2018/06/29 10:35:11---
Vorsh has recieved 1 Ranging Potion(4) from King Black Dragon.

---2018/06/29 11:43:55---
Vorsh has recieved 11 Super Restore(4) from King Black Dragon.

---2018/06/29 11:43:55---
Vorsh has recieved 6 Shark from King Black Dragon.

---2018/06/29 11:43:55---
Vorsh has recieved 3 Antifire Potion(4) from King Black Dragon.

---2018/06/29 11:43:55---
Vorsh has recieved 1 Anti-Dragon Shield from King Black Dragon.

---2018/06/29 11:43:55---
Vorsh has recieved 1 Antifire Potion(3) from King Black Dragon.

---2018/06/29 11:43:55---
Vorsh has recieved 1 Super Restore(1) from King Black Dragon.

---2018/06/29 11:43:55---
Vorsh has recieved 1 Ranging Potion(3) from King Black Dragon.

---2018/06/29 11:43:55---
Vorsh has recieved 767 Blood Money from King Black Dragon.

---2018/06/29 11:43:55---
Vorsh has recieved 1868 Dragon Bolts (E) from King Black Dragon.

---2018/06/29 11:43:55---
Vorsh has recieved 3 Ranging Potion(4) from King Black Dragon.

---2018/06/30 03:46:00---
Vorsh has recieved 2 Super Restore(4) from Demonic Gorilla.

---2018/06/30 03:46:00---
Vorsh has recieved 1 Black D'Hide Chaps from Demonic Gorilla.

---2018/06/30 03:46:00---
Vorsh has recieved 10703 Coins from Demonic Gorilla.

---2018/06/30 03:46:00---
Vorsh has recieved 1 Super Restore(2) from Demonic Gorilla.

---2018/06/30 03:46:00---
Vorsh has recieved 1 Anti-Dragon Shield from Demonic Gorilla.

---2018/06/30 03:46:00---
Vorsh has recieved 1 Vial from Demonic Gorilla.

---2018/06/30 03:46:00---
Vorsh has recieved 6 Manta Ray from Demonic Gorilla.

---2018/06/30 03:46:00---
Vorsh has recieved 1 Black D'Hide Vamb from Demonic Gorilla.

---2018/06/30 03:46:00---
Vorsh has recieved 1672 Blood Money from Demonic Gorilla.

---2018/06/30 03:46:00---
Vorsh has recieved 119 Dragon Bolts (E) from Demonic Gorilla.

---2018/06/30 03:46:00---
Vorsh has recieved 1 Ranging Potion(1) from Demonic Gorilla.

---2018/06/30 06:44:04---
Vorsh has recieved 1 Black D'Hide Chaps from Haze.

---2018/06/30 06:44:04---
Vorsh has recieved 1 Rune Boots from Haze.

---2018/06/30 06:44:04---
Vorsh has recieved 1 Anti-Dragon Shield from Haze.

---2018/06/30 06:44:04---
Vorsh has recieved 2 Vial from Haze.

---2018/06/30 06:44:04---
Vorsh has recieved 2 Lava Dragon Bones from Haze.

---2018/06/30 06:44:04---
Vorsh has recieved 1 Ruby Ring from Haze.

---2018/06/30 06:44:04---
Vorsh has recieved 1 Ranging Potion(4) from Haze.

---2018/06/30 06:44:04---
Vorsh has recieved 5 Super Restore(4) from Haze.

---2018/06/30 06:44:04---
Vorsh has recieved 1 Super Restore(3) from Haze.

---2018/06/30 06:44:04---
Vorsh has recieved 1 Antifire Potion(4) from Haze.

---2018/06/30 06:44:04---
Vorsh has recieved 1 Antifire Potion(1) from Haze.

---2018/06/30 06:44:04---
Vorsh has recieved 1 Black D'Hide Vamb from Haze.

---2018/06/30 06:44:04---
Vorsh has recieved 1576 Blood Money from Haze.

---2018/06/30 06:44:04---
Vorsh has recieved 105 Dragon Bolts (E) from Haze.

---2018/07/01 09:16:02---
Vorsh has recieved 1 Black D'Hide Chaps from King Black Dragon.

---2018/07/01 09:16:02---
Vorsh has recieved 45654 Coins from King Black Dragon.

---2018/07/01 09:16:02---
Vorsh has recieved 1 Anti-Dragon Shield from King Black Dragon.

---2018/07/01 09:16:02---
Vorsh has recieved 1 Black D'Hide Body from King Black Dragon.

---2018/07/01 09:16:02---
Vorsh has recieved 1 Manta Ray from King Black Dragon.

---2018/07/01 09:16:02---
Vorsh has recieved 1 Odium Ward from King Black Dragon.

---2018/07/01 09:16:02---
Vorsh has recieved 3 Ranging Potion(4) from King Black Dragon.

---2018/07/01 09:16:02---
Vorsh has recieved 1 Super Restore(4) from King Black Dragon.

---2018/07/01 09:16:02---
Vorsh has recieved 3 Antifire Potion(4) from King Black Dragon.

---2018/07/01 09:16:02---
Vorsh has recieved 1 Super Restore(2) from King Black Dragon.

---2018/07/01 09:16:02---
Vorsh has recieved 1 Tooth Half Of Key from King Black Dragon.

---2018/07/01 09:16:02---
Vorsh has recieved 1 Black D'Hide Vamb from King Black Dragon.

---2018/07/01 09:16:02---
Vorsh has recieved 15342 Blood Money from King Black Dragon.

---2018/07/01 09:16:02---
Vorsh has recieved 133 Dragon Bolts (E) from King Black Dragon.

---2018/07/01 09:16:02---
Vorsh has recieved 1 Crystal Key from King Black Dragon.

---2018/07/04 15:22:37---
Vorsh has recieved 1 Black D'Hide Chaps from Bronze Dragon.

---2018/07/04 15:22:37---
Vorsh has recieved 3000 Coins from Bronze Dragon.

---2018/07/04 15:22:37---
Vorsh has recieved 1 Anti-Dragon Shield from Bronze Dragon.

---2018/07/04 15:22:37---
Vorsh has recieved 1 Black D'Hide Body from Bronze Dragon.

---2018/07/04 15:22:37---
Vorsh has recieved 4 Manta Ray from Bronze Dragon.

---2018/07/04 15:22:37---
Vorsh has recieved 1 Ranging Potion(3) from Bronze Dragon.

---2018/07/04 15:22:37---
Vorsh has recieved 3 Ranging Potion(4) from Bronze Dragon.

---2018/07/04 15:22:37---
Vorsh has recieved 5 Bronze Bar from Bronze Dragon.

---2018/07/04 15:22:37---
Vorsh has recieved 11 Super Restore(4) from Bronze Dragon.

---2018/07/04 15:22:37---
Vorsh has recieved 1 Super Restore(3) from Bronze Dragon.

---2018/07/04 15:22:37---
Vorsh has recieved 3 Antifire Potion(4) from Bronze Dragon.

---2018/07/04 15:22:37---
Vorsh has recieved 1 Antifire Potion(3) from Bronze Dragon.

---2018/07/04 15:22:38---
Vorsh has recieved 1 Black D'Hide Vamb from Bronze Dragon.

---2018/07/04 15:22:38---
Vorsh has recieved 27 Blood Money from Bronze Dragon.

---2018/07/04 15:22:38---
Vorsh has recieved 399 Dragon Bolts (E) from Bronze Dragon.
