
---2017/04/13 23:37:20---
Wiz has recieved 3 Super Restore(4) from Skeleton Hellhound.

---2017/04/13 23:37:20---
Wiz has recieved 1 Rune Crossbow from Skeleton Hellhound.

---2017/04/13 23:37:20---
Wiz has recieved 14 Shark from Skeleton Hellhound.

---2017/04/13 23:37:20---
Wiz has recieved 1 Super Restore(3) from Skeleton Hellhound.

---2017/04/13 23:37:20---
Wiz has recieved 1 Saradomin Chaps from Skeleton Hellhound.

---2017/04/13 23:37:20---
Wiz has recieved 1 Black D'Hide Body from Skeleton Hellhound.

---2017/04/13 23:37:20---
Wiz has recieved 1 Odium Ward from Skeleton Hellhound.

---2017/04/13 23:37:20---
Wiz has recieved 1 Bandos Coif from Skeleton Hellhound.

---2017/04/13 23:37:20---
Wiz has recieved 1011 Ruby Bolts (E) from Skeleton Hellhound.

---2017/04/14 02:21:11---
Wiz has recieved 1 Statius Platelegs from Double Agent.

---2017/04/14 02:21:11---
Wiz has recieved 1 Statius Fullhelm from Double Agent.

---2017/04/14 02:21:11---
Wiz has recieved 1 Amulet Of Power from Double Agent.

---2017/04/14 02:21:11---
Wiz has recieved 1 Primordial Boots from Double Agent.

---2017/04/14 02:21:11---
Wiz has recieved 1 Spade from Double Agent.

---2017/04/14 02:21:11---
Wiz has recieved 1 Diamond Ring from Double Agent.

---2017/04/14 02:21:11---
Wiz has recieved 1 White Headband from Double Agent.

---2017/04/14 02:21:11---
Wiz has recieved 1 Dragon Dagger from Double Agent.
