
---2017/02/19 02:59:43---
World At War has recieved 1 Black Elegant Shirt from Reanimated Demon.

---2017/02/19 02:59:43---
World At War has recieved 2 Super Restore(4) from Reanimated Demon.

---2017/02/19 02:59:43---
World At War has recieved 8 Shark from Reanimated Demon.

---2017/02/19 02:59:43---
World At War has recieved 1 Super Attack(3) from Reanimated Demon.

---2017/02/19 02:59:43---
World At War has recieved 1 Climbing Boots from Reanimated Demon.

---2017/02/19 02:59:43---
World At War has recieved 1 Black Elegant Legs from Reanimated Demon.

---2017/02/19 02:59:43---
World At War has recieved 1 Black Cavalier from Reanimated Demon.

---2017/02/19 02:59:43---
World At War has recieved 1 Anti-Dragon Shield from Reanimated Demon.

---2017/02/19 02:59:43---
World At War has recieved 1 Super Strength(3) from Reanimated Demon.
