
---2015/08/06 18:50:42---
Zion recieved 1 Climbing boots from Senpai

---2015/08/06 18:50:42---
Zion recieved 1 Fighting boots from Senpai

---2015/08/06 18:50:42---
Zion recieved 1 Fancy boots from Senpai

---2015/08/06 18:50:42---
Zion recieved 1 Rock-climbing boots from Senpai

---2017/06/19 06:56:02---
Zion has recieved 1 Climbing Boots from Bronze Dragon.

---2017/06/19 06:56:02---
Zion has recieved 7 Prayer Potion(4) from Bronze Dragon.

---2017/06/19 06:56:02---
Zion has recieved 1 Anti-Dragon Shield from Bronze Dragon.

---2017/06/19 06:56:02---
Zion has recieved 1 Ranging Potion(3) from Bronze Dragon.

---2017/06/19 06:56:02---
Zion has recieved 1 Ring Of Life from Bronze Dragon.

---2017/06/19 06:56:02---
Zion has recieved 1 Helm Of Neitiznot from Bronze Dragon.

---2017/06/19 06:56:02---
Zion has recieved 3 Ranging Potion(4) from Bronze Dragon.

---2017/06/19 06:56:02---
Zion has recieved 1 Prayer Potion(2) from Bronze Dragon.

---2017/06/19 06:56:02---
Zion has recieved 1 Saradomin D'Hide from Bronze Dragon.

---2017/06/19 06:56:02---
Zion has recieved 1 Bandos Bracers from Bronze Dragon.

---2017/06/19 06:56:02---
Zion has recieved 2 Antifire Potion(4) from Bronze Dragon.

---2017/06/19 06:56:02---
Zion has recieved 11 Tuna Potato from Bronze Dragon.

---2017/06/19 06:56:02---
Zion has recieved 1 Antifire Potion(3) from Bronze Dragon.

---2017/06/19 06:56:02---
Zion has recieved 178 Dragon Dart from Bronze Dragon.

---2017/06/19 06:57:00---
Zion has recieved 1 Saradomin D'Hide from Bronze Dragon.

---2017/06/19 06:57:00---
Zion has recieved 1 Bandos Bracers from Bronze Dragon.

---2017/06/19 06:57:00---
Zion has recieved 7 Prayer Potion(4) from Bronze Dragon.

---2017/06/19 06:57:00---
Zion has recieved 2 Antifire Potion(4) from Bronze Dragon.

---2017/06/19 06:57:00---
Zion has recieved 1 Anti-Dragon Shield from Bronze Dragon.

---2017/06/19 06:57:00---
Zion has recieved 1 Antifire Potion(3) from Bronze Dragon.

---2017/06/19 06:57:00---
Zion has recieved 1 Ranging Potion(3) from Bronze Dragon.

---2017/06/19 06:57:00---
Zion has recieved 1 Ring Of Life from Bronze Dragon.

---2017/06/19 06:57:00---
Zion has recieved 1 Helm Of Neitiznot from Bronze Dragon.

---2017/06/19 06:57:00---
Zion has recieved 3 Ranging Potion(4) from Bronze Dragon.

---2017/06/19 06:57:00---
Zion has recieved 1 Prayer Potion(2) from Bronze Dragon.

---2017/06/19 06:57:00---
Zion has recieved 178 Dragon Dart from Bronze Dragon.
