
---2017/03/22 19:37:34---
Virus has bought 800 Magic Logs for 4000000gp from Bad Rng.

---2017/03/24 14:57:00---
Chaos Knight has bought 2000 Dragon Bones for 50000000gp from Bad Rng.

---2017/04/16 02:45:42---
Kev has bought 1 Saradomin'S Tear for 8000000gp from Bad Rng.

---2018/06/07 09:52:07---
Mackars has sold 1 Dragon Bones for 10000gp to Bad Rng.

---2018/06/07 09:52:34---
Mackars has sold 49 Dragon Bones for 490000gp to Bad Rng.

---2018/06/07 16:21:53---
Slayer has sold 250 Dragon Bones for 2500000gp to Bad Rng.

---2018/06/07 16:22:05---
Slayer has sold 250 Dragon Bones for 2500000gp to Bad Rng.

---2018/06/07 16:30:37---
Slayer has sold 250 Dragon Bones for 2500000gp to Bad Rng.
